<?xml version="1.0" encoding="utf-8"?>
<COLLADA xmlns="http://www.collada.org/2005/11/COLLADASchema" version="1.4.1">
  <asset>
    <contributor>
      <author>Blender User</author>
      <authoring_tool>Blender 2.77.0 commit date:2016-04-05, commit time:18:12, hash:abf6f08</authoring_tool>
    </contributor>
    <created>2016-09-29T14:46:51</created>
    <modified>2016-09-29T14:46:51</modified>
    <unit name="meter" meter="1"/>
    <up_axis>Z_UP</up_axis>
  </asset>
  <library_images>
    <image id="PBR_vr_screen-material_Base_Color_png" name="PBR_vr_screen-material_Base_Color_png">
      <init_from>PBR_vr_screen-material_Base_Color.jpg</init_from>
    </image>
    <image id="PBR_vr_screen-material_Metallic_png" name="PBR_vr_screen-material_Metallic_png">
      <init_from>PBR_vr_screen-material_Metallic.jpg</init_from>
    </image>
    <image id="PBR_vr_screen-material_Mixed_AO_png" name="PBR_vr_screen-material_Mixed_AO_png">
      <init_from>PBR_vr_screen-material_Mixed_AO.jpg</init_from>
    </image>
    <image id="PBR_vr_screen-material_Normal_DirectX_png" name="PBR_vr_screen-material_Normal_DirectX_png">
      <init_from>PBR_vr_screen-material_Normal_DirectX.png</init_from>
    </image>
    <image id="PBR_vr_screen-material_Roughness_png" name="PBR_vr_screen-material_Roughness_png">
      <init_from>PBR_vr_screen-material_Roughness.jpg</init_from>
    </image>
  </library_images>
  <library_effects>
    <effect id="PBR_vr_screen-effect">
      <profile_COMMON>
        <newparam sid="PBR_vr_screen-material_Mixed_AO_png-surface">
          <surface type="2D">
            <init_from>PBR_vr_screen-material_Mixed_AO_png</init_from>
          </surface>
        </newparam>
        <newparam sid="PBR_vr_screen-material_Mixed_AO_png-sampler">
          <sampler2D>
            <source>PBR_vr_screen-material_Mixed_AO_png-surface</source>
          </sampler2D>
        </newparam>
        <newparam sid="PBR_vr_screen-material_Base_Color_png-surface">
          <surface type="2D">
            <init_from>PBR_vr_screen-material_Base_Color_png</init_from>
          </surface>
        </newparam>
        <newparam sid="PBR_vr_screen-material_Base_Color_png-sampler">
          <sampler2D>
            <source>PBR_vr_screen-material_Base_Color_png-surface</source>
          </sampler2D>
        </newparam>
        <newparam sid="PBR_vr_screen-material_Metallic_png-surface">
          <surface type="2D">
            <init_from>PBR_vr_screen-material_Metallic_png</init_from>
          </surface>
        </newparam>
        <newparam sid="PBR_vr_screen-material_Metallic_png-sampler">
          <sampler2D>
            <source>PBR_vr_screen-material_Metallic_png-surface</source>
          </sampler2D>
        </newparam>
        <newparam sid="PBR_vr_screen-material_Roughness_png-surface">
          <surface type="2D">
            <init_from>PBR_vr_screen-material_Roughness_png</init_from>
          </surface>
        </newparam>
        <newparam sid="PBR_vr_screen-material_Roughness_png-sampler">
          <sampler2D>
            <source>PBR_vr_screen-material_Roughness_png-surface</source>
          </sampler2D>
        </newparam>
        <newparam sid="PBR_vr_screen-material_Normal_DirectX_png-surface">
          <surface type="2D">
            <init_from>PBR_vr_screen-material_Normal_DirectX_png</init_from>
          </surface>
        </newparam>
        <newparam sid="PBR_vr_screen-material_Normal_DirectX_png-sampler">
          <sampler2D>
            <source>PBR_vr_screen-material_Normal_DirectX_png-surface</source>
          </sampler2D>
        </newparam>
        <technique sid="common">
          <phong>
            <emission>
              <color sid="emission">0 0 0 1</color>
            </emission>
            <ambient>
              <texture texture="PBR_vr_screen-material_Mixed_AO_png-sampler"/>
            </ambient>
            <diffuse>
              <texture texture="PBR_vr_screen-material_Base_Color_png-sampler"/>
            </diffuse>
            <specular>
              <texture texture="PBR_vr_screen-material_Metallic_png-sampler"/>
            </specular>
            <shininess>
              <float sid="shininess">50</float>
            </shininess>
            <reflective>
              <texture texture="PBR_vr_screen-material_Roughness_png-sampler"/>
            </reflective>
            <index_of_refraction>
              <float sid="index_of_refraction">1</float>
            </index_of_refraction>
          </phong>
          <extra>
            <technique profile="FCOLLADA">
              <bump>
                <texture texture="PBR_vr_screen-material_Normal_DirectX_png-sampler"/>
              </bump>
            </technique>
          </extra>
        </technique>
        <extra>
          <technique profile="GOOGLEEARTH">
            <double_sided>1</double_sided>
          </technique>
        </extra>
      </profile_COMMON>
      <extra><technique profile="MAX3D"><double_sided>1</double_sided></technique></extra>
    </effect>
  </library_effects>
  <library_materials>
    <material id="PBR_vr_screen-material" name="PBR_vr_screen">
      <instance_effect url="#PBR_vr_screen-effect"/>
    </material>
  </library_materials>
  <library_geometries>
    <geometry id="Plane-mesh" name="Plane">
      <mesh>
        <source id="Plane-mesh-positions">
          <float_array id="Plane-mesh-positions-array" count="747">0.9000001 0.1999999 0 -1 0.1000002 0 0.8999996 1.3 0 1 1.4 0 -0.9 1.3 0 -1 1.4 1.34791e-7 -0.8999997 0.2000002 0 -0.8999997 0.2000002 -0.02999997 -1 1.4 -0.04999983 -0.9 1.3 -0.02999991 0.8999996 1.3 -0.02999991 -1 0.1000002 -0.04999995 0.9000001 0.1999999 -0.02999997 1 1.4 -0.04999989 -0.9000001 0.1000002 -0.1499999 0.9000001 1.3 -0.1499999 -0.8999996 1.3 -0.1499999 -0.8100002 0.1600001 -0.1999999 -0.7699998 1.24 -0.22 -0.7700002 0.1600001 -0.22 -0.76 0.16 -0.22 -0.76 1.24 -0.22 -0.76 1.24 -0.2 -0.76 0.16 -0.2 -0.75 0.16 -0.2 -0.75 1.24 -0.2 -0.75 1.24 -0.22 -0.75 0.16 -0.22 -0.74 0.16 -0.22 -0.74 1.24 -0.22 -0.74 1.24 -0.2 -0.74 0.16 -0.2 -0.73 0.16 -0.2 -0.73 1.24 -0.2 -0.73 1.24 -0.22 -0.73 0.16 -0.22 -0.72 0.16 -0.22 -0.72 1.24 -0.22 -0.72 1.24 -0.2 -0.72 0.16 -0.2 -0.71 0.16 -0.2 -0.71 1.24 -0.2 -0.71 1.24 -0.22 -0.71 0.16 -0.22 -0.7000001 0.16 -0.22 -0.7000001 1.24 -0.22 -0.7000001 1.24 -0.2 -0.7000001 0.16 -0.2 -0.6900001 0.16 -0.2 -0.6900001 1.24 -0.2 -0.6900001 1.24 -0.22 -0.6900001 0.16 -0.22 -0.6800001 1.24 -0.22 -0.6800001 0.16 -0.22 -0.6800001 1.24 -0.2 -0.6800001 0.16 -0.2 -0.6700001 1.24 -0.2 -0.6700001 0.16 -0.2 -0.6700001 1.24 -0.22 -0.6700001 0.16 -0.22 -0.6600001 1.24 -0.22 -0.6600001 0.16 -0.22 -0.6600001 1.24 -0.2 -0.6600001 0.16 -0.2 -0.6500001 1.24 -0.2 -0.6500001 0.16 -0.2 -0.6500001 1.24 -0.22 -0.6500001 0.16 -0.22 -0.6400001 1.24 -0.22 -0.6400001 0.16 -0.22 -0.6400001 1.24 -0.2 -0.6400001 0.16 -0.2 -0.6300001 1.24 -0.2 -0.6300001 0.16 -0.2 -0.6300001 1.24 -0.22 -0.6300001 0.16 -0.22 -0.8099997 1.24 -0.2 -0.6200001 1.24 -0.22 -0.6200001 0.16 -0.22 -0.6200001 0.16 -0.2 -0.6200001 1.24 -0.2 -0.6100001 1.24 -0.2 -0.6100001 0.16 -0.2 -0.6100001 0.16 -0.22 -0.6100001 1.24 -0.22 -0.6000002 1.24 -0.22 -0.6000002 0.16 -0.22 -0.6000002 0.16 -0.2 -0.6000002 1.24 -0.2 -0.5900002 1.24 -0.2 -0.5900002 0.16 -0.2 -0.5900002 0.16 -0.22 -0.5900002 1.24 -0.22 -0.5800002 1.24 -0.22 -0.5800002 0.16 -0.22 -0.5400002 1.24 -0.2 -0.5400002 0.16 -0.2 0.8099997 0.16 -0.2 0.8099997 1.24 -0.2 0.7699998 0.16 -0.22 0.7699998 1.24 -0.22 0.76 1.24 -0.22 0.76 0.16 -0.22 0.76 0.16 -0.2 0.76 1.24 -0.2 0.7499998 1.24 -0.2 0.7499998 0.16 -0.2 0.7499998 0.16 -0.22 0.7499998 1.24 -0.22 0.74 1.24 -0.22 0.74 0.16 -0.22 0.74 0.16 -0.2 0.74 1.24 -0.2 0.7299998 1.24 -0.2 0.7299998 0.16 -0.2 0.7299998 0.16 -0.22 0.7299998 1.24 -0.22 0.5399997 0.1600001 -0.2 0.5400002 1.24 -0.2 0.72 0.16 -0.22 0.72 1.24 -0.22 0.72 0.16 -0.2 0.72 1.24 -0.2 0.7099998 0.16 -0.2 0.7099998 1.24 -0.2 0.7099998 0.16 -0.22 0.7099998 1.24 -0.22 0.7000001 0.16 -0.22 0.7000001 1.24 -0.22 0.7000001 0.16 -0.2 0.7000001 1.24 -0.2 0.6899998 0.16 -0.2 0.6899998 1.24 -0.2 0.6899998 0.16 -0.22 0.6899998 1.24 -0.22 0.6800001 0.16 -0.22 0.6800001 1.24 -0.22 0.6800001 0.16 -0.2 0.6800001 1.24 -0.2 0.6699998 0.16 -0.2 0.6699998 1.24 -0.2 0.6699998 0.16 -0.22 0.6699998 1.24 -0.22 0.6600001 0.16 -0.22 0.6600001 1.24 -0.22 0.6600001 1.24 -0.2 0.6600001 0.16 -0.2 0.6499999 0.16 -0.2 0.6499999 1.24 -0.2 0.6499999 1.24 -0.22 0.6499999 0.16 -0.22 0.6400001 0.16 -0.22 0.6400001 1.24 -0.22 0.6400001 1.24 -0.2 0.6400001 0.16 -0.2 0.6299999 0.16 -0.2 0.6299999 1.24 -0.2 0.6299999 1.24 -0.22 0.6299999 0.16 -0.22 0.6200001 0.16 -0.22 0.6200001 1.24 -0.22 0.6200001 1.24 -0.2 0.6200001 0.16 -0.2 0.6099999 0.16 -0.2 0.6099999 1.24 -0.2 0.6099999 1.24 -0.22 0.6099999 0.16 -0.22 0.6000002 0.16 -0.22 0.6000002 1.24 -0.22 0.6000002 1.24 -0.2 0.6000002 0.16 -0.2 0.5899999 0.16 -0.2 0.5899999 1.24 -0.2 0.5899999 1.24 -0.22 0.5899999 0.16 -0.22 0.5799997 0.1600001 -0.22 0.5800002 1.24 -0.22 0.2999795 0.1600082 -0.2200029 0.2999795 0.1600082 -0.2000031 0.2599795 0.1600082 -0.2000032 0.25998 0.1600082 -0.2200034 0.25998 1.240008 -0.2200034 0.2599795 1.240008 -0.2000032 0.2999795 1.240008 -0.2000031 0.2999795 1.240008 -0.2200029 -0.2600205 1.240008 -0.2200029 -0.2600205 1.240008 -0.2000031 -0.3000205 1.240008 -0.2000032 -0.30002 0.1600082 -0.2200034 -0.3000205 0.1600082 -0.2000032 -0.2600205 0.1600082 -0.2000031 -0.2600205 0.1600082 -0.2200029 0.2999797 0.3600082 -0.2300029 0.2999797 0.3600082 -0.2200031 -0.3000205 0.3600082 -0.2200032 -0.30002 0.3600082 -0.2300034 -0.30002 1.240008 -0.2300034 -0.3000205 1.240008 -0.2200032 0.2999797 1.240008 -0.2300029 1 0.09999984 -0.00999999 1 0 -0.00999993 -1 1.49012e-7 -0.00999993 -0.9999995 0.1000003 -0.00999999 0.9000001 0.0999999 -0.1499999 1 0.09999984 -0.05000001 -1 0.09000015 0 1 0.08999997 0 1 0.09999984 0 1 0.08999997 -0.00999993 -1 0.09000015 -0.00999993 -1 0.0800001 -0.00999993 1 0.07999992 -0.00999993 1 0.07999992 0 -1 0.0800001 0 -1 0.07000011 0 1 0.06999993 0 1 0.06999993 -0.00999993 -1 0.07000011 -0.00999993 -1 0.06000012 -0.00999993 1 0.05999994 -0.00999993 1 0.05999994 0 -1 0.06000012 0 -1 0.05000013 0 1 0.04999995 0 1 0.04999995 -0.00999993 -1 0.05000013 -0.00999993 -1 0.04000014 -0.00999993 1 0.03999996 -0.00999993 1 0.03999996 0 -1 0.04000014 0 -1 0.03000015 0 1 0.02999997 0 1 0.02999997 -0.00999993 -1 0.03000015 -0.00999993 -1 0.0200001 -0.00999993 1 0.01999992 -0.00999993 1 0.01999992 0 -1 0.0200001 0 1 0.00999993 0 -1 0.0100001 0 0.8999798 1.300008 -0.01000291 0.8999796 0.2000082 -0.01000291 -0.9000204 0.2000083 -0.01000291 -0.9000199 1.300008 -0.01000291 -0.9000199 1.300008 -0.0200029 -0.9000204 0.2000083 -0.0200029 0.8999796 0.2000082 -0.0200029 0.8999798 1.300008 -0.0200029 0 1.24 -0.2</float_array>
          <technique_common>
            <accessor source="#Plane-mesh-positions-array" count="249" stride="3">
              <param name="X" type="float"/>
              <param name="Y" type="float"/>
              <param name="Z" type="float"/>
            </accessor>
          </technique_common>
        </source>
        <source id="Plane-mesh-normals">
          <float_array id="Plane-mesh-normals-array" count="396">1 2.25775e-7 0 0.707107 0.7071067 0 0 0 -1 1 0 0 -1 0 0 0.4472136 0 -0.8944272 -0.4472135 1.92824e-7 -0.8944272 0 -1 -1.16416e-6 -1 0 -2.38417e-5 1.24178e-5 0 -1 -2.75948e-6 0 1 0 1 6.71537e-6 0 -1 -1.16416e-6 0 -1 0 -1 0 -4.76829e-5 7.90213e-7 0 -1 0 6.14673e-7 1 0.8137336 -1.73223e-6 -0.581238 0 -1 0 0 -1.86265e-7 1 0 1 0 0 0 1 0 0 1 0 0 1 0 0 1 0 5.57099e-7 1 0 -6.76208e-7 1 -2.64958e-7 0 1 6.63505e-7 0 1 -1 0 0 0.7071053 -0.7071083 0 -0.7071071 -0.7071065 0 -0.7071053 0.7071083 -4.21467e-6 1 0 0 0 -1 0 1.98682e-7 1 0 -1.63913e-7 -1 0 0 0.196116 -0.9805807 0 -0.1961153 -0.9805809 -0.1961156 0 -0.9805809 0.1961147 0 -0.9805809 -0.7071052 2.63417e-7 -0.7071084 1.84393e-7 0.7071076 -0.7071061 0.7071069 0 -0.7071068 1.32455e-7 1 3.31137e-7 -0.4856436 1.34012e-7 -0.874157 1.82547e-7 0.6401872 -0.7682189 0.4856422 0 -0.8741578 0 -0.6401848 -0.768221 -0.4472135 1.54259e-7 -0.8944272 0 1 0 7.58856e-6 0 -1 -1 -4.40126e-7 0 1 2.84917e-7 2.38419e-5 -4.5155e-7 -2.03198e-7 1 0 1 -1.58812e-6 3.05468e-6 -1 3.25956e-6 1.63913e-7 1 -7.45058e-7 0 -0.8137333 -0.5812384 0 6.89186e-6 1 0 -0.707107 0.7071067 2.08616e-7 1 0 1 0 0 0.7071079 0.7071056 0 0.4472136 0 -0.8944272 -0.4472135 1.92824e-7 -0.8944272 -1 0 -2.38416e-5 1.17279e-5 0 -1 -3.44935e-6 0 1 7.90214e-7 0 -1 0 6.14672e-7 1 -1.71364e-6 -1 9.31328e-7 0 -1.86264e-7 1 0 0 1 0 1 3.72529e-7 0 0 -1 0 0 1 0 -3.6549e-7 1 0 0 1 6.16113e-7 0 1 0.7071063 -0.7071074 0 -0.7071078 -0.7071059 5.26836e-7 -1 -5.39734e-7 0 -0.707104 0.7071096 0 -1.49012e-7 -1 5.96046e-7 0 0.1961153 -0.9805809 0 -0.1961172 -0.9805805 -0.1961163 0 -0.9805806 0.1961154 1.32834e-7 -0.9805809 -0.7071068 1.62103e-7 -0.7071068 1.97563e-7 0.7071065 -0.7071071 0.7071072 0 -0.7071065 1.63913e-7 1 7.45059e-7 -0.4856438 1.80916e-7 -0.8741569 1.8549e-7 0.6401857 -0.7682204 0.4856419 0 -0.8741579 0 -0.6401848 -0.768221 -0.4472146 2.31389e-7 -0.8944268 1.17279e-5 1.65574e-7 -1 -1 0 -2.38417e-5 -2.25775e-7 0 1 -0.813735 5.19668e-6 -0.5812362 2.08616e-7 1 -3.35277e-6 0 -0.8137336 -0.5812381 0 0 1 0 -0.707107 0.7071067 1.49012e-7 1 1.3411e-5 0 0.01666426 0.9998612 0 1 -9.53674e-6 2.98023e-7 1 0 -1.19207e-5 -1 0 -2.08616e-6 -1 -5.5879e-6 -1.19207e-5 -1 -2.32827e-5 -2.38417e-6 -1 0 1.19207e-5 1 2.79392e-5 2.38417e-6 1 0 0.4471177 0.02069973 0.8942357 -0.4472096 -0.004140675 -0.8944196 0.9999572 0.009258627 0 -1.19207e-5 -1 -2.79392e-5 3.57638e-5 1 1.11762e-4 7.15259e-6 1 0 0.004999876 -6.89176e-6 -0.9999876 -3.57638e-5 -1 -1.11762e-4 -7.15259e-6 -1 0 -1 -1.86263e-5 -5.96044e-5 -1 5.58785e-5 0 1 1.86263e-5 5.96044e-5 1 -5.58783e-5 0 -1 -4.5155e-7 0 0 0.6401854 -0.7682206 -0.01052564 0 0.9999447</float_array>
          <technique_common>
            <accessor source="#Plane-mesh-normals-array" count="132" stride="3">
              <param name="X" type="float"/>
              <param name="Y" type="float"/>
              <param name="Z" type="float"/>
            </accessor>
          </technique_common>
        </source>
        <source id="Plane-mesh-map-0">
          <float_array id="Plane-mesh-map-0-array" count="2358">0.02343589 0.6797196 0.2817512 0.6797196 0.2817512 0.686712 0.3021407 0.5786328 0.2951481 0.5786328 0.2904865 0.5551459 0.6971672 0.2664039 0.6948189 0.2664038 0.6948189 0.01467323 0.8725653 6.87473e-4 0.8725653 0.2543061 0.8679036 0.2543061 0.9895529 0.5600652 0.9895529 0.8136838 0.9872221 0.8136838 0.01742243 0.6797183 0.01742243 0.9333369 0.01276075 0.9333369 0.9710243 0.5600652 0.9710243 0.8136838 0.9686935 0.8136838 0.9464585 0.560065 0.9464585 0.8136838 0.9417968 0.8136838 0.9723992 0.8136838 0.9723991 0.5600652 0.97473 0.5600652 0.05224412 0.688087 0.05224412 0.9417057 0.04758244 0.9417057 0.9733551 0.3050715 0.9733551 0.5586901 0.9710242 0.5586901 0.9027487 6.87528e-4 0.9027487 0.2543061 0.898087 0.2543061 0.9756075 6.87473e-4 0.9756075 0.2543061 0.9732767 0.2543061 0.9343069 0.2543061 0.9343069 6.87473e-4 0.9389686 6.87473e-4 0.9649876 0.8136838 0.9649876 0.5600652 0.9673185 0.5600652 0.9510418 6.87473e-4 0.9510418 0.2543061 0.9463801 0.2543061 0.9843938 0.2543061 0.9843938 6.87473e-4 0.9867246 6.87473e-4 0.05361914 0.9417057 0.05361908 0.688087 0.05828082 0.688087 0.9658651 0.2543061 0.9658651 6.87473e-4 0.968196 6.87473e-4 0.9450051 6.87528e-4 0.9450051 0.2543061 0.9403434 0.2543061 0.9880996 0.2543061 0.9880996 6.87473e-4 0.9904304 6.87473e-4 0.5367448 0.6723079 0.2831261 0.6723079 0.2831261 0.6676462 0.9695708 0.2543061 0.9695709 6.87473e-4 0.9719017 6.87473e-4 0.9464585 0.3050715 0.9464585 0.5586902 0.9417968 0.5586902 0.988178 0.3050715 0.988178 0.5586901 0.9858472 0.5586901 0.01138579 0.6797183 0.01138573 0.9333369 0.006724059 0.9333369 0.9761049 0.8136838 0.976105 0.5600652 0.9784358 0.5600652 0.878602 6.87473e-4 0.8786019 0.2543061 0.8739403 0.2543061 0.9821414 0.5586901 0.9821414 0.3050715 0.9844722 0.3050715 0.9404218 0.560065 0.9404218 0.8136836 0.9357602 0.8136836 0.9784356 0.5586901 0.9784356 0.3050715 0.9807666 0.3050715 0.896712 6.87473e-4 0.896712 0.2543061 0.8920503 0.2543061 0.9747299 0.5586901 0.9747299 0.3050715 0.9770608 0.3050715 0.02343595 0.9417057 0.02343589 0.688087 0.02809756 0.688087 0.9798107 0.8136838 0.9798107 0.5600652 0.9821416 0.5600652 0.9208586 6.87473e-4 0.9208586 0.2543061 0.9161969 0.2543061 0.9769824 0.2543061 0.9769823 6.87473e-4 0.9793133 6.87473e-4 0.06569242 0.9417057 0.06569242 0.688087 0.0703541 0.688087 0.5568022 0.3074198 0.3050716 0.3074197 0.3050716 0.3050715 0.326156 0.2664037 0.326156 0.01467311 0.3355291 0.01467323 0.06431746 0.688087 0.06431746 0.9417057 0.05965572 0.9417057 0.9612818 0.8136838 0.9612817 0.5600652 0.9636126 0.5600652 0.9524952 0.3050715 0.9524952 0.5586902 0.9478334 0.5586902 0.9932587 0.5586901 0.9932587 0.3050715 0.9955895 0.3050715 0.07172906 0.9417057 0.07172912 0.688087 0.07639074 0.688087 0.9636126 0.5586901 0.9636126 0.3050715 0.9659435 0.3050715 0.8056666 0.6117281 0.8056666 0.8653469 0.801005 0.8653469 0.995511 0.2543061 0.995511 6.87473e-4 0.9978418 6.87473e-4 0.3050714 0.5704092 0.5568021 0.5704092 0.5568022 0.5798227 0.8906753 6.87473e-4 0.8906753 0.2543061 0.8860136 0.2543061 0.9607842 6.87473e-4 0.9607842 0.2543061 0.9584533 0.2543061 0.2831261 0.6736829 0.5367448 0.6736829 0.5367448 0.6783446 0.9909279 0.8136838 0.9909279 0.5600652 0.9932587 0.5600652 6.87473e-4 0.9333369 6.87528e-4 0.6797183 0.005349159 0.6797183 0.9622376 0.3050715 0.9622376 0.5586901 0.9599066 0.5586901 0.9041236 0.2543061 0.9041237 6.87473e-4 0.9087853 6.87473e-4 0.9806882 0.2543061 0.9806881 6.87473e-4 0.9830189 6.87473e-4 0.9357602 0.5586901 0.9357603 0.3050715 0.9404218 0.3050715 0.95387 0.8136838 0.9538701 0.5600652 0.9562009 0.5600652 0.9148219 6.87473e-4 0.9148219 0.2543061 0.9101603 0.2543061 0.9946337 0.8136838 0.9946337 0.5600652 0.9969645 0.5600652 0.04620748 0.688087 0.04620748 0.9417057 0.0415458 0.9417057 0.9599068 0.5600652 0.9599068 0.8136838 0.957576 0.8136838 0.7990934 0.6117281 0.7990933 0.8653469 0.7944317 0.8653469 0.989553 0.5586901 0.9895529 0.3050715 0.9918838 0.3050715 0.02947252 0.9417057 0.02947258 0.688087 0.0341342 0.688087 0.9673185 0.5586901 0.9673184 0.3050715 0.9696493 0.3050715 0.9585318 0.3050715 0.9585318 0.5586901 0.9538701 0.5586901 0.9918053 0.2543061 0.9918053 6.87473e-4 0.9941362 6.87473e-4 0.9329319 6.87473e-4 0.9329319 0.2543061 0.9282702 0.2543061 0.02112829 0.6797183 0.02112829 0.9333369 0.01879739 0.9333369 0.9268953 6.87473e-4 0.9268953 0.2543061 0.9222337 0.2543061 0.9835164 0.8136838 0.9835164 0.5600652 0.9858472 0.5600652 0.04017084 0.688087 0.04017084 0.9417057 0.03550916 0.9417057 0.9644901 6.87473e-4 0.9644901 0.2543061 0.9621592 0.2543061 0.8070416 0.8653468 0.8070416 0.6117281 0.8117033 0.6117282 0.9993125 0.5568131 0.9969643 0.5567911 0.9993125 0.3050715 0.3966709 0.592939 0.3920091 0.5929389 0.3920093 0.5835458 0.7930567 0.6117281 0.7930567 0.8653469 0.788395 0.8653469 0.8581612 0.2543061 0.848838 0.2543061 0.848838 6.87473e-4 0.9478335 0.5600652 0.9524952 0.5600652 0.9524952 0.8136839 0.8365412 0.863074 0.8272186 0.8630741 0.8272186 0.6094555 0.3859726 0.592939 0.3859724 0.5835459 0.3906342 0.5835458 0.8224009 0.8630741 0.8130784 0.8630742 0.8130783 0.6094555 0.9524169 6.87473e-4 0.9570785 6.87473e-4 0.9570785 0.2543061 0.4027075 0.592939 0.3980458 0.592939 0.3980459 0.5835458 0.5568021 0.7244451 0.5544713 0.7244449 0.5544713 0.5835458 0.7672984 0.959864 0.7649675 0.959864 0.7649676 0.7532117 0.1405364 0.6783433 6.87473e-4 0.6783432 6.87473e-4 0.471691 0.7635926 0.3050716 0.7635926 0.7747002 0.7402842 0.7747 0.2831261 0.4853417 0.3020919 0.471691 0.3020919 0.5120952 0.8825038 0.7747357 0.880173 0.7747357 0.880173 0.3050715 0.9246428 0.3050715 0.9269737 0.3050715 0.9269737 0.7747001 0.8727613 0.3050715 0.8750922 0.3050715 0.8750922 0.7747358 0.9098195 0.3050715 0.9121503 0.3050715 0.9121503 0.7747001 0.878798 0.7747357 0.8764671 0.7747357 0.8764671 0.3050715 0.9320544 0.3050715 0.9343852 0.3050715 0.9343852 0.7747001 0.8690555 0.3050715 0.8713864 0.3050715 0.8713863 0.7747356 0.9232679 0.7747001 0.920937 0.7747001 0.9209371 0.3050715 0.8676804 0.7747357 0.8653496 0.7747357 0.8653497 0.3050715 0.9283486 0.3050715 0.9306795 0.3050715 0.9306795 0.7747001 0.8973271 0.7747356 0.8949962 0.7747356 0.8949962 0.3050715 0.9024078 0.3050715 0.9047386 0.3050715 0.9047386 0.7747001 0.8838788 0.3050715 0.8862096 0.3050715 0.8862096 0.7747357 0.9158562 0.7747001 0.9135253 0.7747001 0.9135254 0.3050715 0.8912904 0.3050715 0.8936212 0.3050715 0.8936212 0.7747357 0.9061136 0.3050715 0.9084445 0.3050715 0.9084444 0.7747001 0.7156008 0.3285527 0.7389092 0.3050715 0.7389091 0.7747001 0.7142258 0.3050715 0.7142258 0.7747001 0.6909174 0.7512184 0.8010835 6.87473e-4 0.8010835 0.3036965 0.7776019 0.2803884 0.8259399 6.87473e-4 0.8259399 0.3036965 0.8024584 0.2803883 0.3924198 0.7500524 0.3924198 0.7617066 0.08713787 0.7617065 0.3285547 0.5951999 0.3050714 0.5952 0.3050714 0.5835458 0.3415839 0.607029 0.3345913 0.607029 0.3299297 0.5835458 0.3021407 0.5800078 0.3021407 0.6034911 0.2904865 0.6034911 0.08713787 0.7370232 0.3924198 0.7370232 0.3924198 0.7486774 0.5098356 0.7356482 0.08713787 0.7356482 0.08713787 0.7286557 0.5098357 0.7202882 0.5098357 0.7272807 0.08713787 0.7272806 0.5568022 0.7630816 0.5568022 0.7747358 0.08713787 0.7747358 0.6662341 0.3285745 0.6895424 0.3050715 0.6895424 0.7747314 0.6415506 0.3285344 0.6648592 0.3050715 0.6648592 0.7747313 0.7762269 0.2803881 0.7527238 0.3036965 0.7527239 6.87473e-4 0.8130783 0.3283798 0.8365412 0.3050715 0.8365413 0.6080806 0.7513489 0.3036965 0.7277653 0.2803886 0.7277655 6.87948e-4 0.6154923 0.3050715 0.6154923 0.7747357 0.592184 0.7512525 0.8117033 0.3050715 0.8117033 0.6103532 0.788395 0.6103495 0.6401757 0.3050715 0.6168673 0.7512525 0.6168673 0.3285546 0.7065805 0.2664038 0.7065805 0.01467317 0.7277655 6.87948e-4 0.3050715 0.2803885 0.5163682 0.2664037 0.7065805 0.2664038 0.326156 0.01467311 0.326156 0.2664037 0.3050715 0.2803885 0.7065805 0.01467317 0.326156 0.01467311 0.3050714 6.87864e-4 0.7065805 0.01467317 0.7065805 0.2664038 0.6971672 0.2664039 0.5568021 0.3167929 0.3050715 0.3167929 0.3050716 0.3074197 0.3355292 0.2664038 0.3355291 0.01467323 0.3378773 0.01467323 0.4087441 0.592939 0.4040825 0.592939 0.4040825 0.5835458 0.5367448 0.6797196 0.5367448 0.6890428 0.2831261 0.6890427 0.879977 6.87473e-4 0.8846386 6.87473e-4 0.8846386 0.2543061 0.7686734 0.7532117 0.7710042 0.7532117 0.7710042 0.959864 0.1419113 0.6783446 0.1419114 0.4716924 0.2817512 0.471691 0.5530963 0.5835458 0.5530963 0.7244449 0.5507653 0.7244451 0.3483779 0.6239477 0.3429588 0.6163041 0.3483779 0.5835458 0.8602688 0.7747357 0.8509454 0.7747357 0.8509454 0.3050715 0.5908089 0.7747358 0.5581771 0.7512526 0.5581772 0.3285546 0.919562 0.7747001 0.9172312 0.7747001 0.9172312 0.3050715 0.8639746 0.7747358 0.8616437 0.7747358 0.8616438 0.3050715 0.8899154 0.7747357 0.8875846 0.7747357 0.8875846 0.3050717 0.02343589 0.686712 0.02343589 0.6797196 0.2817512 0.686712 0.3021407 0.5551459 0.3021407 0.5786328 0.2904865 0.5551459 0.6971673 0.01467329 0.6971672 0.2664039 0.6948189 0.01467323 0.8679037 6.87473e-4 0.8725653 6.87473e-4 0.8679036 0.2543061 0.9872221 0.5600652 0.9895529 0.5600652 0.9872221 0.8136838 0.01276075 0.6797183 0.01742243 0.6797183 0.01276075 0.9333369 0.9686934 0.5600652 0.9710243 0.5600652 0.9686935 0.8136838 0.9417968 0.5600651 0.9464585 0.560065 0.9417968 0.8136838 0.97473 0.8136838 0.9723992 0.8136838 0.97473 0.5600652 0.0475825 0.688087 0.05224412 0.688087 0.04758244 0.9417057 0.9710242 0.3050715 0.9733551 0.3050715 0.9710242 0.5586901 0.8980869 6.87473e-4 0.9027487 6.87528e-4 0.898087 0.2543061 0.9732766 6.87473e-4 0.9756075 6.87473e-4 0.9732767 0.2543061 0.9389686 0.2543061 0.9343069 0.2543061 0.9389686 6.87473e-4 0.9673185 0.8136838 0.9649876 0.8136838 0.9673185 0.5600652 0.9463801 6.87528e-4 0.9510418 6.87473e-4 0.9463801 0.2543061 0.9867246 0.2543061 0.9843938 0.2543061 0.9867246 6.87473e-4 0.05828082 0.9417057 0.05361914 0.9417057 0.05828082 0.688087 0.968196 0.2543061 0.9658651 0.2543061 0.968196 6.87473e-4 0.9403434 6.87473e-4 0.9450051 6.87528e-4 0.9403434 0.2543061 0.9904304 0.2543061 0.9880996 0.2543061 0.9904304 6.87473e-4 0.5367448 0.6676462 0.5367448 0.6723079 0.2831261 0.6676462 0.9719017 0.2543061 0.9695708 0.2543061 0.9719017 6.87473e-4 0.9417969 0.3050715 0.9464585 0.3050715 0.9417968 0.5586902 0.9858472 0.3050715 0.988178 0.3050715 0.9858472 0.5586901 0.006724119 0.6797183 0.01138579 0.6797183 0.006724059 0.9333369 0.9784358 0.8136838 0.9761049 0.8136838 0.9784358 0.5600652 0.8739403 6.87473e-4 0.878602 6.87473e-4 0.8739403 0.2543061 0.9844722 0.5586901 0.9821414 0.5586901 0.9844722 0.3050715 0.9357603 0.560065 0.9404218 0.560065 0.9357602 0.8136836 0.9807666 0.5586901 0.9784356 0.5586901 0.9807666 0.3050715 0.8920503 6.87473e-4 0.896712 6.87473e-4 0.8920503 0.2543061 0.9770608 0.5586901 0.9747299 0.5586901 0.9770608 0.3050715 0.02809756 0.9417057 0.02343595 0.9417057 0.02809756 0.688087 0.9821416 0.8136838 0.9798107 0.8136838 0.9821416 0.5600652 0.916197 6.87473e-4 0.9208586 6.87473e-4 0.9161969 0.2543061 0.9793133 0.2543061 0.9769824 0.2543061 0.9793133 6.87473e-4 0.0703541 0.9417057 0.06569242 0.9417057 0.0703541 0.688087 0.5568022 0.3050715 0.5568022 0.3074198 0.3050716 0.3050715 0.3355292 0.2664038 0.326156 0.2664037 0.3355291 0.01467323 0.05965578 0.688087 0.06431746 0.688087 0.05965572 0.9417057 0.9636126 0.8136838 0.9612818 0.8136838 0.9636126 0.5600652 0.9478334 0.3050715 0.9524952 0.3050715 0.9478334 0.5586902 0.9955895 0.5586901 0.9932587 0.5586901 0.9955895 0.3050715 0.07639074 0.9417057 0.07172906 0.9417057 0.07639074 0.688087 0.9659435 0.5586901 0.9636126 0.5586901 0.9659435 0.3050715 0.801005 0.6117281 0.8056666 0.6117281 0.801005 0.8653469 0.9978418 0.2543061 0.995511 0.2543061 0.9978418 6.87473e-4 0.3050715 0.5798225 0.3050714 0.5704092 0.5568022 0.5798227 0.8860136 6.87473e-4 0.8906753 6.87473e-4 0.8860136 0.2543061 0.9584534 6.87473e-4 0.9607842 6.87473e-4 0.9584533 0.2543061 0.2831261 0.6783446 0.2831261 0.6736829 0.5367448 0.6783446 0.9932587 0.8136838 0.9909279 0.8136838 0.9932587 0.5600652 0.005349159 0.9333369 6.87473e-4 0.9333369 0.005349159 0.6797183 0.9599066 0.3050715 0.9622376 0.3050715 0.9599066 0.5586901 0.9087853 0.2543061 0.9041236 0.2543061 0.9087853 6.87473e-4 0.9830189 0.2543061 0.9806882 0.2543061 0.9830189 6.87473e-4 0.9404218 0.5586901 0.9357602 0.5586901 0.9404218 0.3050715 0.9562009 0.8136838 0.95387 0.8136838 0.9562009 0.5600652 0.9101603 6.87473e-4 0.9148219 6.87473e-4 0.9101603 0.2543061 0.9969645 0.8136838 0.9946337 0.8136838 0.9969645 0.5600652 0.04154586 0.688087 0.04620748 0.688087 0.0415458 0.9417057 0.9575759 0.5600652 0.9599068 0.5600652 0.957576 0.8136838 0.7944317 0.6117281 0.7990934 0.6117281 0.7944317 0.8653469 0.9918838 0.5586901 0.989553 0.5586901 0.9918838 0.3050715 0.0341342 0.9417057 0.02947252 0.9417057 0.0341342 0.688087 0.9696493 0.5586901 0.9673185 0.5586901 0.9696493 0.3050715 0.9538701 0.3050715 0.9585318 0.3050715 0.9538701 0.5586901 0.9941362 0.2543061 0.9918053 0.2543061 0.9941362 6.87473e-4 0.9282702 6.87473e-4 0.9329319 6.87473e-4 0.9282702 0.2543061 0.01879739 0.6797183 0.02112829 0.6797183 0.01879739 0.9333369 0.9222336 6.87473e-4 0.9268953 6.87473e-4 0.9222337 0.2543061 0.9858472 0.8136838 0.9835164 0.8136838 0.9858472 0.5600652 0.03550922 0.688087 0.04017084 0.688087 0.03550916 0.9417057 0.9621593 6.87473e-4 0.9644901 6.87473e-4 0.9621592 0.2543061 0.8117033 0.8653469 0.8070416 0.8653468 0.8117033 0.6117282 0.3050715 0.5798225 0.5568022 0.5798227 0.3050715 0.5821709 0.3966709 0.5835458 0.3966709 0.592939 0.3920093 0.5835458 0.7883951 0.6117281 0.7930567 0.6117281 0.788395 0.8653469 0.8581612 6.87473e-4 0.8581612 0.2543061 0.848838 6.87473e-4 0.9478334 0.8136839 0.9478335 0.5600652 0.9524952 0.8136839 0.8365412 0.6094555 0.8365412 0.863074 0.8272186 0.6094555 0.3906342 0.592939 0.3859726 0.592939 0.3906342 0.5835458 0.8224009 0.6094555 0.8224009 0.8630741 0.8130783 0.6094555 0.9524168 0.2543061 0.9524169 6.87473e-4 0.9570785 0.2543061 0.4027075 0.5835458 0.4027075 0.592939 0.3980459 0.5835458 0.5568022 0.5835458 0.5568021 0.7244451 0.5544713 0.5835458 0.7672984 0.7532117 0.7672984 0.959864 0.7649676 0.7532117 0.1405364 0.471691 0.1405364 0.6783433 6.87473e-4 0.471691 0.7402842 0.3050715 0.7635926 0.3050716 0.7402842 0.7747 0.2831261 0.5627895 0.2885452 0.5551459 0.2885452 0.5955479 0.8825038 0.3050715 0.8825038 0.7747357 0.880173 0.3050715 0.9246428 0.7747001 0.9246428 0.3050715 0.9269737 0.7747001 0.8727613 0.7747358 0.8727613 0.3050715 0.8750922 0.7747358 0.9098194 0.7747001 0.9098195 0.3050715 0.9121503 0.7747001 0.878798 0.3050715 0.878798 0.7747357 0.8764671 0.3050715 0.9320544 0.7747 0.9320544 0.3050715 0.9343852 0.7747001 0.8690555 0.7747356 0.8690555 0.3050715 0.8713863 0.7747356 0.9232679 0.3050715 0.9232679 0.7747001 0.9209371 0.3050715 0.8676805 0.3050715 0.8676804 0.7747357 0.8653497 0.3050715 0.9283486 0.7747001 0.9283486 0.3050715 0.9306795 0.7747001 0.8973271 0.3050715 0.8973271 0.7747356 0.8949962 0.3050715 0.9024077 0.7747001 0.9024078 0.3050715 0.9047386 0.7747001 0.8838788 0.7747357 0.8838788 0.3050715 0.8862096 0.7747357 0.9158563 0.3050715 0.9158562 0.7747001 0.9135254 0.3050715 0.8912904 0.7747357 0.8912904 0.3050715 0.8936212 0.7747357 0.9061136 0.7747001 0.9061136 0.3050715 0.9084444 0.7747001 0.5568021 0.3167929 0.3050714 0.5704092 0.3050715 0.3167929 0.7156008 0.7512184 0.7156008 0.3285527 0.7389091 0.7747001 0.6909175 0.3285527 0.7142258 0.3050715 0.6909174 0.7512184 0.777602 0.02399605 0.8010835 6.87473e-4 0.7776019 0.2803884 0.8024585 0.02399617 0.8259399 6.87473e-4 0.8024584 0.2803883 0.08713787 0.7500524 0.3924198 0.7500524 0.08713787 0.7617065 0.3285547 0.5882074 0.3285547 0.5951999 0.3050714 0.5835458 0.3415839 0.5835458 0.3415839 0.607029 0.3299297 0.5835458 0.8665286 6.87473e-4 0.8595361 0.2590029 0.8595361 6.87473e-4 0.2951482 0.5800078 0.3021407 0.5800078 0.2904865 0.6034911 0.08713799 0.7486774 0.08713787 0.7370232 0.3924198 0.7486774 0.5098356 0.7286556 0.5098356 0.7356482 0.08713787 0.7286557 0.08713787 0.7202881 0.5098357 0.7202882 0.08713787 0.7272806 0.08713787 0.7630816 0.5568022 0.7630816 0.08713787 0.7747358 0.7649675 0.7271897 0.78702 0.3050715 0.78702 0.7518368 0.6415508 0.7512283 0.6415506 0.3285344 0.6648592 0.7747313 0.7762269 0.02399575 0.7762269 0.2803881 0.7527239 6.87473e-4 0.8130784 0.5847719 0.8130783 0.3283798 0.8365413 0.6080806 0.7513489 6.87473e-4 0.7513489 0.3036965 0.7277655 6.87948e-4 0.5921839 0.3285548 0.6154923 0.3050715 0.592184 0.7512525 0.788395 0.3285509 0.8117033 0.3050715 0.788395 0.6103495 0.6401757 0.7747357 0.6168673 0.7512525 0.6401757 0.3050715 0.7277653 0.2803886 0.7065805 0.2664038 0.7277655 6.87948e-4 0.7277653 0.2803886 0.3050715 0.2803885 0.7065805 0.2664038 0.3050714 6.87864e-4 0.326156 0.01467311 0.3050715 0.2803885 0.7277655 6.87948e-4 0.7065805 0.01467317 0.3050714 6.87864e-4 0.6971673 0.01467329 0.7065805 0.01467317 0.6971672 0.2664039 0.5568022 0.3074198 0.5568021 0.3167929 0.3050716 0.3074197 0.3378774 0.2664038 0.3355292 0.2664038 0.3378773 0.01467323 0.4087441 0.5835458 0.4087441 0.592939 0.4040825 0.5835458 0.2831261 0.6797196 0.5367448 0.6797196 0.2831261 0.6890427 0.8799769 0.2543061 0.879977 6.87473e-4 0.8846386 0.2543061 0.7686734 0.959864 0.7686734 0.7532117 0.7710042 0.959864 0.2817512 0.6783432 0.1419113 0.6783446 0.2817512 0.471691 0.5507654 0.5835458 0.5530963 0.5835458 0.5507653 0.7244451 0.3021407 0.5537708 0.2831261 0.5402902 0.3021407 0.5134701 0.8602688 0.3050717 0.8602688 0.7747357 0.8509454 0.3050715 0.5908089 0.3050715 0.5908089 0.7747358 0.5581772 0.3285546 0.9195621 0.3050715 0.919562 0.7747001 0.9172312 0.3050715 0.8639746 0.3050715 0.8639746 0.7747358 0.8616438 0.3050715 0.8899154 0.3050715 0.8899154 0.7747357 0.8875846 0.3050717 0.3036965 0.4703161 0.02399218 0.0242238 0.3036965 6.87473e-4 0.8379163 0.7747357 0.8379162 0.3050715 0.8495705 0.3050715 0.8495705 0.7747357 0.8379163 0.7747357 0.8495705 0.3050715 0.4249422 0.5882424 0.4249422 0.5835458 0.427273 0.5835458 0.427273 0.5835458 0.427273 0.5882424 0.4249422 0.5882424 0.3544145 0.5952874 0.3497528 0.5952874 0.3544145 0.592939 0.3497528 0.5835458 0.3544145 0.592939 0.3497528 0.5952874 0.4346845 0.5835458 0.4346845 0.5882424 0.4323537 0.5835458 0.4731168 0.5882424 0.4731168 0.5835458 0.4754476 0.5882424 0.4323537 0.5835458 0.4346845 0.5882424 0.4323537 0.5882424 0.4175306 0.5882424 0.4175306 0.5835458 0.4198614 0.5882424 0.4754476 0.5882424 0.4731168 0.5835458 0.4754476 0.5835458 0.4138248 0.5882424 0.4138248 0.5835458 0.4161557 0.5882424 0.4198614 0.5882424 0.4175306 0.5835458 0.4198614 0.5835458 0.4286479 0.5882424 0.4286479 0.5835458 0.4309788 0.5882424 0.4161557 0.5882424 0.4138248 0.5835458 0.4161557 0.5835458 0.4101191 0.5882424 0.4101191 0.5835458 0.4124499 0.5882424 0.4309788 0.5882424 0.4286479 0.5835458 0.4309788 0.5835458 0.4397652 0.5882424 0.4397652 0.5835458 0.442096 0.5882424 0.4124499 0.5882424 0.4101191 0.5835458 0.4124499 0.5835458 0.3738993 0.592939 0.378561 0.5835458 0.3738993 0.5952873 0.442096 0.5882424 0.4397652 0.5835458 0.442096 0.5835458 0.3678627 0.5835458 0.3725244 0.5952874 0.3678627 0.5858941 0.378561 0.5835458 0.378561 0.5952873 0.3738993 0.5952873 0.3725244 0.5835458 0.3725244 0.5952874 0.3678627 0.5835458 0.5470597 0.5882424 0.5470597 0.5835458 0.5493904 0.5882424 0.5542061 0.722497 0.5492433 0.732497 0.5542061 0.7199969 0.5542061 0.7199969 0.5492433 0.732497 0.5492433 0.7199969 0.4680361 0.5835458 0.4680361 0.5882424 0.4657053 0.5835458 0.5493904 0.5882424 0.5470597 0.5835458 0.5493904 0.5835458 0.4791533 0.5835458 0.4791533 0.5882424 0.4768226 0.5835458 0.4657053 0.5835458 0.4680361 0.5882424 0.4657053 0.5882424 0.5013876 0.5835458 0.5013876 0.5882424 0.4990568 0.5835458 0.4768226 0.5835458 0.4791533 0.5882424 0.4768226 0.5882424 0.4916454 0.5882424 0.4916454 0.5835458 0.4939762 0.5882424 0.4990568 0.5835458 0.5013876 0.5882424 0.4990568 0.5882424 0.4545881 0.5882424 0.4545881 0.5835458 0.456919 0.5882424 0.4939762 0.5882424 0.4916454 0.5835458 0.4939762 0.5835458 0.4953511 0.5882424 0.4953511 0.5835458 0.4976819 0.5882424 0.456919 0.5882424 0.4545881 0.5835458 0.456919 0.5835458 0.4643304 0.5835458 0.4643304 0.5882424 0.4619996 0.5835458 0.4976819 0.5882424 0.4953511 0.5835458 0.4976819 0.5835458 0.3799359 0.592939 0.3845975 0.5835458 0.3799359 0.5952873 0.4619996 0.5835458 0.4643304 0.5882424 0.4619996 0.5882424 0.3845975 0.5835458 0.3845975 0.5952873 0.3799359 0.5952873 0.836685 0.2545778 0.8273149 0.001120746 0.836685 6.87473e-4 0.83806 0.2522534 0.847463 6.87473e-4 0.847463 0.2526926 0.0777657 0.688087 0.08242738 0.688087 0.08242738 0.9417061 0.5492433 0.7299969 0.5492433 0.732497 0.5442805 0.7199969 0.5442805 0.7199969 0.5492433 0.732497 0.5442805 0.732497 0.3618261 0.585894 0.3618261 0.5835458 0.3664878 0.5952873 0.4694111 0.5835458 0.4717419 0.5835458 0.4694111 0.5882424 0.3664878 0.5952873 0.3618261 0.5835458 0.3664878 0.5835458 0.4879397 0.5835458 0.4902704 0.5835458 0.4879397 0.5882424 0.4717419 0.5835458 0.4717419 0.5882424 0.4694111 0.5882424 0.4458017 0.5882424 0.443471 0.5882424 0.4458017 0.5835458 0.4902704 0.5835458 0.4902704 0.5882424 0.4879397 0.5882424 0.4582939 0.5835458 0.4606246 0.5835458 0.4582939 0.5882424 0.443471 0.5882424 0.443471 0.5835458 0.4458017 0.5835458 0.4828591 0.5882424 0.4805283 0.5882424 0.4828591 0.5835458 0.4606246 0.5835458 0.4606246 0.5882424 0.4582939 0.5882424 0.4865648 0.5882424 0.484234 0.5882424 0.4865648 0.5835458 0.4805283 0.5882424 0.4805283 0.5835458 0.4828591 0.5835458 0.4532132 0.5882424 0.4508824 0.5882424 0.4532132 0.5835458 0.484234 0.5882424 0.484234 0.5835458 0.4865648 0.5835458 0.4495075 0.5882424 0.4471767 0.5882424 0.4495075 0.5835458 0.4508824 0.5882424 0.4508824 0.5835458 0.4532132 0.5835458 0.3557894 0.5952873 0.3557895 0.592939 0.3604512 0.5835458 0.4471767 0.5882424 0.4471767 0.5835458 0.4495075 0.5835458 0.3604512 0.5952873 0.3557894 0.5952873 0.3604512 0.5835458 0.898702 0.7747155 0.9010328 0.3050715 0.9010328 0.7747272 0.5293922 0.7299969 0.5293922 0.7324969 0.5244295 0.7199969 0.5293922 0.7324969 0.5244295 0.7324969 0.5244295 0.7199969 0.4360594 0.5858941 0.4383903 0.5835458 0.4360594 0.5882424 0.4383903 0.5835458 0.4383903 0.5882424 0.4360594 0.5882424 0.5396306 0.5858941 0.5396306 0.5835458 0.5419614 0.5858941 0.5050934 0.5858941 0.5027626 0.5858941 0.5050934 0.5835458 0.5419614 0.5858941 0.5396306 0.5835458 0.5419614 0.5835458 0.5345498 0.5835458 0.5345498 0.5858941 0.532219 0.5835458 0.5027626 0.5858941 0.5027626 0.5835458 0.5050934 0.5835458 0.5162107 0.5858941 0.5138799 0.5858941 0.5162107 0.5835458 0.532219 0.5835458 0.5345498 0.5858941 0.532219 0.5858941 0.4235672 0.5858941 0.4235672 0.5882424 0.4212364 0.5835458 0.5162107 0.5835458 0.5138799 0.5858941 0.5138799 0.5835458 0.5359247 0.5835458 0.5382556 0.5835458 0.5359247 0.5858941 0.4212364 0.5835458 0.4235672 0.5882424 0.4212364 0.5882424 0.5101742 0.5835458 0.5125049 0.5835458 0.5101742 0.5858941 0.5382556 0.5835458 0.5382556 0.5858941 0.5359247 0.5858941 0.5064684 0.5835458 0.5087992 0.5835458 0.5064684 0.5858941 0.5101742 0.5858941 0.5125049 0.5835458 0.5125049 0.5858941 0.5433364 0.5858767 0.5433364 0.5835458 0.5456847 0.5835458 0.5087992 0.5835458 0.5087992 0.5858941 0.5064684 0.5858941 0.5456847 0.5858767 0.5433364 0.5858767 0.5456847 0.5835458 0.5095411 0.7299969 0.5095411 0.732497 0.5070597 0.7299969 0.5095411 0.732497 0.5070597 0.732497 0.5070597 0.7299969 0.8665286 0.2590029 0.8595361 0.2590029 0.8665286 6.87473e-4 0.3050715 0.2803885 0.326156 0.2664037 0.5163682 0.2664037 0.5568021 0.3167929 0.5568021 0.5704092 0.3050714 0.5704092 0.3036965 0.4703161 6.87473e-4 0.470313 0.02399218 0.0242238</float_array>
          <technique_common>
            <accessor source="#Plane-mesh-map-0-array" count="1179" stride="2">
              <param name="S" type="float"/>
              <param name="T" type="float"/>
            </accessor>
          </technique_common>
        </source>
        <vertices id="Plane-mesh-vertices">
          <input semantic="POSITION" source="#Plane-mesh-positions"/>
        </vertices>
        <lines count="6">
          <input semantic="VERTEX" source="#Plane-mesh-vertices" offset="0"/>
          <p>244 243 245 244 245 242 247 240 246 241 246 245</p>
        </lines>
        <polylist material="PBR_vr_screen-material" count="393">
          <input semantic="VERTEX" source="#Plane-mesh-vertices" offset="0"/>
          <input semantic="NORMAL" source="#Plane-mesh-normals" offset="1"/>
          <input semantic="TEXCOORD" source="#Plane-mesh-map-0" offset="2" set="0"/>
          <vcount>3 3 3 3 3 3 3 3 3 3 3 3 3 3 3 3 3 3 3 3 3 3 3 3 3 3 3 3 3 3 3 3 3 3 3 3 3 3 3 3 3 3 3 3 3 3 3 3 3 3 3 3 3 3 3 3 3 3 3 3 3 3 3 3 3 3 3 3 3 3 3 3 3 3 3 3 3 3 3 3 3 3 3 3 3 3 3 3 3 3 3 3 3 3 3 3 3 3 3 3 3 3 3 3 3 3 3 3 3 3 3 3 3 3 3 3 3 3 3 3 3 3 3 3 3 3 3 3 3 3 3 3 3 3 3 3 3 3 3 3 3 3 3 3 3 3 3 3 3 3 3 3 3 3 3 3 3 3 3 3 3 3 3 3 3 3 3 3 3 3 3 3 3 3 3 3 3 3 3 3 3 3 3 3 3 3 3 3 3 3 3 3 3 3 3 3 3 3 3 3 3 3 3 3 3 3 3 3 3 3 3 3 3 3 3 3 3 3 3 3 3 3 3 3 3 3 3 3 3 3 3 3 3 3 3 3 3 3 3 3 3 3 3 3 3 3 3 3 3 3 3 3 3 3 3 3 3 3 3 3 3 3 3 3 3 3 3 3 3 3 3 3 3 3 3 3 3 3 3 3 3 3 3 3 3 3 3 3 3 3 3 3 3 3 3 3 3 3 3 3 3 3 3 3 3 3 3 3 3 3 3 3 3 3 3 3 3 3 3 3 3 3 3 3 3 3 3 3 3 3 3 3 3 3 3 3 3 3 3 3 3 3 3 3 3 3 3 3 3 3 3 3 3 3 3 3 3 3 3 3 3 3 3 3 3 3 3 3 3 3 3 3 3 3 3 3 3 3 3 3 3 3 3 3 3 3 3 3 3 3 3 3 3 </vcount>
          <p>4 0 0 6 0 1 7 0 2 4 1 3 9 1 4 8 1 5 18 2 6 21 2 7 20 2 8 22 3 9 23 3 10 20 3 11 25 2 12 24 2 13 23 2 14 26 4 15 27 4 16 24 4 17 29 2 18 28 2 19 27 2 20 30 3 21 31 3 22 28 3 23 33 2 24 32 2 25 31 2 26 34 4 27 35 4 28 32 4 29 37 2 30 36 2 31 35 2 32 38 3 33 39 3 34 36 3 35 41 2 36 40 2 37 39 2 38 42 4 39 43 4 40 40 4 41 45 2 42 44 2 43 43 2 44 46 3 45 47 3 46 44 3 47 49 2 48 48 2 49 47 2 50 50 4 51 51 4 52 48 4 53 52 2 54 53 2 55 51 2 56 54 3 57 55 3 58 53 3 59 56 2 60 57 2 61 55 2 62 58 4 63 59 4 64 57 4 65 60 2 66 61 2 67 59 2 68 62 3 69 63 3 70 61 3 71 64 2 72 65 2 73 63 2 74 66 4 75 67 4 76 65 4 77 68 2 78 69 2 79 67 2 80 70 3 81 71 3 82 69 3 83 72 2 84 73 2 85 71 2 86 74 4 87 75 4 88 73 4 89 77 2 90 78 2 91 75 2 92 80 3 93 79 3 94 78 3 95 81 2 96 82 2 97 79 2 98 84 4 99 83 4 100 82 4 101 85 2 102 86 2 103 83 2 104 88 3 105 87 3 106 86 3 107 89 2 108 90 2 109 87 2 110 92 4 111 91 4 112 90 4 113 93 2 114 94 2 115 91 2 116 98 5 117 97 5 118 99 5 119 101 4 120 102 4 121 103 4 122 104 2 123 103 2 124 106 2 125 105 3 126 106 3 127 107 3 128 108 2 129 107 2 130 110 2 131 109 4 132 110 4 133 111 4 134 112 2 135 111 2 136 114 2 137 113 3 138 114 3 139 115 3 140 116 2 141 115 2 142 119 2 143 117 6 144 118 6 145 176 6 146 120 4 147 119 4 148 121 4 149 122 2 150 121 2 151 123 2 152 124 3 153 123 3 154 125 3 155 126 2 156 125 2 157 127 2 158 128 4 159 127 4 160 129 4 161 130 2 162 129 2 163 131 2 164 132 3 165 131 3 166 133 3 167 134 2 168 133 2 169 135 2 170 136 4 171 135 4 172 137 4 173 138 2 174 137 2 175 139 2 176 140 3 177 139 3 178 141 3 179 142 2 180 141 2 181 143 2 182 144 4 183 143 4 184 146 4 185 145 2 186 146 2 187 147 2 188 148 3 189 147 3 190 150 3 191 149 2 192 150 2 193 151 2 194 152 4 195 151 4 196 154 4 197 153 2 198 154 2 199 155 2 200 156 3 201 155 3 202 158 3 203 157 2 204 158 2 205 159 2 206 160 4 207 159 4 208 162 4 209 161 2 210 162 2 211 163 2 212 164 3 213 163 3 214 166 3 215 165 2 216 166 2 217 167 2 218 168 4 219 167 4 220 170 4 221 169 2 222 170 2 223 171 2 224 172 3 225 171 3 226 174 3 227 176 2 228 173 2 229 174 2 230 179 7 231 180 7 232 177 7 233 179 8 234 182 8 235 181 8 236 181 9 237 184 9 238 177 9 239 184 3 240 183 3 241 178 3 242 183 10 243 182 10 244 179 10 245 184 11 246 181 11 247 182 11 248 186 10 249 187 10 250 189 10 251 185 3 252 186 3 253 190 3 254 189 12 255 188 12 256 191 12 257 194 13 258 195 13 259 192 13 260 197 14 261 196 14 262 195 14 263 196 15 264 198 15 265 192 15 266 201 16 267 200 16 268 199 16 269 199 17 270 200 17 271 203 17 272 205 18 273 209 18 274 208 18 275 209 19 276 210 19 277 211 19 278 210 20 279 213 20 280 212 20 281 213 21 282 214 21 283 215 21 284 214 18 285 217 18 286 216 18 287 217 22 288 218 22 289 219 22 290 218 20 291 221 20 292 220 20 293 221 21 294 222 21 295 223 21 296 222 18 297 225 18 298 224 18 299 225 23 300 226 23 301 227 23 302 226 20 303 229 20 304 228 20 305 229 21 306 230 21 307 231 21 308 230 18 309 233 18 310 232 18 311 233 24 312 234 24 313 235 24 314 234 20 315 237 20 316 236 20 317 237 21 318 239 21 319 238 21 320 6 25 321 1 25 322 207 25 323 3 26 324 5 26 325 4 26 326 207 27 327 3 27 328 2 27 329 5 28 330 1 28 331 6 28 332 5 29 333 8 29 334 11 29 335 6 30 336 1 30 337 11 30 338 0 31 339 12 31 340 204 31 341 2 32 342 3 32 343 13 32 344 3 33 345 207 33 346 204 33 347 2 34 348 4 34 349 9 34 350 0 35 351 12 35 352 7 35 353 1 36 354 11 36 355 204 36 356 12 37 357 204 37 358 11 37 359 9 38 360 8 38 361 13 38 362 10 39 363 13 39 364 204 39 365 7 40 366 11 40 367 8 40 368 8 41 369 16 41 370 14 41 371 8 42 372 13 42 373 15 42 374 13 43 375 204 43 376 203 43 377 11 44 378 203 44 379 14 44 380 76 45 381 17 45 382 14 45 383 15 46 384 248 46 385 76 46 386 97 47 387 98 47 388 15 47 389 17 48 390 97 48 391 203 48 392 17 49 393 76 49 394 18 49 395 95 5 396 96 5 397 94 5 398 100 2 399 99 2 400 102 2 401 197 50 402 187 50 403 186 50 404 197 51 405 185 51 406 191 51 407 187 52 408 197 52 409 188 52 410 198 53 411 184 53 412 193 53 413 193 54 414 184 54 415 197 54 416 198 55 417 196 55 418 197 55 419 202 56 420 11 56 421 14 56 422 199 57 423 204 57 424 11 57 425 201 58 426 14 58 427 203 58 428 206 59 429 207 59 430 1 59 431 239 60 432 201 60 433 200 60 434 207 61 435 199 61 436 202 61 437 9 62 438 4 62 439 7 62 440 5 63 441 4 63 442 8 63 443 19 2 444 18 2 445 20 2 446 21 3 447 22 3 448 20 3 449 22 2 450 25 2 451 23 2 452 25 4 453 26 4 454 24 4 455 26 2 456 29 2 457 27 2 458 29 3 459 30 3 460 28 3 461 30 2 462 33 2 463 31 2 464 33 4 465 34 4 466 32 4 467 34 2 468 37 2 469 35 2 470 37 3 471 38 3 472 36 3 473 38 2 474 41 2 475 39 2 476 41 4 477 42 4 478 40 4 479 42 2 480 45 2 481 43 2 482 45 3 483 46 3 484 44 3 485 46 2 486 49 2 487 47 2 488 49 4 489 50 4 490 48 4 491 50 2 492 52 2 493 51 2 494 52 3 495 54 3 496 53 3 497 54 2 498 56 2 499 55 2 500 56 4 501 58 4 502 57 4 503 58 2 504 60 2 505 59 2 506 60 3 507 62 3 508 61 3 509 62 2 510 64 2 511 63 2 512 64 4 513 66 4 514 65 4 515 66 2 516 68 2 517 67 2 518 68 3 519 70 3 520 69 3 521 70 2 522 72 2 523 71 2 524 72 4 525 74 4 526 73 4 527 74 2 528 77 2 529 75 2 530 77 3 531 80 3 532 78 3 533 80 2 534 81 2 535 79 2 536 81 4 537 84 4 538 82 4 539 84 2 540 85 2 541 83 2 542 85 3 543 88 3 544 86 3 545 88 2 546 89 2 547 87 2 548 89 4 549 92 4 550 90 4 551 92 2 552 93 2 553 91 2 554 100 64 555 98 64 556 99 64 557 104 4 558 101 4 559 103 4 560 105 2 561 104 2 562 106 2 563 108 3 564 105 3 565 107 3 566 109 2 567 108 2 568 110 2 569 112 4 570 109 4 571 111 4 572 113 2 573 112 2 574 114 2 575 116 3 576 113 3 577 115 3 578 120 2 579 116 2 580 119 2 581 175 65 582 117 65 583 176 65 584 122 4 585 120 4 586 121 4 587 124 2 588 122 2 589 123 2 590 126 3 591 124 3 592 125 3 593 128 2 594 126 2 595 127 2 596 130 4 597 128 4 598 129 4 599 132 2 600 130 2 601 131 2 602 134 3 603 132 3 604 133 3 605 136 2 606 134 2 607 135 2 608 138 4 609 136 4 610 137 4 611 140 2 612 138 2 613 139 2 614 142 3 615 140 3 616 141 3 617 144 2 618 142 2 619 143 2 620 145 4 621 144 4 622 146 4 623 148 2 624 145 2 625 147 2 626 149 3 627 148 3 628 150 3 629 152 2 630 149 2 631 151 2 632 153 4 633 152 4 634 154 4 635 156 2 636 153 2 637 155 2 638 157 3 639 156 3 640 158 3 641 160 2 642 157 2 643 159 2 644 161 4 645 160 4 646 162 4 647 164 2 648 161 2 649 163 2 650 165 3 651 164 3 652 166 3 653 168 2 654 165 2 655 167 2 656 169 4 657 168 4 658 170 4 659 172 2 660 169 2 661 171 2 662 173 3 663 172 3 664 174 3 665 175 2 666 176 2 667 174 2 668 178 13 669 179 13 670 177 13 671 180 66 672 179 66 673 181 66 674 180 67 675 181 67 676 177 67 677 177 3 678 184 3 679 178 3 680 178 68 681 183 68 682 179 68 683 183 50 684 184 50 685 182 50 686 190 68 687 186 68 688 189 68 689 191 3 690 185 3 691 190 3 692 190 13 693 189 13 694 191 13 695 193 13 696 194 13 697 192 13 698 194 14 699 197 14 700 195 14 701 195 69 702 196 69 703 192 69 704 202 70 705 201 70 706 199 70 707 204 71 708 199 71 709 203 71 710 206 18 711 205 18 712 208 18 713 208 72 714 209 72 715 211 72 716 211 20 717 210 20 718 212 20 719 212 21 720 213 21 721 215 21 722 215 18 723 214 18 724 216 18 725 216 21 726 217 21 727 219 21 728 219 20 729 218 20 730 220 20 731 220 21 732 221 21 733 223 21 734 223 18 735 222 18 736 224 18 737 224 73 738 225 73 739 227 73 740 227 20 741 226 20 742 228 20 743 228 21 744 229 21 745 231 21 746 231 18 747 230 18 748 232 18 749 232 21 750 233 21 751 235 21 752 235 74 753 234 74 754 236 74 755 236 21 756 237 21 757 238 21 758 95 75 759 117 75 760 96 75 761 0 76 762 6 76 763 207 76 764 2 77 765 3 77 766 4 77 767 0 78 768 207 78 769 2 78 770 4 79 771 5 79 772 6 79 773 1 4 774 5 4 775 11 4 776 7 80 777 6 80 778 11 80 779 207 81 780 0 81 781 204 81 782 10 82 783 0 82 784 2 82 785 10 83 786 2 83 787 13 83 788 13 3 789 3 3 790 204 3 791 10 34 792 2 34 793 9 34 794 6 35 795 0 35 796 7 35 797 207 84 798 1 84 799 204 84 800 7 85 801 12 85 802 11 85 803 10 86 804 9 86 805 13 86 806 12 87 807 10 87 808 204 87 809 9 88 810 7 88 811 8 88 812 11 89 813 8 89 814 14 89 815 16 90 816 8 90 817 15 90 818 15 91 819 13 91 820 203 91 821 204 92 822 203 92 823 11 92 824 16 93 825 76 93 826 14 93 827 16 94 828 15 94 829 76 94 830 203 95 831 97 95 832 15 95 833 14 96 834 17 96 835 203 96 836 19 97 837 17 97 838 18 97 839 93 64 840 95 64 841 94 64 842 101 2 843 100 2 844 102 2 845 185 50 846 197 50 847 186 50 848 188 98 849 197 98 850 191 98 851 189 99 852 187 99 853 188 99 854 192 3 855 198 3 856 193 3 857 194 100 858 193 100 859 197 100 860 184 50 861 198 50 862 197 50 863 201 101 864 202 101 865 14 101 866 202 102 867 199 102 868 11 102 869 200 103 870 201 103 871 203 103 872 205 104 873 206 104 874 1 104 875 238 105 876 239 105 877 200 105 878 1 106 879 207 106 880 202 106 881 8 107 882 12 107 883 13 107 884 5 108 885 3 108 886 13 108 887 8 109 888 5 109 889 13 109 890 24 13 891 27 13 892 28 13 893 28 13 894 31 13 895 24 13 896 20 110 897 23 110 898 19 110 899 17 111 900 19 111 901 23 111 902 32 13 903 35 13 904 39 13 905 40 13 906 43 13 907 47 13 908 39 13 909 35 13 910 36 13 911 48 13 912 51 13 913 55 13 914 47 13 915 43 13 916 44 13 917 61 13 918 63 13 919 59 13 920 55 13 921 51 13 922 53 13 923 65 13 924 67 13 925 71 13 926 59 13 927 63 13 928 57 13 929 73 13 930 75 13 931 79 13 932 71 13 933 67 13 934 69 13 935 86 13 936 87 13 937 83 13 938 79 13 939 75 13 940 78 13 941 94 13 942 96 13 943 91 13 944 83 13 945 87 13 946 82 13 947 174 112 948 117 112 949 175 112 950 96 13 951 90 13 952 91 13 953 171 113 954 117 113 955 174 113 956 166 13 957 163 13 958 167 13 959 175 114 960 117 114 961 174 114 962 174 115 963 117 115 964 171 115 965 158 13 966 155 13 967 159 13 968 167 13 969 163 13 970 170 13 971 150 13 972 147 13 973 151 13 974 159 13 975 155 13 976 162 13 977 146 13 978 143 13 979 139 13 980 151 13 981 147 13 982 154 13 983 137 13 984 135 13 985 131 13 986 139 13 987 143 13 988 141 13 989 129 13 990 127 13 991 123 13 992 131 13 993 135 13 994 133 13 995 115 13 996 114 13 997 119 13 998 123 13 999 127 13 1000 125 13 1001 107 13 1002 106 13 1003 110 13 1004 119 13 1005 114 13 1006 121 13 1007 99 13 1008 97 13 1009 102 13 1010 110 13 1011 106 13 1012 111 13 1013 97 13 1014 103 13 1015 102 13 1016 171 116 1017 176 116 1018 118 116 1019 176 117 1020 174 117 1021 118 117 1022 171 118 1023 174 118 1024 176 118 1025 175 119 1026 174 119 1027 117 119 1028 117 113 1029 174 113 1030 171 113 1031 100 50 1032 101 50 1033 98 50 1034 112 50 1035 105 50 1036 109 50 1037 98 50 1038 101 50 1039 104 50 1040 116 50 1041 120 50 1042 113 50 1043 105 50 1044 108 50 1045 109 50 1046 130 50 1047 124 50 1048 128 50 1049 120 50 1050 122 50 1051 113 50 1052 134 50 1053 136 50 1054 132 50 1055 124 50 1056 126 50 1057 128 50 1058 142 50 1059 144 50 1060 140 50 1061 136 50 1062 138 50 1063 132 50 1064 153 50 1065 148 50 1066 152 50 1067 144 50 1068 145 50 1069 140 50 1070 161 50 1071 156 50 1072 160 50 1073 148 50 1074 149 50 1075 152 50 1076 165 50 1077 168 50 1078 164 50 1079 156 50 1080 157 50 1081 160 50 1082 173 120 1083 176 120 1084 118 120 1085 168 50 1086 169 50 1087 164 50 1088 172 121 1089 173 121 1090 118 121 1091 206 122 1092 209 122 1093 207 122 1094 176 123 1095 173 123 1096 118 123 1097 173 124 1098 172 124 1099 118 124 1100 238 3 1101 200 3 1102 236 3 1103 200 3 1104 235 3 1105 236 3 1106 227 3 1107 228 3 1108 232 3 1109 223 3 1110 224 3 1111 220 3 1112 232 3 1113 228 3 1114 231 3 1115 215 3 1116 216 3 1117 212 3 1118 224 3 1119 219 3 1120 220 3 1121 208 3 1122 199 3 1123 206 3 1124 212 3 1125 216 3 1126 211 3 1127 239 4 1128 237 4 1129 201 4 1130 206 3 1131 199 3 1132 207 3 1133 230 4 1134 229 4 1135 233 4 1136 201 4 1137 237 4 1138 234 4 1139 222 4 1140 221 4 1141 225 4 1142 229 4 1143 226 4 1144 233 4 1145 214 4 1146 213 4 1147 217 4 1148 225 4 1149 221 4 1150 218 4 1151 205 125 1152 1 125 1153 202 125 1154 213 4 1155 210 4 1156 217 4 1157 209 126 1158 205 126 1159 202 126 1160 1 127 1161 205 127 1162 202 127 1163 205 128 1164 209 128 1165 202 128 1166 12 129 1167 0 129 1168 10 129 1169 15 130 1170 98 130 1171 248 130 1172 95 2 1173 118 2 1174 117 2 1175 8 131 1176 11 131 1177 12 131 1178</p>
        </polylist>
      </mesh>
      <extra><technique profile="MAYA"><double_sided>1</double_sided></technique></extra>
    </geometry>
  </library_geometries>
  <library_controllers/>
  <library_visual_scenes>
    <visual_scene id="Scene" name="Scene">
      <node id="Screen" name="Screen" type="NODE">
        <matrix sid="transform">1 0 0 0 0 7.54979e-8 -1 0 0 1 7.54979e-8 0 0 0 0 1</matrix>
        <instance_geometry url="#Plane-mesh" name="Screen">
          <bind_material>
            <technique_common>
              <instance_material symbol="PBR_vr_screen-material" target="#PBR_vr_screen-material"/>
            </technique_common>
          </bind_material>
        </instance_geometry>
      </node>
    </visual_scene>
  </library_visual_scenes>
  <scene>
    <instance_visual_scene url="#Scene"/>
  </scene>
</COLLADA>
