<?xml version="1.0" encoding="utf-8"?>
<COLLADA xmlns="http://www.collada.org/2005/11/COLLADASchema" version="1.4.1">
  <asset>
    <contributor>
      <author>Blender User</author>
      <authoring_tool>Blender 2.78.0 commit date:2017-02-24, commit time:14:33, hash:e92f2352830</authoring_tool>
    </contributor>
    <created>2017-07-17T14:53:00</created>
    <modified>2017-07-17T14:53:00</modified>
    <unit name="meter" meter="1"/>
    <up_axis>Z_UP</up_axis>
  </asset>
  <library_images/>
  <library_geometries>
    <geometry id="VIS_gelenkhuelse_2-mesh" name="VIS gelenkhuelse 2">
      <mesh>
        <source id="VIS_gelenkhuelse_2-mesh-positions">
          <float_array id="VIS_gelenkhuelse_2-mesh-positions-array" count="420">198.9462 539.7068 -105.9795 198.2551 540.6984 -107.3121 198.1535 536.351 -107.9466 195.4466 542.7263 -105.1671 195.9287 542.5682 -107.5167 193.2027 542.7195 -107.464 191.8627 541.4116 -104.7349 190.6304 540.0942 -106.2735 190.6302 537.2698 -104.9209 191.123 536.1219 -106.7038 194.3235 534.2389 -105.764 194.2749 534.5347 -108.3594 197.8602 535.6969 -106.176 175.6041 542.3129 -119.6935 188.1153 540.7808 -121.9788 189.7892 543.3552 -121.2696 176.2746 546.8905 -114.8069 191.8053 546.2894 -118.6484 192.0504 547.289 -115.747 192.6203 546.9781 -111.995 193.3661 544.8745 -108.9097 177.6501 544.0932 -106.0788 177.178 546.473 -108.9237 177.966 540.6618 -104.3709 193.3289 544.0678 -121.57 174.4987 539.333 -127.2635 175.6057 533.6066 -120.6086 174.8166 532.7516 -125.8777 175.4341 527.9507 -122.3365 175.8644 529.7998 -119.3164 176.2716 524.773 -117.1785 176.3602 527.1693 -116.3425 176.9931 526.1804 -112.295 177.1818 524.0635 -111.2817 178.0154 525.4949 -105.6601 177.5687 527.6465 -108.3619 177.9727 531.1912 -105.3345 178.8333 530.7135 -99.73771 179.076 537.7227 -97.39972 178.9128 542.9748 -97.91252 178.5171 547.6927 -100.0069 177.6534 552.485 -105.1646 176.3667 554.1558 -113.4298 175.4245 552.0735 -119.834 174.7162 547.092 -125.0108 188.8028 537.3898 -122.3106 193.3417 534.0537 -120.9479 193.9742 532.0307 -118.2567 194.4868 531.3211 -115.3279 194.8418 531.7687 -112.3244 194.9811 533.3093 -109.6769 192.3168 535.7808 -121.959 212.8216 536.7517 -110.123 212.4918 534.3537 -111.4975 212.0156 531.9559 -115.117 211.4384 531.6475 -118.7596 210.8619 533.106 -122.2774 210.4645 536.0105 -124.705 195.8097 537.7379 -123.1935 210.4243 537.8931 -125.4624 207.0233 545.5963 -128.1342 204.926 550.7294 -126.6787 208.9084 548.3076 -123.7523 208.5919 550.6238 -121.574 205.3362 553.3098 -122.8171 206.0223 554.469 -118.5021 204.3801 546.8949 -129.8638 208.4992 552.0947 -117.9411 206.61 554.4824 -114.7219 210.232 549.6768 -111.011 207.33 552.7008 -109.4485 208.2266 549.2174 -105.3984 212.1307 543.9389 -109.118 210.2898 543.8272 -104.9939 210.9375 540.0859 -105.0066 208.4506 531.0797 -104.4745 210.2046 531.6311 -106.9266 208.684 535.0306 -102.6205 210.699 536.374 -105.1073 208.7982 540.3336 -101.9404 208.5054 544.4594 -102.7193 207.9101 527.1167 -108.4199 209.4084 527.5924 -111.7502 209.7919 529.245 -120.4458 206.0034 525.8228 -122.7666 208.8569 531.2503 -124.7563 205.304 527.5794 -125.8166 204.6924 531.2694 -129.2994 209.2935 527.1762 -116.1915 207.3737 525.0147 -112.8258 206.4349 524.6159 -118.826 206.965 533.7661 -128.5019 211.431 531.0559 -112.0498 204.2992 536.1826 -131.2893 206.5886 537.682 -129.8063 207.7568 541.4908 -128.7252 204.1491 540.8994 -131.6502 211.0875 546.9846 -109.4604 209.2815 551.4122 -113.4623 209.7349 544.9364 -125.0077 195.8823 541.9699 -123.0803 200.7231 537.533 -100.8229 198.7436 534.1712 -101.3849 194.7855 532.9493 -101.2784 191.5933 534.9304 -99.99549 190.562 538.463 -99.17466 192.3737 541.9235 -99.70174 196.215 543.2145 -100.571 199.5899 541.1257 -100.6641 196.0537 540.2448 -130.3818 195.4707 543.3518 -129.797 191.9437 545.7318 -128.3281 187.0946 543.8478 -128.3516 186.1654 539.5447 -128.9089 188.4129 536.2806 -128.937 191.7503 535.6127 -129.2536 194.772 537.0806 -130.038 199.8808 538.5748 -106.2259 198.3668 542.1498 -105.6688 195.3603 543.5189 -105.082 191.6006 542.4868 -104.5971 189.8223 538.9848 -104.6411 190.7954 535.2096 -105.1331 194.2465 533.4662 -105.8222 198.0063 534.4982 -106.3072 196.0682 541.4028 -124.6835 194.9822 537.3931 -124.88 192.081 536.0128 -124.5588 189.5026 536.8174 -124.0891 187.7367 539.557 -123.5689 188.9848 543.1078 -123.439 192.5686 544.4224 -123.8712 196.9066 539.6964 -124.9672 195.9335 543.4716 -124.4752 192.4825 545.215 -123.7861 188.7226 544.1829 -123.3011 186.8481 540.1063 -123.3824 188.9472 535.88 -124.0886 192.7813 535.2498 -124.7357 195.5057 536.6472 -125.0282</float_array>
          <technique_common>
            <accessor source="#VIS_gelenkhuelse_2-mesh-positions-array" count="140" stride="3">
              <param name="X" type="float"/>
              <param name="Y" type="float"/>
              <param name="Z" type="float"/>
            </accessor>
          </technique_common>
        </source>
        <source id="VIS_gelenkhuelse_2-mesh-normals">
          <float_array id="VIS_gelenkhuelse_2-mesh-normals-array" count="864">-0.8994835 -0.0424456 0.4348883 -0.6662761 -0.7208602 -0.1908843 -0.6206927 -0.780472 -0.07486015 -0.05423271 -0.9969606 0.05593299 0.2987422 -0.9094715 -0.2891622 0.7185913 -0.6951546 0.01966285 0.846172 -0.2302311 -0.4806106 0.9736381 0.09845405 0.2057569 0.5490536 0.7635843 -0.3398224 0.4852519 0.8697291 0.09001016 -0.4310989 0.8955546 0.1101625 -0.3386393 0.8994693 0.2761856 -0.9625983 0.2637402 -0.06201392 0.1284989 -0.3401963 0.9315335 0.04308652 -0.9456909 0.3221994 0.02006274 -0.9961292 -0.08558261 -0.07558166 -0.7709606 -0.6323821 -0.1186323 -0.4511638 -0.8845213 -0.1548774 -0.2781175 -0.9479788 0.01799422 -0.9971321 -0.07351106 0.1295872 -0.7555858 0.6421039 0.14299 -0.7320146 0.6661145 0.1227031 -0.1996329 0.9721578 -0.08173596 -0.8325392 -0.547903 -0.1220679 -0.5465591 -0.8284761 -0.9884585 -0.01601934 0.1506427 -0.9884584 -0.01602077 0.1506434 -0.9884586 -0.01602602 0.1506412 -0.9884595 -0.01602315 0.1506364 -0.9884589 -0.01602333 0.1506394 -0.9884591 -0.01602214 0.1506387 -0.9884592 -0.01602613 0.1506376 -0.9884584 -0.01602071 0.1506432 -0.9884586 -0.01602351 0.1506419 -0.9884589 -0.01602065 0.1506402 -0.9884586 -0.01602417 0.1506416 -0.9884594 -0.01601481 0.1506379 -0.9884591 -0.01601934 0.1506391 -0.9884586 -0.01602411 0.1506416 -0.9884593 -0.01601654 0.1506382 -0.9884593 -0.01601952 0.1506379 -0.9884585 -0.01601815 0.1506433 -0.9884582 -0.01602447 0.1506443 -0.9884589 -0.01601773 0.15064 -0.9884589 -0.01602178 0.1506401 -0.9884588 -0.01602107 0.1506406 -0.9884584 -0.01601773 0.1506433 -0.9884589 -0.0160194 0.15064 -0.9884583 -0.01602709 0.1506425 -0.9884587 -0.01602011 0.1506416 0.02937769 0.3230884 0.9459127 -0.1162698 0.7342243 0.6688768 -0.1466117 0.7738469 0.6161705 -0.2297158 0.9365573 0.2647475 -0.2288326 0.9361797 0.2668398 -0.2972573 0.9488638 -0.1062806 -0.2856857 0.9109076 -0.2977097 -0.3051756 0.8299604 -0.4669408 -0.2635914 0.6436684 -0.7184781 -0.2479777 0.4187725 -0.8735769 -0.2647486 0.6312301 -0.7290108 -0.03744661 0.4882454 0.8719027 0.04309272 0.302215 0.9522653 -0.1400505 0.5068136 -0.8506033 -0.1423635 0.4983823 -0.8551888 -0.1152098 0.6957536 -0.7089807 -0.1059111 0.8353331 -0.5394456 -0.09027928 0.8628491 -0.4973341 -0.03409856 0.9890806 -0.143377 -0.03513669 0.9962727 -0.07878017 0.02798074 0.9726062 0.230769 0.0311914 0.9250942 0.3784546 0.0880174 0.8060767 0.5852295 0.0924443 0.6459714 0.7577435 0.1178234 0.552888 0.8248835 0.1362901 0.3430144 0.9293902 0.1385263 0.3721731 0.9177678 0.690031 0.4440069 -0.5715901 0.6857093 0.5461849 -0.4811288 0.6724931 0.6809753 -0.2898717 0.632972 0.4393647 -0.6374207 0.7007332 0.7046694 -0.1114187 0.7607682 0.5657039 0.3181366 0.9006158 0.1545439 0.4062113 0.9468258 0.04649996 0.3183689 0.8082664 -0.2885902 0.5132458 0.7926622 -0.06735223 0.6059294 0.8132312 -0.09122979 0.5747454 0.817348 0.139597 0.5589767 0.8501936 0.3546235 0.3891186 0.7836556 0.3390149 0.5205314 0.7977379 0.16606 0.5796881 0.7466926 -0.5176756 0.4176867 0.810178 -0.508335 0.291903 0.7368046 -0.5376524 -0.4099379 0.6980028 -0.5395642 -0.4708105 0.6538816 -0.4591798 -0.6013258 0.776376 -0.6290703 0.03887194 0.7158297 -0.6600897 0.2277488 0.7537132 -0.6214202 -0.2139005 0.7314224 -0.6254741 -0.2716679 0.6967692 -0.7146553 -0.06148606 0.6703709 -0.4133628 -0.6162257 0.8595718 -0.4918881 -0.1385014 0.8740966 -0.4757159 -0.09823125 0.8669545 -0.4980214 0.01909685 0.8641998 -0.5025399 0.02474856 0.8444199 -0.4710754 0.2550355 0.5686031 -0.2692793 -0.7772898 0.7499397 -0.04263794 -0.6601306 0.6266735 0.0288515 -0.7787478 0.5637571 -0.04516887 -0.8247047 0.9440729 -0.3181668 0.08658123 0.8265441 0.454156 0.3325167 0.7464261 0.6546916 0.1192772 0.7608445 0.6480345 -0.0341643 0.6887838 0.6902796 0.2215646 0.6987323 0.669121 -0.2530819 0.8279907 0.1164567 -0.5485155 0.7325422 -0.2405295 -0.6368104 0.837933 -0.2779346 -0.4697028 0.8348588 -0.4071292 -0.3704817 0.8718428 -0.3851609 -0.3025581 0.9205669 -0.06954765 0.3843433 0.7591952 0.2236324 -0.6112374 0.5951166 0.2083258 -0.776168 0.7353982 0.387353 -0.5560101 0.6072112 0.2184522 -0.7639197 0.6624711 0.5884271 -0.4635577 0.8469974 0.3363826 0.4116337 0.9016367 -0.2336146 0.363972 0.8142458 -0.2799562 0.5085551 0.8562372 -0.3404719 0.3885057 0.9162616 -0.3096624 0.2541143 0.6195968 -0.1938078 -0.7606171 0.7886146 -0.2459777 -0.5635443 0.7451483 -0.1451971 -0.6509009 0.1942207 -0.3001599 0.9339071 0.2272039 -0.3715361 0.9001886 0.274497 -0.6386203 0.7188988 0.2928503 -0.6813703 0.6708005 0.2919056 -0.8839197 0.3653453 0.3037261 -0.9084096 0.2873023 0.2637311 -0.9571835 -0.1193556 0.2372685 -0.9533286 -0.1867308 0.1608194 -0.7969537 -0.5822387 0.1461892 -0.7798081 -0.6087102 0.05615341 -0.5591241 -0.8271803 0.020787 -0.4940243 -0.8691996 -0.03504312 -0.2993567 -0.9534976 -0.06920844 -0.1932135 -0.9787129 -0.0947653 -0.1432137 -0.9851443 0.1796836 -0.128938 0.9752379 0.1403198 -0.2430667 0.9598068 0.1469555 -0.3971094 0.9059296 0.150078 -0.4272529 0.8915894 0.1471647 -0.4393001 0.8862043 0.140438 -0.3687708 0.91885 0.1240304 -0.3178344 0.9399989 0.1614865 -0.1783876 0.9706184 0.1477243 0.07288837 0.9863391 0.138804 0.1005077 0.9852064 0.1452733 0.2175809 0.9651706 0.1445643 0.2326435 0.9617579 0.1498573 0.1936711 0.9695537 0.1514641 0.2015683 0.9676926 0.1372507 -4.84053e-4 0.9905363 -0.1650006 0.1524359 -0.9744426 -0.1215493 0.2877261 -0.9499682 -0.1470825 0.3524273 -0.9242087 -0.1192871 0.6443822 -0.7553424 -0.0889489 0.8325084 -0.5468254 -0.05316954 0.9664821 -0.2511681 -0.01087987 0.9999391 -0.001866757 0.03858935 0.9482735 0.3151003 0.130911 0.4922322 0.8605637 -0.1477849 0.3676886 -0.9181311 -0.1451109 0.3849112 -0.9114748 -0.1814294 0.2788766 -0.9430331 -0.1407158 0.1569824 -0.9775253 -0.1376013 -0.08624601 -0.9867257 -0.162193 -0.2108072 -0.9639781 -0.1442564 -0.2695965 -0.9521071 -0.140858 -0.2850116 -0.9481179 -0.1469864 -0.2135576 -0.9658097 -0.1372006 -0.07990771 -0.987315 -0.1509765 -0.04612058 -0.987461 -0.1238394 -0.3809895 -0.9162483 -0.09207302 -0.6915075 -0.7164775 -0.06089919 -0.8709267 -0.4876251 -0.02086126 -0.9565987 -0.2906612 0.08778852 -0.9031812 0.4201868 0.1199681 -0.7085946 0.6953427 -0.1245939 0.7234148 -0.6790784 -0.06917917 0.9516639 -0.2992494 -0.002106785 0.9801089 0.1984496 0.08661502 0.7647141 0.6385221 0.08389449 0.7369608 0.670709 0.1260008 0.411309 0.9027452 0.1008607 -0.7533254 0.6498678 0.04285442 -0.9696854 0.2405696 0.03454411 -0.9975465 0.06089174 -0.01160174 -0.9929808 -0.1177054 -0.07060873 -0.854345 -0.5148875 -0.1203757 -0.5992727 -0.791443 0.1514081 -0.08929055 0.9844302 0.1514754 -0.0892775 0.9844211 0.1514785 -0.0892291 0.984425 0.1514835 -0.08924728 0.9844225 0.1514623 -0.08926391 0.9844244 0.1514517 -0.0892682 0.9844256 0.1514719 -0.08927291 0.984422 0.151496 -0.08925735 0.9844197 0.1514683 -0.08925926 0.9844238 0.1514452 -0.089329 0.9844211 0.1514967 -0.0893383 0.9844123 0.1514787 -0.08926922 0.9844213 0.1514803 -0.089271 0.984421 0.1514765 -0.08925968 0.9844225 -0.8886424 0.404284 0.2164928 -0.8619987 0.480642 0.161064 -0.2906525 0.9508557 0.1067463 -0.2455391 0.9594755 0.1382654 0.4578257 0.8878157 0.04667842 0.5171609 0.85522 -0.03381347 0.9432761 0.3055535 -0.1298741 0.9596124 0.2610263 -0.1049258 0.8807204 -0.4451898 -0.1616715 0.8574959 -0.4779522 -0.1904274 0.283372 -0.9466114 -0.1537114 0.2495592 -0.9618448 -0.112138 -0.4116925 -0.911173 0.01652902 -0.5266515 -0.84889 -0.04499238 -0.9040773 -0.4044092 0.1381944 -0.9487255 -0.3031814 0.0894488 -0.9922888 0.02028793 -0.1222754 -0.892472 0.2224782 0.392425 -0.4272419 0.903797 0.02480822 -0.4526831 0.883569 0.1199328 0.3068558 0.9500528 0.05691528 0.4232739 0.8977024 -0.1223507 0.8428614 0.5115613 0.1670023 0.8975108 0.2193636 -0.3825623 0.9425914 -0.3324639 0.03145569 0.8409756 -0.4758384 -0.2575615 0.3421999 -0.9394199 -0.0197376 0.1762216 -0.9624288 -0.2065839 -0.6379693 -0.7644256 0.09299939 -0.5352107 -0.8139724 0.2258287 -0.9694872 -0.2067053 0.1317864 -0.9615861 -0.2595169 0.0894609 -0.5391683 -0.8396232 0.06580692 -0.4578368 -0.8878076 -0.04672533 0.2455367 -0.9594732 -0.1382865 0.3618292 -0.930626 -0.05490881 0.8799373 -0.3994843 -0.2571437 0.9751361 -0.1975629 -0.1003919 0.87429 0.4600707 -0.1547641 0.8226785 0.5668153 -0.04382574 0.2012408 0.9777855 0.05863368 0.1687068 0.9848297 0.04060477 -0.3965573 0.9034141 0.1630507 -0.4397685 0.8869498 0.141152 -0.8972223 0.408863 0.166803 -0.9044139 0.3860998 0.181556 -0.1514768 0.08928221 -0.9844204 -0.1514604 0.08926141 -0.9844248 -0.1514768 0.08925831 -0.9844226 -0.1514723 0.0892629 -0.9844228 -0.1514818 0.08924776 -0.9844228 -0.1514783 0.08927935 -0.9844205 -0.1514926 0.08927851 -0.9844183 -0.1514049 0.08927762 -0.9844319 -0.1514773 0.08925622 -0.9844228 -0.151491 0.08927446 -0.984419 -0.1514856 0.0892831 -0.9844189 -0.1514784 0.08930122 -0.9844185 -0.1514653 0.08930569 -0.98442 -0.1514704 0.08925354 -0.9844241 -0.1515163 0.0892564 -0.9844167 -0.1560779 0.1220589 -0.9801742 -0.1490978 0.1462264 -0.9779508 0.1536474 -0.02904838 0.9876987 0.147983 -0.0492835 0.9877612 -0.1440743 0.08889633 -0.985566 -0.1401104 0.100125 -0.9850605 0.1562826 -0.1032153 0.9823046 0.1720747 -0.06130933 0.9831742</float_array>
          <technique_common>
            <accessor source="#VIS_gelenkhuelse_2-mesh-normals-array" count="288" stride="3">
              <param name="X" type="float"/>
              <param name="Y" type="float"/>
              <param name="Z" type="float"/>
            </accessor>
          </technique_common>
        </source>
        <vertices id="VIS_gelenkhuelse_2-mesh-vertices">
          <input semantic="POSITION" source="#VIS_gelenkhuelse_2-mesh-positions"/>
        </vertices>
        <polylist count="288">
          <input semantic="VERTEX" source="#VIS_gelenkhuelse_2-mesh-vertices" offset="0"/>
          <input semantic="NORMAL" source="#VIS_gelenkhuelse_2-mesh-normals" offset="1"/>
          <vcount>3 3 3 3 3 3 3 3 3 3 3 3 3 3 3 3 3 3 3 3 3 3 3 3 3 3 3 3 3 3 3 3 3 3 3 3 3 3 3 3 3 3 3 3 3 3 3 3 3 3 3 3 3 3 3 3 3 3 3 3 3 3 3 3 3 3 3 3 3 3 3 3 3 3 3 3 3 3 3 3 3 3 3 3 3 3 3 3 3 3 3 3 3 3 3 3 3 3 3 3 3 3 3 3 3 3 3 3 3 3 3 3 3 3 3 3 3 3 3 3 3 3 3 3 3 3 3 3 3 3 3 3 3 3 3 3 3 3 3 3 3 3 3 3 3 3 3 3 3 3 3 3 3 3 3 3 3 3 3 3 3 3 3 3 3 3 3 3 3 3 3 3 3 3 3 3 3 3 3 3 3 3 3 3 3 3 3 3 3 3 3 3 3 3 3 3 3 3 3 3 3 3 3 3 3 3 3 3 3 3 3 3 3 3 3 3 3 3 3 3 3 3 3 3 3 3 3 3 3 3 3 3 3 3 3 3 3 3 3 3 3 3 3 3 3 3 3 3 3 3 3 3 3 3 3 3 3 3 3 3 3 3 3 3 3 3 3 3 3 3 3 3 3 3 3 3 3 3 3 3 3 3 3 3 3 3 3 3 </vcount>
          <p>0 0 1 0 2 0 1 1 0 1 3 1 1 2 3 2 4 2 4 3 3 3 5 3 5 4 3 4 6 4 5 5 6 5 7 5 7 6 6 6 8 6 7 7 8 7 9 7 9 8 8 8 10 8 9 9 10 9 11 9 11 10 10 10 2 10 2 11 10 11 12 11 2 12 12 12 0 12 13 13 14 13 15 13 16 14 17 14 18 14 16 15 18 15 19 15 20 16 21 16 22 16 5 17 23 17 21 17 23 18 5 18 7 18 22 19 16 19 19 19 17 20 16 20 24 20 16 21 13 21 24 21 24 22 13 22 15 22 20 23 22 23 19 23 5 24 21 24 20 24 13 25 25 25 26 25 26 26 25 26 27 26 26 27 27 27 28 27 26 28 28 28 29 28 29 29 28 29 30 29 29 30 30 30 31 30 31 31 30 31 32 31 32 32 30 32 33 32 32 33 33 33 34 33 32 34 34 34 35 34 35 35 34 35 36 35 36 36 34 36 37 36 36 37 37 37 38 37 36 38 38 38 23 38 23 39 38 39 39 39 23 40 39 40 40 40 23 41 40 41 21 41 21 42 40 42 41 42 21 43 41 43 22 43 22 44 41 44 42 44 22 45 42 45 16 45 16 46 42 46 43 46 16 47 43 47 44 47 16 48 44 48 13 48 13 49 44 49 25 49 29 50 45 50 26 50 46 51 29 51 31 51 46 52 31 52 47 52 47 53 31 53 32 53 47 54 32 54 48 54 48 55 32 55 49 55 49 56 32 56 35 56 49 57 35 57 50 57 50 58 35 58 36 58 9 59 11 59 36 59 36 60 11 60 50 60 46 61 51 61 29 61 29 62 51 62 45 62 2 63 52 63 53 63 2 64 53 64 11 64 11 65 53 65 50 65 50 66 53 66 54 66 50 67 54 67 49 67 49 68 54 68 48 68 48 69 54 69 55 69 48 70 55 70 47 70 47 71 55 71 56 71 47 72 56 72 46 72 46 73 56 73 57 73 46 74 57 74 51 74 51 75 57 75 58 75 58 76 57 76 59 76 60 77 61 77 62 77 62 78 61 78 63 78 63 79 64 79 65 79 60 80 66 80 61 80 67 81 65 81 68 81 69 82 70 82 71 82 72 83 73 83 74 83 72 84 74 84 52 84 75 85 76 85 77 85 77 86 78 86 74 86 77 87 74 87 79 87 79 88 74 88 73 88 72 89 71 89 73 89 80 90 73 90 71 90 73 91 80 91 79 91 76 92 75 92 81 92 76 93 81 93 82 93 83 94 84 94 85 94 85 95 84 95 86 95 85 96 86 96 87 96 88 97 82 97 89 97 82 98 81 98 89 98 88 99 90 99 83 99 83 100 90 100 84 100 88 101 89 101 90 101 87 102 91 102 85 102 83 103 55 103 88 103 88 104 55 104 54 104 88 105 54 105 92 105 88 106 92 106 82 106 82 107 92 107 76 107 87 108 93 108 91 108 59 109 94 109 95 109 95 110 94 110 96 110 94 111 93 111 96 111 53 112 92 112 54 112 71 113 97 113 69 113 70 114 69 114 68 114 67 115 68 115 98 115 98 116 68 116 69 116 67 117 63 117 65 117 95 118 99 118 59 118 59 119 57 119 85 119 57 120 56 120 85 120 56 121 83 121 85 121 83 122 56 122 55 122 78 123 52 123 74 123 99 124 95 124 60 124 95 125 96 125 66 125 99 126 60 126 62 126 60 127 95 127 66 127 63 128 61 128 64 128 97 129 71 129 72 129 52 130 78 130 76 130 78 131 77 131 76 131 53 132 52 132 92 132 92 133 52 133 76 133 93 134 94 134 91 134 91 135 59 135 85 135 91 136 94 136 59 136 62 137 100 137 99 137 62 138 24 138 100 138 62 139 63 139 24 139 24 140 63 140 17 140 17 141 63 141 67 141 17 142 67 142 18 142 18 143 67 143 19 143 19 144 67 144 98 144 19 145 98 145 20 145 20 146 98 146 69 146 20 147 69 147 5 147 5 148 69 148 97 148 5 149 97 149 4 149 4 150 97 150 1 150 72 151 1 151 97 151 79 152 101 152 77 152 77 153 101 153 102 153 102 154 103 154 77 154 77 155 103 155 75 155 75 156 103 156 37 156 37 157 103 157 104 157 37 158 104 158 38 158 38 159 104 159 105 159 38 160 105 160 106 160 38 161 106 161 39 161 106 162 107 162 39 162 39 163 107 163 80 163 80 164 107 164 79 164 79 165 107 165 108 165 79 166 108 166 101 166 96 167 109 167 110 167 96 168 110 168 66 168 66 169 110 169 111 169 66 170 44 170 61 170 61 171 43 171 64 171 64 172 42 172 65 172 65 173 42 173 68 173 68 174 41 174 70 174 71 175 40 175 80 175 66 176 111 176 44 176 111 177 112 177 44 177 44 178 112 178 25 178 25 179 112 179 113 179 113 180 114 180 25 180 25 181 114 181 27 181 114 182 115 182 27 182 27 183 115 183 93 183 93 184 115 184 116 184 93 185 116 185 96 185 116 186 109 186 96 186 27 187 93 187 87 187 28 188 87 188 86 188 30 189 86 189 84 189 84 190 90 190 30 190 34 191 89 191 81 191 37 192 81 192 75 192 61 193 44 193 43 193 64 194 43 194 42 194 68 195 42 195 41 195 70 196 41 196 71 196 71 197 41 197 40 197 80 198 40 198 39 198 81 199 37 199 34 199 89 200 34 200 33 200 89 201 33 201 90 201 90 202 33 202 30 202 86 203 30 203 28 203 87 204 28 204 27 204 0 205 117 205 118 205 0 206 118 206 3 206 3 207 118 207 119 207 3 208 119 208 120 208 3 209 120 209 6 209 6 210 120 210 121 210 6 211 121 211 8 211 8 212 121 212 122 212 8 213 122 213 10 213 10 214 122 214 123 214 10 215 123 215 124 215 10 216 124 216 12 216 12 217 124 217 117 217 12 218 117 218 0 218 101 219 117 219 124 219 101 220 124 220 102 220 102 221 124 221 103 221 103 222 124 222 123 222 103 223 123 223 122 223 103 224 122 224 104 224 104 225 122 225 105 225 105 226 122 226 121 226 105 227 121 227 120 227 105 228 120 228 106 228 106 229 120 229 107 229 107 230 120 230 119 230 107 231 119 231 118 231 107 232 118 232 108 232 108 233 118 233 117 233 108 234 117 234 101 234 125 235 58 235 100 235 58 236 125 236 126 236 58 237 126 237 127 237 58 238 127 238 51 238 51 239 127 239 128 239 51 240 128 240 45 240 45 241 128 241 129 241 45 242 129 242 14 242 14 243 129 243 130 243 14 244 130 244 15 244 15 245 130 245 131 245 15 246 131 246 24 246 24 247 131 247 125 247 24 248 125 248 100 248 109 249 132 249 110 249 110 250 132 250 133 250 110 251 133 251 111 251 111 252 133 252 134 252 111 253 134 253 135 253 111 254 135 254 112 254 112 255 135 255 136 255 112 256 136 256 113 256 113 257 136 257 137 257 113 258 137 258 114 258 114 259 137 259 115 259 115 260 137 260 138 260 115 261 138 261 116 261 116 262 138 262 139 262 116 263 139 263 132 263 116 264 132 264 109 264 125 265 132 265 126 265 126 266 132 266 139 266 126 267 139 267 127 267 127 268 139 268 138 268 127 269 138 269 137 269 127 270 137 270 128 270 128 271 137 271 129 271 129 272 137 272 136 272 129 273 136 273 130 273 130 274 136 274 135 274 130 275 135 275 131 275 131 276 135 276 134 276 131 277 134 277 133 277 131 278 133 278 125 278 125 279 133 279 132 279 1 280 72 280 52 280 1 281 52 281 2 281 58 282 59 282 100 282 100 283 59 283 99 283 23 284 7 284 9 284 9 285 36 285 23 285 26 286 45 286 13 286 13 287 45 287 14 287</p>
        </polylist>
      </mesh>
    </geometry>
  </library_geometries>
  <library_controllers/>
  <library_visual_scenes>
    <visual_scene id="Scene" name="Scene">
      <node id="VIS_gelenkhuelse_2" name="VIS_gelenkhuelse_2" type="NODE">
        <matrix sid="transform">1 0 0 0 0 1 0 0 0 0 1 0 0 0 0 1</matrix>
        <instance_geometry url="#VIS_gelenkhuelse_2-mesh" name="VIS_gelenkhuelse_2"/>
      </node>
    </visual_scene>
  </library_visual_scenes>
  <scene>
    <instance_visual_scene url="#Scene"/>
  </scene>
</COLLADA>