<?xml version="1.0" encoding="utf-8"?>
<COLLADA xmlns="http://www.collada.org/2005/11/COLLADASchema" version="1.4.1">
  <asset>
    <contributor>
      <author>Blender User</author>
      <authoring_tool>Blender 2.77.0 commit date:2016-04-05, commit time:18:12, hash:abf6f08</authoring_tool>
    </contributor>
    <created>2017-08-02T17:32:06</created>
    <modified>2017-08-02T17:32:06</modified>
    <unit name="meter" meter="1"/>
    <up_axis>Z_UP</up_axis>
  </asset>
  <library_images>
    <image id="PBRFULL_HighPylon-material_Base_Color_jpg" name="PBRFULL_HighPylon-material_Base_Color_jpg">
      <init_from>PBRFULL_HighPylon-material_Base_Color.jpg</init_from>
    </image>
  </library_images>
  <library_effects>
    <effect id="PBRFULL_HighPylon-effect">
      <profile_COMMON>
        <newparam sid="PBRFULL_HighPylon-material_Base_Color_jpg-surface">
          <surface type="2D">
            <init_from>PBRFULL_HighPylon-material_Base_Color_jpg</init_from>
          </surface>
        </newparam>
        <newparam sid="PBRFULL_HighPylon-material_Base_Color_jpg-sampler">
          <sampler2D>
            <source>PBRFULL_HighPylon-material_Base_Color_jpg-surface</source>
          </sampler2D>
        </newparam>
        <technique sid="common">
          <phong>
            <emission>
              <color sid="emission">0 0 0 1</color>
            </emission>
            <ambient>
              <color sid="ambient">0 0 0 1</color>
            </ambient>
            <diffuse>
              <texture texture="PBRFULL_HighPylon-material_Base_Color_jpg-sampler"/>
            </diffuse>
            <specular>
              <color sid="specular">0.5 0.5 0.5 1</color>
            </specular>
            <shininess>
              <float sid="shininess">50</float>
            </shininess>
            <index_of_refraction>
              <float sid="index_of_refraction">1</float>
            </index_of_refraction>
          </phong>
        </technique>
      </profile_COMMON>
    </effect>
  </library_effects>
  <library_materials>
    <material id="PBRFULL_HighPylon-material" name="PBRFULL_HighPylon">
      <instance_effect url="#PBRFULL_HighPylon-effect"/>
    </material>
  </library_materials>
  <library_geometries>
    <geometry id="Cylinder-mesh" name="Cylinder">
      <mesh>
        <source id="Cylinder-mesh-positions">
          <float_array id="Cylinder-mesh-positions-array" count="1152">0 0.07499998 0 0 0.07499998 4 0.01463174 0.07355886 0 0.01463174 0.07355886 4 0.02870124 0.06929093 0 0.02870124 0.06929093 4 0.04166775 0.06236016 0 0.04166775 0.06236016 4 0.05303299 0.05303299 0 0.05303299 0.05303299 4 0.06236022 0.04166775 0 0.06236022 0.04166775 4 0.06929093 0.02870124 0 0.06929093 0.02870124 4 0.07355886 0.01463174 0 0.07355886 0.01463174 4 0.07499998 0 0 0.07499998 0 4 0.07355886 -0.01463174 0 0.07355886 -0.01463174 4 0.06929093 -0.02870124 0 0.06929093 -0.02870124 4 0.06236022 -0.04166775 0 0.06236022 -0.04166775 4 0.05303299 -0.05303299 0 0.05303299 -0.05303299 4 0.04166775 -0.06236022 0 0.04166775 -0.06236022 4 0.02870124 -0.06929093 0 0.02870124 -0.06929093 4 0.01463174 -0.07355886 0 0.01463174 -0.07355886 4 0 -0.07499998 0 0 -0.07499998 4 -0.0146318 -0.07355886 0 -0.0146318 -0.07355886 4 -0.02870124 -0.06929093 0 -0.02870124 -0.06929093 4 -0.04166775 -0.06236016 0 -0.04166775 -0.06236016 4 -0.05303299 -0.05303293 0 -0.05303299 -0.05303293 4 -0.06236022 -0.04166769 0 -0.06236022 -0.04166769 4 -0.06929099 -0.02870118 0 -0.06929099 -0.02870118 4 -0.07355886 -0.01463168 0 -0.07355886 -0.01463168 4 -0.07499998 0 0 -0.07499998 0 4 -0.07355886 0.0146318 0 -0.07355886 0.0146318 4 -0.06929093 0.0287013 0 -0.06929093 0.0287013 4 -0.06236016 0.04166781 0 -0.06236016 0.04166781 4 -0.05303293 0.05303305 0 -0.05303293 0.05303305 4 -0.04166764 0.06236022 0 -0.04166764 0.06236022 4 -0.02870112 0.06929099 0 -0.02870112 0.06929099 4 -0.01463162 0.07355892 0 -0.01463162 0.07355892 4 -0.07355886 0.0146318 3.699089 0.04166775 -0.06236022 3.699089 0.01463174 0.07355886 3.699089 -0.05303299 -0.05303293 3.699089 0.07499998 0 3.699089 -0.06236016 0.04166781 3.699089 0.01463174 -0.07355886 3.699089 0.04166775 0.06236016 3.699089 -0.06929099 -0.02870118 3.699089 0.06929093 -0.02870124 3.699089 -0.04166764 0.06236022 3.699089 -0.0146318 -0.07355886 3.699089 0.06236022 0.04166775 3.699089 -0.07499998 0 3.699089 0.05303299 -0.05303299 3.699089 -0.01463162 0.07355892 3.699089 -0.04166775 -0.06236016 3.699089 0.07355886 0.01463174 3.699089 -0.06929093 0.0287013 3.699089 0.02870124 -0.06929093 3.699089 0.02870124 0.06929093 3.699089 -0.06236022 -0.04166769 3.699089 0.07355886 -0.01463174 3.699089 -0.05303293 0.05303305 3.699089 0 -0.07499998 3.699089 0.05303299 0.05303299 3.699089 -0.07355886 -0.01463168 3.699089 0.06236022 -0.04166775 3.699089 0 0.07499998 3.699089 -0.02870112 0.06929099 3.699089 -0.02870124 -0.06929093 3.699089 0.06929093 0.02870124 3.699089 -0.04313105 0.008579313 3.65033 0.02443176 -0.03656476 3.65033 0.008579313 0.04313111 3.65033 -0.0310958 -0.03109574 3.65033 0.04397606 0 3.65033 -0.0365647 0.02443182 3.65033 0.008579254 -0.04313105 3.65033 0.02443176 0.03656476 3.65033 -0.04062861 -0.01682883 3.65033 0.04062861 -0.01682889 3.65033 -0.0244317 0.03656482 3.65033 -0.008579313 -0.04313105 3.65033 0.03656476 0.02443176 3.65033 -0.04397606 0 3.65033 0.03109574 -0.03109574 3.65033 -0.008579194 0.04313111 3.65033 0 0.04397606 3.65033 0.04313105 0.008579313 3.65033 -0.02443182 -0.0365647 3.65033 -0.04062855 0.01682895 3.65033 0.01682889 -0.04062855 3.65033 0.01682889 0.04062861 3.65033 -0.03656476 -0.02443176 3.65033 0.04313105 -0.008579254 3.65033 -0.03109574 0.0310958 3.65033 0 -0.04397606 3.65033 0.03109574 0.0310958 3.65033 -0.04313105 -0.008579254 3.65033 0.03656476 -0.02443176 3.65033 -0.01682883 0.04062861 3.65033 -0.01682889 -0.04062855 3.65033 0.04062861 0.01682889 3.65033 -0.07355886 0.0146318 0.2392129 0.04166775 -0.06236022 0.2392129 0.01463174 0.07355886 0.2392129 -0.05303299 -0.05303293 0.2392129 0.07499998 0 0.2392129 -0.06236016 0.04166781 0.2392129 0.01463174 -0.07355886 0.2392129 0.04166775 0.06236016 0.2392129 -0.06929099 -0.02870118 0.2392129 0.06929093 -0.02870124 0.2392129 -0.04166764 0.06236022 0.2392129 -0.0146318 -0.07355886 0.2392129 0.06236022 0.04166775 0.2392129 -0.07499998 0 0.2392129 0.05303299 -0.05303299 0.2392129 -0.01463162 0.07355892 0.2392129 -0.04166775 -0.06236016 0.2392129 0.07355886 0.01463174 0.2392129 -0.06929093 0.0287013 0.2392129 0.02870124 -0.06929093 0.2392129 0.02870124 0.06929093 0.2392129 0 0.07499998 0.2392126 -0.06236022 -0.04166769 0.2392129 0.07355886 -0.01463174 0.2392129 -0.05303293 0.05303305 0.2392129 0 -0.07499998 0.2392129 0.05303299 0.05303299 0.2392129 -0.07355886 -0.01463168 0.2392129 0.06236022 -0.04166775 0.2392129 -0.02870112 0.06929099 0.2392129 -0.02870124 -0.06929093 0.2392129 0.06929093 0.02870124 0.2392129 0.03109574 0.0310958 0.30748 -0.02443182 -0.0365647 0.30748 -0.008579313 -0.04313105 0.30748 0.008579254 -0.04313105 0.30748 0.02443176 -0.03656476 0.30748 -0.04313105 -0.008579254 0.30748 -0.03656476 -0.02443176 0.30748 0.04313105 0.008579313 0.30748 0.03656476 0.02443176 0.30748 0.02443176 0.03656476 0.30748 0.008579313 0.04313111 0.30748 0.03656476 -0.02443176 0.30748 0.04313105 -0.008579254 0.30748 -0.04062855 0.01682895 0.30748 -0.04397606 0 0.30748 -0.04062861 -0.01682883 0.30748 -0.0310958 -0.03109574 0.30748 -0.01682883 0.04062861 0.30748 -0.03109574 0.0310958 0.30748 0.01682889 -0.04062855 0.30748 0.03109574 -0.03109574 0.30748 0 0.04397606 0.30748 0.04062861 -0.01682889 0.30748 0.04397606 0 0.30748 -0.01682889 -0.04062855 0.30748 0 -0.04397606 0.30748 0.01682889 0.04062861 0.30748 -0.008579194 0.04313111 0.30748 -0.0244317 0.03656482 0.30748 -0.0365647 0.02443182 0.30748 -0.04313105 0.008579313 0.30748 0.04062861 0.01682889 0.30748 0 0.07499998 0 0.01463174 0.07355886 0 0.01463174 0.07355886 4 0 0.07499998 4 0.02870124 0.06929093 0 0.02870124 0.06929093 4 0.04166775 0.06236016 0 0.04166775 0.06236016 4 0.05303299 0.05303299 0 0.05303299 0.05303299 4 0.06236022 0.04166775 0 0.06236022 0.04166775 4 0.06929093 0.02870124 0 0.06929093 0.02870124 4 0.07355886 0.01463174 0 0.07355886 0.01463174 4 0.07499998 0 0 0.07499998 0 4 0.07355886 -0.01463174 0 0.07355886 -0.01463174 4 0.06929093 -0.02870124 0 0.06929093 -0.02870124 4 0.06236022 -0.04166775 0 0.06236022 -0.04166775 4 0.05303299 -0.05303299 0 0.05303299 -0.05303299 4 0.04166775 -0.06236022 0 0.04166775 -0.06236022 4 0.02870124 -0.06929093 0 0.02870124 -0.06929093 4 0.01463174 -0.07355886 0 0.01463174 -0.07355886 4 0 -0.07499998 0 0 -0.07499998 4 -0.0146318 -0.07355886 0 -0.0146318 -0.07355886 4 -0.02870124 -0.06929093 0 -0.02870124 -0.06929093 4 -0.04166775 -0.06236016 0 -0.04166775 -0.06236016 4 -0.05303299 -0.05303293 0 -0.05303299 -0.05303293 4 -0.06236022 -0.04166769 0 -0.06236022 -0.04166769 4 -0.06929099 -0.02870118 0 -0.06929099 -0.02870118 4 -0.07355886 -0.01463168 0 -0.07355886 -0.01463168 4 -0.07499998 0 0 -0.07499998 0 4 -0.07355886 0.0146318 0 -0.07355886 0.0146318 4 -0.06929093 0.0287013 0 -0.06929093 0.0287013 4 -0.06236016 0.04166781 0 -0.06236016 0.04166781 4 -0.05303293 0.05303305 0 -0.05303293 0.05303305 4 -0.04166764 0.06236022 0 -0.04166764 0.06236022 4 -0.02870112 0.06929099 0 -0.02870112 0.06929099 4 -0.01463162 0.07355892 0 -0.01463162 0.07355892 4 0.05303299 0.05303299 3.699089 0.06236022 0.04166775 3.699089 0.06236022 -0.04166775 3.699089 0.06929093 -0.02870124 3.699089 -0.0146318 -0.07355886 3.699089 0 -0.07499998 3.699089 -0.07355886 -0.01463168 3.699089 -0.06929099 -0.02870118 3.699089 -0.05303293 0.05303305 3.699089 -0.04166764 0.06236022 3.699089 0.04166775 0.06236016 3.699089 0.07355886 -0.01463174 3.699089 0.01463174 -0.07355886 3.699089 -0.06236022 -0.04166769 3.699089 -0.06236016 0.04166781 3.699089 0.02870124 0.06929093 3.699089 0.07499998 0 3.699089 0.02870124 -0.06929093 3.699089 -0.05303299 -0.05303293 3.699089 -0.06929093 0.0287013 3.699089 -0.01463162 0.07355892 3.699089 0 0.07499998 3.699089 0.01463174 0.07355886 3.699089 0.07355886 0.01463174 3.699089 0.04166775 -0.06236022 3.699089 -0.04166775 -0.06236016 3.699089 -0.07355886 0.0146318 3.699089 -0.02870112 0.06929099 3.699089 0.06929093 0.02870124 3.699089 0.05303299 -0.05303299 3.699089 -0.02870124 -0.06929093 3.699089 -0.07499998 0 3.699089 0.03109574 0.0310958 3.65033 0.03656476 0.02443176 3.65033 0.03656476 -0.02443176 3.65033 0.04062861 -0.01682889 3.65033 -0.008579313 -0.04313105 3.65033 0 -0.04397606 3.65033 -0.04313105 -0.008579254 3.65033 -0.04062861 -0.01682883 3.65033 -0.03109574 0.0310958 3.65033 -0.0244317 0.03656482 3.65033 0.02443176 0.03656476 3.65033 0.04313105 -0.008579254 3.65033 0.008579254 -0.04313105 3.65033 -0.03656476 -0.02443176 3.65033 -0.0365647 0.02443182 3.65033 0.01682889 0.04062861 3.65033 0.04397606 0 3.65033 0.01682889 -0.04062855 3.65033 -0.0310958 -0.03109574 3.65033 -0.04062855 0.01682895 3.65033 -0.008579194 0.04313111 3.65033 0 0.04397606 3.65033 0.008579313 0.04313111 3.65033 0.04313105 0.008579313 3.65033 0.02443176 -0.03656476 3.65033 -0.02443182 -0.0365647 3.65033 -0.04313105 0.008579313 3.65033 -0.01682883 0.04062861 3.65033 0.04062861 0.01682889 3.65033 0.03109574 -0.03109574 3.65033 -0.01682889 -0.04062855 3.65033 -0.04397606 0 3.65033 0.05303299 0.05303299 0.2392129 0.06236022 0.04166775 0.2392129 0.06236022 -0.04166775 0.2392129 0.06929093 -0.02870124 0.2392129 -0.0146318 -0.07355886 0.2392129 0 -0.07499998 0.2392129 -0.07355886 -0.01463168 0.2392129 -0.06929099 -0.02870118 0.2392129 -0.05303293 0.05303305 0.2392129 -0.04166764 0.06236022 0.2392129 0.04166775 0.06236016 0.2392129 0.07355886 -0.01463174 0.2392129 0.01463174 -0.07355886 0.2392129 -0.06236022 -0.04166769 0.2392129 -0.06236016 0.04166781 0.2392129 0.02870124 0.06929093 0.2392129 0.07499998 0 0.2392129 0.02870124 -0.06929093 0.2392129 -0.05303299 -0.05303293 0.2392129 -0.06929093 0.0287013 0.2392129 -0.01463162 0.07355892 0.2392129 0 0.07499998 0.2392126 0.01463174 0.07355886 0.2392129 0.07355886 0.01463174 0.2392129 0.04166775 -0.06236022 0.2392129 -0.04166775 -0.06236016 0.2392129 -0.07355886 0.0146318 0.2392129 -0.02870112 0.06929099 0.2392129 0.06929093 0.02870124 0.2392129 0.05303299 -0.05303299 0.2392129 -0.02870124 -0.06929093 0.2392129 -0.07499998 0 0.2392129 -0.008579194 0.04313111 0.30748 0 0.04397606 0.30748 -0.01682883 0.04062861 0.30748 0.03656476 0.02443176 0.30748 0.04062861 0.01682889 0.30748 -0.008579313 -0.04313105 0.30748 0 -0.04397606 0.30748 -0.04062861 -0.01682883 0.30748 -0.03656476 -0.02443176 0.30748 -0.04062855 0.01682895 0.30748 -0.0365647 0.02443182 0.30748 -0.04313105 0.008579313 0.30748 -0.04397606 0 0.30748 0.03656476 -0.02443176 0.30748 0.04062861 -0.01682889 0.30748 0.008579254 -0.04313105 0.30748 -0.0310958 -0.03109574 0.30748 -0.02443182 -0.0365647 0.30748 -0.01682889 -0.04062855 0.30748 -0.0244317 0.03656482 0.30748 0.03109574 0.0310958 0.30748 0.04313105 -0.008579254 0.30748 0.01682889 -0.04062855 0.30748 0.02443176 -0.03656476 0.30748 0.03109574 -0.03109574 0.30748 -0.04313105 -0.008579254 0.30748 0.02443176 0.03656476 0.30748 0.04397606 0 0.30748 0.04313105 0.008579313 0.30748 -0.03109574 0.0310958 0.30748 0.01682889 0.04062861 0.30748 0.008579313 0.04313111 0.30748</float_array>
          <technique_common>
            <accessor source="#Cylinder-mesh-positions-array" count="384" stride="3">
              <param name="X" type="float"/>
              <param name="Y" type="float"/>
              <param name="Z" type="float"/>
            </accessor>
          </technique_common>
        </source>
        <source id="Cylinder-mesh-normals">
          <float_array id="Cylinder-mesh-normals-array" count="321">0 1 0 0.1950772 0.9807879 0 0.3826816 0.9238803 0 0.5555732 0.8314677 0 0.7071068 0.7071068 0 0.8314677 0.5555732 0 0.9238803 0.3826816 0 0.9807879 0.1950772 0 1 0 0 0.9807879 -0.1950772 0 0.9238803 -0.3826816 0 0.8314677 -0.5555732 0 0.7071068 -0.7071068 0 0.5555732 -0.8314677 0 0.3826816 -0.9238803 0 0.1950772 -0.9807879 0 0 -1 0 -0.1950772 -0.9807879 0 -0.3826816 -0.9238803 0 -0.5555732 -0.8314677 0 -0.7071068 -0.7071068 0 -0.8314677 -0.5555732 0 -0.9238803 -0.3826816 0 -0.9807879 -0.1950772 0 -1 0 0 -0.9807879 0.1950772 0 -0.9238803 0.3826816 0 -0.8314677 0.5555732 0 -0.7071068 0.7071068 0 -0.5555732 0.8314677 0 -0.3826816 0.9238803 0 0 0 1 -0.1950772 0.9807879 0 0 0 -1 0.7015028 0.4687367 -0.5368239 0.5965911 0.5965911 -0.5368039 0.7015143 0.4687443 -0.5368022 0.7015243 -0.4687205 -0.5368099 0.7794898 -0.3228622 -0.5368015 0.7015143 -0.4687443 -0.5368022 0 -0.8437067 -0.5368044 -0.1645901 -0.8274981 -0.5368025 -0.7794898 -0.3228622 -0.5368015 -0.8274981 -0.1645901 -0.5368025 -0.5965911 0.5965911 -0.5368039 -0.4687205 0.7015243 -0.5368099 0.4687443 0.7015143 -0.5368022 0.8274981 -0.1645901 -0.5368025 0.1645901 -0.8274981 -0.5368025 -0.7015143 -0.4687443 -0.5368022 -0.7015243 0.4687205 -0.5368099 -0.5965813 0.5965813 -0.5368255 0.3228622 0.7794898 -0.5368015 0.4687205 0.7015243 -0.5368099 0.8437067 0 -0.5368044 0.3228698 -0.7794778 -0.5368143 -0.5965911 -0.5965911 -0.5368039 -0.7015243 -0.4687205 -0.5368099 -0.7794898 0.3228622 -0.5368015 -0.7015028 0.4687367 -0.5368239 0 0.8437067 -0.5368044 -0.1645901 0.8274981 -0.5368025 0.1645901 0.8274981 -0.5368025 0.8274981 0.1645901 -0.5368025 0.4687443 -0.7015143 -0.5368022 0.3228622 -0.7794898 -0.5368015 -0.4687205 -0.7015243 -0.5368099 -0.8274981 0.1645901 -0.5368025 -0.7794778 0.3228698 -0.5368143 -0.3228622 0.7794898 -0.5368015 0.7794898 0.3228622 -0.5368015 0.5965911 -0.5965911 -0.5368039 -0.3228622 -0.7794898 -0.5368015 -0.8437067 0 -0.5368044 0.6437515 0.6437515 0.4137247 0.7569711 0.505797 0.4137201 0.8411118 -0.3483778 0.4137195 0.7569711 -0.505797 0.4137201 -0.1775937 -0.8929126 0.413724 0 -0.9104073 0.4137133 -0.8929126 -0.1775937 0.413724 -0.8411118 -0.3483778 0.4137195 -0.505797 0.7569711 0.4137201 -0.6437515 0.6437515 0.4137247 0.505797 0.7569711 0.4137201 0.8929126 -0.1775937 0.413724 0.1775937 -0.8929126 0.413724 -0.7569711 -0.505797 0.4137201 -0.7569711 0.505797 0.4137201 0.3483778 0.8411118 0.4137195 0.9104073 0 0.4137133 0.3483778 -0.8411118 0.4137195 -0.6437515 -0.6437515 0.4137247 -0.8411118 0.3483778 0.4137195 -0.1775937 0.8929126 0.413724 0 0.9104073 0.4137133 0.1775937 0.8929126 0.413724 0.8929126 0.1775937 0.413724 0.505797 -0.7569711 0.4137201 -0.505797 -0.7569711 0.4137201 -0.8929126 0.1775937 0.413724 -0.3483778 0.8411118 0.4137195 0.8411118 0.3483778 0.4137195 0.6437515 -0.6437515 0.4137247 -0.3483778 -0.8411118 0.4137195 -0.9104073 0 0.4137133 9.15583e-5 0 1</float_array>
          <technique_common>
            <accessor source="#Cylinder-mesh-normals-array" count="107" stride="3">
              <param name="X" type="float"/>
              <param name="Y" type="float"/>
              <param name="Z" type="float"/>
            </accessor>
          </technique_common>
        </source>
        <source id="Cylinder-mesh-map-0">
          <float_array id="Cylinder-mesh-map-0-array" count="2280">0.7344595 0.5809597 0.7205824 0.3368657 0.7344595 0.3373104 0.7205827 0.5805152 0.7058509 0.3366388 0.7205824 0.3368657 0.7058509 0.5802885 0.6908305 0.3366388 0.7058509 0.3366388 0.6908305 0.5802885 0.676099 0.3368657 0.6908305 0.3366388 0.676099 0.5805152 0.662222 0.3373104 0.676099 0.3368657 0.662222 0.58096 0.649733 0.3379561 0.662222 0.3373104 0.6292147 0.6453123 0.6185936 0.4008408 0.6292145 0.4016627 0.6185937 0.6444907 0.6061047 0.4001951 0.6185936 0.4008408 0.6061047 0.6438449 0.5922277 0.3997504 0.6061047 0.4001951 0.5922278 0.6434001 0.5774961 0.3995236 0.5922277 0.3997504 0.5774962 0.6431733 0.5624759 0.3995236 0.5774961 0.3995236 0.5624759 0.6431733 0.5477441 0.3997504 0.5624759 0.3995236 0.5477442 0.6434001 0.5338672 0.4001951 0.5477441 0.3997504 0.5338672 0.6438449 0.5213783 0.4008408 0.5338672 0.4001951 0.7575694 0.3160276 0.7469484 0.07155609 0.7575694 0.07237792 0.7469484 0.3152058 0.7344595 0.07091039 0.7469484 0.07155609 0.7344595 0.31456 0.7205827 0.07046568 0.7344595 0.07091039 0.7205827 0.3141153 0.7058509 0.07023888 0.7205827 0.07046568 0.7058509 0.3138885 0.6908305 0.07023888 0.7058509 0.07023888 0.6908305 0.3138886 0.676099 0.07046568 0.6908305 0.07023888 0.676099 0.3141153 0.6622219 0.07091039 0.676099 0.07046568 0.662222 0.3145601 0.649733 0.07155609 0.6622219 0.07091039 0.6292147 0.3160276 0.6185937 0.07155609 0.6292147 0.07237792 0.6185937 0.3152058 0.6061047 0.07091051 0.6185937 0.07155609 0.6061047 0.3145601 0.5922277 0.07046568 0.6061047 0.07091051 0.5922278 0.3141153 0.5774961 0.07023888 0.5922277 0.07046568 0.5774962 0.3138886 0.5624759 0.07023888 0.5774961 0.07023888 0.5624759 0.3138886 0.5477441 0.07046568 0.5624759 0.07023888 0.5477442 0.3141153 0.5338672 0.07091051 0.5477441 0.07046568 0.5338672 0.3145601 0.5213783 0.07155609 0.5338672 0.07091051 0.661563 0.7763087 0.5634801 0.8060618 0.6318098 0.678226 0.7575694 0.5824276 0.7469484 0.337956 0.7575694 0.3387778 0.7469484 0.337956 0.7344595 0.5809597 0.7344595 0.3373104 0.3751003 0.7411109 0.4102905 0.7839902 0.3619741 0.8743837 0.4193894 0.07048684 0.4055125 0.3774237 0.4055125 0.07093161 0.3207865 0.399545 0.3057662 0.7060369 0.3057662 0.399545 0.2877786 0.3782197 0.3016554 0.07217228 0.3016555 0.3786647 0.5008598 0.4016838 0.4902389 0.7073543 0.4902387 0.4008622 0.4193894 0.3997717 0.4055124 0.7067087 0.4055123 0.4002165 0.434121 0.07026034 0.4193894 0.3769791 0.4193894 0.07048684 0.3355181 0.3997717 0.3207865 0.7060373 0.3207865 0.399545 0.2752896 0.3775743 0.2877784 0.07172757 0.2877786 0.3782197 0.3600161 0.3782197 0.372505 0.07108163 0.372505 0.377574 0.4341209 0.399545 0.4193894 0.706264 0.4193894 0.3997717 0.4491412 0.07026004 0.4341211 0.3767524 0.434121 0.07026034 0.3493951 0.4002162 0.3355183 0.706264 0.3355181 0.3997717 0.2646687 0.3767521 0.2752895 0.07108217 0.2752896 0.3775743 0.3461392 0.3786644 0.3600161 0.07172775 0.3600161 0.3782197 0.4491412 0.399545 0.434121 0.7060373 0.4341209 0.399545 0.47775 0.07093214 0.4902387 0.3780694 0.47775 0.3774237 0.463873 0.07048684 0.4491413 0.3767521 0.4491412 0.07026004 0.361884 0.4008622 0.3493951 0.7067085 0.3493951 0.4002162 0.2771575 0.4002165 0.2646687 0.7073547 0.2646685 0.4008623 0.3314074 0.3788915 0.3461391 0.07217258 0.3461392 0.3786644 0.463873 0.3997717 0.4491413 0.7060373 0.4491412 0.399545 0.5008598 0.07239937 0.4902387 0.3780694 0.4902387 0.07157737 0.47775 0.07093214 0.463873 0.3769789 0.463873 0.07048684 0.372505 0.4016839 0.361884 0.7073543 0.361884 0.4008622 0.2910345 0.3997717 0.2771576 0.7067087 0.2771575 0.4002165 0.3163871 0.3788915 0.3314073 0.07239937 0.3314074 0.3788915 0.47775 0.4002165 0.463873 0.7062641 0.463873 0.3997717 0.4055125 0.07093161 0.3930236 0.3780694 0.3930235 0.07157754 0.3057662 0.399545 0.2910345 0.706264 0.2910345 0.3997717 0.3016555 0.3786647 0.3163871 0.07239937 0.3163871 0.3788915 0.4902387 0.4008622 0.47775 0.7067085 0.47775 0.4002165 0.4055123 0.4002165 0.3930236 0.7073543 0.3930235 0.4008619 0.6126184 0.9229031 0.6652819 0.9236922 0.6658979 0.9392163 0.4348636 0.9223268 0.4876039 0.9085929 0.4877319 0.9254004 0.4350863 0.7653403 0.4877317 0.7637487 0.4348638 0.7744471 0.7763003 0.2199587 0.829094 0.2040251 0.7758143 0.2269313 0.775453 0.2734219 0.829094 0.2988376 0.7758143 0.2825245 0.6120348 0.9041362 0.6652819 0.9236922 0.6122571 0.9138007 0.4348639 0.9028049 0.4876039 0.9085929 0.4347886 0.9124718 0.4350863 0.7653403 0.4887271 0.7342365 0.4881114 0.748217 0.4359336 0.8209268 0.4887274 0.8290492 0.4895564 0.8430185 0.7752306 0.2637574 0.828478 0.2833133 0.775453 0.2734219 0.6120348 0.9041362 0.6647744 0.8904024 0.6649028 0.9072098 0.4348639 0.9028049 0.4881111 0.8765748 0.4877319 0.8921067 0.4359336 0.7501702 0.4887271 0.7342365 0.4354474 0.7571429 0.4350863 0.8036332 0.4887274 0.8290492 0.4354474 0.8127359 0.7751556 0.2539025 0.8280987 0.2668309 0.7752306 0.2637574 0.6122574 0.8755074 0.6658979 0.844404 0.6652825 0.8583843 0.6120348 0.8846143 0.6647744 0.8904024 0.6119595 0.8942812 0.4350866 0.8936979 0.4887276 0.8625946 0.4881111 0.8765748 0.4359337 0.9492846 0.4887274 0.9574071 0.4895564 0.9713763 0.4348636 0.7939687 0.4881114 0.813525 0.4350863 0.8036332 0.7752306 0.2442356 0.8279706 0.2500236 0.7751556 0.2539025 0.6131044 0.8603374 0.6658979 0.844404 0.612618 0.8673101 0.6122574 0.8755074 0.6649026 0.8739161 0.6120348 0.8846143 0.4354477 0.8855007 0.4895561 0.850703 0.4887276 0.8625946 0.4354474 0.9410937 0.4881114 0.941883 0.4887274 0.9574071 0.4347886 0.7841138 0.4877317 0.7970424 0.4348636 0.7939687 0.775453 0.2351286 0.8280987 0.2335372 0.7752306 0.2442356 0.6126184 0.9229031 0.6667273 0.9531857 0.6131044 0.9310941 0.4350863 0.9319912 0.4877319 0.9254004 0.4881114 0.941883 0.4348638 0.7744471 0.4876036 0.7802349 0.4347886 0.7841138 0.775453 0.2351286 0.829094 0.2040251 0.828478 0.2180054 0.7758143 0.2825245 0.829923 0.3128069 0.7763003 0.2907152 0.7775303 0.1524391 0.8516601 0.150781 0.778096 0.1666969 0.6934067 0.7175498 0.7674664 0.7292298 0.6935243 0.732986 0.5204721 0.8754605 0.5946187 0.8759887 0.5944145 0.8843527 0.6944384 0.8036621 0.7684491 0.8173623 0.7680025 0.823766 0.6944384 0.8907395 0.7676708 0.8664638 0.7680025 0.8748237 0.7771818 0.1373013 0.8513283 0.142421 0.7775303 0.1524391 0.6935243 0.7024084 0.7673975 0.7201789 0.6934067 0.7175498 0.5213863 0.8483561 0.5946187 0.8759887 0.5208206 0.8611958 0.5213863 0.9354338 0.5953969 0.9270405 0.5221477 0.9482632 0.6938727 0.8764818 0.7674664 0.8575878 0.7676708 0.8664638 0.777064 0.1218652 0.851124 0.133545 0.7771818 0.1373013 0.6938727 0.6881439 0.7674666 0.7113006 0.6935243 0.7024084 0.5221478 0.8374345 0.5949504 0.8684601 0.5213863 0.8483561 0.5213863 0.9354338 0.5946187 0.9111579 0.5949506 0.9195178 0.6934067 0.8459078 0.7674664 0.8575878 0.6935243 0.861344 0.778096 0.07961952 0.8513283 0.1072519 0.7775298 0.09245914 0.7771818 0.1067238 0.8510549 0.124494 0.777064 0.1218652 0.6944384 0.6753041 0.7676708 0.7029365 0.6938727 0.6881439 0.6944384 0.7623816 0.7684491 0.7539883 0.6951999 0.7752112 0.5204721 0.9060381 0.5946187 0.9111579 0.5208206 0.921176 0.6934067 0.8459078 0.7674664 0.8396586 0.7673975 0.8485369 0.778096 0.07961952 0.8521066 0.09331959 0.8516601 0.09972333 0.7771818 0.1067238 0.8513283 0.1072519 0.851124 0.1156159 0.6951999 0.6643825 0.7680025 0.695408 0.6944384 0.6753041 0.6938727 0.7481238 0.7680025 0.7464657 0.6944384 0.7623816 0.5203546 0.8906021 0.5944145 0.9022819 0.5204721 0.9060381 0.6935243 0.8307664 0.7676708 0.8312945 0.7674664 0.8396586 0.778096 0.1666969 0.8521066 0.1583036 0.7788574 0.1795265 0.6935243 0.732986 0.7676708 0.7381058 0.6938727 0.7481238 0.5203546 0.8906021 0.5944145 0.8843527 0.5943455 0.8932307 0.6944384 0.8036621 0.7676708 0.8312945 0.6938727 0.8165019 0.6951999 0.9035692 0.7680025 0.8748237 0.7684491 0.8823463 0.06812584 0.003430366 0.07026141 0.9965439 0.06812572 0.9964337 0.07207769 0.003681361 0.07026141 0.9965439 0.07026147 0.003540813 0.05577284 0.003430366 0.05363714 0.9965439 0.0536372 0.003540754 0.0924496 0.01078402 0.09011173 0.9890045 0.09011167 0.0107091 0.08027958 0.01078402 0.07817554 0.9891882 0.07817554 0.0108928 0.03881752 0.003315269 0.03624916 0.9963188 0.03624898 0.003315269 0.04133671 0.003354012 0.0388177 0.9963188 0.03881752 0.003315269 0.04370975 0.003430068 0.04133689 0.9963576 0.04133671 0.003354012 0.01441627 -0.002641797 0.01181715 1.002271 0.01181697 -0.002641797 0.09455358 0.0108928 0.0924496 0.9890795 0.0924496 0.01078402 0.08261746 0.0107091 0.08027958 0.9890794 0.08027958 0.01078402 0.08509933 0.0106709 0.08261746 0.9890045 0.08261746 0.0107091 0.08762979 0.0106709 0.08509933 0.9889662 0.08509933 0.0106709 0.03135681 0.003430068 0.02922129 0.996544 0.02922111 0.003540515 0.05814588 0.00335431 0.05577278 0.9964334 0.05577284 0.003430366 0.01696568 -0.002602517 0.01441651 1.002272 0.01441627 -0.002641797 0.004704773 -0.002413809 0.002866983 1.002642 0.002866744 -0.002271592 0.006866037 -0.002525568 0.004704952 1.0025 0.004704773 -0.002413809 0.009267568 -0.002602517 0.006866276 1.002388 0.006866037 -0.002525568 0.04584544 0.003540515 0.04370987 0.9964336 0.04370975 0.003430068 0.06066507 0.003315508 0.05814582 0.9963576 0.05814588 0.00335431 0.01936721 -0.002525568 0.01696592 1.002311 0.01696568 -0.002602517 0.02152848 -0.002413809 0.01936739 1.002388 0.01936721 -0.002525568 0.02336651 -0.002271592 0.02152866 1.002499 0.02152848 -0.002413809 0.09011167 0.0107091 0.08762985 0.9889664 0.08762979 0.0106709 0.03372979 0.003354012 0.03135693 0.9964336 0.03135681 0.003430068 0.06323361 0.003315508 0.06066501 0.9963187 0.06066507 0.003315508 0.0657528 0.00335431 0.06323355 0.9963187 0.06323361 0.003315508 0.06812584 0.003430366 0.06575274 0.9963576 0.0657528 0.00335431 0.01181697 -0.002641797 0.009267747 1.002311 0.009267568 -0.002602517 0.04766166 0.003681063 0.04584556 0.996544 0.04584544 0.003540515 0.03624898 0.003315269 0.03372997 0.9963576 0.03372979 0.003354012 0.7344595 0.5809597 0.7205827 0.5805152 0.7205824 0.3368657 0.7205827 0.5805152 0.7058509 0.5802885 0.7058509 0.3366388 0.7058509 0.5802885 0.6908305 0.5802885 0.6908305 0.3366388 0.6908305 0.5802885 0.676099 0.5805152 0.676099 0.3368657 0.676099 0.5805152 0.662222 0.58096 0.662222 0.3373104 0.662222 0.58096 0.649733 0.5816057 0.649733 0.3379561 0.6292147 0.6453123 0.6185937 0.6444907 0.6185936 0.4008408 0.6185937 0.6444907 0.6061047 0.6438449 0.6061047 0.4001951 0.6061047 0.6438449 0.5922278 0.6434001 0.5922277 0.3997504 0.5922278 0.6434001 0.5774962 0.6431733 0.5774961 0.3995236 0.5774962 0.6431733 0.5624759 0.6431733 0.5624759 0.3995236 0.5624759 0.6431733 0.5477442 0.6434001 0.5477441 0.3997504 0.5477442 0.6434001 0.5338672 0.6438449 0.5338672 0.4001951 0.5338672 0.6438449 0.5213783 0.6444907 0.5213783 0.4008408 0.7575694 0.3160276 0.7469484 0.3152058 0.7469484 0.07155609 0.7469484 0.3152058 0.7344595 0.31456 0.7344595 0.07091039 0.7344595 0.31456 0.7205827 0.3141153 0.7205827 0.07046568 0.7205827 0.3141153 0.7058509 0.3138885 0.7058509 0.07023888 0.7058509 0.3138885 0.6908305 0.3138886 0.6908305 0.07023888 0.6908305 0.3138886 0.676099 0.3141153 0.676099 0.07046568 0.676099 0.3141153 0.662222 0.3145601 0.6622219 0.07091039 0.662222 0.3145601 0.649733 0.3152058 0.649733 0.07155609 0.6292147 0.3160276 0.6185937 0.3152058 0.6185937 0.07155609 0.6185937 0.3152058 0.6061047 0.3145601 0.6061047 0.07091051 0.6061047 0.3145601 0.5922278 0.3141153 0.5922277 0.07046568 0.5922278 0.3141153 0.5774962 0.3138886 0.5774961 0.07023888 0.5774962 0.3138886 0.5624759 0.3138886 0.5624759 0.07023888 0.5624759 0.3138886 0.5477442 0.3141153 0.5477441 0.07046568 0.5477442 0.3141153 0.5338672 0.3145601 0.5338672 0.07091051 0.5338672 0.3145601 0.5213783 0.3152058 0.5213783 0.07155609 0.5337272 0.7079791 0.5416206 0.6961658 0.551667 0.6861193 0.551667 0.6861193 0.5634801 0.678226 0.5337272 0.7079791 0.5766064 0.672789 0.5905412 0.6700173 0.6047489 0.6700171 0.6047489 0.6700171 0.6186836 0.672789 0.6318098 0.678226 0.6318098 0.678226 0.6436232 0.6861193 0.6536695 0.6961658 0.6536695 0.6961658 0.661563 0.7079793 0.6318098 0.678226 0.6670001 0.7211055 0.6697718 0.7350401 0.661563 0.7763087 0.6697718 0.7492479 0.6670001 0.7631825 0.661563 0.7763087 0.661563 0.7763087 0.6536695 0.7881222 0.6436231 0.7981687 0.6436231 0.7981687 0.6318098 0.8060618 0.661563 0.7763087 0.6186836 0.811499 0.6047489 0.8142707 0.5905412 0.8142707 0.5905412 0.8142707 0.5766063 0.8114988 0.5634801 0.8060618 0.5634801 0.8060618 0.5516669 0.7981684 0.5282901 0.7631825 0.5416204 0.788122 0.5337271 0.7763087 0.5282901 0.7631825 0.5282901 0.7631825 0.5255184 0.7492479 0.5255184 0.7350401 0.5255184 0.7350401 0.5282901 0.7211052 0.5282901 0.7631825 0.5337272 0.7079791 0.5634801 0.678226 0.5766064 0.672789 0.5766064 0.672789 0.6047489 0.6700171 0.5337272 0.7079791 0.6318098 0.678226 0.661563 0.7079793 0.6670001 0.7211055 0.6697718 0.7350401 0.6697718 0.7492479 0.661563 0.7763087 0.661563 0.7763087 0.6318098 0.8060618 0.6186836 0.811499 0.6186836 0.811499 0.5905412 0.8142707 0.5634801 0.8060618 0.5516669 0.7981684 0.5416204 0.788122 0.5282901 0.7631825 0.5282901 0.7631825 0.5282901 0.7211052 0.5337272 0.7079791 0.5337272 0.7079791 0.6047489 0.6700171 0.6318098 0.678226 0.6318098 0.678226 0.6670001 0.7211055 0.661563 0.7763087 0.661563 0.7763087 0.6186836 0.811499 0.5634801 0.8060618 0.5634801 0.8060618 0.5282901 0.7631825 0.5337272 0.7079791 0.5337272 0.7079791 0.6318098 0.678226 0.5634801 0.8060618 0.7575694 0.5824276 0.7469484 0.5816057 0.7469484 0.337956 0.7469484 0.337956 0.7469484 0.5816057 0.7344595 0.5809597 0.3619741 0.8743837 0.3480395 0.8771557 0.3338317 0.8771554 0.3338317 0.8771554 0.3198971 0.8743837 0.3067708 0.8689467 0.3067708 0.8689467 0.2949575 0.8610534 0.284911 0.8510069 0.284911 0.8510069 0.2770177 0.8391936 0.3067708 0.8689467 0.2715806 0.8260675 0.2688088 0.8121328 0.2688088 0.797925 0.2688088 0.797925 0.2715805 0.7839904 0.2770176 0.770864 0.2770176 0.770864 0.284911 0.7590507 0.3198969 0.7356737 0.2949573 0.7490043 0.3067707 0.7411109 0.3198969 0.7356737 0.3198969 0.7356737 0.3338316 0.7329019 0.3480394 0.7329019 0.3480394 0.7329019 0.3619741 0.7356737 0.3751003 0.7411109 0.3751003 0.7411109 0.3869136 0.7490043 0.39696 0.7590505 0.39696 0.7590505 0.4048534 0.770864 0.4102905 0.7839902 0.4102905 0.7839902 0.4130623 0.7979249 0.4130623 0.8121326 0.4130623 0.8121326 0.4102905 0.8260675 0.4102905 0.7839902 0.4048534 0.8391936 0.39696 0.8510069 0.3869136 0.8610534 0.3869136 0.8610534 0.3751003 0.8689467 0.3619741 0.8743837 0.3619741 0.8743837 0.3338317 0.8771554 0.3067708 0.8689467 0.3067708 0.8689467 0.2770177 0.8391936 0.2715806 0.8260675 0.2715806 0.8260675 0.2688088 0.797925 0.3198969 0.7356737 0.284911 0.7590507 0.2949573 0.7490043 0.3198969 0.7356737 0.3198969 0.7356737 0.3480394 0.7329019 0.3751003 0.7411109 0.3751003 0.7411109 0.39696 0.7590505 0.4102905 0.7839902 0.4102905 0.7839902 0.4102905 0.8260675 0.4048534 0.8391936 0.4048534 0.8391936 0.3869136 0.8610534 0.3619741 0.8743837 0.3619741 0.8743837 0.3067708 0.8689467 0.2715806 0.8260675 0.2688088 0.797925 0.2770176 0.770864 0.3198969 0.7356737 0.3198969 0.7356737 0.3751003 0.7411109 0.3619741 0.8743837 0.4102905 0.7839902 0.4048534 0.8391936 0.3619741 0.8743837 0.3619741 0.8743837 0.2715806 0.8260675 0.3198969 0.7356737 0.4193894 0.07048684 0.4193894 0.3769791 0.4055125 0.3774237 0.3207865 0.399545 0.3207865 0.7060373 0.3057662 0.7060369 0.2877786 0.3782197 0.2877784 0.07172757 0.3016554 0.07217228 0.5008598 0.4016838 0.5008599 0.7081759 0.4902389 0.7073543 0.4193894 0.3997717 0.4193894 0.706264 0.4055124 0.7067087 0.434121 0.07026034 0.4341211 0.3767524 0.4193894 0.3769791 0.3355181 0.3997717 0.3355183 0.706264 0.3207865 0.7060373 0.2752896 0.3775743 0.2752895 0.07108217 0.2877784 0.07172757 0.3600161 0.3782197 0.3600161 0.07172775 0.372505 0.07108163 0.4341209 0.399545 0.434121 0.7060373 0.4193894 0.706264 0.4491412 0.07026004 0.4491413 0.3767521 0.4341211 0.3767524 0.3493951 0.4002162 0.3493951 0.7067085 0.3355183 0.706264 0.2646687 0.3767521 0.2646687 0.07026004 0.2752895 0.07108217 0.3461392 0.3786644 0.3461391 0.07217258 0.3600161 0.07172775 0.4491412 0.399545 0.4491413 0.7060373 0.434121 0.7060373 0.47775 0.07093214 0.4902387 0.07157737 0.4902387 0.3780694 0.463873 0.07048684 0.463873 0.3769789 0.4491413 0.3767521 0.361884 0.4008622 0.361884 0.7073543 0.3493951 0.7067085 0.2771575 0.4002165 0.2771576 0.7067087 0.2646687 0.7073547 0.3314074 0.3788915 0.3314073 0.07239937 0.3461391 0.07217258 0.463873 0.3997717 0.463873 0.7062641 0.4491413 0.7060373 0.5008598 0.07239937 0.5008597 0.3788912 0.4902387 0.3780694 0.47775 0.07093214 0.47775 0.3774237 0.463873 0.3769789 0.372505 0.4016839 0.372505 0.7081761 0.361884 0.7073543 0.2910345 0.3997717 0.2910345 0.706264 0.2771576 0.7067087 0.3163871 0.3788915 0.3163871 0.07239937 0.3314073 0.07239937 0.47775 0.4002165 0.47775 0.7067085 0.463873 0.7062641 0.4055125 0.07093161 0.4055125 0.3774237 0.3930236 0.3780694 0.3057662 0.399545 0.3057662 0.7060369 0.2910345 0.706264 0.3016555 0.3786647 0.3016554 0.07217228 0.3163871 0.07239937 0.4902387 0.4008622 0.4902389 0.7073543 0.47775 0.7067085 0.4055123 0.4002165 0.4055124 0.7067087 0.3930236 0.7073543 0.6126184 0.9229031 0.6122571 0.9138007 0.6652819 0.9236922 0.4348636 0.9223268 0.4347886 0.9124718 0.4876039 0.9085929 0.4350863 0.7653403 0.4881114 0.748217 0.4877317 0.7637487 0.7763003 0.2199587 0.8299225 0.1921334 0.829094 0.2040251 0.775453 0.2734219 0.828478 0.2833133 0.829094 0.2988376 0.6120348 0.9041362 0.6649028 0.9072098 0.6652819 0.9236922 0.4348639 0.9028049 0.4877319 0.8921067 0.4876039 0.9085929 0.4350863 0.7653403 0.4354474 0.7571429 0.4887271 0.7342365 0.4359336 0.8209268 0.4354474 0.8127359 0.4887274 0.8290492 0.7752306 0.2637574 0.8280987 0.2668309 0.828478 0.2833133 0.6120348 0.9041362 0.6119595 0.8942812 0.6647744 0.8904024 0.4348639 0.9028049 0.4350866 0.8936979 0.4881111 0.8765748 0.4359336 0.7501702 0.4895561 0.722345 0.4887271 0.7342365 0.4350863 0.8036332 0.4881114 0.813525 0.4887274 0.8290492 0.7751556 0.2539025 0.8279706 0.2500236 0.8280987 0.2668309 0.6122574 0.8755074 0.612618 0.8673101 0.6658979 0.844404 0.6120348 0.8846143 0.6649026 0.8739161 0.6647744 0.8904024 0.4350866 0.8936979 0.4354477 0.8855007 0.4887276 0.8625946 0.4359337 0.9492846 0.4354474 0.9410937 0.4887274 0.9574071 0.4348636 0.7939687 0.4877317 0.7970424 0.4881114 0.813525 0.7752306 0.2442356 0.8280987 0.2335372 0.8279706 0.2500236 0.6131044 0.8603374 0.666727 0.8325122 0.6658979 0.844404 0.6122574 0.8755074 0.6652825 0.8583843 0.6649026 0.8739161 0.4354477 0.8855007 0.4359339 0.878528 0.4895561 0.850703 0.4354474 0.9410937 0.4350863 0.9319912 0.4881114 0.941883 0.4347886 0.7841138 0.4876036 0.7802349 0.4877317 0.7970424 0.775453 0.2351286 0.828478 0.2180054 0.8280987 0.2335372 0.6126184 0.9229031 0.6658979 0.9392163 0.6667273 0.9531857 0.4350863 0.9319912 0.4348636 0.9223268 0.4877319 0.9254004 0.4348638 0.7744471 0.4877317 0.7637487 0.4876036 0.7802349 0.775453 0.2351286 0.7758143 0.2269313 0.829094 0.2040251 0.7758143 0.2825245 0.829094 0.2988376 0.829923 0.3128069 0.7775303 0.1524391 0.8513283 0.142421 0.8516601 0.150781 0.6934067 0.7175498 0.7673975 0.7201789 0.7674664 0.7292298 0.5204721 0.8754605 0.5208206 0.8611958 0.5946187 0.8759887 0.6944384 0.8036621 0.6951999 0.7927405 0.7684491 0.8173623 0.6944384 0.8907395 0.6938727 0.8764818 0.7676708 0.8664638 0.7771818 0.1373013 0.851124 0.133545 0.8513283 0.142421 0.6935243 0.7024084 0.7674666 0.7113006 0.7673975 0.7201789 0.5213863 0.8483561 0.5949504 0.8684601 0.5946187 0.8759887 0.5213863 0.9354338 0.5949506 0.9195178 0.5953969 0.9270405 0.6938727 0.8764818 0.6935243 0.861344 0.7674664 0.8575878 0.777064 0.1218652 0.8510549 0.124494 0.851124 0.133545 0.6938727 0.6881439 0.7676708 0.7029365 0.7674666 0.7113006 0.5221478 0.8374345 0.5953969 0.8620563 0.5949504 0.8684601 0.5213863 0.9354338 0.5208206 0.921176 0.5946187 0.9111579 0.6934067 0.8459078 0.7673975 0.8485369 0.7674664 0.8575878 0.778096 0.07961952 0.8516601 0.09972333 0.8513283 0.1072519 0.7771818 0.1067238 0.851124 0.1156159 0.8510549 0.124494 0.6944384 0.6753041 0.7680025 0.695408 0.7676708 0.7029365 0.6944384 0.7623816 0.7680025 0.7464657 0.7684491 0.7539883 0.5204721 0.9060381 0.5944145 0.9022819 0.5946187 0.9111579 0.6934067 0.8459078 0.6935243 0.8307664 0.7674664 0.8396586 0.778096 0.07961952 0.7788572 0.06869804 0.8521066 0.09331959 0.7771818 0.1067238 0.7775298 0.09245914 0.8513283 0.1072519 0.6951999 0.6643825 0.7684491 0.6890043 0.7680025 0.695408 0.6938727 0.7481238 0.7676708 0.7381058 0.7680025 0.7464657 0.5203546 0.8906021 0.5943455 0.8932307 0.5944145 0.9022819 0.6935243 0.8307664 0.6938727 0.8165019 0.7676708 0.8312945 0.778096 0.1666969 0.8516601 0.150781 0.8521066 0.1583036 0.6935243 0.732986 0.7674664 0.7292298 0.7676708 0.7381058 0.5203546 0.8906021 0.5204721 0.8754605 0.5944145 0.8843527 0.6944384 0.8036621 0.7680025 0.823766 0.7676708 0.8312945 0.6951999 0.9035692 0.6944384 0.8907395 0.7680025 0.8748237 0.06812584 0.003430366 0.07026147 0.003540813 0.07026141 0.9965439 0.07207769 0.003681361 0.07207763 0.9966845 0.07026141 0.9965439 0.05577284 0.003430366 0.05577278 0.9964334 0.05363714 0.9965439 0.0924496 0.01078402 0.0924496 0.9890795 0.09011173 0.9890045 0.08027958 0.01078402 0.08027958 0.9890794 0.07817554 0.9891882 0.03881752 0.003315269 0.0388177 0.9963188 0.03624916 0.9963188 0.04133671 0.003354012 0.04133689 0.9963576 0.0388177 0.9963188 0.04370975 0.003430068 0.04370987 0.9964336 0.04133689 0.9963576 0.01441627 -0.002641797 0.01441651 1.002272 0.01181715 1.002271 0.09455358 0.0108928 0.09455358 0.9891882 0.0924496 0.9890795 0.08261746 0.0107091 0.08261746 0.9890045 0.08027958 0.9890794 0.08509933 0.0106709 0.08509933 0.9889662 0.08261746 0.9890045 0.08762979 0.0106709 0.08762985 0.9889664 0.08509933 0.9889662 0.03135681 0.003430068 0.03135693 0.9964336 0.02922129 0.996544 0.05814588 0.00335431 0.05814582 0.9963576 0.05577278 0.9964334 0.01696568 -0.002602517 0.01696592 1.002311 0.01441651 1.002272 0.004704773 -0.002413809 0.004704952 1.0025 0.002866983 1.002642 0.006866037 -0.002525568 0.006866276 1.002388 0.004704952 1.0025 0.009267568 -0.002602517 0.009267747 1.002311 0.006866276 1.002388 0.04584544 0.003540515 0.04584556 0.996544 0.04370987 0.9964336 0.06066507 0.003315508 0.06066501 0.9963187 0.05814582 0.9963576 0.01936721 -0.002525568 0.01936739 1.002388 0.01696592 1.002311 0.02152848 -0.002413809 0.02152866 1.002499 0.01936739 1.002388 0.02336651 -0.002271592 0.02336668 1.002642 0.02152866 1.002499 0.09011167 0.0107091 0.09011173 0.9890045 0.08762985 0.9889664 0.03372979 0.003354012 0.03372997 0.9963576 0.03135693 0.9964336 0.06323361 0.003315508 0.06323355 0.9963187 0.06066501 0.9963187 0.0657528 0.00335431 0.06575274 0.9963576 0.06323355 0.9963187 0.06812584 0.003430366 0.06812572 0.9964337 0.06575274 0.9963576 0.01181697 -0.002641797 0.01181715 1.002271 0.009267747 1.002311 0.04766166 0.003681063 0.04766178 0.9966847 0.04584556 0.996544 0.03624898 0.003315269 0.03624916 0.9963188 0.03372997 0.9963576</float_array>
          <technique_common>
            <accessor source="#Cylinder-mesh-map-0-array" count="1140" stride="2">
              <param name="S" type="float"/>
              <param name="T" type="float"/>
            </accessor>
          </technique_common>
        </source>
        <vertices id="Cylinder-mesh-vertices">
          <input semantic="POSITION" source="#Cylinder-mesh-positions"/>
        </vertices>
        <polylist material="PBRFULL_HighPylon-material" count="380">
          <input semantic="VERTEX" source="#Cylinder-mesh-vertices" offset="0"/>
          <input semantic="NORMAL" source="#Cylinder-mesh-normals" offset="1"/>
          <input semantic="TEXCOORD" source="#Cylinder-mesh-map-0" offset="2" set="0"/>
          <vcount>3 3 3 3 3 3 3 3 3 3 3 3 3 3 3 3 3 3 3 3 3 3 3 3 3 3 3 3 3 3 3 3 3 3 3 3 3 3 3 3 3 3 3 3 3 3 3 3 3 3 3 3 3 3 3 3 3 3 3 3 3 3 3 3 3 3 3 3 3 3 3 3 3 3 3 3 3 3 3 3 3 3 3 3 3 3 3 3 3 3 3 3 3 3 3 3 3 3 3 3 3 3 3 3 3 3 3 3 3 3 3 3 3 3 3 3 3 3 3 3 3 3 3 3 3 3 3 3 3 3 3 3 3 3 3 3 3 3 3 3 3 3 3 3 3 3 3 3 3 3 3 3 3 3 3 3 3 3 3 3 3 3 3 3 3 3 3 3 3 3 3 3 3 3 3 3 3 3 3 3 3 3 3 3 3 3 3 3 3 3 3 3 3 3 3 3 3 3 3 3 3 3 3 3 3 3 3 3 3 3 3 3 3 3 3 3 3 3 3 3 3 3 3 3 3 3 3 3 3 3 3 3 3 3 3 3 3 3 3 3 3 3 3 3 3 3 3 3 3 3 3 3 3 3 3 3 3 3 3 3 3 3 3 3 3 3 3 3 3 3 3 3 3 3 3 3 3 3 3 3 3 3 3 3 3 3 3 3 3 3 3 3 3 3 3 3 3 3 3 3 3 3 3 3 3 3 3 3 3 3 3 3 3 3 3 3 3 3 3 3 3 3 3 3 3 3 3 3 3 3 3 3 3 3 3 3 3 3 3 3 3 3 3 3 3 3 3 3 3 3 3 3 3 3 3 3 3 3 3 3 3 3 3 3 3 3 3 3 3 3 3 3 3 3 3 3 3 3 3 3 </vcount>
          <p>341 0 0 193 1 1 192 0 2 342 1 3 196 2 4 193 1 5 335 2 6 198 3 7 196 2 8 330 3 9 200 4 10 198 3 11 320 4 12 202 5 13 200 4 14 321 5 15 204 6 16 202 5 17 348 6 18 206 7 19 204 6 20 343 7 21 208 8 22 206 7 23 336 8 24 210 9 25 208 8 26 331 9 27 212 10 28 210 9 29 323 10 30 214 11 31 212 10 32 322 11 33 216 12 34 214 11 35 349 12 36 218 13 37 216 12 38 344 13 39 220 14 40 218 13 41 337 14 42 222 15 43 220 14 44 332 15 45 224 16 46 222 15 47 325 16 48 226 17 49 224 16 50 324 17 51 228 18 52 226 17 53 350 18 54 230 19 55 228 18 56 345 19 57 232 20 58 230 19 59 338 20 60 234 21 61 232 20 62 333 21 63 236 22 64 234 21 65 327 22 66 238 23 67 236 22 68 326 23 69 240 24 70 238 23 71 351 24 72 242 25 73 240 24 74 346 25 75 244 26 76 242 25 77 339 26 78 246 27 79 244 26 80 334 27 81 248 28 82 246 27 83 328 28 84 250 29 85 248 28 86 329 29 87 252 30 88 250 29 89 229 31 90 213 31 91 245 31 92 347 30 93 254 32 94 252 30 95 254 32 96 341 0 97 192 0 98 38 33 99 46 33 100 62 33 101 256 4 102 11 5 103 257 5 104 259 10 105 23 11 106 258 11 107 261 16 108 35 17 109 260 17 110 263 22 111 47 23 112 262 23 113 264 28 114 59 29 115 265 29 116 266 3 117 9 4 118 256 4 119 267 9 120 21 10 121 259 10 122 268 15 123 33 16 124 261 16 125 269 21 126 45 22 127 263 22 128 270 27 129 57 28 130 264 28 131 271 2 132 7 3 133 266 3 134 272 8 135 19 9 136 267 9 137 273 14 138 31 15 139 268 15 140 274 20 141 43 21 142 269 21 143 275 26 144 55 27 145 270 27 146 277 0 147 63 32 148 1 0 149 278 1 150 5 2 151 271 2 152 279 7 153 17 8 154 272 8 155 280 13 156 29 14 157 273 14 158 281 19 159 41 20 160 274 20 161 282 25 162 53 26 163 275 26 164 283 30 165 63 32 166 276 32 167 277 0 168 3 1 169 278 1 170 284 6 171 15 7 172 279 7 173 285 12 174 27 13 175 280 13 176 286 18 177 39 19 178 281 19 179 287 24 180 51 25 181 282 25 182 257 5 183 13 6 184 284 6 185 258 11 186 25 12 187 285 12 188 260 17 189 37 18 190 286 18 191 262 23 192 49 24 193 287 24 194 265 29 195 61 30 196 283 30 197 289 34 198 89 35 199 76 36 200 290 37 201 73 38 202 91 39 203 293 40 204 75 41 205 292 41 206 295 42 207 90 43 208 294 43 209 296 44 210 74 45 211 297 45 212 298 46 213 89 35 214 288 35 215 299 47 216 73 38 217 291 38 218 293 40 219 70 48 220 88 40 221 295 42 222 85 49 223 72 42 224 302 50 225 87 51 226 296 44 227 298 46 228 84 52 229 71 53 230 299 47 231 68 54 232 86 47 233 305 55 234 70 48 235 300 48 236 306 56 237 85 49 238 301 57 239 307 58 240 69 59 241 302 50 242 309 60 243 79 61 244 92 60 245 310 62 246 84 52 247 303 52 248 304 54 249 81 63 250 68 54 251 305 55 252 65 64 253 83 65 254 313 66 255 67 56 256 306 56 257 314 67 258 82 68 259 307 58 260 315 69 261 79 61 262 308 61 263 309 60 264 66 62 265 310 62 266 311 63 267 95 70 268 81 63 269 312 64 270 78 71 271 65 64 272 318 72 273 80 66 274 313 66 275 319 73 276 64 67 277 314 67 278 289 34 279 95 70 280 316 70 281 317 71 282 91 39 283 78 71 284 292 41 285 94 72 286 318 72 287 319 73 288 90 43 289 77 73 290 297 45 291 93 69 292 315 69 293 154 74 294 355 75 295 140 75 296 137 76 297 365 77 298 156 77 299 139 78 300 358 79 301 357 78 302 155 80 303 359 81 304 377 80 305 138 82 306 381 83 307 371 82 308 135 84 309 372 74 310 154 74 311 151 85 312 366 76 313 137 76 314 134 86 315 358 79 316 153 79 317 150 87 318 359 81 319 136 81 320 152 83 321 362 88 322 381 83 323 148 89 324 378 84 325 135 84 326 132 90 327 373 85 328 151 85 329 147 91 330 367 86 331 134 86 332 150 87 333 368 92 334 360 87 335 146 93 336 362 88 337 133 88 338 143 94 339 181 95 340 149 95 341 130 96 342 382 89 343 148 89 344 145 97 345 379 90 346 132 90 347 129 98 348 374 91 349 147 91 350 144 99 351 368 92 352 131 92 353 146 93 354 363 100 355 361 93 356 143 94 357 354 101 358 352 94 359 130 96 360 181 95 361 383 96 362 159 102 363 380 97 364 145 97 365 142 103 366 375 98 367 129 98 368 158 104 369 369 99 370 144 99 371 128 100 372 364 105 373 363 100 374 140 75 375 356 102 376 159 102 377 156 77 378 376 103 379 142 103 380 158 104 381 357 78 382 370 104 383 155 80 384 364 105 385 141 105 386 157 101 387 371 82 388 354 101 389 353 0 390 111 32 391 112 0 392 177 30 393 111 32 394 187 32 395 168 5 396 127 6 397 191 6 398 185 16 399 107 17 400 162 17 401 166 21 402 104 22 403 175 22 404 173 26 405 101 27 406 189 27 407 190 25 408 115 26 409 173 26 410 174 24 411 96 25 412 190 25 413 182 10 414 124 11 415 171 11 416 163 15 417 121 16 418 185 16 419 176 20 420 118 21 421 166 21 422 161 19 423 99 20 424 176 20 425 184 18 426 114 19 427 161 19 428 188 29 429 125 30 430 177 30 431 160 4 432 108 5 433 168 5 434 172 9 435 105 10 436 182 10 437 179 14 438 102 15 439 163 15 440 164 13 441 116 14 442 179 14 443 180 12 444 97 13 445 164 13 446 165 23 447 109 24 448 174 24 449 169 3 450 122 4 451 160 4 452 183 8 453 119 9 454 172 9 455 167 7 456 100 8 457 183 8 458 191 6 459 113 7 460 167 7 461 162 17 462 126 18 463 184 18 464 178 28 465 106 29 466 188 29 467 186 2 468 103 3 469 169 3 470 170 1 471 117 2 472 186 2 473 353 0 474 98 1 475 170 1 476 171 11 477 110 12 478 180 12 479 175 22 480 123 23 481 165 23 482 189 27 483 120 28 484 178 28 485 341 0 486 342 1 487 193 1 488 342 1 489 335 2 490 196 2 491 335 2 492 330 3 493 198 3 494 330 3 495 320 4 496 200 4 497 320 4 498 321 5 499 202 5 500 321 5 501 348 6 502 204 6 503 348 6 504 343 7 505 206 7 506 343 7 507 336 8 508 208 8 509 336 8 510 331 9 511 210 9 512 331 9 513 323 10 514 212 10 515 323 10 516 322 11 517 214 11 518 322 11 519 349 12 520 216 12 521 349 12 522 344 13 523 218 13 524 344 13 525 337 14 526 220 14 527 337 14 528 332 15 529 222 15 530 332 15 531 325 16 532 224 16 533 325 16 534 324 17 535 226 17 536 324 17 537 350 18 538 228 18 539 350 18 540 345 19 541 230 19 542 345 19 543 338 20 544 232 20 545 338 20 546 333 21 547 234 21 548 333 21 549 327 22 550 236 22 551 327 22 552 326 23 553 238 23 554 326 23 555 351 24 556 240 24 557 351 24 558 346 25 559 242 25 560 346 25 561 339 26 562 244 26 563 339 26 564 334 27 565 246 27 566 334 27 567 328 28 568 248 28 569 328 28 570 329 29 571 250 29 572 329 29 573 347 30 574 252 30 575 197 31 576 194 31 577 195 31 578 195 31 579 255 31 580 197 31 581 253 31 582 251 31 583 249 31 584 249 31 585 247 31 586 245 31 587 245 31 588 243 31 589 241 31 590 241 31 591 239 31 592 245 31 593 237 31 594 235 31 595 229 31 596 233 31 597 231 31 598 229 31 599 229 31 600 227 31 601 225 31 602 225 31 603 223 31 604 229 31 605 221 31 606 219 31 607 217 31 608 217 31 609 215 31 610 213 31 611 213 31 612 211 31 613 205 31 614 209 106 615 207 31 616 205 31 617 205 31 618 203 31 619 201 31 620 201 31 621 199 31 622 205 31 623 197 31 624 255 31 625 253 31 626 253 31 627 249 31 628 197 31 629 245 31 630 239 31 631 237 31 632 235 31 633 233 31 634 229 31 635 229 31 636 223 31 637 221 31 638 221 31 639 217 31 640 213 31 641 211 31 642 209 106 643 205 31 644 205 31 645 199 31 646 197 31 647 197 31 648 249 31 649 245 31 650 245 31 651 237 31 652 229 31 653 229 31 654 221 31 655 213 31 656 213 31 657 205 31 658 197 31 659 197 31 660 245 31 661 213 31 662 347 30 663 340 32 664 254 32 665 254 32 666 340 32 667 341 0 668 62 33 669 0 33 670 2 33 671 2 33 672 4 33 673 6 33 674 6 33 675 8 33 676 10 33 677 10 33 678 12 33 679 6 33 680 14 33 681 16 33 682 18 33 683 18 33 684 20 33 685 22 33 686 22 33 687 24 33 688 30 33 689 26 33 690 28 33 691 30 33 692 30 33 693 32 33 694 34 33 695 34 33 696 36 33 697 38 33 698 38 33 699 40 33 700 42 33 701 42 33 702 44 33 703 46 33 704 46 33 705 48 33 706 50 33 707 50 33 708 52 33 709 46 33 710 54 33 711 56 33 712 58 33 713 58 33 714 60 33 715 62 33 716 62 33 717 2 33 718 6 33 719 6 33 720 12 33 721 14 33 722 14 33 723 18 33 724 30 33 725 24 33 726 26 33 727 30 33 728 30 33 729 34 33 730 38 33 731 38 33 732 42 33 733 46 33 734 46 33 735 52 33 736 54 33 737 54 33 738 58 33 739 62 33 740 62 33 741 6 33 742 14 33 743 18 33 744 22 33 745 30 33 746 30 33 747 38 33 748 62 33 749 46 33 750 54 33 751 62 33 752 62 33 753 14 33 754 30 33 755 256 4 756 9 4 757 11 5 758 259 10 759 21 10 760 23 11 761 261 16 762 33 16 763 35 17 764 263 22 765 45 22 766 47 23 767 264 28 768 57 28 769 59 29 770 266 3 771 7 3 772 9 4 773 267 9 774 19 9 775 21 10 776 268 15 777 31 15 778 33 16 779 269 21 780 43 21 781 45 22 782 270 27 783 55 27 784 57 28 785 271 2 786 5 2 787 7 3 788 272 8 789 17 8 790 19 9 791 273 14 792 29 14 793 31 15 794 274 20 795 41 20 796 43 21 797 275 26 798 53 26 799 55 27 800 277 0 801 276 32 802 63 32 803 278 1 804 3 1 805 5 2 806 279 7 807 15 7 808 17 8 809 280 13 810 27 13 811 29 14 812 281 19 813 39 19 814 41 20 815 282 25 816 51 25 817 53 26 818 283 30 819 61 30 820 63 32 821 277 0 822 1 0 823 3 1 824 284 6 825 13 6 826 15 7 827 285 12 828 25 12 829 27 13 830 286 18 831 37 18 832 39 19 833 287 24 834 49 24 835 51 25 836 257 5 837 11 5 838 13 6 839 258 11 840 23 11 841 25 12 842 260 17 843 35 17 844 37 18 845 262 23 846 47 23 847 49 24 848 265 29 849 59 29 850 61 30 851 289 34 852 288 35 853 89 35 854 290 37 855 291 38 856 73 38 857 293 40 858 88 40 859 75 41 860 295 42 861 72 42 862 90 43 863 296 44 864 87 51 865 74 45 866 298 46 867 71 53 868 89 35 869 299 47 870 86 47 871 73 38 872 293 40 873 300 48 874 70 48 875 295 42 876 301 57 877 85 49 878 302 50 879 69 59 880 87 51 881 298 46 882 303 52 883 84 52 884 299 47 885 304 54 886 68 54 887 305 55 888 83 65 889 70 48 890 306 56 891 67 56 892 85 49 893 307 58 894 82 68 895 69 59 896 309 60 897 308 61 898 79 61 899 310 62 900 66 62 901 84 52 902 304 54 903 311 63 904 81 63 905 305 55 906 312 64 907 65 64 908 313 66 909 80 66 910 67 56 911 314 67 912 64 67 913 82 68 914 315 69 915 93 69 916 79 61 917 309 60 918 92 60 919 66 62 920 311 63 921 316 70 922 95 70 923 312 64 924 317 71 925 78 71 926 318 72 927 94 72 928 80 66 929 319 73 930 77 73 931 64 67 932 289 34 933 76 36 934 95 70 935 317 71 936 290 37 937 91 39 938 292 41 939 75 41 940 94 72 941 319 73 942 294 43 943 90 43 944 297 45 945 74 45 946 93 69 947 154 74 948 372 74 949 355 75 950 137 76 951 366 76 952 365 77 953 139 78 954 153 79 955 358 79 956 155 80 957 136 81 958 359 81 959 138 82 960 152 83 961 381 83 962 135 84 963 378 84 964 372 74 965 151 85 966 373 85 967 366 76 968 134 86 969 367 86 970 358 79 971 150 87 972 360 87 973 359 81 974 152 83 975 133 88 976 362 88 977 148 89 978 382 89 979 378 84 980 132 90 981 379 90 982 373 85 983 147 91 984 374 91 985 367 86 986 150 87 987 131 92 988 368 92 989 146 93 990 361 93 991 362 88 992 143 94 993 352 94 994 181 95 995 130 96 996 383 96 997 382 89 998 145 97 999 380 97 1000 379 90 1001 129 98 1002 375 98 1003 374 91 1004 144 99 1005 369 99 1006 368 92 1007 146 93 1008 128 100 1009 363 100 1010 143 94 1011 157 101 1012 354 101 1013 130 96 1014 149 95 1015 181 95 1016 159 102 1017 356 102 1018 380 97 1019 142 103 1020 376 103 1021 375 98 1022 158 104 1023 370 104 1024 369 99 1025 128 100 1026 141 105 1027 364 105 1028 140 75 1029 355 75 1030 356 102 1031 156 77 1032 365 77 1033 376 103 1034 158 104 1035 139 78 1036 357 78 1037 155 80 1038 377 80 1039 364 105 1040 157 101 1041 138 82 1042 371 82 1043 353 0 1044 187 32 1045 111 32 1046 177 30 1047 125 30 1048 111 32 1049 168 5 1050 108 5 1051 127 6 1052 185 16 1053 121 16 1054 107 17 1055 166 21 1056 118 21 1057 104 22 1058 173 26 1059 115 26 1060 101 27 1061 190 25 1062 96 25 1063 115 26 1064 174 24 1065 109 24 1066 96 25 1067 182 10 1068 105 10 1069 124 11 1070 163 15 1071 102 15 1072 121 16 1073 176 20 1074 99 20 1075 118 21 1076 161 19 1077 114 19 1078 99 20 1079 184 18 1080 126 18 1081 114 19 1082 188 29 1083 106 29 1084 125 30 1085 160 4 1086 122 4 1087 108 5 1088 172 9 1089 119 9 1090 105 10 1091 179 14 1092 116 14 1093 102 15 1094 164 13 1095 97 13 1096 116 14 1097 180 12 1098 110 12 1099 97 13 1100 165 23 1101 123 23 1102 109 24 1103 169 3 1104 103 3 1105 122 4 1106 183 8 1107 100 8 1108 119 9 1109 167 7 1110 113 7 1111 100 8 1112 191 6 1113 127 6 1114 113 7 1115 162 17 1116 107 17 1117 126 18 1118 178 28 1119 120 28 1120 106 29 1121 186 2 1122 117 2 1123 103 3 1124 170 1 1125 98 1 1126 117 2 1127 353 0 1128 112 0 1129 98 1 1130 171 11 1131 124 11 1132 110 12 1133 175 22 1134 104 22 1135 123 23 1136 189 27 1137 101 27 1138 120 28 1139</p>
        </polylist>
      </mesh>
    </geometry>
  </library_geometries>
  <library_controllers/>
  <library_visual_scenes>
    <visual_scene id="Scene" name="Scene">
      <node id="pylon" name="pylon" type="NODE">
        <matrix sid="transform">1 0 0 0 0 1 0 0 0 0 1.5 0 0 0 0 1</matrix>
        <instance_geometry url="#Cylinder-mesh" name="pylon">
          <bind_material>
            <technique_common>
              <instance_material symbol="PBRFULL_HighPylon-material" target="#PBRFULL_HighPylon-material"/>
            </technique_common>
          </bind_material>
        </instance_geometry>
      </node>
    </visual_scene>
  </library_visual_scenes>
  <scene>
    <instance_visual_scene url="#Scene"/>
  </scene>
</COLLADA>