<?xml version="1.0" encoding="utf-8"?>
<COLLADA xmlns="http://www.collada.org/2005/11/COLLADASchema" version="1.4.1">
  <asset>
    <contributor>
      <author>Blender User</author>
      <authoring_tool>Blender 2.77.0 commit date:2016-04-05, commit time:18:12, hash:abf6f08</authoring_tool>
    </contributor>
    <created>2017-05-11T17:17:55</created>
    <modified>2017-05-11T17:17:55</modified>
    <unit name="meter" meter="1"/>
    <up_axis>Z_UP</up_axis>
  </asset>
  <library_images>
    <image id="PBRFULL_Hip-material_Base_Color_jpg_002" name="PBRFULL_Hip-material_Base_Color_jpg_002">
      <init_from>PBRFULL_Hip-material_Base_Color.jpg</init_from>
    </image>
  </library_images>
  <library_effects>
    <effect id="PBRFULL_Shoulder2-l-effect">
      <profile_COMMON>
        <newparam sid="PBRFULL_Hip-material_Base_Color_jpg_002-surface">
          <surface type="2D">
            <init_from>PBRFULL_Hip-material_Base_Color_jpg_002</init_from>
          </surface>
        </newparam>
        <newparam sid="PBRFULL_Hip-material_Base_Color_jpg_002-sampler">
          <sampler2D>
            <source>PBRFULL_Hip-material_Base_Color_jpg_002-surface</source>
          </sampler2D>
        </newparam>
        <technique sid="common">
          <phong>
            <emission>
              <color sid="emission">0 0 0 1</color>
            </emission>
            <ambient>
              <color sid="ambient">0 0 0 1</color>
            </ambient>
            <diffuse>
              <texture texture="PBRFULL_Hip-material_Base_Color_jpg_002-sampler"/>
            </diffuse>
            <specular>
              <color sid="specular">0.5 0.5 0.5 1</color>
            </specular>
            <shininess>
              <float sid="shininess">50</float>
            </shininess>
            <index_of_refraction>
              <float sid="index_of_refraction">1</float>
            </index_of_refraction>
          </phong>
        </technique>
      </profile_COMMON>
    </effect>
  </library_effects>
  <library_materials>
    <material id="PBRFULL_Shoulder2-l-material" name="PBRFULL_Shoulder2-l">
      <instance_effect url="#PBRFULL_Shoulder2-l-effect"/>
    </material>
  </library_materials>
  <library_geometries>
    <geometry id="Cylinder_003-mesh" name="Cylinder.003">
      <mesh>
        <source id="Cylinder_003-mesh-positions">
          <float_array id="Cylinder_003-mesh-positions-array" count="198">0 0 -0.02949982 0.01148051 0.02771621 -0.02949982 0 0.02999997 -0.02949982 -0.01148045 0.02771621 -0.02949982 -0.02121317 0.02121317 -0.02949982 -0.02771621 0.01148045 -0.02949982 -0.02999997 0 -0.02949982 -0.02771621 -0.01148051 -0.02949982 -0.02121317 -0.02121317 -0.02949982 -0.01148045 -0.02771621 -0.02949982 0 -0.02999997 -0.02949982 0.01148045 -0.02771621 -0.02949982 0.02121317 -0.02121317 -0.02949982 0.02771621 -0.01148051 -0.02949982 0.02999997 0 -0.02949982 0.02771621 0.01148045 -0.02949982 0.02121317 0.02121317 -0.02949982 0 0 0.02949982 0.01148051 0.02771621 0.02949982 0 0.02999997 0.02949982 -0.01148039 0.02771627 0.02949982 -0.02121311 0.02121323 0.02949982 -0.02771621 0.01148051 0.02949982 -0.02999997 0 0.02949982 -0.02771627 -0.01148039 0.02949982 -0.02121323 -0.02121311 0.02949982 -0.01148051 -0.02771621 0.02949982 0 -0.02999997 0.02949982 0.01148045 -0.02771627 0.02949982 0.02121317 -0.02121323 0.02949982 0.02771621 -0.01148051 0.02949982 0.02999997 0 0.02949982 0.02771627 0.01148045 0.02949982 0.02121317 0.02121317 0.02949982 0.02121317 0.02121317 -0.02949982 0.02771621 0.01148045 -0.02949982 0.02999997 0 -0.02949982 0.02771621 -0.01148051 -0.02949982 0.02121317 -0.02121317 -0.02949982 0.01148045 -0.02771621 -0.02949982 0 -0.02999997 -0.02949982 -0.01148045 -0.02771621 -0.02949982 -0.02121317 -0.02121317 -0.02949982 -0.02771621 -0.01148051 -0.02949982 -0.02999997 0 -0.02949982 -0.02771621 0.01148045 -0.02949982 -0.02121317 0.02121317 -0.02949982 -0.01148045 0.02771621 -0.02949982 0 0.02999997 -0.02949982 0.01148051 0.02771621 -0.02949982 0.02121317 0.02121317 0.02949982 0.02771627 0.01148045 0.02949982 0.02999997 0 0.02949982 0.02771621 -0.01148051 0.02949982 0.02121317 -0.02121323 0.02949982 0.01148045 -0.02771627 0.02949982 0 -0.02999997 0.02949982 -0.01148051 -0.02771621 0.02949982 -0.02121323 -0.02121311 0.02949982 -0.02771627 -0.01148039 0.02949982 -0.02999997 0 0.02949982 -0.02771621 0.01148051 0.02949982 -0.02121311 0.02121323 0.02949982 -0.01148039 0.02771627 0.02949982 0 0.02999997 0.02949982 0.01148051 0.02771621 0.02949982</float_array>
          <technique_common>
            <accessor source="#Cylinder_003-mesh-positions-array" count="66" stride="3">
              <param name="X" type="float"/>
              <param name="Y" type="float"/>
              <param name="Z" type="float"/>
            </accessor>
          </technique_common>
        </source>
        <source id="Cylinder_003-mesh-normals">
          <float_array id="Cylinder_003-mesh-normals-array" count="99">0.7071068 0.7071068 0 0.9238803 0.3826816 0 1 0 0 0.9238803 -0.3826816 0 0.7071068 -0.7071068 0 0.3826816 -0.9238803 0 0 -1 0 -0.3826816 -0.9238803 0 -0.7071068 -0.7071068 0 -0.9238803 -0.3826816 0 -1 0 0 -0.9238803 0.3826816 0 -0.7071068 0.7071068 0 -0.3826816 0.9238803 0 0 1 0 0.3826816 0.9238803 0 0 0 -1 -1.26753e-7 0 -1 1.26754e-7 0 -1 0 0 -1 -1.69006e-7 0 -1 -1.26754e-7 0 -1 0 0 -1 1.69006e-7 0 -1 0 0 1 -1.26753e-7 0 1 0 0 1 0 0 1 0 0 1 1.69005e-7 0 1 1.26753e-7 0 1 0 0 1 0 0 1</float_array>
          <technique_common>
            <accessor source="#Cylinder_003-mesh-normals-array" count="33" stride="3">
              <param name="X" type="float"/>
              <param name="Y" type="float"/>
              <param name="Z" type="float"/>
            </accessor>
          </technique_common>
        </source>
        <source id="Cylinder_003-mesh-map-0">
          <float_array id="Cylinder_003-mesh-map-0-array" count="384">0.2996968 0.7464208 0.1718261 0.840104 0.1738458 0.8384461 0.3235319 0.8032539 0.1693246 0.840807 0.1718261 0.840104 0.3238493 0.8649961 0.1667532 0.840413 0.1693246 0.840807 0.2998722 0.9218671 0.1645033 0.8390962 0.1667532 0.840413 0.2561174 0.9651383 0.1628906 0.8370255 0.1645033 0.8390962 0.1994184 0.9883767 0.1621698 0.8344645 0.1628906 0.8370255 0.1384459 0.988363 0.162333 0.8318172 0.1621698 0.8344645 0.08172053 0.9651282 0.1635014 0.829484 0.162333 0.8318172 0.03795331 0.9219134 0.1654938 0.8278347 0.1635014 0.829484 0.01393485 0.8651495 0.1679894 0.8271424 0.1654938 0.8278347 0.01343363 0.8034142 0.1705758 0.827541 0.1679894 0.8271424 0.03724312 0.7464833 0.1728663 0.8288583 0.1705758 0.827541 0.08090311 0.7030608 0.1745262 0.8309313 0.1728663 0.8288583 0.1377509 0.6796154 0.1753013 0.8334736 0.1745262 0.8309313 0.1992104 0.6796154 0.1750652 0.8361126 0.1753013 0.8334736 0.1738458 0.8384461 0.256046 0.7030478 0.2996968 0.7464208 0.3281751 0.7972799 0.1736805 0.8280118 0.3046542 0.7404972 0.1736805 0.8280118 0.261194 0.6970368 0.3046542 0.7404972 0.1736805 0.8280118 0.2044104 0.6735173 0.261194 0.6970368 0.1736805 0.8280118 0.1429486 0.6735172 0.2044104 0.6735173 0.1736805 0.8280118 0.08616566 0.6970385 0.1429486 0.6735172 0.1736805 0.8280118 0.04270559 0.7404984 0.08616566 0.6970385 0.1736805 0.8280118 0.01918584 0.7972823 0.04270559 0.7404984 0.1736805 0.8280118 0.01918601 0.8587437 0.01918584 0.7972823 0.1736805 0.8280118 0.04270714 0.9155268 0.01918601 0.8587437 0.1736805 0.8280118 0.08616709 0.9589868 0.04270714 0.9155268 0.1736805 0.8280118 0.1429507 0.9825063 0.08616709 0.9589868 0.1736805 0.8280118 0.2044125 0.9825064 0.1429507 0.9825063 0.1736805 0.8280118 0.2611953 0.9589855 0.2044125 0.9825064 0.1736805 0.8280118 0.3046555 0.9155253 0.2611953 0.9589855 0.1736805 0.8280118 0.328175 0.8587417 0.3046555 0.9155253 0.1736805 0.8280118 0.3281751 0.7972799 0.328175 0.8587417 0.1546258 0.8453742 0.2856004 0.932888 0.2421405 0.9763479 0.1546258 0.8453742 0.2421405 0.9763479 0.1853572 0.999869 0.1546258 0.8453742 0.1853572 0.999869 0.1238958 0.9998689 0.1546258 0.8453742 0.1238958 0.9998689 0.06711232 0.9763492 0.1546258 0.8453742 0.06711232 0.9763492 0.02365207 0.9328891 0.1546258 0.8453742 0.02365207 0.9328891 1.31031e-4 0.8761057 0.1546258 0.8453742 1.31031e-4 0.8761057 1.31091e-4 0.8146443 0.1546258 0.8453742 1.31091e-4 0.8146443 0.02365094 0.7578608 0.1546258 0.8453742 0.02365094 0.7578608 0.06711107 0.7144006 0.1546258 0.8453742 0.06711107 0.7144006 0.1238943 0.6908795 0.1546258 0.8453742 0.1238943 0.6908795 0.185356 0.6908794 0.1546258 0.8453742 0.185356 0.6908794 0.2421395 0.7143993 0.1546258 0.8453742 0.2421395 0.7143993 0.2855994 0.7578595 0.1546258 0.8453742 0.2855994 0.7578595 0.3091205 0.8146428 0.1546258 0.8453742 0.3091205 0.8146428 0.3091205 0.8761045 0.1546258 0.8453742 0.3091205 0.8761045 0.2856004 0.932888 0.2996968 0.7464208 0.3235319 0.8032539 0.1718261 0.840104 0.3235319 0.8032539 0.3238493 0.8649961 0.1693246 0.840807 0.3238493 0.8649961 0.2998722 0.9218671 0.1667532 0.840413 0.2998722 0.9218671 0.2561174 0.9651383 0.1645033 0.8390962 0.2561174 0.9651383 0.1994184 0.9883767 0.1628906 0.8370255 0.1994184 0.9883767 0.1384459 0.988363 0.1621698 0.8344645 0.1384459 0.988363 0.08172053 0.9651282 0.162333 0.8318172 0.08172053 0.9651282 0.03795331 0.9219134 0.1635014 0.829484 0.03795331 0.9219134 0.01393485 0.8651495 0.1654938 0.8278347 0.01393485 0.8651495 0.01343363 0.8034142 0.1679894 0.8271424 0.01343363 0.8034142 0.03724312 0.7464833 0.1705758 0.827541 0.03724312 0.7464833 0.08090311 0.7030608 0.1728663 0.8288583 0.08090311 0.7030608 0.1377509 0.6796154 0.1745262 0.8309313 0.1377509 0.6796154 0.1992104 0.6796154 0.1753013 0.8334736 0.1992104 0.6796154 0.256046 0.7030478 0.1750652 0.8361126 0.1738458 0.8384461 0.1750652 0.8361126 0.256046 0.7030478</float_array>
          <technique_common>
            <accessor source="#Cylinder_003-mesh-map-0-array" count="192" stride="2">
              <param name="S" type="float"/>
              <param name="T" type="float"/>
            </accessor>
          </technique_common>
        </source>
        <vertices id="Cylinder_003-mesh-vertices">
          <input semantic="POSITION" source="#Cylinder_003-mesh-positions"/>
        </vertices>
        <polylist material="PBRFULL_Shoulder2-l-material" count="64">
          <input semantic="VERTEX" source="#Cylinder_003-mesh-vertices" offset="0"/>
          <input semantic="NORMAL" source="#Cylinder_003-mesh-normals" offset="1"/>
          <input semantic="TEXCOORD" source="#Cylinder_003-mesh-map-0" offset="2" set="0"/>
          <vcount>3 3 3 3 3 3 3 3 3 3 3 3 3 3 3 3 3 3 3 3 3 3 3 3 3 3 3 3 3 3 3 3 3 3 3 3 3 3 3 3 3 3 3 3 3 3 3 3 3 3 3 3 3 3 3 3 3 3 3 3 3 3 3 3 </vcount>
          <p>50 0 0 35 1 1 34 0 2 51 1 3 36 2 4 35 1 5 52 2 6 37 3 7 36 2 8 53 3 9 38 4 10 37 3 11 54 4 12 39 5 13 38 4 14 55 5 15 40 6 16 39 5 17 56 6 18 41 7 19 40 6 20 57 7 21 42 8 22 41 7 23 58 8 24 43 9 25 42 8 26 59 9 27 44 10 28 43 9 29 60 10 30 45 11 31 44 10 32 61 11 33 46 12 34 45 11 35 62 12 36 47 13 37 46 12 38 63 13 39 48 14 40 47 13 41 64 14 42 49 15 43 48 14 44 34 0 45 65 15 46 50 0 47 16 16 48 0 16 49 1 16 50 0 17 51 2 17 52 1 17 53 0 18 54 3 18 55 2 18 56 0 19 57 4 19 58 3 19 59 0 16 60 5 16 61 4 16 62 0 16 63 6 16 64 5 16 65 0 16 66 7 16 67 6 16 68 0 20 69 8 20 70 7 20 71 0 19 72 9 19 73 8 19 74 0 18 75 10 18 76 9 18 77 0 21 78 11 21 79 10 21 80 0 22 81 12 22 82 11 22 83 0 23 84 13 23 85 12 23 86 0 16 87 14 16 88 13 16 89 0 16 90 15 16 91 14 16 92 0 16 93 16 16 94 15 16 95 17 24 96 33 24 97 18 24 98 17 25 99 18 25 100 19 25 101 17 26 102 19 26 103 20 26 104 17 27 105 20 27 106 21 27 107 17 28 108 21 28 109 22 28 110 17 28 111 22 28 112 23 28 113 17 28 114 23 28 115 24 28 116 17 28 117 24 28 118 25 28 119 17 29 120 25 29 121 26 29 122 17 30 123 26 30 124 27 30 125 17 31 126 27 31 127 28 31 128 17 32 129 28 32 130 29 32 131 17 28 132 29 28 133 30 28 134 17 28 135 30 28 136 31 28 137 17 28 138 31 28 139 32 28 140 17 28 141 32 28 142 33 28 143 50 0 144 51 1 145 35 1 146 51 1 147 52 2 148 36 2 149 52 2 150 53 3 151 37 3 152 53 3 153 54 4 154 38 4 155 54 4 156 55 5 157 39 5 158 55 5 159 56 6 160 40 6 161 56 6 162 57 7 163 41 7 164 57 7 165 58 8 166 42 8 167 58 8 168 59 9 169 43 9 170 59 9 171 60 10 172 44 10 173 60 10 174 61 11 175 45 11 176 61 11 177 62 12 178 46 12 179 62 12 180 63 13 181 47 13 182 63 13 183 64 14 184 48 14 185 64 14 186 65 15 187 49 15 188 34 0 189 49 15 190 65 15 191</p>
        </polylist>
      </mesh>
    </geometry>
  </library_geometries>
  <library_controllers/>
  <library_visual_scenes>
    <visual_scene id="Scene" name="Scene">
      <node id="l_shoulder_2_mesh" name="l_shoulder_2_mesh" type="NODE">
        <matrix sid="transform">1 0 0 0 0 1 0 0 0 0 1 0 0 0 0 1</matrix>
        <instance_geometry url="#Cylinder_003-mesh" name="l_shoulder_2_mesh">
          <bind_material>
            <technique_common>
              <instance_material symbol="PBRFULL_Shoulder2-l-material" target="#PBRFULL_Shoulder2-l-material"/>
            </technique_common>
          </bind_material>
        </instance_geometry>
      </node>
    </visual_scene>
  </library_visual_scenes>
  <scene>
    <instance_visual_scene url="#Scene"/>
  </scene>
</COLLADA>