<?xml version="1.0" encoding="utf-8"?>
<COLLADA xmlns="http://www.collada.org/2005/11/COLLADASchema" version="1.4.1">
  <asset>
    <contributor>
      <author>Blender User</author>
      <authoring_tool>Blender 2.78.0</authoring_tool>
    </contributor>
    <created>2017-09-19T10:03:52</created>
    <modified>2017-09-19T10:03:52</modified>
    <unit name="meter" meter="1"/>
    <up_axis>Z_UP</up_axis>
  </asset>
  <library_images>
    <image id="PBRFULL_Sonar-material_Base_Color_jpg" name="PBRFULL_Sonar-material_Base_Color_jpg">
      <init_from>PBRFULL_Sonar-material_Base_Color.jpg</init_from>
    </image>
  </library_images>
  <library_effects>
    <effect id="PBRFULL_Sonar-effect">
      <profile_COMMON>
        <newparam sid="PBRFULL_Sonar-material_Base_Color_jpg-surface">
          <surface type="2D">
            <init_from>PBRFULL_Sonar-material_Base_Color_jpg</init_from>
          </surface>
        </newparam>
        <newparam sid="PBRFULL_Sonar-material_Base_Color_jpg-sampler">
          <sampler2D>
            <source>PBRFULL_Sonar-material_Base_Color_jpg-surface</source>
          </sampler2D>
        </newparam>
        <technique sid="common">
          <phong>
            <emission>
              <color sid="emission">0 0 0 1</color>
            </emission>
            <ambient>
              <color sid="ambient">0 0 0 1</color>
            </ambient>
            <diffuse>
              <texture texture="PBRFULL_Sonar-material_Base_Color_jpg-sampler"/>
            </diffuse>
            <specular>
              <color sid="specular">0.25 0.25 0.25 1</color>
            </specular>
            <shininess>
              <float sid="shininess">50</float>
            </shininess>
            <index_of_refraction>
              <float sid="index_of_refraction">1</float>
            </index_of_refraction>
          </phong>
        </technique>
      </profile_COMMON>
    </effect>
  </library_effects>
  <library_materials>
    <material id="PBRFULL_Sonar-material" name="PBRFULL_Sonar">
      <instance_effect url="#PBRFULL_Sonar-effect"/>
    </material>
  </library_materials>
  <library_geometries>
    <geometry id="Front_Sonar_001-mesh" name="Front Sonar.001">
      <mesh>
        <source id="Front_Sonar_001-mesh-positions">
          <float_array id="Front_Sonar_001-mesh-positions-array" count="504">-0.04749143 0.1378945 0.01851356 -0.04749143 0.134329 0.01851356 -0.05725872 0.134329 0.01154679 -0.05725872 0.1378945 0.01154679 -0.06106555 0.134329 1.69374e-4 -0.06106549 0.1378945 1.69397e-4 -0.0574578 0.134329 -0.01127254 -0.0574578 0.1378945 -0.01127254 -0.04781359 0.134329 -0.01840901 -0.04781365 0.1378945 -0.01840901 -0.03581655 0.134329 -0.01851356 -0.03581655 0.1378945 -0.01851356 -0.02604943 0.134329 -0.01154673 -0.02604943 0.1378945 -0.01154679 -0.0222426 0.134329 -1.69325e-4 -0.0222426 0.1378945 -1.69405e-4 -0.02585029 0.134329 0.01127254 -0.02585029 0.1378945 0.01127254 -0.03549438 0.134329 0.01840901 -0.03549432 0.1378945 0.01840901 -0.00217092 0.1224107 0.01851356 1.87494e-4 0.1250846 0.01851356 0.009184896 0.1171493 0.01840901 0.00682646 0.1144753 0.01840901 0.01641792 0.1107701 0.01127254 0.01405948 0.108096 0.01127254 0.01912361 0.1083837 -1.69406e-4 0.01676505 0.1057097 -1.69324e-4 0.01626855 0.1109018 -0.01154679 0.01391017 0.1082277 -0.01154673 0.008943259 0.1173624 -0.01851356 0.006584942 0.1146883 -0.01851356 -5.4168e-5 0.1252979 -0.01840901 -0.002412438 0.1226238 -0.01840901 -0.007287085 0.1316771 -0.01127254 -0.009645462 0.1290031 -0.01127254 -0.009992837 0.1340634 1.69397e-4 -0.01235121 0.1313894 1.69374e-4 -0.007137775 0.1315454 0.01154679 -0.009496152 0.1288714 0.01154679 0.03698807 0.08372581 0.01851356 0.03390288 0.08193892 0.01851356 0.02900767 0.09039092 0.01154679 0.03209286 0.09217786 0.01154679 0.0270996 0.09368515 1.69374e-4 0.0301851 0.09547203 1.69397e-4 0.02890789 0.09056323 -0.01127254 0.03199321 0.09235018 -0.01127254 0.03374141 0.08221769 -0.01840901 0.03682667 0.08400464 -0.01840901 0.03975409 0.07183623 -0.01851356 0.04283922 0.07362318 -0.01851356 0.04464924 0.06338423 -0.01154673 0.04773437 0.06517118 -0.01154679 0.04655694 0.06009006 -1.69325e-4 0.0496425 0.06187695 -1.69405e-4 0.04474902 0.06321197 0.01127254 0.04783421 0.06499886 0.01127254 0.0399155 0.07155752 0.01840901 0.04300069 0.0733444 0.01840901 0.05313652 0.03497499 0.01851356 0.05664712 0.03559881 0.01851356 0.05874633 0.02378708 0.01840901 0.0552361 0.02316308 0.01840901 0.06043422 0.01429164 0.01127254 0.05692356 0.01366776 0.01127254 0.06106555 0.01073962 -1.69406e-4 0.05755496 0.01011574 -1.69325e-4 0.06039935 0.01448774 -0.01154679 0.05688875 0.0138638 -0.01154673 0.05869013 0.02410405 -0.01851356 0.05517971 0.02348029 -0.01851356 0.05659055 0.03591609 -0.01840901 0.05308032 0.03529196 -0.01840901 0.05490309 0.04541128 -0.01127254 0.05139267 0.04478734 -0.01127254 0.05427157 0.0489633 1.69397e-4 0.05076134 0.0483396 1.69374e-4 0.05493777 0.04521524 0.01154679 0.05142748 0.04459136 0.01154679 0.05664712 -0.03559881 0.01851356 0.05493777 -0.04521524 0.01154679 0.05142748 -0.04459136 0.01154679 0.05313652 -0.03497499 0.01851356 0.05427157 -0.0489633 1.69398e-4 0.05076134 -0.0483396 1.69375e-4 0.05490309 -0.04541128 -0.01127254 0.05139267 -0.04478734 -0.01127254 0.05659055 -0.03591609 -0.01840901 0.05308032 -0.03529196 -0.01840901 0.05869013 -0.02410405 -0.01851356 0.05517971 -0.02348029 -0.01851356 0.06039935 -0.01448774 -0.01154679 0.05688875 -0.0138638 -0.01154673 0.06106555 -0.01073962 -1.69405e-4 0.05755496 -0.01011574 -1.69324e-4 0.06043422 -0.01429164 0.01127254 0.05692356 -0.01366776 0.01127254 0.05874633 -0.02378708 0.01840901 0.0552361 -0.02316308 0.01840901 0.03390288 -0.08193892 0.01851356 0.0399155 -0.07155746 0.01840901 0.04300069 -0.07334434 0.01840901 0.03698807 -0.08372581 0.01851356 0.04783421 -0.0649988 0.01127254 0.04474902 -0.06321191 0.01127254 0.0496425 -0.06187695 -1.69404e-4 0.04655694 -0.06009 -1.69324e-4 0.04773437 -0.06517118 -0.01154679 0.04464924 -0.06338417 -0.01154673 0.04283922 -0.07362318 -0.01851356 0.03975409 -0.07183617 -0.01851356 0.03682667 -0.08400464 -0.01840901 0.03374141 -0.08221763 -0.01840901 0.03199321 -0.09235012 -0.01127254 0.02890789 -0.09056317 -0.01127254 0.0301851 -0.09547203 1.69397e-4 0.0270996 -0.09368509 1.69376e-4 0.03209286 -0.09217786 0.01154679 0.02900767 -0.09039092 0.01154679 1.87494e-4 -0.1250846 0.01851356 -0.007137775 -0.1315454 0.01154679 -0.009496152 -0.1288714 0.01154679 -0.00217092 -0.1224107 0.01851356 -0.009992837 -0.1340634 1.69398e-4 -0.01235121 -0.1313894 1.69375e-4 -0.007287085 -0.1316771 -0.01127254 -0.009645462 -0.1290031 -0.01127254 -5.41676e-5 -0.1252979 -0.01840901 -0.002412438 -0.1226238 -0.01840901 0.008943259 -0.1173624 -0.01851356 0.006584942 -0.1146883 -0.01851356 0.01626855 -0.1109017 -0.01154679 0.01391017 -0.1082277 -0.01154673 0.01912361 -0.1083837 -1.69405e-4 0.01676505 -0.1057097 -1.69323e-4 0.01641792 -0.1107701 0.01127254 0.01405948 -0.108096 0.01127254 0.009184896 -0.1171492 0.01840901 0.00682646 -0.1144753 0.01840901 -0.04749143 -0.134329 0.01851356 -0.03549438 -0.134329 0.01840901 -0.03549432 -0.1378945 0.01840901 -0.04749143 -0.1378945 0.01851356 -0.02585029 -0.1378945 0.01127254 -0.02585029 -0.134329 0.01127254 -0.0222426 -0.1378945 -1.69405e-4 -0.0222426 -0.134329 -1.69324e-4 -0.02604943 -0.1378945 -0.01154679 -0.02604943 -0.134329 -0.01154673 -0.03581655 -0.1378945 -0.01851356 -0.03581655 -0.134329 -0.01851356 -0.04781365 -0.1378945 -0.01840901 -0.04781359 -0.134329 -0.01840901 -0.0574578 -0.1378945 -0.01127254 -0.0574578 -0.134329 -0.01127254 -0.06106549 -0.1378945 1.69397e-4 -0.06106555 -0.134329 1.69375e-4 -0.05725872 -0.1378945 0.01154679 -0.05725872 -0.134329 0.01154679 -0.04165405 0.1378945 0 0.004565358 0.1212236 0 0.03991383 0.07867449 0 0.05766844 0.02985155 0 0.05766844 -0.02985155 0 0.03991383 -0.07867449 0 0.004565358 -0.1212236 0 -0.04165405 -0.1378945 0</float_array>
          <technique_common>
            <accessor source="#Front_Sonar_001-mesh-positions-array" count="168" stride="3">
              <param name="X" type="float"/>
              <param name="Y" type="float"/>
              <param name="Z" type="float"/>
            </accessor>
          </technique_common>
        </source>
        <source id="Front_Sonar_001-mesh-normals">
          <float_array id="Front_Sonar_001-mesh-normals-array" count="681">-0.5806964 1.08859e-5 0.8141202 -0.5806937 0 0.8141222 -0.9483237 0 0.3173046 -0.9483248 1.59999e-5 0.3173012 -0.9537149 1.6329e-5 -0.3007122 -0.9537159 0 -0.3007092 -0.594827 0 -0.8038539 -0.594828 -1.08858e-5 -0.803853 -0.008718132 -1.48829e-7 -0.9999621 -0.008718788 0 -0.9999621 0.5807075 0 -0.8141123 0.580704 -1.38127e-5 -0.8141148 0.9483236 -5.44295e-6 -0.3173049 0.9483235 -6.60651e-6 -0.3173054 0.9537158 8.16455e-6 0.3007097 0.953716 0 0.3007091 0.5948296 0 0.8038519 0.5948306 -9.52516e-6 0.8038511 0.008714735 1.40962e-5 0.9999621 0.008718192 -1.27569e-7 0.999962 0.006544768 -0.005753874 0.9999621 0.006538808 -0.005767107 0.9999621 0.4461118 -0.3934518 0.8038533 0.4461024 -0.3934573 0.8038557 0.7152585 -0.630858 0.3007053 0.7152718 -0.6308396 0.300712 0.7112358 -0.6272696 -0.3172956 0.7112039 -0.6272999 -0.3173072 0.4355296 -0.3840976 -0.8141149 0.435511 -0.3841096 -0.8141192 -0.006539106 0.005766689 -0.999962 -0.006538748 0.005766749 -0.9999621 -0.4461102 0.3934523 -0.8038538 -0.4461286 0.3934372 -0.8038511 -0.7152685 0.630844 -0.3007106 -0.7152709 0.6308415 -0.3007101 -0.7112259 0.6272777 0.3173017 -0.7112276 0.6272754 0.3173025 -0.4354962 0.3841292 0.8141179 -0.4355047 0.3841006 0.8141269 -0.2910255 0.5025069 0.8141199 -0.2910386 0.502495 0.8141225 -0.4752909 0.8206176 0.3173094 -0.4752616 0.8206388 0.3172985 -0.4779579 0.8253034 -0.3007166 -0.4779885 0.8252894 -0.3007066 -0.2981184 0.5147274 -0.8038539 -0.2981227 0.5147252 -0.8038539 -0.004370093 0.007544517 -0.999962 -0.004369318 0.007544457 -0.999962 0.2910482 -0.5024978 -0.8141173 0.291036 -0.5025048 -0.8141174 0.4752981 -0.8206185 -0.3172966 0.475246 -0.8206425 -0.3173127 0.4779621 -0.8253046 0.3007071 0.4779849 -0.8252882 0.3007155 0.2981159 -0.5147273 0.803855 0.2981145 -0.5147288 0.8038545 0.004379034 -0.007533907 0.999962 0.004369974 -0.007544577 0.9999621 0.001538276 -0.008577585 0.9999621 0.001525521 -0.008583903 0.9999621 0.1040782 -0.5856542 0.8038514 0.1041056 -0.5856422 0.8038565 0.1668805 -0.9390016 0.300711 0.1668733 -0.9390035 0.3007088 0.1659426 -0.9336931 -0.317302 0.1659231 -0.9336943 -0.3173084 0.1016022 -0.571747 -0.8141145 0.1016046 -0.5717468 -0.8141144 -0.001526117 0.008584022 -0.9999621 -0.001525163 0.008583962 -0.9999621 -0.1040934 0.5856483 -0.8038537 -0.104119 0.5856503 -0.803849 -0.1668534 0.9390025 -0.300723 -0.1668975 0.9389985 -0.3007109 -0.1659418 0.93369 0.3173111 -0.1659146 0.9336975 0.3173033 -0.1015886 0.5717483 0.8141153 -0.1016127 0.5717366 0.8141205 -0.1016127 -0.5717366 0.8141205 -0.1015886 -0.5717483 0.8141153 -0.1659145 -0.9336975 0.3173033 -0.1659417 -0.93369 0.3173111 -0.1668975 -0.9389985 -0.3007109 -0.1668534 -0.9390025 -0.300723 -0.104119 -0.5856503 -0.803849 -0.1040934 -0.5856483 -0.8038537 -0.001525163 -0.008583962 -0.9999621 -0.001526117 -0.008584022 -0.9999621 0.1016046 0.5717468 -0.8141144 0.1016022 0.571747 -0.8141145 0.1659231 0.9336943 -0.3173084 0.1659426 0.933693 -0.317302 0.1668733 0.9390035 0.3007088 0.1668806 0.9390015 0.300711 0.1041056 0.5856422 0.8038565 0.1040782 0.5856542 0.8038514 0.001525521 0.008583903 0.9999621 0.001538276 0.008577585 0.9999621 0.004369318 0.007544577 0.9999621 0.004379689 0.007533848 0.9999621 0.2981147 0.5147291 0.8038543 0.2981159 0.5147273 0.803855 0.4779844 0.8252902 0.300711 0.477974 0.8252977 0.3007069 0.4752578 0.8206356 -0.3173128 0.4753102 0.8206116 -0.3172963 0.2910434 0.5025003 -0.8141176 0.2910557 0.5024942 -0.8141169 -0.004369974 -0.007544398 -0.9999621 -0.004370033 -0.007544457 -0.9999621 -0.2981317 -0.5147224 -0.8038523 -0.2981184 -0.5147274 -0.8038539 -0.4779877 -0.825288 -0.3007115 -0.4779701 -0.8252966 -0.3007162 -0.4752733 -0.8206321 0.3172986 -0.4752916 -0.8206188 0.3173058 -0.2910386 -0.502495 0.8141225 -0.2910255 -0.5025069 0.8141199 -0.4355047 -0.3841006 0.8141269 -0.4354962 -0.3841292 0.8141179 -0.7112278 -0.6272752 0.3173026 -0.7112259 -0.6272778 0.3173017 -0.7152709 -0.6308415 -0.3007101 -0.7152684 -0.6308442 -0.3007106 -0.4461286 -0.3934373 -0.8038511 -0.4461102 -0.3934523 -0.8038538 -0.006538689 -0.005766749 -0.9999621 -0.006539106 -0.005766749 -0.999962 0.4355014 0.3841162 -0.8141211 0.4355296 0.3840976 -0.8141149 0.7112053 0.6273009 -0.3173023 0.711224 0.6272837 -0.3172945 0.7152715 0.6308401 0.3007119 0.7152587 0.6308576 0.3007054 0.4460975 0.3934686 0.8038529 0.4461118 0.3934518 0.8038533 0.006538629 0.005767285 0.9999621 0.006544709 0.005753815 0.9999621 0.008718192 1.27569e-7 0.999962 0.008714735 -1.40962e-5 0.9999621 0.5948306 9.52516e-6 0.8038511 0.9537158 -6.80379e-6 0.3007097 0.9483235 6.9382e-6 -0.3173054 0.9483236 5.44295e-6 -0.3173048 0.5807014 1.38128e-5 -0.8141168 0.5807075 -1.15664e-5 -0.8141123 -0.008714735 -1.40957e-5 -0.9999621 -0.008718132 1.48829e-7 -0.9999621 -0.594828 1.08858e-5 -0.803853 -0.9537149 -1.6329e-5 -0.3007122 -0.9483248 -1.61036e-5 0.3173012 -0.9483237 0 0.3173046 -0.5806964 -1.08859e-5 0.8141202 0 1 0 0 1 1.05117e-6 0 1 -2.10236e-6 0 1 1.05117e-6 0 1 -1.05116e-6 0 1 -5.25586e-7 0.6614533 0.7499864 3.15357e-6 0.6614552 0.7499848 2.62792e-6 0.6614589 0.7499815 -5.25589e-6 0.6614589 0.7499814 1.83955e-6 0.6614564 0.7499837 -1.57677e-6 0.6614621 0.7499786 0 0.6614599 0.7499806 -1.05117e-6 0.6614574 0.7499828 6.5699e-6 0.6614574 0.7499828 -3.94191e-6 0.6614638 0.7499771 7.35824e-6 0.86534 0.5011855 3.67911e-6 0.8653407 0.5011842 6.04422e-6 0.8653407 0.5011844 7.88384e-7 0.8653423 0.5011814 -3.94187e-6 0.8653436 0.501179 -4.99308e-6 0.8653439 0.5011785 -4.73032e-6 0.8653419 0.5011821 -1.03146e-5 0.865342 0.5011819 7.88385e-6 0.865343 0.50118 4.73026e-6 0.8653421 0.5011817 5.38729e-6 0.984571 0.1749853 -3.5149e-6 0.9845675 0.1750055 3.38343e-6 0.9845682 0.175002 -1.90526e-6 0.9845681 0.1750023 7.96589e-7 0.9845684 0.1750005 3.35066e-6 0.9845682 0.1750013 2.82499e-6 0.9845715 0.1749833 -3.74483e-6 0.9845696 0.1749941 1.16944e-5 0.9845694 0.1749946 -2.59509e-6 0.984569 0.1749973 -7.424e-6 0.984569 -0.1749973 -7.424e-6 0.9845694 -0.1749946 -2.59509e-6 0.9845695 -0.174994 1.16944e-5 0.9845715 -0.1749833 -3.74483e-6 0.9845682 -0.1750013 2.82499e-6 0.9845684 -0.1750005 3.35066e-6 0.9845681 -0.1750023 7.96589e-7 0.9845681 -0.175002 -1.90526e-6 0.9845675 -0.1750055 3.38343e-6 0.984571 -0.1749853 -3.5149e-6 0.8653433 -0.5011796 6.17565e-6 0.8653436 -0.5011792 6.04421e-6 0.865342 -0.5011819 1.04461e-5 0.8653417 -0.5011825 -1.03146e-5 0.8653439 -0.5011785 -4.73032e-6 0.8653436 -0.501179 -4.99308e-6 0.8653411 -0.5011835 -3.15351e-6 0.8653407 -0.5011844 -1.83956e-6 0.8653407 -0.5011842 6.04422e-6 0.86534 -0.5011855 3.67911e-6 0.6614638 -0.7499771 7.35824e-6 0.6614573 -0.7499828 -3.94191e-6 0.6614574 -0.7499828 6.5699e-6 0.6614599 -0.7499806 -1.05117e-6 0.6614621 -0.7499786 1.05118e-6 0.6614613 -0.7499794 0 0.6614589 -0.7499815 -4.73026e-6 0.6614588 -0.7499815 -5.25589e-6 0.6614522 -0.7499874 8.40936e-6 0.6614583 -0.7499819 5.25592e-6 0 -1 0 0 -1 1.05117e-6 0 -1 -2.10236e-6 0 -1 1.05117e-6 0 -1 -1.05116e-6 0 -1 -5.25586e-7</float_array>
          <technique_common>
            <accessor source="#Front_Sonar_001-mesh-normals-array" count="227" stride="3">
              <param name="X" type="float"/>
              <param name="Y" type="float"/>
              <param name="Z" type="float"/>
            </accessor>
          </technique_common>
        </source>
        <source id="Front_Sonar_001-mesh-map-0">
          <float_array id="Front_Sonar_001-mesh-map-0-array" count="1440">0.1256407 0.02990227 0.03257209 0.06171506 0.1171544 2.63953e-4 0.1256407 0.02990227 0.05685853 0.08070468 0.03257209 0.06171506 0.05685853 0.08070468 2.63953e-4 0.1611461 0.03257209 0.06171506 0.05685853 0.08070468 0.03107398 0.1622335 2.63953e-4 0.1611461 0.03107398 0.1622335 0.03257042 0.2605773 2.63953e-4 0.1611461 0.03107398 0.1622335 0.05813539 0.2433475 0.03257042 0.2605773 0.05813539 0.2433475 0.1171511 0.32203 0.03257042 0.2605773 0.05813539 0.2433475 0.1277059 0.293064 0.1171511 0.32203 0.1277059 0.293064 0.2216998 0.322031 0.1171511 0.32203 0.1277059 0.293064 0.2132132 0.292393 0.2216998 0.322031 0.2132132 0.292393 0.3062809 0.2605804 0.2216998 0.322031 0.2132132 0.292393 0.2819944 0.241591 0.3062809 0.2605804 0.2819944 0.241591 0.3385893 0.1611497 0.3062809 0.2605804 0.2819944 0.241591 0.3077793 0.1600625 0.3385893 0.1611497 0.3077793 0.1600625 0.3062838 0.06171864 0.3385893 0.1611497 0.3077793 0.1600625 0.2807186 0.07894831 0.3062838 0.06171864 0.2807186 0.07894831 0.2217031 2.6543e-4 0.3062838 0.06171864 0.2807186 0.07894831 0.2111481 0.02923142 0.2217031 2.6543e-4 0.1171544 2.63953e-4 0.2111481 0.02923142 0.1256407 0.02990227 0.1171544 2.63953e-4 0.2217031 2.6543e-4 0.2111481 0.02923142 0.0617159 0.9674274 0.1600593 0.9689249 0.07894575 0.9418635 0.0617159 0.9674274 0.1611462 0.9997345 0.1600593 0.9689249 0.2415887 0.9431406 0.1611462 0.9997345 0.2605785 0.9674276 0.2415887 0.9431406 0.1600593 0.9689249 0.1611462 0.9997345 0.2923917 0.8743593 0.2605785 0.9674276 0.3220294 0.8828464 0.2923917 0.8743593 0.2415887 0.9431406 0.2605785 0.9674276 0.2930632 0.7888529 0.3220294 0.8828464 0.3220294 0.7782983 0.2930632 0.7888529 0.2923917 0.8743593 0.3220294 0.8828464 0.243347 0.7192817 0.3220294 0.7782983 0.2605774 0.6937174 0.243347 0.7192817 0.2930632 0.7888529 0.3220294 0.7782983 0.1622331 0.6922205 0.2605774 0.6937174 0.1611468 0.6614114 0.1622331 0.6922205 0.243347 0.7192817 0.2605774 0.6937174 0.08070468 0.7180042 0.1611468 0.6614114 0.06171584 0.693718 0.08070468 0.7180042 0.1622331 0.6922205 0.1611468 0.6614114 0.02990138 0.786785 0.06171584 0.693718 2.63953e-4 0.7782983 0.02990138 0.786785 0.08070468 0.7180042 0.06171584 0.693718 0.02922934 0.8722913 2.63953e-4 0.7782983 2.63953e-4 0.882846 0.02922934 0.8722913 0.02990138 0.786785 2.63953e-4 0.7782983 0.07894575 0.9418635 2.63953e-4 0.882846 0.0617159 0.9674274 0.07894575 0.9418635 0.02922934 0.8722913 2.63953e-4 0.882846 0.8722927 0.9376513 0.7782991 0.9666169 0.8828473 0.9666169 0.8722927 0.9376513 0.7867857 0.9369792 0.7782991 0.9666169 0.7867857 0.9369792 0.6937179 0.9051649 0.7782991 0.9666169 0.7867857 0.9369792 0.7180047 0.8861759 0.6937179 0.9051649 0.7180047 0.8861759 0.6614119 0.8057337 0.6937179 0.9051649 0.7180047 0.8861759 0.6922215 0.8046466 0.6614119 0.8057337 0.6922215 0.8046466 0.6937198 0.7063028 0.6614119 0.8057337 0.6922215 0.8046466 0.7192837 0.7235326 0.6937198 0.7063028 0.7192837 0.7235326 0.7783012 0.6448517 0.6937198 0.7063028 0.7192837 0.7235326 0.7888554 0.673817 0.7783012 0.6448517 0.7888554 0.673817 0.8828487 0.6448522 0.7783012 0.6448517 0.7888554 0.673817 0.8743616 0.674489 0.8828487 0.6448522 0.8743616 0.674489 0.9674296 0.7063034 0.8828487 0.6448522 0.8743616 0.674489 0.9431424 0.7252923 0.9674296 0.7063034 0.9431424 0.7252923 0.9997358 0.8057339 0.9674296 0.7063034 0.9431424 0.7252923 0.9689265 0.8068211 0.9997358 0.8057339 0.9689265 0.8068211 0.9674284 0.9051654 0.9997358 0.8057339 0.9689265 0.8068211 0.9418641 0.8879356 0.9674284 0.9051654 0.8828473 0.9666169 0.9418641 0.8879356 0.8722927 0.9376513 0.8828473 0.9666169 0.9674284 0.9051654 0.9418641 0.8879356 0.4394471 0.6448517 0.3804303 0.7235335 0.4500014 0.6738179 0.4394471 0.6448517 0.3548659 0.7063043 0.3804303 0.7235335 0.3533688 0.8046485 0.3548659 0.7063043 0.3225583 0.8057358 0.3533688 0.8046485 0.3804303 0.7235335 0.3548659 0.7063043 0.379153 0.8861769 0.3225583 0.8057358 0.3548657 0.905166 0.379153 0.8861769 0.3533688 0.8046485 0.3225583 0.8057358 0.4479339 0.9369795 0.3548657 0.905166 0.4394468 0.9666174 0.4479339 0.9369795 0.379153 0.8861769 0.3548657 0.905166 0.5334393 0.9376519 0.4394468 0.9666174 0.5439943 0.9666174 0.5334393 0.9376519 0.4479339 0.9369795 0.4394468 0.9666174 0.6030116 0.8879357 0.5439943 0.9666174 0.6285753 0.9051657 0.6030116 0.8879357 0.5334393 0.9376519 0.5439943 0.9666174 0.6300733 0.8068221 0.6285753 0.9051657 0.6608827 0.8057349 0.6300733 0.8068221 0.6030116 0.8879357 0.6285753 0.9051657 0.6042901 0.7252925 0.6608827 0.8057349 0.628576 0.706304 0.6042901 0.7252925 0.6300733 0.8068221 0.6608827 0.8057349 0.5355083 0.6744893 0.628576 0.706304 0.5439949 0.6448518 0.5355083 0.6744893 0.6042901 0.7252925 0.628576 0.706304 0.4500014 0.6738179 0.5439949 0.6448518 0.4394471 0.6448517 0.4500014 0.6738179 0.5355083 0.6744893 0.5439949 0.6448518 0.5499987 0.02923005 0.4560052 2.63953e-4 0.4644919 0.02990138 0.5499987 0.02923005 0.5605531 2.63969e-4 0.4560052 2.63953e-4 0.4644919 0.02990138 0.371424 0.06171596 0.3957099 0.08070451 0.4644919 0.02990138 0.4560052 2.63953e-4 0.371424 0.06171596 0.3957099 0.08070451 0.3391172 0.1611468 0.3699267 0.162234 0.3957099 0.08070451 0.371424 0.06171596 0.3391172 0.1611468 0.3699267 0.162234 0.3714244 0.2605776 0.3969883 0.2433477 0.3699267 0.162234 0.3391172 0.1611468 0.3714244 0.2605776 0.3969883 0.2433477 0.4560053 0.3220296 0.4665604 0.2930641 0.3969883 0.2433477 0.3714244 0.2605776 0.4560053 0.3220296 0.4665604 0.2930641 0.5605528 0.3220297 0.5520659 0.2923918 0.4665604 0.2930641 0.4560053 0.3220296 0.5605528 0.3220297 0.5520659 0.2923918 0.645134 0.2605785 0.6208468 0.2415892 0.5520659 0.2923918 0.5605528 0.3220297 0.645134 0.2605785 0.6208468 0.2415892 0.6774417 0.1611482 0.6466311 0.1600609 0.6208468 0.2415892 0.645134 0.2605785 0.6774417 0.1611482 0.6466311 0.1600609 0.6451341 0.06171661 0.6195697 0.07894581 0.6466311 0.1600609 0.6774417 0.1611482 0.6451341 0.06171661 0.5605531 2.63969e-4 0.6195697 0.07894581 0.6451341 0.06171661 0.5605531 2.63969e-4 0.5499987 0.02923005 0.6195697 0.07894581 0.5439952 0.6443237 0.4500015 0.6153583 0.4394469 0.6443238 0.5439952 0.6443237 0.5355086 0.6146863 0.4500015 0.6153583 0.3804299 0.5656417 0.4394469 0.6443238 0.4500015 0.6153583 0.3804299 0.5656417 0.3548656 0.5828713 0.4394469 0.6443238 0.3533687 0.4845278 0.3548656 0.5828713 0.3804299 0.5656417 0.3533687 0.4845278 0.3225583 0.4834408 0.3548656 0.5828713 0.3791528 0.4029986 0.3225583 0.4834408 0.3533687 0.4845278 0.3791528 0.4029986 0.3548663 0.3840102 0.3225583 0.4834408 0.4479344 0.3521961 0.3548663 0.3840102 0.3791528 0.4029986 0.4479344 0.3521961 0.4394475 0.3225589 0.3548663 0.3840102 0.533441 0.3515246 0.4394475 0.3225589 0.4479344 0.3521961 0.533441 0.3515246 0.5439952 0.3225591 0.4394475 0.3225589 0.6030118 0.4012403 0.5439952 0.3225591 0.533441 0.3515246 0.6030118 0.4012403 0.6285763 0.3840106 0.5439952 0.3225591 0.6300739 0.4823541 0.6285763 0.3840106 0.6030118 0.4012403 0.6300739 0.4823541 0.6608839 0.4834413 0.6285763 0.3840106 0.6042903 0.5638831 0.6608839 0.4834413 0.6300739 0.4823541 0.6042903 0.5638831 0.6285766 0.5828722 0.6608839 0.4834413 0.5355086 0.6146863 0.6285766 0.5828722 0.6042903 0.5638831 0.5355086 0.6146863 0.5439952 0.6443237 0.6285766 0.5828722 0.8722931 0.6153588 0.778299 0.6443241 0.7867856 0.6146867 0.8722931 0.6153588 0.8828474 0.6443242 0.778299 0.6443241 0.7867856 0.6146867 0.6937181 0.5828723 0.7180044 0.5638836 0.7867856 0.6146867 0.778299 0.6443241 0.6937181 0.5828723 0.7180044 0.5638836 0.6614119 0.4834415 0.6922212 0.4823544 0.7180044 0.5638836 0.6937181 0.5828723 0.6614119 0.4834415 0.6922212 0.4823544 0.6937195 0.3840108 0.7192831 0.4012412 0.6922212 0.4823544 0.6614119 0.4834415 0.6937195 0.3840108 0.7192831 0.4012412 0.7782998 0.3225589 0.7888538 0.351525 0.7192831 0.4012412 0.6937195 0.3840108 0.7782998 0.3225589 0.7888538 0.351525 0.8828478 0.3225592 0.8743609 0.3521966 0.7888538 0.351525 0.7782998 0.3225589 0.8828478 0.3225592 0.8743609 0.3521966 0.9674286 0.3840109 0.9431418 0.4029996 0.8743609 0.3521966 0.8828478 0.3225592 0.9674286 0.3840109 0.9431418 0.4029996 0.9997361 0.4834412 0.9689256 0.4845287 0.9431418 0.4029996 0.9674286 0.3840109 0.9997361 0.4834412 0.9689256 0.4845287 0.9674279 0.5828728 0.9418642 0.5656427 0.9689256 0.4845287 0.9997361 0.4834412 0.9674279 0.5828728 0.8828474 0.6443242 0.9418642 0.5656427 0.9674279 0.5828728 0.8828474 0.6443242 0.8722931 0.6153588 0.9418642 0.5656427 0.06171596 0.6285763 0.1600607 0.6300734 0.1611475 0.6608834 0.06171596 0.6285763 0.07894593 0.6030112 0.1600607 0.6300734 0.2415897 0.6042893 0.1611475 0.6608834 0.1600607 0.6300734 0.2415897 0.6042893 0.2605792 0.628576 0.1611475 0.6608834 0.2923926 0.5355083 0.2605792 0.628576 0.2415897 0.6042893 0.2923926 0.5355083 0.3220304 0.5439954 0.2605792 0.628576 0.2930644 0.4500019 0.3220304 0.5439954 0.2923926 0.5355083 0.2930644 0.4500019 0.3220304 0.4394475 0.3220304 0.5439954 0.2433491 0.3804312 0.3220304 0.4394475 0.2930644 0.4500019 0.2433491 0.3804312 0.2605796 0.3548665 0.3220304 0.4394475 0.1622346 0.3533689 0.2605796 0.3548665 0.2433491 0.3804312 0.1622346 0.3533689 0.1611477 0.3225589 0.2605796 0.3548665 0.08070558 0.3791525 0.1611477 0.3225589 0.1622346 0.3533689 0.08070558 0.3791525 0.06171625 0.3548659 0.1611477 0.3225589 0.02990216 0.4479335 0.06171625 0.3548659 0.08070558 0.3791525 0.02990216 0.4479335 2.64189e-4 0.4394465 0.06171625 0.3548659 0.02922987 0.5334398 2.64189e-4 0.4394465 0.02990216 0.4479335 0.02922987 0.5334398 2.63953e-4 0.5439946 2.64189e-4 0.4394465 0.07894593 0.6030112 2.63953e-4 0.5439946 0.02922987 0.5334398 0.07894593 0.6030112 0.06171596 0.6285763 2.63953e-4 0.5439946 0.8319267 0.8048977 0.9702827 0.8054149 0.9435548 0.8866397 0.8319267 0.8048977 0.9441632 0.7239928 0.9702827 0.8054149 0.8319267 0.8048977 0.8751732 0.6734737 0.9441632 0.7239928 0.8319267 0.8048977 0.7896649 0.6731539 0.8751732 0.6734737 0.8319267 0.8048977 0.7202984 0.7231563 0.7896649 0.6731539 0.8319267 0.8048977 0.6935709 0.8043804 0.7202984 0.7231563 0.8319267 0.8048977 0.71969 0.8858024 0.6935709 0.8043804 0.8319267 0.8048977 0.7886795 0.936322 0.71969 0.8858024 0.8319267 0.8048977 0.8741881 0.9366421 0.7886795 0.936322 0.8741881 0.9366421 0.8319267 0.8048977 0.9435548 0.8866397 0.3753172 0.7286689 0.4892717 0.8071354 0.4432014 0.6766741 0.4892717 0.8071354 0.3753172 0.7286689 0.3509591 0.8106357 0.4892717 0.8071354 0.3509591 0.8106357 0.3794316 0.8912653 0.4892717 0.8071354 0.3794316 0.8912653 0.4498593 0.93976 0.4892717 0.8071354 0.4498593 0.93976 0.5353413 0.9375968 0.4892717 0.8071354 0.5353413 0.9375968 0.6032255 0.8856015 0.4892717 0.8071354 0.6032255 0.8856015 0.6275835 0.8036358 0.4892717 0.8071354 0.6275835 0.8036358 0.5991116 0.7230063 0.4892717 0.8071354 0.5991116 0.7230063 0.5286843 0.6745112 0.4892717 0.8071354 0.5286843 0.6745112 0.4432014 0.6766741 0.8305742 0.8057339 0.7867857 0.9369792 0.8722927 0.9376513 0.8305742 0.8057339 0.7180047 0.8861759 0.7867857 0.9369792 0.8305742 0.8057339 0.6922215 0.8046466 0.7180047 0.8861759 0.8305742 0.8057339 0.7192837 0.7235326 0.6922215 0.8046466 0.8305742 0.8057339 0.7888554 0.673817 0.7192837 0.7235326 0.8305742 0.8057339 0.8743616 0.674489 0.7888554 0.673817 0.8305742 0.8057339 0.9431424 0.7252923 0.8743616 0.674489 0.8305742 0.8057339 0.9689265 0.8068211 0.9431424 0.7252923 0.8305742 0.8057339 0.9418641 0.8879356 0.9689265 0.8068211 0.9418641 0.8879356 0.8305742 0.8057339 0.8722927 0.9376513 0.3804303 0.7235335 0.4917212 0.8057346 0.4500014 0.6738179 0.4917212 0.8057346 0.3804303 0.7235335 0.3533688 0.8046485 0.4917212 0.8057346 0.3533688 0.8046485 0.379153 0.8861769 0.4917212 0.8057346 0.379153 0.8861769 0.4479339 0.9369795 0.4917212 0.8057346 0.4479339 0.9369795 0.5334393 0.9376519 0.4917212 0.8057346 0.5334393 0.9376519 0.6030116 0.8879357 0.4917212 0.8057346 0.6030116 0.8879357 0.6300733 0.8068221 0.4917212 0.8057346 0.6300733 0.8068221 0.6042901 0.7252925 0.4917212 0.8057346 0.6042901 0.7252925 0.5355083 0.6744893 0.4917212 0.8057346 0.5355083 0.6744893 0.4500014 0.6738179 0.5082787 0.1611468 0.5499987 0.02923005 0.4644919 0.02990138 0.5082787 0.1611468 0.4644919 0.02990138 0.3957099 0.08070451 0.5082787 0.1611468 0.3957099 0.08070451 0.3699267 0.162234 0.5082787 0.1611468 0.3699267 0.162234 0.3969883 0.2433477 0.5082787 0.1611468 0.3969883 0.2433477 0.4665604 0.2930641 0.5082787 0.1611468 0.4665604 0.2930641 0.5520659 0.2923918 0.5082787 0.1611468 0.5520659 0.2923918 0.6208468 0.2415892 0.5082787 0.1611468 0.6208468 0.2415892 0.6466311 0.1600609 0.5082787 0.1611468 0.6466311 0.1600609 0.6195697 0.07894581 0.6195697 0.07894581 0.5499987 0.02923005 0.5082787 0.1611468 0.4500015 0.6153583 0.5355086 0.6146863 0.4917211 0.4834412 0.4917211 0.4834412 0.3804299 0.5656417 0.4500015 0.6153583 0.4917211 0.4834412 0.3533687 0.4845278 0.3804299 0.5656417 0.4917211 0.4834412 0.3791528 0.4029986 0.3533687 0.4845278 0.4917211 0.4834412 0.4479344 0.3521961 0.3791528 0.4029986 0.4917211 0.4834412 0.533441 0.3515246 0.4479344 0.3521961 0.4917211 0.4834412 0.6030118 0.4012403 0.533441 0.3515246 0.4917211 0.4834412 0.6300739 0.4823541 0.6030118 0.4012403 0.4917211 0.4834412 0.6042903 0.5638831 0.6300739 0.4823541 0.4917211 0.4834412 0.5355086 0.6146863 0.6042903 0.5638831 0.8305732 0.483442 0.8722931 0.6153588 0.7867856 0.6146867 0.8305732 0.483442 0.7867856 0.6146867 0.7180044 0.5638836 0.8305732 0.483442 0.7180044 0.5638836 0.6922212 0.4823544 0.8305732 0.483442 0.6922212 0.4823544 0.7192831 0.4012412 0.8305732 0.483442 0.7192831 0.4012412 0.7888538 0.351525 0.8305732 0.483442 0.7888538 0.351525 0.8743609 0.3521966 0.8305732 0.483442 0.8743609 0.3521966 0.9431418 0.4029996 0.8305732 0.483442 0.9431418 0.4029996 0.9689256 0.4845287 0.8305732 0.483442 0.9689256 0.4845287 0.9418642 0.5656427 0.9418642 0.5656427 0.8722931 0.6153588 0.8305732 0.483442 0.1611474 0.491721 0.07894593 0.6030112 0.02922987 0.5334398 0.1611474 0.491721 0.02922987 0.5334398 0.02990216 0.4479335 0.1611474 0.491721 0.02990216 0.4479335 0.08070558 0.3791525 0.1611474 0.491721 0.08070558 0.3791525 0.1622346 0.3533689 0.1611474 0.491721 0.1622346 0.3533689 0.2433491 0.3804312 0.1611474 0.491721 0.2433491 0.3804312 0.2930644 0.4500019 0.1611474 0.491721 0.2930644 0.4500019 0.2923926 0.5355083 0.1611474 0.491721 0.2923926 0.5355083 0.2415897 0.6042893 0.1611474 0.491721 0.2415897 0.6042893 0.1600607 0.6300734 0.1600607 0.6300734 0.07894593 0.6030112 0.1611474 0.491721</float_array>
          <technique_common>
            <accessor source="#Front_Sonar_001-mesh-map-0-array" count="720" stride="2">
              <param name="S" type="float"/>
              <param name="T" type="float"/>
            </accessor>
          </technique_common>
        </source>
        <vertices id="Front_Sonar_001-mesh-vertices">
          <input semantic="POSITION" source="#Front_Sonar_001-mesh-positions"/>
        </vertices>
        <polylist material="PBRFULL_Sonar-material" count="240">
          <input semantic="VERTEX" source="#Front_Sonar_001-mesh-vertices" offset="0"/>
          <input semantic="NORMAL" source="#Front_Sonar_001-mesh-normals" offset="1"/>
          <input semantic="TEXCOORD" source="#Front_Sonar_001-mesh-map-0" offset="2" set="0"/>
          <vcount>3 3 3 3 3 3 3 3 3 3 3 3 3 3 3 3 3 3 3 3 3 3 3 3 3 3 3 3 3 3 3 3 3 3 3 3 3 3 3 3 3 3 3 3 3 3 3 3 3 3 3 3 3 3 3 3 3 3 3 3 3 3 3 3 3 3 3 3 3 3 3 3 3 3 3 3 3 3 3 3 3 3 3 3 3 3 3 3 3 3 3 3 3 3 3 3 3 3 3 3 3 3 3 3 3 3 3 3 3 3 3 3 3 3 3 3 3 3 3 3 3 3 3 3 3 3 3 3 3 3 3 3 3 3 3 3 3 3 3 3 3 3 3 3 3 3 3 3 3 3 3 3 3 3 3 3 3 3 3 3 3 3 3 3 3 3 3 3 3 3 3 3 3 3 3 3 3 3 3 3 3 3 3 3 3 3 3 3 3 3 3 3 3 3 3 3 3 3 3 3 3 3 3 3 3 3 3 3 3 3 3 3 3 3 3 3 3 3 3 3 3 3 3 3 3 3 3 3 3 3 3 3 3 3 3 3 3 3 3 3 </vcount>
          <p>0 0 0 2 0 1 1 0 2 0 1 3 3 1 4 2 1 5 3 2 6 4 2 7 2 2 8 3 3 9 5 3 10 4 3 11 5 4 12 6 4 13 4 4 14 5 5 15 7 5 16 6 5 17 7 6 18 8 6 19 6 6 20 7 7 21 9 7 22 8 7 23 9 8 24 10 8 25 8 8 26 9 9 27 11 9 28 10 9 29 11 10 30 12 10 31 10 10 32 11 11 33 13 11 34 12 11 35 13 12 36 14 12 37 12 12 38 13 13 39 15 13 40 14 13 41 15 14 42 16 14 43 14 14 44 15 15 45 17 15 46 16 15 47 17 16 48 18 16 49 16 16 50 17 17 51 19 17 52 18 17 53 1 18 54 19 18 55 0 18 56 1 19 57 18 19 58 19 19 59 20 20 60 22 20 61 21 20 62 20 21 63 23 21 64 22 21 65 24 22 66 23 22 67 25 22 68 24 23 69 22 23 70 23 23 71 26 24 72 25 24 73 27 24 74 26 25 75 24 25 76 25 25 77 28 26 78 27 26 79 29 26 80 28 27 81 26 27 82 27 27 83 30 28 84 29 28 85 31 28 86 30 29 87 28 29 88 29 29 89 32 30 90 31 30 91 33 30 92 32 31 93 30 31 94 31 31 95 34 32 96 33 32 97 35 32 98 34 33 99 32 33 100 33 33 101 36 34 102 35 34 103 37 34 104 36 35 105 34 35 106 35 35 107 38 36 108 37 36 109 39 36 110 38 37 111 36 37 112 37 37 113 21 38 114 39 38 115 20 38 116 21 39 117 38 39 118 39 39 119 40 40 120 42 40 121 41 40 122 40 41 123 43 41 124 42 41 125 43 42 126 44 42 127 42 42 128 43 43 129 45 43 130 44 43 131 45 44 132 46 44 133 44 44 134 45 45 135 47 45 136 46 45 137 47 46 138 48 46 139 46 46 140 47 47 141 49 47 142 48 47 143 49 48 144 50 48 145 48 48 146 49 49 147 51 49 148 50 49 149 51 50 150 52 50 151 50 50 152 51 51 153 53 51 154 52 51 155 53 52 156 54 52 157 52 52 158 53 53 159 55 53 160 54 53 161 55 54 162 56 54 163 54 54 164 55 55 165 57 55 166 56 55 167 57 56 168 58 56 169 56 56 170 57 57 171 59 57 172 58 57 173 41 58 174 59 58 175 40 58 176 41 59 177 58 59 178 59 59 179 60 60 180 62 60 181 61 60 182 60 61 183 63 61 184 62 61 185 64 62 186 63 62 187 65 62 188 64 63 189 62 63 190 63 63 191 66 64 192 65 64 193 67 64 194 66 65 195 64 65 196 65 65 197 68 66 198 67 66 199 69 66 200 68 67 201 66 67 202 67 67 203 70 68 204 69 68 205 71 68 206 70 69 207 68 69 208 69 69 209 72 70 210 71 70 211 73 70 212 72 71 213 70 71 214 71 71 215 74 72 216 73 72 217 75 72 218 74 73 219 72 73 220 73 73 221 76 74 222 75 74 223 77 74 224 76 75 225 74 75 226 75 75 227 78 76 228 77 76 229 79 76 230 78 77 231 76 77 232 77 77 233 61 78 234 79 78 235 60 78 236 61 79 237 78 79 238 79 79 239 80 80 240 82 80 241 81 80 242 80 81 243 83 81 244 82 81 245 81 82 246 85 82 247 84 82 248 81 83 249 82 83 250 85 83 251 84 84 252 87 84 253 86 84 254 84 85 255 85 85 256 87 85 257 86 86 258 89 86 259 88 86 260 86 87 261 87 87 262 89 87 263 88 88 264 91 88 265 90 88 266 88 89 267 89 89 268 91 89 269 90 90 270 93 90 271 92 90 272 90 91 273 91 91 274 93 91 275 92 92 276 95 92 277 94 92 278 92 93 279 93 93 280 95 93 281 94 94 282 97 94 283 96 94 284 94 95 285 95 95 286 97 95 287 96 96 288 99 96 289 98 96 290 96 97 291 97 97 292 99 97 293 83 98 294 98 98 295 99 98 296 83 99 297 80 99 298 98 99 299 100 100 300 102 100 301 101 100 302 100 101 303 103 101 304 102 101 305 104 102 306 101 102 307 102 102 308 104 103 309 105 103 310 101 103 311 106 104 312 105 104 313 104 104 314 106 105 315 107 105 316 105 105 317 108 106 318 107 106 319 106 106 320 108 107 321 109 107 322 107 107 323 110 108 324 109 108 325 108 108 326 110 109 327 111 109 328 109 109 329 112 110 330 111 110 331 110 110 332 112 111 333 113 111 334 111 111 335 114 112 336 113 112 337 112 112 338 114 113 339 115 113 340 113 113 341 116 114 342 115 114 343 114 114 344 116 115 345 117 115 346 115 115 347 118 116 348 117 116 349 116 116 350 118 117 351 119 117 352 117 117 353 103 118 354 119 118 355 118 118 356 103 119 357 100 119 358 119 119 359 120 120 360 122 120 361 121 120 362 120 121 363 123 121 364 122 121 365 121 122 366 125 122 367 124 122 368 121 123 369 122 123 370 125 123 371 124 124 372 127 124 373 126 124 374 124 125 375 125 125 376 127 125 377 126 126 378 129 126 379 128 126 380 126 127 381 127 127 382 129 127 383 128 128 384 131 128 385 130 128 386 128 129 387 129 129 388 131 129 389 130 130 390 133 130 391 132 130 392 130 131 393 131 131 394 133 131 395 132 132 396 135 132 397 134 132 398 132 133 399 133 133 400 135 133 401 134 134 402 137 134 403 136 134 404 134 135 405 135 135 406 137 135 407 136 136 408 139 136 409 138 136 410 136 137 411 137 137 412 139 137 413 123 138 414 138 138 415 139 138 416 123 139 417 120 139 418 138 139 419 140 140 420 142 140 421 141 140 422 140 141 423 143 141 424 142 141 425 144 142 426 141 142 427 142 142 428 144 16 429 145 16 430 141 16 431 146 15 432 145 15 433 144 15 434 146 143 435 147 143 436 145 143 437 148 144 438 147 144 439 146 144 440 148 145 441 149 145 442 147 145 443 150 146 444 149 146 445 148 146 446 150 147 447 151 147 448 149 147 449 152 148 450 151 148 451 150 148 452 152 149 453 153 149 454 151 149 455 154 150 456 153 150 457 152 150 458 154 6 459 155 6 460 153 6 461 156 5 462 155 5 463 154 5 464 156 151 465 157 151 466 155 151 467 158 152 468 157 152 469 156 152 470 158 153 471 159 153 472 157 153 473 143 1 474 159 1 475 158 1 476 143 154 477 140 154 478 159 154 479 160 155 480 3 155 481 0 155 482 160 156 483 5 156 484 3 156 485 160 157 486 7 157 487 5 157 488 160 158 489 9 158 490 7 158 491 160 159 492 11 159 493 9 159 494 160 155 495 13 155 496 11 155 497 160 160 498 15 160 499 13 160 500 160 155 501 17 155 502 15 155 503 160 155 504 19 155 505 17 155 506 19 155 507 160 155 508 0 155 509 22 161 510 161 161 511 21 161 512 161 162 513 22 162 514 24 162 515 161 163 516 24 163 517 26 163 518 161 164 519 26 164 520 28 164 521 161 165 522 28 165 523 30 165 524 161 166 525 30 166 526 32 166 527 161 167 528 32 167 529 34 167 530 161 168 531 34 168 532 36 168 533 161 169 534 36 169 535 38 169 536 161 170 537 38 170 538 21 170 539 162 171 540 43 171 541 40 171 542 162 172 543 45 172 544 43 172 545 162 173 546 47 173 547 45 173 548 162 174 549 49 174 550 47 174 551 162 175 552 51 175 553 49 175 554 162 176 555 53 176 556 51 176 557 162 177 558 55 177 559 53 177 560 162 178 561 57 178 562 55 178 563 162 179 564 59 179 565 57 179 566 59 180 567 162 180 568 40 180 569 62 181 570 163 181 571 61 181 572 163 182 573 62 182 574 64 182 575 163 183 576 64 183 577 66 183 578 163 184 579 66 184 580 68 184 581 163 185 582 68 185 583 70 185 584 163 186 585 70 186 586 72 186 587 163 187 588 72 187 589 74 187 590 163 188 591 74 188 592 76 188 593 163 189 594 76 189 595 78 189 596 163 190 597 78 190 598 61 190 599 164 191 600 80 191 601 81 191 602 164 192 603 81 192 604 84 192 605 164 193 606 84 193 607 86 193 608 164 194 609 86 194 610 88 194 611 164 195 612 88 195 613 90 195 614 164 196 615 90 196 616 92 196 617 164 197 618 92 197 619 94 197 620 164 198 621 94 198 622 96 198 623 164 199 624 96 199 625 98 199 626 98 200 627 80 200 628 164 200 629 102 201 630 103 201 631 165 201 632 165 202 633 104 202 634 102 202 635 165 203 636 106 203 637 104 203 638 165 204 639 108 204 640 106 204 641 165 205 642 110 205 643 108 205 644 165 206 645 112 206 646 110 206 647 165 207 648 114 207 649 112 207 650 165 208 651 116 208 652 114 208 653 165 209 654 118 209 655 116 209 656 165 210 657 103 210 658 118 210 659 166 211 660 120 211 661 121 211 662 166 212 663 121 212 664 124 212 665 166 213 666 124 213 667 126 213 668 166 214 669 126 214 670 128 214 671 166 215 672 128 215 673 130 215 674 166 216 675 130 216 676 132 216 677 166 217 678 132 217 679 134 217 680 166 218 681 134 218 682 136 218 683 166 219 684 136 219 685 138 219 686 138 220 687 120 220 688 166 220 689 167 221 690 143 221 691 158 221 692 167 222 693 158 222 694 156 222 695 167 223 696 156 223 697 154 223 698 167 224 699 154 224 700 152 224 701 167 225 702 152 225 703 150 225 704 167 221 705 150 221 706 148 221 707 167 226 708 148 226 709 146 226 710 167 221 711 146 221 712 144 221 713 167 221 714 144 221 715 142 221 716 142 221 717 143 221 718 167 221 719</p>
        </polylist>
      </mesh>
    </geometry>
  </library_geometries>
  <library_controllers/>
  <library_visual_scenes>
    <visual_scene id="Scene" name="Scene">
      <node id="Front_Sonar" name="Front_Sonar" type="NODE">
        <matrix sid="transform">1 0 0 0 0 1 0 0 0 0 1 0 0 0 0 1</matrix>
        <instance_geometry url="#Front_Sonar_001-mesh" name="Front_Sonar">
          <bind_material>
            <technique_common>
              <instance_material symbol="PBRFULL_Sonar-material" target="#PBRFULL_Sonar-material"/>
            </technique_common>
          </bind_material>
        </instance_geometry>
      </node>
    </visual_scene>
  </library_visual_scenes>
  <scene>
    <instance_visual_scene url="#Scene"/>
  </scene>
</COLLADA>