<?xml version="1.0" encoding="utf-8"?>
<COLLADA xmlns="http://www.collada.org/2005/11/COLLADASchema" version="1.4.1">
  <asset>
    <contributor>
      <author>Blender User</author>
      <authoring_tool>Blender 2.78.0</authoring_tool>
    </contributor>
    <created>2017-08-30T16:27:33</created>
    <modified>2017-08-30T16:27:33</modified>
    <unit name="meter" meter="1"/>
    <up_axis>Z_UP</up_axis>
  </asset>
  <library_images>
    <image id="PBRFULL_Chassis-material_Base_Color_jpg" name="PBRFULL_Chassis-material_Base_Color_jpg">
      <init_from>PBRFULL_Chassis-material-green_Base_Color.jpg</init_from>
    </image>
  </library_images>
  <library_effects>
    <effect id="PBRFULL_Chassis-effect">
      <profile_COMMON>
        <newparam sid="PBRFULL_Chassis-material_Base_Color_jpg-surface">
          <surface type="2D">
            <init_from>PBRFULL_Chassis-material_Base_Color_jpg</init_from>
          </surface>
        </newparam>
        <newparam sid="PBRFULL_Chassis-material_Base_Color_jpg-sampler">
          <sampler2D>
            <source>PBRFULL_Chassis-material_Base_Color_jpg-surface</source>
          </sampler2D>
        </newparam>
        <technique sid="common">
          <phong>
            <emission>
              <color sid="emission">0 1 0 1</color>
            </emission>
            <ambient>
              <color sid="ambient">0 0 0 1</color>
            </ambient>
            <diffuse>
              <texture texture="PBRFULL_Chassis-material_Base_Color_jpg-sampler"/>
            </diffuse>
            <specular>
              <color sid="specular">0.5 0.5 0.5 1</color>
            </specular>
            <shininess>
              <float sid="shininess">50</float>
            </shininess>
            <index_of_refraction>
              <float sid="index_of_refraction">1</float>
            </index_of_refraction>
          </phong>
        </technique>
      </profile_COMMON>
    </effect>
  </library_effects>
  <library_materials>
    <material id="PBRFULL_Chassis-material" name="PBRFULL_Chassis">
      <instance_effect url="#PBRFULL_Chassis-effect"/>
    </material>
  </library_materials>
  <library_geometries>
    <geometry id="Chassis-mesh" name="Chassis">
      <mesh>
        <source id="Chassis-mesh-positions">
          <float_array id="Chassis-mesh-positions-array" count="372">0.1388465 -0.1331889 0.03769093 -0.1377305 -0.1331889 0.03769093 -0.1377305 -0.1331889 -0.08607935 0.1388465 -0.1331889 -0.08607935 0.1772508 -0.07824003 0.03769093 0.1772508 -0.07824003 -0.08607935 0.1771283 0 0.03769093 0.1771283 0 -0.08607935 -0.1700354 -0.1004407 -0.06572473 -0.1700354 -0.1004407 0.03769093 -0.1700354 -0.1004407 -0.08607935 -0.1699416 -0.07629305 -0.06572473 -0.1696058 0 0.03769093 -0.1696058 0 -0.06572473 -0.1700354 -0.07628268 -0.08607935 -0.1679235 -0.09919697 -0.08607888 -0.1679235 -0.07533812 -0.08607888 -0.1678309 -0.07534837 -0.06572526 -0.1679235 -0.09919697 -0.06572526 -0.1360186 -0.1315397 -0.08607888 -0.1360186 -0.1315397 -0.06573498 -0.007261097 -0.1315397 -0.06573498 -0.007261097 -0.1315397 -0.08607888 -0.007261097 0 -0.08607888 -0.007261097 0 -0.06573498 0.009206533 -0.1385568 -0.08231627 0.009206533 -0.1385568 -0.02970826 0.009206533 -0.1312574 -0.02970826 0.009206533 -0.1312574 -0.08231627 0.0800274 -0.1312574 -0.02970826 0.0800274 -0.1385568 -0.02970826 0.0800274 -0.1385568 -0.08231627 0.0800274 -0.1312574 -0.08231627 0.1388465 0.1331889 0.03769093 0.1388465 0.1331889 -0.08607935 -0.1377305 0.1331889 -0.08607935 -0.1377305 0.1331889 0.03769093 0.1772508 0.07824003 0.03769093 0.1772508 0.07824003 -0.08607935 -0.1700354 0.1004407 -0.06572473 -0.1700354 0.1004407 0.03769093 -0.1700354 0.1004407 -0.08607935 -0.1699416 0.07629305 -0.06572473 -0.1700354 0.07628268 -0.08607935 -0.1679235 0.09919697 -0.08607888 -0.1679235 0.09919697 -0.06572526 -0.1678309 0.07534837 -0.06572526 -0.1679235 0.07533812 -0.08607888 -0.1360186 0.1315397 -0.08607888 -0.1360186 0.1315397 -0.06573504 -0.007261097 0.1315397 -0.06573504 -0.007261097 0.1315397 -0.08607888 0.009206533 0.1385568 -0.08231627 0.009206533 0.1312574 -0.08231627 0.009206533 0.1312574 -0.02970826 0.009206533 0.1385568 -0.02970826 0.0800274 0.1312574 -0.02970826 0.0800274 0.1312574 -0.08231633 0.0800274 0.1385568 -0.08231627 0.0800274 0.1385568 -0.02970826 -0.1785257 -0.1011 0.08607935 -0.2053585 -0.05537098 0.08607935 -0.2053585 -0.05537098 0.0361275 -0.1785257 -0.1011 0.0361275 -0.1389016 -0.1361604 0.08607935 -0.1389016 -0.1361604 0.0361275 0.1388465 -0.1361604 0.08607935 0.1388465 -0.1361604 0.0361275 0.1784706 -0.1011 0.08607935 0.1784706 -0.1011 0.0361275 0.2053034 -0.05537092 0.08607935 0.2053034 -0.05537092 0.0361275 -0.2148993 0 0.08607935 -0.2148993 0 0.0361275 0.2148993 0 0.08607935 0.2148993 0 0.0361275 -0.1783482 0 0.0361275 -0.138917 0 0.0361275 0.1389169 0 0.0361275 0.1783482 0 0.0361275 -0.1785257 0.1011 0.08607935 -0.1785257 0.1011 0.0361275 -0.2053585 0.05537098 0.0361275 -0.2053585 0.05537098 0.08607935 -0.1389016 0.1361604 0.08607935 -0.1389016 0.1361604 0.0361275 0.1388465 0.1361604 0.08607935 0.1388465 0.1361604 0.0361275 0.1784706 0.1011 0.08607935 0.1784706 0.1011 0.0361275 0.2053034 0.05537092 0.08607935 0.2053034 0.05537092 0.0361275 0.2005494 0.05408895 0.08607935 0.2099232 0 0.08607935 -0.2099241 0 0.08607935 -0.2006042 0.05408895 0.08607935 -0.1743926 0.09875923 0.08607935 -0.1356859 0.1330078 0.08607935 0.1356313 0.1330078 0.08607935 0.1743379 0.09875917 0.08607935 -0.1743926 -0.09875923 0.08607935 -0.2006042 -0.05408895 0.08607935 -0.1356859 -0.1330078 0.08607935 0.1356313 -0.1330078 0.08607935 0.1743379 -0.09875917 0.08607935 0.2005494 -0.05408895 0.08607935 0.2099232 0 0.03974932 0.2005494 -0.05408895 0.03974932 -0.2006042 -0.05408895 0.03974932 -0.2099241 0 0.03974932 0.1743379 -0.09875917 0.03974932 0.1356313 -0.1330078 0.03974932 -0.1356859 -0.1330078 0.03974932 -0.1743926 -0.09875923 0.03974932 0.1743379 0.09875917 0.03974926 0.2005494 0.05408895 0.03974926 0.1356313 0.1330078 0.03974926 -0.1356859 0.1330078 0.03974926 -0.1743926 0.09875923 0.03974926 -0.2006042 0.05408895 0.03974926 0.1742182 0 0.03974932 0.1357001 0 0.03974932 -0.135701 0 0.03974932 -0.1742191 0 0.03974932</float_array>
          <technique_common>
            <accessor source="#Chassis-mesh-positions-array" count="124" stride="3">
              <param name="X" type="float"/>
              <param name="Y" type="float"/>
              <param name="Z" type="float"/>
            </accessor>
          </technique_common>
        </source>
        <source id="Chassis-mesh-normals">
          <float_array id="Chassis-mesh-normals-array" count="399">0 -1 0 0.8196516 -0.5728625 0 0.9999989 0.001565694 0 -0.7119086 -0.7022722 0 -0.7119089 -0.7022718 0 -0.7119088 -0.702272 0 -0.9999909 0.004277467 9.16723e-5 -0.9999926 0.003883004 0 -0.9999904 0.004400908 0 -0.9999925 0.003884255 0 -0.9999895 0 0.004608333 0.9999898 0 -0.004549264 0.9999926 -0.003882348 0 0.711909 0.7022718 0 0.7119092 0.7022715 0 0 1 0 -1 0 0 2.1249e-4 0 -1 2.21797e-4 0 -1 1.42303e-4 1.38682e-4 -1 1.40012e-4 1.38684e-4 -1 -0.4085155 0.9127485 0.002317965 -0.408278 0.9128546 0.002346634 -2.52168e-4 1.1052e-6 -1 -6.31501e-5 0 -1 -5.85233e-5 5.64071e-6 -1 0 1.73034e-4 -1 -3.0358e-4 1.17812e-6 -1 0 2.84617e-4 -1 0 2.84616e-4 -1 -3.29518e-6 0 -1 -1.91317e-6 1.37151e-6 -1 -2.45312e-6 0 -1 1 0 0 0 0 -1 0 0 1 0.8196516 0.5728625 0 0.9999989 -0.001565694 0 -0.7119086 0.7022722 0 -0.7119089 0.7022718 0 -0.7119088 0.702272 0 -0.9999909 -0.004277467 9.16723e-5 -0.9999926 -0.003883004 0 -0.9999904 -0.004400908 0 -0.9999925 -0.003884255 0 0.9999926 0.003882348 0 0.711909 -0.7022718 0 0.7119092 -0.7022715 0 -1 0 0 1.40012e-4 -1.38684e-4 -1 1.42303e-4 -1.38682e-4 -1 -0.408278 -0.9128546 0.002346634 -0.4085155 -0.9127485 0.002317965 -2.52168e-4 -1.1052e-6 -1 -5.88725e-5 -5.6319e-6 -1 -6.31501e-5 -4.53129e-7 -1 -3.05409e-4 -1.18556e-6 -1 0 -1.74095e-4 -1 0 -2.84616e-4 -1 0 -2.84617e-4 -1 -1.91317e-6 -1.37151e-6 -1 -2.45312e-6 0 -1 1 -5.90572e-7 0 -6.7559e-7 8.1657e-6 -1 -0.8624823 -0.5060874 0 -0.862483 -0.5060862 0 -0.6626619 -0.7489187 0 -0.662662 -0.7489186 0 0.6626622 -0.7489185 0 0.662662 -0.7489186 0 0.8624829 -0.5060863 0 0.8624829 -0.5060864 0 -0.9854778 -0.1698044 0 -0.9854779 -0.1698044 0 0.9853132 -0.1707569 0 0.9853132 -0.1707569 0 0 0 -1 1.72699e-7 0 -1 0 0 -1 -0.862483 0.5060862 0 -0.8624823 0.5060874 0 -0.662662 0.7489186 0 -0.6626619 0.7489187 0 0.662662 0.7489186 0 0.6626622 0.7489185 0 0.8624829 0.5060864 0 0.8624829 0.5060863 0 -0.9854779 0.1698044 0 -0.9854778 0.1698044 0 0.9853132 0.1707569 0 0.9853132 0.1707569 0 -7.92351e-7 0 1 -1.89309e-6 0 1 2.31155e-7 0 1 -1.4695e-6 0 1 2.00593e-6 0 1 2.44933e-7 0 1 -5.77923e-7 0 1 -0.9853131 0.1707582 0 -0.9853132 0.1707575 0 0.9854778 0.1698043 0 0.9854777 0.1698051 0 -0.8624831 0.5060861 0 -0.6626626 0.7489181 0 -0.6626625 0.7489182 0 0.6626612 0.7489193 0 0.6626611 0.7489194 0 0.8624824 0.506087 0 0.8624821 0.5060877 0 -0.862483 -0.5060861 0 -0.862483 -0.5060861 0 -0.6626625 -0.7489183 0 -0.6626627 -0.7489181 0 0.6626612 -0.7489194 0 0.6626611 -0.7489195 0 0.8624821 -0.5060878 0 0.8624825 -0.5060871 0 0.9854779 -0.1698045 0 0.9854778 -0.1698048 0 -0.9853131 -0.1707574 0 -0.9853131 -0.1707582 0 4.66117e-7 0 1 -1.8253e-7 0 1 0 0 1 0 6.03535e-7 1 3.26282e-6 1.56385e-6 1 4.25903e-7 6.02889e-7 1 0 4.48129e-7 1 0 4.48129e-7 1 -3.16606e-7 4.48174e-7 1 0 6.03535e-7 1 -1.16577e-6 6.01733e-7 1 0 1.10197e-6 1</float_array>
          <technique_common>
            <accessor source="#Chassis-mesh-normals-array" count="133" stride="3">
              <param name="X" type="float"/>
              <param name="Y" type="float"/>
              <param name="Z" type="float"/>
            </accessor>
          </technique_common>
        </source>
        <source id="Chassis-mesh-map-0">
          <float_array id="Chassis-mesh-map-0-array" count="1320">0.7297439 0.7958295 0.7297438 0.4951332 0.8648667 0.4951295 0.7297439 0.7958295 0.8648667 0.4951295 0.8648667 0.7958258 0.7297202 0.8334566 0.7297439 0.7958295 0.8648667 0.7958258 0.7297202 0.8334566 0.8648667 0.7958258 0.864843 0.8334529 0.7297202 0.7879899 0.7297202 0.8538106 0.5945974 0.8538106 0.7297202 0.7879899 0.5945974 0.8538106 0.5945974 0.7879899 0.842631 0.4575489 0.8648667 0.4951295 0.7297438 0.4951332 0.7297297 0.4575519 0.842631 0.4575489 0.7297438 0.4951332 0.842631 0.4575489 0.8648526 0.4575482 0.8648667 0.4951295 0.9777742 0.6877161 0.8648723 0.7139768 0.8648746 0.6047443 0.9777736 0.7139768 0.8648723 0.7139768 0.9777742 0.6877161 0.9777742 0.6877161 0.8648746 0.6047443 0.9777758 0.6047443 0.9999952 0.7139768 0.9777736 0.7139768 0.9777742 0.6877161 0.9999952 0.7139768 0.9777742 0.6877161 0.9999958 0.6877119 0.3991737 0.8937835 0.3991737 0.9138292 0.3769533 0.9137563 0.3991737 0.8937835 0.3769533 0.9137563 0.3769532 0.8937835 0.3769532 0.8937835 0.3991737 0.8444651 0.3991737 0.8937835 0.3769532 0.8937835 0.3769638 0.8444651 0.3991737 0.8444651 0.3769638 0.7550963 0.3991737 0.7550963 0.3991737 0.8444651 0.3769638 0.7550963 0.3991737 0.8444651 0.3769638 0.8444651 0.992226 0.8569881 0.9922261 0.9999995 0.9700162 1 0.992226 0.8569881 0.9700162 1 0.9700161 0.8569886 0.2550587 0.8468645 0.2286848 0.8468645 0.2276536 0.844563 0.2550587 0.8468645 0.2276536 0.844563 0.2537009 0.844563 0.2550587 0.8468645 0.2537009 0.844563 0.2890101 0.8097931 0.2550587 0.8468645 0.2890101 0.8097931 0.2908106 0.8116587 0.9777742 0.6877161 0.977774 0.6865307 0.9999945 0.6865265 0.9777742 0.6877161 0.9999945 0.6865265 0.9999958 0.6877119 0.2976654 0.6117447 0.2996031 0.6938591 0.2972987 0.6948886 0.2976654 0.6117447 0.4749007 0.6117447 0.4749007 0.7550963 0.2976654 0.6117447 0.4749007 0.7550963 0.2996031 0.6938591 0.2996031 0.6938591 0.4749007 0.7550963 0.3343333 0.7550962 0.2996031 0.6938591 0.3343333 0.7550962 0.299502 0.7198492 0.2908106 0.8116587 0.2890101 0.8097931 0.2890101 0.6694736 0.2908106 0.8116587 0.2890101 0.6694736 0.2908106 0.510246 0.2908106 0.510246 0.2890101 0.6694736 0.1454053 0.6694736 0.2908106 0.510246 0.1454053 0.6694736 0.2308217 0.4683931 0.2308217 0.4683931 0.1454053 0.6694736 0.1454053 0.4685266 0.46251 0.7550964 0.46251 0.8124285 0.45456 0.8124283 0.46251 0.7550964 0.45456 0.8124283 0.45456 0.7550963 0.2911551 0.4683931 0.2972987 0.4683931 0.2972987 0.5257251 0.2911551 0.4683931 0.2972987 0.5257251 0.2911551 0.5257251 0.5839993 0.5455735 0.5839993 0.4683931 0.5919682 0.4683931 0.5839993 0.5455735 0.5919682 0.4683931 0.5919682 0.5455735 0.354732 0.7550963 0.354732 0.8320932 0.2972987 0.8320947 0.354732 0.7550963 0.2972987 0.8320947 0.2972987 0.7550978 0.5919683 0.6999342 0.5919683 0.7771145 0.5839994 0.7771145 0.5919683 0.6999342 0.5839994 0.7771145 0.5839994 0.6999342 0.7297202 0.6495165 0.5945975 0.6495165 0.5945975 0.4575482 0.7297202 0.6495165 0.5945975 0.4575482 0.7297202 0.4575483 0.7297202 0.7223393 0.5945974 0.7223393 0.5945975 0.6495165 0.7297202 0.7223393 0.5945975 0.6495165 0.7297202 0.6495165 0.7297202 0.7879899 0.5945974 0.7879899 0.5945974 0.7223393 0.7297202 0.7879899 0.5945974 0.7223393 0.7297202 0.7223393 0.9777784 0.4955763 0.8648667 0.4575482 0.9999895 0.4575482 0.8648772 0.4955763 0.8648667 0.4575482 0.9777784 0.4955763 0.9777784 0.4955763 0.9999895 0.4575482 1 0.4955763 0.8648746 0.6047443 0.8648772 0.4955763 0.9777778 0.5218229 0.9777778 0.5218229 0.8648772 0.4955763 0.9777784 0.4955763 0.9777778 0.5218229 0.9777758 0.6047443 0.8648746 0.6047443 1 0.4955763 0.9999994 0.5218412 0.9777778 0.5218229 1 0.4955763 0.9777778 0.5218229 0.9777784 0.4955763 0.45456 0.8346097 0.45456 0.8124284 0.4746969 0.8124284 0.45456 0.8346097 0.4746969 0.8124284 0.4746412 0.8346097 0.3547327 0.7550987 0.3769532 0.7550963 0.3769419 0.7873547 0.3547327 0.7550987 0.3769419 0.7873547 0.354732 0.7873572 0.3547434 0.9273431 0.354732 0.7873572 0.3769419 0.7873547 0.3547434 0.9273431 0.3769419 0.7873547 0.3769532 0.9273408 0.992226 0.8569881 0.9700161 0.8569886 0.9700162 0.7139773 0.992226 0.8569881 0.9700162 0.7139773 0.992226 0.7139768 0.03575193 0.8468645 0.03710973 0.844563 0.06315696 0.844563 0.03575193 0.8468645 0.06315696 0.844563 0.0621258 0.8468645 0.03575193 0.8468645 0 0.8116587 0.001800417 0.8097931 0.03575193 0.8468645 0.001800417 0.8097931 0.03710973 0.844563 0.2949289 0.5479078 0.2949276 0.5257251 0.2972987 0.5257359 0.2949289 0.5479078 0.2972987 0.5257359 0.2972987 0.5479175 0.2976654 0.6117447 0.2972988 0.5286008 0.2996031 0.5296303 0.2976654 0.6117447 0.2996031 0.5296303 0.4749007 0.4683932 0.2976654 0.6117447 0.4749007 0.4683932 0.4749007 0.6117447 0.2996031 0.5296303 0.299502 0.5036401 0.3343333 0.4683931 0.2996031 0.5296303 0.3343333 0.4683931 0.4749007 0.4683932 0 0.8116587 0 0.510246 0.001800477 0.6694736 0 0.8116587 0.001800477 0.6694736 0.001800417 0.8097931 0 0.510246 0.05998891 0.4683931 0.1454053 0.6694736 0 0.510246 0.1454053 0.6694736 0.001800477 0.6694736 0.05998891 0.4683931 0.1454053 0.4685266 0.1454053 0.6694736 0.4669507 0.7550963 0.4749007 0.7550964 0.4749007 0.8124285 0.4669507 0.7550963 0.4749007 0.8124285 0.4669507 0.8124283 0.45456 0.7550963 0.45456 0.8124284 0.4484164 0.8124283 0.45456 0.7550963 0.4484164 0.8124283 0.4484164 0.7550963 0.5919682 0.6227538 0.5839993 0.6227538 0.5839993 0.5455735 0.5919682 0.6227538 0.5839993 0.5455735 0.5919682 0.5455735 0.3991737 0.8124283 0.3991737 0.7550963 0.4484164 0.7550963 0.3991737 0.8124283 0.4484164 0.7550963 0.4484164 0.8124283 0.5839993 0.6227538 0.5919682 0.6227538 0.5919682 0.6999342 0.5839993 0.6227538 0.5919682 0.6999342 0.5839993 0.6999342 0.9194186 0.7139785 0.9194067 0.7616822 0.8648732 0.7616805 0.9194186 0.7139785 0.8648732 0.7616805 0.8648851 0.7139768 0.5294486 0.8365483 0.5294659 0.8822606 0.4749324 0.8822647 0.5294486 0.8365483 0.4749324 0.8822647 0.4749151 0.8365523 0.5294342 0.5345788 0.5294486 0.8365483 0.4749151 0.8365523 0.5294342 0.5345788 0.4749151 0.8365523 0.4749007 0.5345828 0.5294474 0.494132 0.5294342 0.5345788 0.4749007 0.5345828 0.5294474 0.494132 0.4749007 0.5345828 0.4749139 0.494136 0.5294659 0.4683931 0.5294474 0.494132 0.4749139 0.494136 0.5294659 0.4683931 0.4749139 0.494136 0.4749324 0.4683972 0.9194067 0.7616822 0.9194002 0.8211663 0.8648667 0.8211646 0.9194067 0.7616822 0.8648667 0.8211646 0.8648732 0.7616805 0.5839993 0.8283606 0.5839993 0.8682217 0.5294659 0.8682217 0.5839993 0.8283606 0.5294659 0.8682217 0.5294659 0.8283606 0.5563212 0.4287533 0.5063979 0.4579956 0.4459481 0.4683931 0.5563212 0.4287533 0.4459481 0.4683931 0.4459481 0.4285598 0.5945974 0.3855711 0.5563212 0.4287533 0.4459481 0.4285598 0.5945974 0.3855711 0.4459481 0.4285598 0.4459481 0.3855878 0.5945974 0.08288204 0.5945974 0.3855711 0.4459481 0.3855878 0.5945974 0.08288204 0.4459481 0.3855878 0.4459481 0.08280533 0.5563212 0.03969985 0.5945974 0.08288204 0.4459481 0.08280533 0.5563212 0.03969985 0.4459481 0.08280533 0.4459481 0.03983324 0.4459481 0.03983324 0.4459481 0 0.5063978 0.01045757 0.4459481 0.03983324 0.5063978 0.01045757 0.5563212 0.03969985 0.9194069 0.9338124 0.8648734 0.9338108 0.8648668 0.8820804 0.9194069 0.9338124 0.8648668 0.8820804 0.9194003 0.8820822 0.9194186 0.9749036 0.8648851 0.9749019 0.8648734 0.9338108 0.9194186 0.9749036 0.8648734 0.9338108 0.9194069 0.9338124 0.5839993 0.6611743 0.5294659 0.6611742 0.5294659 0.4683931 0.5839993 0.6611743 0.5294659 0.4683931 0.5839993 0.4683932 0.5839993 0.7181338 0.5294659 0.7181338 0.5294659 0.6611742 0.5839993 0.7181338 0.5294659 0.6611742 0.5839993 0.6611743 0.5839993 0.7751787 0.5294659 0.7751787 0.5294659 0.7181338 0.5839993 0.7751787 0.5294659 0.7181338 0.5839993 0.7181338 0.9194003 0.8820822 0.8648668 0.8820804 0.8648667 0.8211646 0.9194003 0.8820822 0.8648667 0.8211646 0.9194002 0.8211663 0.5839993 0.8283606 0.5294659 0.8283606 0.5294659 0.7751787 0.5839993 0.8283606 0.5294659 0.7751787 0.5839993 0.7751787 0.3355749 0.4287533 0.4459481 0.4285598 0.4459481 0.4683931 0.3355749 0.4287533 0.4459481 0.4683931 0.3854983 0.4579956 0.2972987 0.3855711 0.4459481 0.3855878 0.4459481 0.4285598 0.2972987 0.3855711 0.4459481 0.4285598 0.3355749 0.4287533 0.2972987 0.08288204 0.4459481 0.08280533 0.4459481 0.3855878 0.2972987 0.08288204 0.4459481 0.3855878 0.2972987 0.3855711 0.3355749 0.03969985 0.4459481 0.03983324 0.4459481 0.08280533 0.3355749 0.03969985 0.4459481 0.08280533 0.2972987 0.08288204 0.4459481 0.03983324 0.3355749 0.03969985 0.3854984 0.01045757 0.4459481 0.03983324 0.3854984 0.01045757 0.4459481 0 0.209099 0.01045757 0.2076994 0.01563847 0.1486493 0.00542289 0.209099 0.01045757 0.1486493 0.00542289 0.1486493 0 0.1486493 0.4683931 0.1486493 0.4629712 0.2076995 0.4528144 0.1486493 0.4683931 0.2076995 0.4528144 0.2090992 0.4579956 0.2090992 0.4579956 0.2076995 0.4528144 0.2564671 0.424249 0.2090992 0.4579956 0.2564671 0.424249 0.2590225 0.4287533 0.2590225 0.4287533 0.2564671 0.424249 0.293857 0.3820666 0.2590225 0.4287533 0.293857 0.3820666 0.2972987 0.3855711 0.2972987 0.3855711 0.293857 0.3820666 0.2938569 0.08638596 0.2972987 0.3855711 0.2938569 0.08638596 0.2972987 0.08288204 0.2972987 0.08288204 0.2938569 0.08638596 0.2564669 0.04420363 0.2972987 0.08288204 0.2564669 0.04420363 0.2590224 0.03969985 0.2590224 0.03969985 0.2564669 0.04420363 0.2076994 0.01563847 0.2590224 0.03969985 0.2076994 0.01563847 0.209099 0.01045757 0.08819955 0.4579956 0.03827625 0.4287533 0.04083174 0.4242491 0.08819955 0.4579956 0.04083174 0.4242491 0.08959919 0.4528144 0.03827625 0.4287533 0 0.3855711 0.00344181 0.3820666 0.03827625 0.4287533 0.00344181 0.3820666 0.04083174 0.4242491 0 0.3855711 0 0.0828821 0.003441751 0.08638602 0 0.3855711 0.003441751 0.08638602 0.00344181 0.3820666 0 0.0828821 0.03827619 0.03969985 0.04083174 0.04420369 0 0.0828821 0.04083174 0.04420369 0.003441751 0.08638602 0.03827619 0.03969985 0.08819955 0.01045757 0.08959919 0.01563847 0.03827619 0.03969985 0.08959919 0.01563847 0.04083174 0.04420369 0.1486493 0.4683931 0.08819955 0.4579956 0.08959919 0.4528144 0.1486493 0.4683931 0.08959919 0.4528144 0.1486493 0.4629712 0.08819955 0.01045757 0.1486493 0 0.1486493 0.00542289 0.08819955 0.01045757 0.1486493 0.00542289 0.08959919 0.01563847 0.9194187 0.8781882 0.9194186 0.8186788 0.9699981 0.8186804 0.9194187 0.8781882 0.9699981 0.8186804 0.9699983 0.8781898 0.9356231 0.3515956 0.9356231 0.2996823 0.9862027 0.2996823 0.9356231 0.3515956 0.9862027 0.2996823 0.9862027 0.3515956 0.9194252 0.9287208 0.9194187 0.8781882 0.9699983 0.8781898 0.9194252 0.9287208 0.9699983 0.8781898 0.9700047 0.9287224 0.9194366 0.9688605 0.9194252 0.9287208 0.9700047 0.9287224 0.9194366 0.9688605 0.9700047 0.9287224 0.9700161 0.9688621 0.9356232 0.1883175 0.9356232 0 0.9862027 0 0.9356232 0.1883175 0.9862027 0 0.9862027 0.1883175 0.9356231 0.2439582 0.9356232 0.1883175 0.9862027 0.1883175 0.9356231 0.2439582 0.9862027 0.1883175 0.9862027 0.2439582 0.9356231 0.2996823 0.9356231 0.2439582 0.9862027 0.2439582 0.9356231 0.2996823 0.9862027 0.2439582 0.9862027 0.2996823 0.9194365 0.7139768 0.9700161 0.7139783 0.9700045 0.7605776 0.9194365 0.7139768 0.9700045 0.7605776 0.9194249 0.760576 0.8850266 0.3596349 0.9356062 0.3596311 0.9356231 0.404285 0.8850266 0.3596349 0.9356231 0.404285 0.8850435 0.4042887 0.8850126 0.06465703 0.9355922 0.06465327 0.9356062 0.3596311 0.8850126 0.06465703 0.9356062 0.3596311 0.8850266 0.3596349 0.8850255 0.02514672 0.9356051 0.02514296 0.9355922 0.06465327 0.8850255 0.02514672 0.9355922 0.06465327 0.8850126 0.06465703 0.8850436 3.7675e-6 0.9356231 0 0.9356051 0.02514296 0.8850436 3.7675e-6 0.9356051 0.02514296 0.8850255 0.02514672 0.9356231 0.3515956 0.9862027 0.3515956 0.9862027 0.3905712 0.9356231 0.3515956 0.9862027 0.3905712 0.9356231 0.3905712 0.9194249 0.760576 0.9700045 0.7605776 0.9699981 0.8186804 0.9194249 0.760576 0.9699981 0.8186804 0.9194186 0.8186788 0.6319874 0.03878074 0.6807549 0.01021552 0.739805 0 0.6319874 0.03878074 0.739805 0 0.739805 0.03891104 0.739805 0.03891104 0.739805 0.08088803 0.5945974 0.08096307 0.739805 0.03891104 0.5945974 0.08096307 0.6319874 0.03878074 0.739805 0.08088803 0.7398051 0.3766601 0.5945975 0.3766437 0.739805 0.08088803 0.5945975 0.3766437 0.5945974 0.08096307 0.7398051 0.3766601 0.7398051 0.418637 0.6319874 0.4188261 0.7398051 0.3766601 0.6319874 0.4188261 0.5945975 0.3766437 0.7398051 0.418637 0.7398051 0.4575482 0.6807549 0.4473914 0.7398051 0.418637 0.6807549 0.4473914 0.6319874 0.4188261 0.8476226 0.03878068 0.739805 0.03891104 0.739805 0 0.8476226 0.03878068 0.739805 0 0.7988551 0.01021552 0.739805 0.03891104 0.8476226 0.03878068 0.8850126 0.08096301 0.739805 0.03891104 0.8850126 0.08096301 0.739805 0.08088803 0.739805 0.08088803 0.8850126 0.08096301 0.8850126 0.3766437 0.739805 0.08088803 0.8850126 0.3766437 0.7398051 0.3766601 0.7398051 0.3766601 0.8850126 0.3766437 0.8476227 0.4188261 0.7398051 0.3766601 0.8476227 0.4188261 0.7398051 0.418637 0.7398051 0.418637 0.8476227 0.4188261 0.7988553 0.4473914 0.7398051 0.418637 0.7988553 0.4473914 0.7398051 0.4575482</float_array>
          <technique_common>
            <accessor source="#Chassis-mesh-map-0-array" count="660" stride="2">
              <param name="S" type="float"/>
              <param name="T" type="float"/>
            </accessor>
          </technique_common>
        </source>
        <vertices id="Chassis-mesh-vertices">
          <input semantic="POSITION" source="#Chassis-mesh-positions"/>
        </vertices>
        <polylist material="PBRFULL_Chassis-material" count="220">
          <input semantic="VERTEX" source="#Chassis-mesh-vertices" offset="0"/>
          <input semantic="NORMAL" source="#Chassis-mesh-normals" offset="1"/>
          <input semantic="TEXCOORD" source="#Chassis-mesh-map-0" offset="2" set="0"/>
          <vcount>3 3 3 3 3 3 3 3 3 3 3 3 3 3 3 3 3 3 3 3 3 3 3 3 3 3 3 3 3 3 3 3 3 3 3 3 3 3 3 3 3 3 3 3 3 3 3 3 3 3 3 3 3 3 3 3 3 3 3 3 3 3 3 3 3 3 3 3 3 3 3 3 3 3 3 3 3 3 3 3 3 3 3 3 3 3 3 3 3 3 3 3 3 3 3 3 3 3 3 3 3 3 3 3 3 3 3 3 3 3 3 3 3 3 3 3 3 3 3 3 3 3 3 3 3 3 3 3 3 3 3 3 3 3 3 3 3 3 3 3 3 3 3 3 3 3 3 3 3 3 3 3 3 3 3 3 3 3 3 3 3 3 3 3 3 3 3 3 3 3 3 3 3 3 3 3 3 3 3 3 3 3 3 3 3 3 3 3 3 3 3 3 3 3 3 3 3 3 3 3 3 3 3 3 3 3 3 3 3 3 3 3 3 3 3 3 3 3 3 3 </vcount>
          <p>0 0 0 1 0 1 2 0 2 0 0 3 2 0 4 3 0 5 4 1 6 0 1 7 3 1 8 4 1 9 3 1 10 5 1 11 6 2 12 4 2 13 5 2 14 6 2 15 5 2 16 7 2 17 8 3 18 2 3 19 1 3 20 9 4 21 8 4 22 1 4 23 8 5 24 10 5 25 2 5 26 11 6 27 9 6 28 12 6 29 8 7 30 9 7 31 11 7 32 11 8 33 12 8 34 13 8 35 10 9 36 8 9 37 11 9 38 10 10 39 11 10 40 14 10 41 15 11 42 16 11 43 17 11 44 15 12 45 17 12 46 18 12 47 18 13 48 19 13 49 15 13 50 18 14 51 20 14 52 19 14 53 21 15 54 22 15 55 19 15 56 21 15 57 19 15 58 20 15 59 23 16 60 22 16 61 21 16 62 23 16 63 21 16 64 24 16 65 10 17 66 14 17 67 16 17 68 10 18 69 16 18 70 15 18 71 10 19 72 15 19 73 19 19 74 10 20 75 19 20 76 2 20 77 11 21 78 17 21 79 16 21 80 11 22 81 16 22 82 14 22 83 13 23 84 17 23 85 11 23 86 13 24 87 24 24 88 21 24 89 13 25 90 21 25 91 17 25 92 17 26 93 21 26 94 20 26 95 17 27 96 20 27 97 18 27 98 2 28 99 19 28 100 22 28 101 2 29 102 22 29 103 3 29 104 3 30 105 22 30 106 23 30 107 3 31 108 23 31 109 5 31 110 5 32 111 23 32 112 7 32 113 25 16 114 26 16 115 27 16 116 25 16 117 27 16 118 28 16 119 29 33 120 30 33 121 31 33 122 29 33 123 31 33 124 32 33 125 28 34 126 32 34 127 31 34 128 28 34 129 31 34 130 25 34 131 25 0 132 31 0 133 30 0 134 25 0 135 30 0 136 26 0 137 26 35 138 30 35 139 29 35 140 26 35 141 29 35 142 27 35 143 33 15 144 34 15 145 35 15 146 33 15 147 35 15 148 36 15 149 37 36 150 38 36 151 34 36 152 37 36 153 34 36 154 33 36 155 6 37 156 7 37 157 38 37 158 6 37 159 38 37 160 37 37 161 39 38 162 36 38 163 35 38 164 40 39 165 36 39 166 39 39 167 39 40 168 35 40 169 41 40 170 12 41 171 40 41 172 42 41 173 42 42 174 40 42 175 39 42 176 42 43 177 13 43 178 12 43 179 41 10 180 43 10 181 42 10 182 41 44 183 42 44 184 39 44 185 44 45 186 45 45 187 46 45 188 44 11 189 46 11 190 47 11 191 45 46 192 44 46 193 48 46 194 45 47 195 48 47 196 49 47 197 50 0 198 49 0 199 48 0 200 50 0 201 48 0 202 51 0 203 23 48 204 24 48 205 50 48 206 23 16 207 50 16 208 51 16 209 41 18 210 44 18 211 47 18 212 41 17 213 47 17 214 43 17 215 41 49 216 35 49 217 48 49 218 41 50 219 48 50 220 44 50 221 42 51 222 43 51 223 47 51 224 42 52 225 47 52 226 46 52 227 13 53 228 42 53 229 46 53 230 13 54 231 46 54 232 50 54 233 13 55 234 50 55 235 24 55 236 46 56 237 45 56 238 49 56 239 46 57 240 49 57 241 50 57 242 35 58 243 34 58 244 51 58 245 35 59 246 51 59 247 48 59 248 34 60 249 38 60 250 23 60 251 34 30 252 23 30 253 51 30 254 38 61 255 7 61 256 23 61 257 52 16 258 53 16 259 54 16 260 52 16 261 54 16 262 55 16 263 56 62 264 57 62 265 58 62 266 56 33 267 58 33 268 59 33 269 53 34 270 52 34 271 58 34 272 53 63 273 58 63 274 57 63 275 52 15 276 55 15 277 59 15 278 52 15 279 59 15 280 58 15 281 55 35 282 54 35 283 56 35 284 55 35 285 56 35 286 59 35 287 60 64 288 61 64 289 62 64 290 60 65 291 62 65 292 63 65 293 64 66 294 60 66 295 63 66 296 64 67 297 63 67 298 65 67 299 66 0 300 64 0 301 65 0 302 66 0 303 65 0 304 67 0 305 68 68 306 66 68 307 67 68 308 68 69 309 67 69 310 69 69 311 70 70 312 68 70 313 69 70 314 70 71 315 69 71 316 71 71 317 61 72 318 72 72 319 73 72 320 61 73 321 73 73 322 62 73 323 74 74 324 70 74 325 71 74 326 74 75 327 71 75 328 75 75 329 63 34 330 62 34 331 73 34 332 63 34 333 73 34 334 76 34 335 65 76 336 63 76 337 76 76 338 65 34 339 76 34 340 77 34 341 67 34 342 65 34 343 77 34 344 67 34 345 77 34 346 78 34 347 69 77 348 67 77 349 78 77 350 69 34 351 78 34 352 79 34 353 79 34 354 75 34 355 71 34 356 79 78 357 71 78 358 69 78 359 80 79 360 81 79 361 82 79 362 80 80 363 82 80 364 83 80 365 84 81 366 85 81 367 81 81 368 84 82 369 81 82 370 80 82 371 86 15 372 87 15 373 85 15 374 86 15 375 85 15 376 84 15 377 88 83 378 89 83 379 87 83 380 88 84 381 87 84 382 86 84 383 90 85 384 91 85 385 89 85 386 90 86 387 89 86 388 88 86 389 83 87 390 82 87 391 73 87 392 83 88 393 73 88 394 72 88 395 74 89 396 75 89 397 91 89 398 74 90 399 91 90 400 90 90 401 81 34 402 76 34 403 73 34 404 81 34 405 73 34 406 82 34 407 85 34 408 77 34 409 76 34 410 85 76 411 76 76 412 81 76 413 87 34 414 78 34 415 77 34 416 87 34 417 77 34 418 85 34 419 89 34 420 79 34 421 78 34 422 89 77 423 78 77 424 87 77 425 79 78 426 89 78 427 91 78 428 79 34 429 91 34 430 75 34 431 90 35 432 92 35 433 93 35 434 90 35 435 93 35 436 74 35 437 72 35 438 94 35 439 95 35 440 72 91 441 95 91 442 83 91 443 83 92 444 95 92 445 96 92 446 83 93 447 96 93 448 80 93 449 80 35 450 96 35 451 97 35 452 80 94 453 97 94 454 84 94 455 84 35 456 97 35 457 98 35 458 84 35 459 98 35 460 86 35 461 86 95 462 98 95 463 99 95 464 86 96 465 99 96 466 88 96 467 88 35 468 99 35 469 92 35 470 88 97 471 92 97 472 90 97 473 61 93 474 60 93 475 100 93 476 61 92 477 100 92 478 101 92 479 60 94 480 64 94 481 102 94 482 60 35 483 102 35 484 100 35 485 64 35 486 66 35 487 103 35 488 64 35 489 103 35 490 102 35 491 66 96 492 68 96 493 104 96 494 66 95 495 104 95 496 103 95 497 68 97 498 70 97 499 105 97 500 68 35 501 105 35 502 104 35 503 72 91 504 61 91 505 101 91 506 72 35 507 101 35 508 94 35 509 70 35 510 74 35 511 93 35 512 70 35 513 93 35 514 105 35 515 105 98 516 93 98 517 106 98 518 105 99 519 106 99 520 107 99 521 94 100 522 101 100 523 108 100 524 94 101 525 108 101 526 109 101 527 104 102 528 105 102 529 107 102 530 104 102 531 107 102 532 110 102 533 103 103 534 104 103 535 110 103 536 103 104 537 110 104 538 111 104 539 102 15 540 103 15 541 111 15 542 102 15 543 111 15 544 112 15 545 100 105 546 102 105 547 112 105 548 100 106 549 112 106 550 113 106 551 101 107 552 100 107 553 113 107 554 101 108 555 113 108 556 108 108 557 99 109 558 114 109 559 115 109 560 99 110 561 115 110 562 92 110 563 98 111 564 116 111 565 114 111 566 98 112 567 114 112 568 99 112 569 97 0 570 117 0 571 116 0 572 97 0 573 116 0 574 98 0 575 96 113 576 118 113 577 117 113 578 96 114 579 117 114 580 97 114 581 95 115 582 119 115 583 118 115 584 95 116 585 118 116 586 96 116 587 94 117 588 109 117 589 119 117 590 94 118 591 119 118 592 95 118 593 92 119 594 115 119 595 106 119 596 92 120 597 106 120 598 93 120 599 110 121 600 107 121 601 106 121 602 110 35 603 106 35 604 120 35 605 120 35 606 121 35 607 111 35 608 120 122 609 111 122 610 110 122 611 121 35 612 122 35 613 112 35 614 121 35 615 112 35 616 111 35 617 122 35 618 123 35 619 113 35 620 122 123 621 113 123 622 112 123 623 123 35 624 109 35 625 108 35 626 123 35 627 108 35 628 113 35 629 114 124 630 120 124 631 106 124 632 114 125 633 106 125 634 115 125 635 120 126 636 114 126 637 116 126 638 120 127 639 116 127 640 121 127 641 121 128 642 116 128 643 117 128 644 121 127 645 117 127 646 122 127 647 122 129 648 117 129 649 118 129 650 122 130 651 118 130 652 123 130 653 123 131 654 118 131 655 119 131 656 123 132 657 119 132 658 109 132 659</p>
        </polylist>
      </mesh>
    </geometry>
  </library_geometries>
  <library_controllers/>
  <library_visual_scenes>
    <visual_scene id="Scene" name="Scene">
      <node id="Chassis" name="Chassis" type="NODE">
        <matrix sid="transform">1 0 0 0 0 1 0 0 0 0 1 0 0 0 0 1</matrix>
        <instance_geometry url="#Chassis-mesh" name="Chassis">
          <bind_material>
            <technique_common>
              <instance_material symbol="PBRFULL_Chassis-material" target="#PBRFULL_Chassis-material"/>
            </technique_common>
          </bind_material>
        </instance_geometry>
      </node>
    </visual_scene>
  </library_visual_scenes>
  <scene>
    <instance_visual_scene url="#Scene"/>
  </scene>
</COLLADA>
