<?xml version="1.0" encoding="utf-8"?>
<COLLADA xmlns="http://www.collada.org/2005/11/COLLADASchema" version="1.4.1">
  <asset>
    <contributor>
      <author>Blender User</author>
      <authoring_tool>Blender 2.78.0</authoring_tool>
    </contributor>
    <created>2017-08-30T16:54:20</created>
    <modified>2017-08-30T16:54:20</modified>
    <unit name="meter" meter="1"/>
    <up_axis>Z_UP</up_axis>
  </asset>
  <library_images>
    <image id="PBRFULL_LeftHubCap-material_Base_Color_jpg" name="PBRFULL_LeftHubCap-material_Base_Color_jpg">
      <init_from>PBRFULL_LeftHubCap-material_Base_Color.jpg</init_from>
    </image>
  </library_images>
  <library_effects>
    <effect id="PBRFULL_LeftHubCap-effect">
      <profile_COMMON>
        <newparam sid="PBRFULL_LeftHubCap-material_Base_Color_jpg-surface">
          <surface type="2D">
            <init_from>PBRFULL_LeftHubCap-material_Base_Color_jpg</init_from>
          </surface>
        </newparam>
        <newparam sid="PBRFULL_LeftHubCap-material_Base_Color_jpg-sampler">
          <sampler2D>
            <source>PBRFULL_LeftHubCap-material_Base_Color_jpg-surface</source>
          </sampler2D>
        </newparam>
        <technique sid="common">
          <phong>
            <emission>
              <color sid="emission">0 0 0 1</color>
            </emission>
            <ambient>
              <color sid="ambient">0 0 0 1</color>
            </ambient>
            <diffuse>
              <texture texture="PBRFULL_LeftHubCap-material_Base_Color_jpg-sampler"/>
            </diffuse>
            <specular>
              <color sid="specular">0.5 0.5 0.5 1</color>
            </specular>
            <shininess>
              <float sid="shininess">50</float>
            </shininess>
            <index_of_refraction>
              <float sid="index_of_refraction">1</float>
            </index_of_refraction>
          </phong>
        </technique>
      </profile_COMMON>
    </effect>
  </library_effects>
  <library_materials>
    <material id="PBRFULL_LeftHubCap-material" name="PBRFULL_LeftHubCap">
      <instance_effect url="#PBRFULL_LeftHubCap-effect"/>
    </material>
  </library_materials>
  <library_geometries>
    <geometry id="Left_Hubcap-mesh" name="Left Hubcap">
      <mesh>
        <source id="Left_Hubcap-mesh-positions">
          <float_array id="Left_Hubcap-mesh-positions-array" count="438">0.037193 -0.01530081 0.03695785 0.02636831 -0.01530081 0.04526382 0.02131408 -0.008601546 0.03650963 0.03004509 -0.008601546 0.02981001 0.01376277 -0.01530081 0.05048537 0.01114636 -0.008601546 0.04072117 2.35244e-4 -0.01530081 0.05226629 2.35229e-4 -0.008601546 0.04215764 -0.01329225 -0.01530081 0.05048543 -0.0106759 -0.008601546 0.04072117 -0.02589792 -0.01530081 0.04526394 -0.02084362 -0.008601546 0.03650969 -0.03672266 -0.01530081 0.03695785 -0.02957481 -0.008601546 0.02981007 -0.04502868 -0.01530081 0.02613317 -0.03627443 -0.008601546 0.02107888 -0.05025023 -0.01530081 0.01352757 -0.04048597 -0.008601546 0.01091122 -0.05203109 -0.01530081 0 -0.0419225 -0.008601546 0 -0.05025023 -0.01530081 -0.01352745 -0.04048603 -0.008601546 -0.01091104 -0.04502874 -0.01530081 -0.02613306 -0.03627449 -0.008601546 -0.02107876 -0.03672266 -0.01530081 -0.0369578 -0.02957487 -0.008601546 -0.02980995 -0.02589797 -0.01530081 -0.04526388 -0.02084368 -0.008601546 -0.03650957 -0.01329237 -0.01530081 -0.05048537 -0.01067602 -0.008601546 -0.04072111 2.35134e-4 -0.01530081 -0.05226624 2.3514e-4 -0.008601546 -0.04215759 0.01376265 -0.01530081 -0.05048537 0.0111463 -0.008601546 -0.04072111 0.02636826 -0.01530081 -0.04526388 0.02131396 -0.008601546 -0.03650963 0.037193 -0.01530081 -0.0369578 0.03004515 -0.008601546 -0.02980995 0.04549902 -0.01530081 -0.02613312 0.03674477 -0.008601546 -0.02107882 0.05072051 -0.01530081 -0.01352745 0.04095631 -0.008601546 -0.0109111 0.05250144 -0.01530081 0 0.04239279 -0.008601546 0 0.05072051 -0.01530081 0.01352757 0.04095625 -0.008601546 0.01091116 0.04549902 -0.01530081 0.02613312 0.03674477 -0.008601546 0.02107888 2.35173e-4 -0.008509993 0 0.03004509 0.007995903 0.02981001 0.03674477 0.007995903 0.02107888 2.35173e-4 0.00790435 0 0.04095631 0.007995903 0.01091116 0.04239279 0.007995903 0 0.04095631 0.007995903 -0.0109111 0.03674477 0.007995903 -0.02107882 0.03004515 0.007995903 -0.02980995 0.02131396 0.007995903 -0.03650963 0.0111463 0.007995903 -0.04072111 2.3514e-4 0.007995903 -0.04215759 -0.01067602 0.007995903 -0.04072111 -0.02084368 0.007995903 -0.03650957 -0.02957487 0.007995903 -0.02980995 -0.03627449 0.007995903 -0.02107876 -0.04048603 0.007995903 -0.01091104 -0.0419225 0.007995903 0 -0.04048597 0.007995903 0.01091122 -0.03627443 0.007995903 0.02107894 -0.02957481 0.007995903 0.02981007 -0.02084362 0.007995903 0.03650969 -0.0106759 0.007995903 0.04072117 2.35229e-4 0.007995903 0.04215764 0.01114636 0.007995903 0.04072117 0.02131408 0.007995903 0.03650963 0.04549902 0.0146951 0.02613312 0.037193 0.0146951 0.03695785 0.05072051 0.0146951 0.01352757 0.05250144 0.0146951 0 0.05072051 0.0146951 -0.01352745 0.04549902 0.0146951 -0.02613312 0.037193 0.0146951 -0.0369578 0.02636826 0.0146951 -0.04526388 0.01376265 0.0146951 -0.05048537 2.35134e-4 0.0146951 -0.05226624 -0.01329237 0.0146951 -0.05048537 -0.02589797 0.0146951 -0.04526388 -0.03672266 0.0146951 -0.0369578 -0.04502874 0.0146951 -0.02613306 -0.05025023 0.0146951 -0.01352745 -0.05203109 0.0146951 0 -0.05025023 0.0146951 0.01352757 -0.04502874 0.0146951 0.02613317 -0.03672266 0.0146951 0.03695785 -0.02589792 0.0146951 0.04526394 -0.01329225 0.0146951 0.05048543 2.35244e-4 0.0146951 0.05226629 0.01376277 0.0146951 0.05048537 0.02636831 0.0146951 0.04526388 -0.01067602 -0.008601546 -0.04072111 2.3514e-4 -0.008601546 -0.04215759 0.04095631 -0.008601546 -0.0109111 0.04239279 -0.008601546 0 0.01114636 0.007995903 0.04072117 0.02131408 0.007995903 0.03650963 0.04095625 -0.008601546 0.01091116 0.03674477 -0.008601546 0.02107888 2.3514e-4 0.007995903 -0.04215759 -0.01067602 0.007995903 -0.04072111 0.0111463 -0.008601546 -0.04072111 -0.0106759 -0.008601546 0.04072117 -0.02084362 -0.008601546 0.03650969 0.03004509 0.007995903 0.02981001 0.03004515 -0.008601546 -0.02980995 0.03674477 -0.008601546 -0.02107882 -0.02957481 0.007995903 0.02981007 -0.02084362 0.007995903 0.03650969 -0.02957481 -0.008601546 0.02981007 -0.03627443 -0.008601546 0.02107888 -0.03627449 0.007995903 -0.02107876 -0.04048603 0.007995903 -0.01091104 0.01114636 -0.008601546 0.04072117 2.35229e-4 -0.008601546 0.04215764 0.02131396 -0.008601546 -0.03650963 -0.0419225 0.007995903 0 0.02131408 -0.008601546 0.03650963 0.04095631 0.007995903 0.01091116 0.04239279 0.007995903 0 2.35229e-4 0.007995903 0.04215764 -0.03627449 -0.008601546 -0.02107876 -0.02957487 -0.008601546 -0.02980995 -0.03627443 0.007995903 0.02107894 0.03004515 0.007995903 -0.02980995 0.02131396 0.007995903 -0.03650963 -0.02084368 0.007995903 -0.03650957 -0.0419225 -0.008601546 0 -0.04048603 -0.008601546 -0.01091104 -0.04048597 -0.008601546 0.01091122 0.04095631 0.007995903 -0.0109111 -0.02084368 -0.008601546 -0.03650957 0.03674477 0.007995903 0.02107888 0.0111463 0.007995903 -0.04072111 -0.0106759 0.007995903 0.04072117 -0.02957487 0.007995903 -0.02980995 -0.04048597 0.007995903 0.01091122 0.03004509 -0.008601546 0.02981001 0.03674477 0.007995903 -0.02107882</float_array>
          <technique_common>
            <accessor source="#Left_Hubcap-mesh-positions-array" count="146" stride="3">
              <param name="X" type="float"/>
              <param name="Y" type="float"/>
              <param name="Z" type="float"/>
            </accessor>
          </technique_common>
        </source>
        <source id="Left_Hubcap-mesh-normals">
          <float_array id="Left_Hubcap-mesh-normals-array" count="300">-0.3906151 -0.8335705 -0.3906151 -0.2761973 -0.8335664 -0.4784164 -0.1429817 -0.8335664 -0.5335948 -0.1429517 -0.8335701 -0.5335971 0 -0.8335638 -0.5524233 0.1429517 -0.8335701 -0.5335971 0.2761973 -0.8335664 -0.4784164 0.3906151 -0.8335705 -0.3906151 0.4784164 -0.8335664 -0.2761973 0.5335971 -0.8335701 -0.1429517 0.5335948 -0.8335664 -0.1429817 0.5524233 -0.8335638 0 0.5335971 -0.8335701 0.1429517 0.4784164 -0.8335664 0.2761973 0.3906151 -0.8335705 0.3906151 0.2761973 -0.8335664 0.4784164 0.1429517 -0.8335701 0.5335971 0 -0.8335638 0.5524233 -0.1429517 -0.8335701 0.5335971 -0.2761973 -0.8335664 0.4784164 -0.3906151 -0.8335705 0.3906151 -0.4784164 -0.8335664 0.2761973 -0.5335971 -0.8335701 0.1429517 -0.5524233 -0.8335638 0 -0.5335971 -0.8335701 -0.1429517 -0.4784164 -0.8335664 -0.2761973 -0.001068174 -0.9999977 -0.001861631 0 -1 0 -0.001525938 -0.9999977 -0.001525938 -5.49349e-4 -0.9999977 -0.002075314 0 -0.9999977 -0.002166867 5.49349e-4 -0.9999977 -0.002075314 0.001068174 -0.9999977 -0.001861631 0.001525938 -0.9999977 -0.001525938 0.001861631 -0.9999977 -0.001068174 0.002075314 -0.9999977 -5.49349e-4 0.002166867 -0.9999977 0 0.002075314 -0.9999977 5.49349e-4 0.001861631 -0.9999977 0.001068174 0.001525938 -0.9999977 0.001525938 0.001068174 -0.9999977 0.001861631 5.49349e-4 -0.9999977 0.002075314 0 -0.9999977 0.002166867 -5.49349e-4 -0.9999977 0.002075314 -0.001068174 -0.9999977 0.001861631 -0.001525938 -0.9999977 0.001525938 -0.001861631 -0.9999977 0.001068174 -0.002075314 -0.9999977 5.49349e-4 -0.002166867 -0.9999977 0 -0.002075314 -0.9999977 -5.49349e-4 -0.001861631 -0.9999977 -0.001068174 -0.001525938 0.9999977 -0.001525938 -0.001861631 0.9999977 -0.001068174 0 1 0 -0.002075314 0.9999977 -5.49349e-4 -0.002166867 0.9999977 0 -0.002075314 0.9999977 5.49349e-4 -0.001861631 0.9999977 0.001068174 -0.001525938 0.9999977 0.001525938 -0.001068174 0.9999977 0.001861631 -5.49349e-4 0.9999977 0.002075314 0 0.9999977 0.002166867 5.49349e-4 0.9999977 0.002075314 0.001068174 0.9999977 0.001861631 0.001525938 0.9999977 0.001525938 0.001861631 0.9999977 0.001068174 0.002075314 0.9999977 5.49349e-4 0.002166867 0.9999977 0 0.002075314 0.9999977 -5.49349e-4 0.001861631 0.9999977 -0.001068174 0.001525938 0.9999977 -0.001525938 0.001068174 0.9999977 -0.001861631 5.49349e-4 0.9999977 -0.002075314 0 0.9999977 -0.002166867 -5.49349e-4 0.9999977 -0.002075314 -0.001068174 0.9999977 -0.001861631 -0.4784164 0.8335664 -0.2761973 -0.3906151 0.8335705 -0.3906151 -0.5335971 0.8335701 -0.1429517 -0.5524233 0.8335638 0 -0.5335971 0.8335701 0.1429517 -0.4784164 0.8335664 0.2761973 -0.3906151 0.8335705 0.3906151 -0.2761973 0.8335664 0.4784164 -0.1429517 0.8335701 0.5335971 0 0.8335638 0.5524233 0.1429517 0.8335701 0.5335971 0.2761973 0.8335664 0.4784164 0.3906151 0.8335705 0.3906151 0.4784164 0.8335664 0.2761973 0.5335971 0.8335701 0.1429517 0.5524233 0.8335638 0 0.5335971 0.8335701 -0.1429517 0.4784164 0.8335664 -0.2761973 0.3906151 0.8335705 -0.3906151 0.2761973 0.8335664 -0.4784164 0.1429517 0.8335701 -0.5335971 0 0.8335638 -0.5524233 -0.1429517 0.8335701 -0.5335971 -0.2761973 0.8335664 -0.4784164</float_array>
          <technique_common>
            <accessor source="#Left_Hubcap-mesh-normals-array" count="100" stride="3">
              <param name="X" type="float"/>
              <param name="Y" type="float"/>
              <param name="Z" type="float"/>
            </accessor>
          </technique_common>
        </source>
        <source id="Left_Hubcap-mesh-map-0">
          <float_array id="Left_Hubcap-mesh-map-0-array" count="864">0.8464576 0.4828701 0.7829003 0.4998999 0.7757081 0.4431177 0.8464576 0.4828701 0.7757081 0.4431177 0.824814 0.4298837 0.7829003 0.4998999 0.7171003 0.4999002 0.7248494 0.4431911 0.7829003 0.4998999 0.7248494 0.4431911 0.7757081 0.4431177 0.7171003 0.4999002 0.6535423 0.48287 0.675705 0.4300987 0.7171003 0.4999002 0.675705 0.4300987 0.7248494 0.4431911 0.6535423 0.48287 0.596558 0.44997 0.6316237 0.404733 0.6535423 0.48287 0.6316237 0.404733 0.675705 0.4300987 0.596558 0.44997 0.5500304 0.4034423 0.5956093 0.3688225 0.596558 0.44997 0.5956093 0.3688225 0.6316237 0.404733 0.5500304 0.4034423 0.5171304 0.3464578 0.5701164 0.3248144 0.5500304 0.4034423 0.5701164 0.3248144 0.5956093 0.3688225 0.5171304 0.3464578 0.5001002 0.2829001 0.5568826 0.2757077 0.5171304 0.3464578 0.5568826 0.2757077 0.5701164 0.3248144 0.5001002 0.2829001 0.5001001 0.2171 0.5568092 0.2248494 0.5001002 0.2829001 0.5568092 0.2248494 0.5568826 0.2757077 0.5001001 0.2171 0.5171305 0.153542 0.5699015 0.1757045 0.5001001 0.2171 0.5699015 0.1757045 0.5568092 0.2248494 0.5171305 0.153542 0.5500304 0.09655785 0.5952669 0.1316236 0.5171305 0.153542 0.5952669 0.1316236 0.5699015 0.1757045 0.5500304 0.09655785 0.5965579 0.05003046 0.6311777 0.09560936 0.5500304 0.09655785 0.6311777 0.09560936 0.5952669 0.1316236 0.5965579 0.05003046 0.6535424 0.01713043 0.6751857 0.0701164 0.5965579 0.05003046 0.6751857 0.0701164 0.6311777 0.09560936 0.6535424 0.01713043 0.7171002 9.996e-5 0.7242923 0.05688261 0.6535424 0.01713043 0.7242923 0.05688261 0.6751857 0.0701164 0.7171002 9.996e-5 0.7829001 1.00014e-4 0.7751507 0.05680912 0.7171002 9.996e-5 0.7751507 0.05680912 0.7242923 0.05688261 0.7829001 1.00014e-4 0.8464579 0.01713031 0.8242953 0.06990158 0.7829001 1.00014e-4 0.8242953 0.06990158 0.7751507 0.05680912 0.8464579 0.01713031 0.9034423 0.05003029 0.8683767 0.09526729 0.8464579 0.01713031 0.8683767 0.09526729 0.8242953 0.06990158 0.9034423 0.05003029 0.94997 0.09655791 0.9043908 0.1311776 0.9034423 0.05003029 0.9043908 0.1311776 0.8683767 0.09526729 0.94997 0.09655791 0.9828699 0.1535423 0.9298837 0.1751859 0.94997 0.09655791 0.9298837 0.1751859 0.9043908 0.1311776 0.9828699 0.1535423 0.9999 0.2171002 0.9431176 0.2242923 0.9828699 0.1535423 0.9431176 0.2242923 0.9298837 0.1751859 0.9999 0.2171002 0.9999 0.2829003 0.943191 0.275151 0.9999 0.2171002 0.943191 0.275151 0.9431176 0.2242923 0.9999 0.2829003 0.9828698 0.3464578 0.9300987 0.3242953 0.9999 0.2829003 0.9300987 0.3242953 0.943191 0.275151 0.9828698 0.3464578 0.9499697 0.4034425 0.9047327 0.3683766 0.9828698 0.3464578 0.9047327 0.3683766 0.9300987 0.3242953 0.9499697 0.4034425 0.9034421 0.4499699 0.8688223 0.4043911 0.9499697 0.4034425 0.8688223 0.4043911 0.9047327 0.3683766 0.9034421 0.4499699 0.8464576 0.4828701 0.824814 0.4298837 0.9034421 0.4499699 0.824814 0.4298837 0.8688223 0.4043911 0.7757081 0.4431177 0.7500002 0.2500001 0.824814 0.4298837 0.7248494 0.4431911 0.7500002 0.2500001 0.7757081 0.4431177 0.675705 0.4300987 0.7500002 0.2500001 0.7248494 0.4431911 0.6316237 0.404733 0.7500002 0.2500001 0.675705 0.4300987 0.5956093 0.3688225 0.7500002 0.2500001 0.6316237 0.404733 0.5701164 0.3248144 0.7500002 0.2500001 0.5956093 0.3688225 0.5568826 0.2757077 0.7500002 0.2500001 0.5701164 0.3248144 0.5568092 0.2248494 0.7500002 0.2500001 0.5568826 0.2757077 0.5699015 0.1757045 0.7500002 0.2500001 0.5568092 0.2248494 0.5952669 0.1316236 0.7500002 0.2500001 0.5699015 0.1757045 0.6311777 0.09560936 0.7500002 0.2500001 0.5952669 0.1316236 0.6751857 0.0701164 0.7500002 0.2500001 0.6311777 0.09560936 0.7242923 0.05688261 0.7500002 0.2500001 0.6751857 0.0701164 0.7751507 0.05680912 0.7500002 0.2500001 0.7242923 0.05688261 0.8242953 0.06990158 0.7500002 0.2500001 0.7751507 0.05680912 0.8683767 0.09526729 0.7500002 0.2500001 0.8242953 0.06990158 0.9043908 0.1311776 0.7500002 0.2500001 0.8683767 0.09526729 0.9298837 0.1751859 0.7500002 0.2500001 0.9043908 0.1311776 0.9431176 0.2242923 0.7500002 0.2500001 0.9298837 0.1751859 0.943191 0.275151 0.7500002 0.2500001 0.9431176 0.2242923 0.9300987 0.3242953 0.7500002 0.2500001 0.943191 0.275151 0.9047327 0.3683766 0.7500002 0.2500001 0.9300987 0.3242953 0.8688223 0.4043911 0.7500002 0.2500001 0.9047327 0.3683766 0.824814 0.4298837 0.7500002 0.2500001 0.8688223 0.4043911 0.2242922 0.4431175 0.1751856 0.4298837 0.2499998 0.2500001 0.1751856 0.4298837 0.1311774 0.4043908 0.2499998 0.2500001 0.1311774 0.4043908 0.09526693 0.3683765 0.2499998 0.2500001 0.09526693 0.3683765 0.06990128 0.3242954 0.2499998 0.2500001 0.06990128 0.3242954 0.05680906 0.2751507 0.2499998 0.2500001 0.05680906 0.2751507 0.05688232 0.2242923 0.2499998 0.2500001 0.05688232 0.2242923 0.0701164 0.1751855 0.2499998 0.2500001 0.0701164 0.1751855 0.09560918 0.1311776 0.2499998 0.2500001 0.09560918 0.1311776 0.1316235 0.09526717 0.2499998 0.2500001 0.1316235 0.09526717 0.1757049 0.0699014 0.2499998 0.2500001 0.1757049 0.0699014 0.2248494 0.0568093 0.2499998 0.2500001 0.2248494 0.0568093 0.275708 0.0568825 0.2499998 0.2500001 0.275708 0.0568825 0.3248146 0.07011669 0.2499998 0.2500001 0.3248146 0.07011669 0.3688228 0.09560948 0.2499998 0.2500001 0.3688228 0.09560948 0.4047329 0.1316234 0.2499998 0.2500001 0.4047329 0.1316234 0.4300987 0.1757051 0.2499998 0.2500001 0.4300987 0.1757051 0.4431909 0.2248498 0.2499998 0.2500001 0.4431909 0.2248498 0.4431175 0.2757083 0.2499998 0.2500001 0.4431175 0.2757083 0.4298833 0.3248148 0.2499998 0.2500001 0.4298833 0.3248148 0.4043903 0.3688228 0.2499998 0.2500001 0.4043903 0.3688228 0.3683761 0.4047332 0.2499998 0.2500001 0.3683761 0.4047332 0.3242949 0.4300988 0.2499998 0.2500001 0.3242949 0.4300988 0.2751502 0.4431912 0.2499998 0.2500001 0.2751502 0.4431912 0.2242922 0.4431175 0.2499998 0.2500001 0.1535421 0.4828697 0.1751856 0.4298837 0.2242922 0.4431175 0.1535421 0.4828697 0.2242922 0.4431175 0.2170999 0.4999001 0.09655773 0.4499698 0.1311774 0.4043908 0.1751856 0.4298837 0.09655773 0.4499698 0.1751856 0.4298837 0.1535421 0.4828697 0.05003005 0.403442 0.09526693 0.3683765 0.1311774 0.4043908 0.05003005 0.403442 0.1311774 0.4043908 0.09655773 0.4499698 0.01713037 0.3464578 0.06990128 0.3242954 0.09526693 0.3683765 0.01713037 0.3464578 0.09526693 0.3683765 0.05003005 0.403442 1.00032e-4 0.2828999 0.05680906 0.2751507 0.06990128 0.3242954 1.00032e-4 0.2828999 0.06990128 0.3242954 0.01713037 0.3464578 9.996e-5 0.2170999 0.05688232 0.2242923 0.05680906 0.2751507 9.996e-5 0.2170999 0.05680906 0.2751507 1.00032e-4 0.2828999 0.01713019 0.1535421 0.0701164 0.1751855 0.05688232 0.2242923 0.01713019 0.1535421 0.05688232 0.2242923 9.996e-5 0.2170999 0.05003023 0.09655761 0.09560918 0.1311776 0.0701164 0.1751855 0.05003023 0.09655761 0.0701164 0.1751855 0.01713019 0.1535421 0.09655791 0.05003011 0.1316235 0.09526717 0.09560918 0.1311776 0.09655791 0.05003011 0.09560918 0.1311776 0.05003023 0.09655761 0.1535422 0.01713019 0.1757049 0.0699014 0.1316235 0.09526717 0.1535422 0.01713019 0.1316235 0.09526717 0.09655791 0.05003011 0.2171002 9.996e-5 0.2248494 0.0568093 0.1757049 0.0699014 0.2171002 9.996e-5 0.1757049 0.0699014 0.1535422 0.01713019 0.2829002 1.00212e-4 0.275708 0.0568825 0.2248494 0.0568093 0.2829002 1.00212e-4 0.2248494 0.0568093 0.2171002 9.996e-5 0.3464581 0.01713061 0.3248146 0.07011669 0.275708 0.0568825 0.3464581 0.01713061 0.275708 0.0568825 0.2829002 1.00212e-4 0.4034424 0.05003046 0.3688228 0.09560948 0.3248146 0.07011669 0.4034424 0.05003046 0.3248146 0.07011669 0.3464581 0.01713061 0.4499697 0.09655791 0.4047329 0.1316234 0.3688228 0.09560948 0.4499697 0.09655791 0.3688228 0.09560948 0.4034424 0.05003046 0.4828699 0.1535425 0.4300987 0.1757051 0.4047329 0.1316234 0.4828699 0.1535425 0.4047329 0.1316234 0.4499697 0.09655791 0.4999001 0.2171005 0.4431909 0.2248498 0.4300987 0.1757051 0.4999001 0.2171005 0.4300987 0.1757051 0.4828699 0.1535425 0.4998998 0.2829004 0.4431175 0.2757083 0.4431909 0.2248498 0.4998998 0.2829004 0.4431909 0.2248498 0.4999001 0.2171005 0.4828694 0.3464583 0.4298833 0.3248148 0.4431175 0.2757083 0.4828694 0.3464583 0.4431175 0.2757083 0.4998998 0.2829004 0.4499693 0.4034428 0.4043903 0.3688228 0.4298833 0.3248148 0.4499693 0.4034428 0.4298833 0.3248148 0.4828694 0.3464583 0.4034417 0.4499703 0.3683761 0.4047332 0.4043903 0.3688228 0.4034417 0.4499703 0.4043903 0.3688228 0.4499693 0.4034428 0.3464571 0.4828701 0.3242949 0.4300988 0.3683761 0.4047332 0.3464571 0.4828701 0.3683761 0.4047332 0.4034417 0.4499703 0.2828994 0.4999002 0.2751502 0.4431912 0.3242949 0.4300988 0.2828994 0.4999002 0.3242949 0.4300988 0.3464571 0.4828701 0.2170999 0.4999001 0.2242922 0.4431175 0.2751502 0.4431912 0.2170999 0.4999001 0.2751502 0.4431912 0.2828994 0.4999002</float_array>
          <technique_common>
            <accessor source="#Left_Hubcap-mesh-map-0-array" count="432" stride="2">
              <param name="S" type="float"/>
              <param name="T" type="float"/>
            </accessor>
          </technique_common>
        </source>
        <vertices id="Left_Hubcap-mesh-vertices">
          <input semantic="POSITION" source="#Left_Hubcap-mesh-positions"/>
        </vertices>
        <polylist material="PBRFULL_LeftHubCap-material" count="144">
          <input semantic="VERTEX" source="#Left_Hubcap-mesh-vertices" offset="0"/>
          <input semantic="NORMAL" source="#Left_Hubcap-mesh-normals" offset="1"/>
          <input semantic="TEXCOORD" source="#Left_Hubcap-mesh-map-0" offset="2" set="0"/>
          <vcount>3 3 3 3 3 3 3 3 3 3 3 3 3 3 3 3 3 3 3 3 3 3 3 3 3 3 3 3 3 3 3 3 3 3 3 3 3 3 3 3 3 3 3 3 3 3 3 3 3 3 3 3 3 3 3 3 3 3 3 3 3 3 3 3 3 3 3 3 3 3 3 3 3 3 3 3 3 3 3 3 3 3 3 3 3 3 3 3 3 3 3 3 3 3 3 3 3 3 3 3 3 3 3 3 3 3 3 3 3 3 3 3 3 3 3 3 3 3 3 3 3 3 3 3 3 3 3 3 3 3 3 3 3 3 3 3 3 3 3 3 3 3 3 3 </vcount>
          <p>0 0 0 1 1 1 124 1 2 0 0 3 124 1 4 144 0 5 1 1 6 4 2 7 120 3 8 1 1 9 120 3 10 124 1 11 4 2 12 6 4 13 121 4 14 4 2 15 121 4 16 120 3 17 6 4 18 8 5 19 109 5 20 6 4 21 109 5 22 121 4 23 8 5 24 10 6 25 110 6 26 8 5 27 110 6 28 109 5 29 10 6 30 12 7 31 116 7 32 10 6 33 116 7 34 110 6 35 12 7 36 14 8 37 117 8 38 12 7 39 117 8 40 116 7 41 14 8 42 16 9 43 136 10 44 14 8 45 136 10 46 117 8 47 16 9 48 18 11 49 134 11 50 16 9 51 134 11 52 136 10 53 18 11 54 20 12 55 21 12 56 18 11 57 21 12 58 134 11 59 20 12 60 22 13 61 23 13 62 20 12 63 23 13 64 21 12 65 22 13 66 24 14 67 129 14 68 22 13 69 129 14 70 23 13 71 24 14 72 26 15 73 138 15 74 24 14 75 138 15 76 129 14 77 26 15 78 28 16 79 98 16 80 26 15 81 98 16 82 138 15 83 28 16 84 30 17 85 99 17 86 28 16 87 99 17 88 98 16 89 30 17 90 32 18 91 108 18 92 30 17 93 108 18 94 99 17 95 32 18 96 34 19 97 122 19 98 32 18 99 122 19 100 108 18 101 34 19 102 36 20 103 112 20 104 34 19 105 112 20 106 122 19 107 36 20 108 38 21 109 113 21 110 36 20 111 113 21 112 112 20 113 38 21 114 40 22 115 100 22 116 38 21 117 100 22 118 113 21 119 40 22 120 42 23 121 101 23 122 40 22 123 101 23 124 100 22 125 42 23 126 44 24 127 104 24 128 42 23 129 104 24 130 101 23 131 44 24 132 46 25 133 105 25 134 44 24 135 105 25 136 104 24 137 46 25 138 0 0 139 144 0 140 46 25 141 144 0 142 105 25 143 2 26 144 48 27 145 3 28 146 5 29 147 48 27 148 2 26 149 7 30 150 48 27 151 5 29 152 9 31 153 48 27 154 7 30 155 11 32 156 48 27 157 9 31 158 13 33 159 48 27 160 11 32 161 15 34 162 48 27 163 13 33 164 17 35 165 48 27 166 15 34 167 19 36 168 48 27 169 17 35 170 135 37 171 48 27 172 19 36 173 128 38 174 48 27 175 135 37 176 25 39 177 48 27 178 128 38 179 27 40 180 48 27 181 25 39 182 29 41 183 48 27 184 27 40 185 31 42 186 48 27 187 29 41 188 33 43 189 48 27 190 31 42 191 35 44 192 48 27 193 33 43 194 37 45 195 48 27 196 35 44 197 39 46 198 48 27 199 37 45 200 41 47 201 48 27 202 39 46 203 43 48 204 48 27 205 41 47 206 45 49 207 48 27 208 43 48 209 47 50 210 48 27 211 45 49 212 3 28 213 48 27 214 47 50 215 111 51 216 50 52 217 51 53 218 50 52 219 125 54 220 51 53 221 125 54 222 53 55 223 51 53 224 53 55 225 54 56 226 51 53 227 54 56 228 145 57 229 51 53 230 145 57 231 131 58 232 51 53 233 131 58 234 57 59 235 51 53 236 57 59 237 58 60 238 51 53 239 58 60 240 106 61 241 51 53 242 106 61 243 107 62 244 51 53 245 107 62 246 61 63 247 51 53 248 61 63 249 62 64 250 51 53 251 62 64 252 118 65 253 51 53 254 118 65 255 119 66 256 51 53 257 119 66 258 123 67 259 51 53 260 123 67 261 66 68 262 51 53 263 66 68 264 67 69 265 51 53 266 67 69 267 114 70 268 51 53 269 114 70 270 115 71 271 51 53 272 115 71 273 70 72 274 51 53 275 70 72 276 71 73 277 51 53 278 71 73 279 102 74 280 51 53 281 102 74 282 103 75 283 51 53 284 103 75 285 111 51 286 51 53 287 74 76 288 139 76 289 49 77 290 74 76 291 49 77 292 75 77 293 76 78 294 52 78 295 139 76 296 76 78 297 139 76 298 74 76 299 77 79 300 126 79 301 52 78 302 77 79 303 52 78 304 76 78 305 78 80 306 137 80 307 126 79 308 78 80 309 126 79 310 77 79 311 79 81 312 55 81 313 137 80 314 79 81 315 137 80 316 78 80 317 80 82 318 56 82 319 55 81 320 80 82 321 55 81 322 79 81 323 81 83 324 132 83 325 56 82 326 81 83 327 56 82 328 80 82 329 82 84 330 140 84 331 132 83 332 82 84 333 132 83 334 81 83 335 83 85 336 59 85 337 140 84 338 83 85 339 140 84 340 82 84 341 84 86 342 60 86 343 59 85 344 84 86 345 59 85 346 83 85 347 85 87 348 133 87 349 60 86 350 85 87 351 60 86 352 84 86 353 86 88 354 142 88 355 133 87 356 86 88 357 133 87 358 85 87 359 87 89 360 63 89 361 142 88 362 87 89 363 142 88 364 86 88 365 88 90 366 64 90 367 63 89 368 88 90 369 63 89 370 87 89 371 89 91 372 65 91 373 64 90 374 89 91 375 64 90 376 88 90 377 90 92 378 143 92 379 65 91 380 90 92 381 65 91 382 89 91 383 91 93 384 130 93 385 143 92 386 91 93 387 143 92 388 90 92 389 92 94 390 68 94 391 130 93 392 92 94 393 130 93 394 91 93 395 93 95 396 69 95 397 68 94 398 93 95 399 68 94 400 92 94 401 94 96 402 141 96 403 69 95 404 94 96 405 69 95 406 93 95 407 95 97 408 127 97 409 141 96 410 95 97 411 141 96 412 94 96 413 96 98 414 72 98 415 127 97 416 96 98 417 127 97 418 95 97 419 97 99 420 73 99 421 72 98 422 97 99 423 72 98 424 96 98 425 75 77 426 49 77 427 73 99 428 75 77 429 73 99 430 97 99 431</p>
        </polylist>
      </mesh>
    </geometry>
  </library_geometries>
  <library_controllers/>
  <library_visual_scenes>
    <visual_scene id="Scene" name="Scene">
      <node id="Left_Hubcap" name="Left_Hubcap" type="NODE">
        <matrix sid="transform">1 0 0 0 0 1 0 0 0 0 1 0 0 0 0 1</matrix>
        <instance_geometry url="#Left_Hubcap-mesh" name="Left_Hubcap">
          <bind_material>
            <technique_common>
              <instance_material symbol="PBRFULL_LeftHubCap-material" target="#PBRFULL_LeftHubCap-material"/>
            </technique_common>
          </bind_material>
        </instance_geometry>
      </node>
    </visual_scene>
  </library_visual_scenes>
  <scene>
    <instance_visual_scene url="#Scene"/>
  </scene>
</COLLADA>