<?xml version="1.0" encoding="utf-8"?>
<COLLADA xmlns="http://www.collada.org/2005/11/COLLADASchema" version="1.4.1">
  <asset>
    <contributor>
      <author>Blender User</author>
      <authoring_tool>Blender 2.78.0</authoring_tool>
    </contributor>
    <created>2017-08-30T15:02:25</created>
    <modified>2017-08-30T15:02:25</modified>
    <unit name="meter" meter="1"/>
    <up_axis>Z_UP</up_axis>
  </asset>
  <library_images>
    <image id="PBRFULL_RightWheel-material_Base_Color_jpg" name="PBRFULL_RightWheel-material_Base_Color_jpg">
      <init_from>PBRFULL_RightWheel-material_Base_Color.jpg</init_from>
    </image>
  </library_images>
  <library_effects>
    <effect id="PBRFULL_RightWheel-effect">
      <profile_COMMON>
        <newparam sid="PBRFULL_RightWheel-material_Base_Color_jpg-surface">
          <surface type="2D">
            <init_from>PBRFULL_RightWheel-material_Base_Color_jpg</init_from>
          </surface>
        </newparam>
        <newparam sid="PBRFULL_RightWheel-material_Base_Color_jpg-sampler">
          <sampler2D>
            <source>PBRFULL_RightWheel-material_Base_Color_jpg-surface</source>
          </sampler2D>
        </newparam>
        <technique sid="common">
          <phong>
            <emission>
              <color sid="emission">0 0 0 1</color>
            </emission>
            <ambient>
              <color sid="ambient">0 0 0 1</color>
            </ambient>
            <diffuse>
              <texture texture="PBRFULL_RightWheel-material_Base_Color_jpg-sampler"/>
            </diffuse>
            <specular>
              <color sid="specular">0.5 0.5 0.5 1</color>
            </specular>
            <shininess>
              <float sid="shininess">50</float>
            </shininess>
            <index_of_refraction>
              <float sid="index_of_refraction">1</float>
            </index_of_refraction>
          </phong>
        </technique>
      </profile_COMMON>
    </effect>
  </library_effects>
  <library_materials>
    <material id="PBRFULL_RightWheel-material" name="PBRFULL_RightWheel">
      <instance_effect url="#PBRFULL_RightWheel-effect"/>
    </material>
  </library_materials>
  <library_geometries>
    <geometry id="Right_Wheel-mesh" name="Right Wheel">
      <mesh>
        <source id="Right_Wheel-mesh-positions">
          <float_array id="Right_Wheel-mesh-positions-array" count="1296">0.04652768 -0.02028197 0.04629266 0.03296935 -0.02028197 0.05669641 0.02556842 -0.02028197 0.04387784 0.03606134 -0.02028197 0.03582632 0.03296881 0.02028197 0.05669671 0.04652774 0.02028197 0.0462926 0.03606134 0.02028197 0.03582632 0.025568 0.02028197 0.04387801 0.01717972 -0.02028197 0.06323677 0.01334869 -0.02028197 0.04893946 0.01717931 0.02028197 0.06323695 0.0133484 0.02028197 0.04893964 2.35532e-4 -0.02028197 0.06546765 2.3545e-4 -0.02028197 0.05066603 2.35084e-4 0.02028197 0.06546765 2.35103e-4 0.02028197 0.05066603 -0.01670879 -0.02028197 0.06323701 -0.01287788 -0.02028197 0.0489397 -0.01670908 0.02028197 0.06323689 -0.01287811 0.02028197 0.04893964 -0.0324983 -0.02028197 0.05669683 -0.02509754 -0.02028197 0.04387813 -0.03249865 0.02028197 0.05669665 -0.02509784 0.02028197 0.04387801 -0.04605722 -0.02028197 0.04629284 -0.03559088 -0.02028197 0.03582644 -0.04605752 0.02028197 0.0462926 -0.03559118 0.02028197 0.0358262 -0.05646139 -0.02028197 0.03273403 -0.04364275 -0.02028197 0.02533322 -0.05646151 0.02028197 0.03273373 -0.04364287 0.02028197 0.02533292 -0.06300169 -0.02028197 0.01694446 -0.04870432 -0.02028197 0.01311343 -0.06300175 0.02028197 0.01694416 -0.0487045 0.02028197 0.01311326 -0.06523251 -0.02028197 2.42543e-7 -0.05043089 -0.02028197 1.96232e-7 -0.06523251 0.02028197 0 -0.05043089 0.02028197 0 -0.06300181 -0.02028197 -0.01694405 -0.0487045 -0.02028197 -0.01311314 -0.06300175 0.02028197 -0.01694422 -0.04870444 0.02028197 -0.01311326 -0.05646157 -0.02028197 -0.03273355 -0.04364293 -0.02028197 -0.0253328 -0.05646151 0.02028197 -0.03273373 -0.04364281 0.02028197 -0.02533292 -0.04605758 -0.02028197 -0.04629248 -0.03559124 -0.02028197 -0.03582614 -0.04605746 0.02028197 -0.0462926 -0.03559112 0.02028197 -0.0358262 -0.03249871 -0.02028197 -0.05669659 -0.02509796 -0.02028197 -0.04387795 -0.03249859 0.02028197 -0.05669665 -0.02509778 0.02028197 -0.04387795 -0.01670914 -0.02028197 -0.06323683 -0.01287817 -0.02028197 -0.04893952 -0.01670902 0.02028197 -0.06323689 -0.01287806 0.02028197 -0.04893952 2.35071e-4 -0.02028197 -0.06546765 2.35093e-4 -0.02028197 -0.05066597 2.3516e-4 0.02028197 -0.06546765 2.35162e-4 0.02028197 -0.05066597 0.01717931 -0.02028197 -0.06323689 0.0133484 -0.02028197 -0.04893952 0.01717936 0.02028197 -0.06323689 0.01334846 0.02028197 -0.04893952 0.03296887 -0.02028197 -0.05669665 0.02556806 -0.02028197 -0.04387795 0.03296887 0.02028197 -0.05669659 0.02556806 0.02028197 -0.04387795 0.04652774 -0.02028197 -0.0462926 0.03606134 -0.02028197 -0.0358262 0.04652774 0.02028197 -0.0462926 0.03606134 0.02028197 -0.0358262 0.05693179 -0.02028197 -0.03273367 0.04411315 -0.02028197 -0.02533286 0.05693179 0.02028197 -0.03273373 0.04411315 0.02028197 -0.02533292 0.06347203 -0.02028197 -0.01694411 0.04917472 -0.02028197 -0.01311326 0.06347203 0.02028197 -0.01694416 0.04917466 0.02028197 -0.01311326 0.06570279 -0.02028197 0 0.05090117 -0.02028197 0 0.06570279 0.02028197 0 0.05090117 0.02028197 0 0.06347203 -0.02028197 0.01694428 0.04917466 -0.02028197 0.01311331 0.06347203 0.02028197 0.01694422 0.04917466 0.02028197 0.01311326 0.05693173 -0.02028197 0.03273379 0.04411309 -0.02028197 0.02533298 0.05693179 0.02028197 0.03273373 0.04411315 0.02028197 0.02533298 0.05936431 0.01634335 0.05912923 0.07265341 0.01634335 0.04181069 0.06474131 0.008062481 0.06450623 0.07923871 0.008062481 0.04561275 0.06474125 -0.008062481 0.06450623 0.07923871 -0.008062481 0.04561281 0.05936425 -0.01634335 0.05912923 0.07265335 -0.01634335 0.04181075 0.08100724 0.01634335 0.0216428 0.0883522 0.008062481 0.02361088 0.0883522 -0.008062481 0.02361088 0.08100718 -0.01634335 0.02164286 0.08385652 0.01634335 0 0.09146064 0.008062481 0 0.09146064 -0.008062481 0 0.08385652 -0.01634335 0 0.08100724 0.01634335 -0.02164274 0.0883522 0.008062481 -0.02361083 0.08835226 -0.008062481 -0.02361083 0.08100724 -0.01634335 -0.02164274 0.07265341 0.01634335 -0.04181069 0.07923877 0.008062481 -0.04561269 0.07923877 -0.008062481 -0.04561269 0.07265341 -0.01634335 -0.04181063 0.05936431 0.01634335 -0.05912917 0.06474131 0.008062481 -0.06450617 0.06474131 -0.008062481 -0.06450617 0.05936431 -0.01634335 -0.05912917 0.04204583 0.01634335 -0.07241827 0.04584789 0.008062481 -0.07900363 0.04584789 -0.008062481 -0.07900363 0.04204583 -0.01634335 -0.07241827 0.02187794 0.01634335 -0.0807721 0.02384603 0.008062481 -0.08811712 0.02384597 -0.008062481 -0.08811712 0.02187788 -0.01634335 -0.0807721 2.35136e-4 0.01634335 -0.08362144 2.35108e-4 0.008062481 -0.0912255 2.35083e-4 -0.008062481 -0.0912255 2.35067e-4 -0.01634335 -0.08362144 -0.02140766 0.01634335 -0.0807721 -0.02337574 0.008062481 -0.08811706 -0.02337574 -0.008062481 -0.08811706 -0.02140778 -0.01634335 -0.0807721 -0.04157555 0.01634335 -0.07241827 -0.04537767 0.008062481 -0.07900363 -0.04537767 -0.008062481 -0.07900357 -0.04157567 -0.01634335 -0.07241821 -0.05889409 0.01634335 -0.05912917 -0.06427109 0.008062481 -0.06450617 -0.06427115 -0.008062481 -0.06450611 -0.05889415 -0.01634335 -0.05912911 -0.07218319 0.01634335 -0.04181069 -0.07876855 0.008062481 -0.04561269 -0.07876855 -0.008062481 -0.04561263 -0.07218325 -0.01634335 -0.04181057 -0.08053696 0.01634335 -0.02164274 -0.08788198 0.008062481 -0.02361077 -0.08788198 -0.008062481 -0.02361071 -0.08053702 -0.01634335 -0.02164262 -0.0833863 0.01634335 0 -0.09099042 0.008062481 0 -0.09099042 -0.008062481 1.75444e-7 -0.0833863 -0.01634335 2.30545e-7 -0.08053696 0.01634335 0.0216428 -0.08788192 0.008062481 0.02361094 -0.08788192 -0.008062481 0.023611 -0.0805369 -0.01634335 0.02164304 -0.07218313 0.01634335 0.04181075 -0.07876843 0.008062481 0.04561287 -0.07876837 -0.008062481 0.04561293 -0.07218301 -0.01634335 0.04181087 -0.05889403 0.01634335 0.05912923 -0.06427097 0.008062481 0.06450629 -0.06427091 -0.008062481 0.06450635 -0.05889385 -0.01634335 0.05912941 -0.04157555 0.01634335 0.07241833 -0.04537749 0.008062481 0.07900369 -0.04537737 -0.008062481 0.07900375 -0.04157525 -0.01634335 0.07241845 -0.0214076 0.01634335 0.0807721 -0.02337563 0.008062481 0.08811712 -0.02337551 -0.008062481 0.08811718 -0.0214073 -0.01634335 0.08077216 2.35175e-4 0.01634335 0.08362144 2.35301e-4 0.008062481 0.0912255 2.35426e-4 -0.008062481 0.0912255 2.35519e-4 -0.01634335 0.08362144 0.021878 0.01634335 0.0807721 0.02384614 0.008062481 0.08811706 0.02384626 -0.008062481 0.088117 0.0218783 -0.01634335 0.08077198 0.04204589 0.01634335 0.07241827 0.04584807 0.008062481 0.07900351 0.04584819 -0.008062481 0.07900345 0.04204612 -0.01634335 0.07241803 0.03606134 -0.01216918 0.03582632 0.04411309 -0.01216918 0.02533298 0.03606134 -0.004056334 0.03582632 0.04411309 -0.004056334 0.02533298 0.03606134 0.004056394 0.03582632 0.04411315 0.004056394 0.02533298 0.03606134 0.01216918 0.03582632 0.04411315 0.01216918 0.02533298 0.04917466 -0.01216918 0.01311331 0.04917466 -0.004056394 0.01311331 0.04917466 0.004056394 0.01311331 0.04917466 0.01216918 0.01311326 0.05090117 -0.01216918 0 0.05090117 -0.004056394 0 0.05090117 0.004056394 0 0.05090117 0.01216918 0 0.04917472 -0.01216918 -0.01311326 0.04917472 -0.004056394 -0.01311326 0.04917472 0.004056394 -0.01311326 0.04917472 0.01216918 -0.01311326 0.04411315 -0.01216918 -0.02533286 0.04411315 -0.004056394 -0.02533286 0.04411315 0.004056394 -0.02533292 0.04411315 0.01216918 -0.02533292 0.03606134 -0.01216918 -0.0358262 0.03606134 -0.004056394 -0.0358262 0.03606134 0.004056394 -0.0358262 0.03606134 0.01216918 -0.0358262 0.02556806 -0.01216918 -0.04387795 0.02556806 -0.004056394 -0.04387795 0.02556806 0.004056334 -0.04387795 0.02556806 0.01216918 -0.04387795 0.01334846 -0.01216918 -0.04893952 0.01334846 -0.004056394 -0.04893952 0.01334846 0.004056334 -0.04893952 0.01334846 0.01216918 -0.04893952 2.35107e-4 -0.01216918 -0.05066597 2.35121e-4 -0.004056394 -0.05066597 2.35135e-4 0.004056334 -0.05066597 2.35149e-4 0.01216918 -0.05066597 -0.01287817 -0.01216918 -0.04893952 -0.01287811 -0.004056394 -0.04893952 -0.01287811 0.004056334 -0.04893952 -0.01287811 0.01216918 -0.04893952 -0.02509784 -0.01216918 -0.04387795 -0.02509784 -0.004056394 -0.04387795 -0.02509784 0.004056334 -0.04387795 -0.02509778 0.01216918 -0.04387795 -0.03559118 -0.01216918 -0.03582614 -0.03559118 -0.004056394 -0.03582614 -0.03559118 0.004056394 -0.03582614 -0.03559112 0.01216918 -0.0358262 -0.04364287 -0.01216918 -0.0253328 -0.04364287 -0.004056394 -0.02533286 -0.04364287 0.004056394 -0.02533286 -0.04364287 0.01216918 -0.02533292 -0.0487045 -0.01216918 -0.0131132 -0.0487045 -0.004056394 -0.0131132 -0.0487045 0.004056394 -0.01311326 -0.04870444 0.01216918 -0.01311326 -0.05043089 -0.01216918 1.57254e-7 -0.05043089 -0.004056394 0 -0.05043089 0.004056394 0 -0.05043089 0.01216918 0 -0.04870444 -0.01216918 0.01311343 -0.04870444 -0.004056394 0.01311337 -0.04870444 0.004056394 0.01311331 -0.04870444 0.01216918 0.01311331 -0.04364275 -0.01216918 0.02533316 -0.04364281 -0.004056334 0.0253331 -0.04364281 0.004056394 0.0253331 -0.04364281 0.01216918 0.02533298 -0.03559094 -0.01216918 0.03582644 -0.035591 -0.004056334 0.03582638 -0.035591 0.004056394 0.03582632 -0.03559112 0.01216918 0.03582632 -0.0250976 -0.01216918 0.04387813 -0.02509766 -0.004056334 0.04387807 -0.02509772 0.004056394 0.04387807 -0.02509778 0.01216918 0.04387801 -0.01287794 -0.01216918 0.0489397 -0.012878 -0.004056334 0.04893964 -0.01287806 0.004056394 0.04893964 -0.01287806 0.01216918 0.04893964 2.35381e-4 -0.01216918 0.05066603 2.35311e-4 -0.004056334 0.05066603 2.35242e-4 0.004056394 0.05066603 2.35173e-4 0.01216918 0.05066603 0.01334863 -0.01216918 0.04893952 0.01334857 -0.004056334 0.04893952 0.01334851 0.004056394 0.04893952 0.01334846 0.01216918 0.04893964 0.02556836 -0.01216918 0.04387789 0.0255683 -0.004056334 0.04387789 0.02556818 0.004056394 0.04387795 0.02556812 0.01216918 0.04387801 0.02384603 0.008062481 -0.08811712 2.35108e-4 0.008062481 -0.0912255 -0.0833863 0.01634335 0 -0.08053696 0.01634335 0.0216428 0.05936431 -0.01634335 -0.05912917 0.04204583 -0.01634335 -0.07241827 -0.08788192 0.008062481 0.02361094 -0.07876843 0.008062481 0.04561287 -0.04157555 0.01634335 -0.07241827 -0.05889409 0.01634335 -0.05912917 0.04917466 0.02028197 0.01311326 0.04411315 0.02028197 0.02533298 -0.02337563 0.008062481 0.08811712 2.35301e-4 0.008062481 0.0912255 -0.0487045 0.02028197 0.01311326 -0.05043089 0.02028197 0 0.03606134 0.02028197 -0.0358262 0.04411315 0.02028197 -0.02533292 0.06474125 -0.008062481 0.06450623 0.04584819 -0.008062481 0.07900345 -0.05889415 -0.01634335 -0.05912911 -0.07218325 -0.01634335 -0.04181057 -0.08788192 -0.008062481 0.023611 -0.07876837 -0.008062481 0.04561293 0.08100724 0.01634335 -0.02164274 0.07265341 0.01634335 -0.04181069 -0.03559112 0.02028197 -0.0358262 -0.02509778 0.02028197 -0.04387795 -0.02337551 -0.008062481 0.08811718 2.35426e-4 -0.008062481 0.0912255 -0.02509754 -0.02028197 0.04387813 -0.03559088 -0.02028197 0.03582644 0.02187788 -0.01634335 -0.0807721 2.35067e-4 -0.01634335 -0.08362144 -0.04364293 -0.02028197 -0.0253328 -0.03559124 -0.02028197 -0.03582614 -0.06427115 -0.008062481 -0.06450611 -0.07876855 -0.008062481 -0.04561263 0.0883522 0.008062481 -0.02361083 0.07923877 0.008062481 -0.04561269 -0.0805369 -0.01634335 0.02164304 -0.07218301 -0.01634335 0.04181087 0.04917472 -0.02028197 -0.01311326 0.05090117 -0.02028197 0 -0.0214073 -0.01634335 0.08077216 2.35519e-4 -0.01634335 0.08362144 -0.07876855 0.008062481 -0.04561269 -0.08788198 0.008062481 -0.02361077 0.02384597 -0.008062481 -0.08811712 2.35083e-4 -0.008062481 -0.0912255 0.05936431 0.01634335 0.05912923 0.04204589 0.01634335 0.07241827 0.08835226 -0.008062481 -0.02361083 0.07923877 -0.008062481 -0.04561269 0.0133484 -0.02028197 -0.04893952 0.02556806 -0.02028197 -0.04387795 0.07265335 -0.01634335 0.04181075 0.08100718 -0.01634335 0.02164286 -0.07218313 0.01634335 0.04181075 -0.02509784 0.02028197 0.04387801 -0.03559118 0.02028197 0.0358262 -0.02337574 0.008062481 -0.08811706 -0.09099042 -0.008062481 1.75444e-7 2.35093e-4 -0.02028197 -0.05066597 -0.0214076 0.01634335 0.0807721 2.35175e-4 0.01634335 0.08362144 -0.06427097 0.008062481 0.06450629 0.05936425 -0.01634335 0.05912923 0.04204612 -0.01634335 0.07241803 0.07265341 -0.01634335 -0.04181063 0.02384614 0.008062481 0.08811706 -0.04364275 -0.02028197 0.02533322 -0.04870432 -0.02028197 0.01311343 -0.07218319 0.01634335 -0.04181069 0.025568 0.02028197 0.04387801 0.0133484 0.02028197 0.04893964 0.05090117 0.02028197 0 -0.04157567 -0.01634335 -0.07241821 0.08385652 0.01634335 0 -0.04870444 0.02028197 -0.01311326 0.02556806 0.02028197 -0.04387795 -0.04537737 -0.008062481 0.07900375 -0.01287806 0.02028197 -0.04893952 0.02187794 0.01634335 -0.0807721 2.35136e-4 0.01634335 -0.08362144 0.04204583 0.01634335 -0.07241827 -0.04537767 -0.008062481 -0.07900357 -0.01287788 -0.02028197 0.0489397 0.06474131 0.008062481 -0.06450617 -0.04157525 -0.01634335 0.07241845 0.04917466 -0.02028197 0.01311331 0.06474131 0.008062481 0.06450623 0.07923871 0.008062481 0.04561275 -0.0487045 -0.02028197 -0.01311314 -0.0833863 -0.01634335 2.30545e-7 0.06474131 -0.008062481 -0.06450617 0.02556842 -0.02028197 0.04387784 0.03606134 -0.02028197 0.03582632 0.03606134 -0.02028197 -0.0358262 -0.05889403 0.01634335 0.05912923 -0.09099042 0.008062481 0 -0.01287817 -0.02028197 -0.04893952 0.021878 0.01634335 0.0807721 -0.04537767 0.008062481 -0.07900363 0.07923871 -0.008062481 0.04561281 -0.04364287 0.02028197 0.02533292 -0.08053696 0.01634335 -0.02164274 0.08100724 -0.01634335 -0.02164274 -0.04537749 0.008062481 0.07900369 2.35103e-4 0.02028197 0.05066603 0.04917466 0.02028197 -0.01311326 0.08100724 0.01634335 0.0216428 0.0883522 -0.008062481 0.02361088 -0.04364281 0.02028197 -0.02533292 -0.02140766 0.01634335 -0.0807721 0.04584807 0.008062481 0.07900351 -0.06427091 -0.008062481 0.06450635 0.01334846 0.02028197 -0.04893952 0.05936431 0.01634335 -0.05912917 2.35162e-4 0.02028197 -0.05066597 0.0883522 0.008062481 0.02361088 0.09146064 0.008062481 0 -0.08053702 -0.01634335 -0.02164262 -0.02140778 -0.01634335 -0.0807721 2.3545e-4 -0.02028197 0.05066603 0.02384626 -0.008062481 0.088117 -0.05889385 -0.01634335 0.05912941 0.04584789 0.008062481 -0.07900363 0.04411309 -0.02028197 0.02533298 0.09146064 -0.008062481 0 -0.08788198 -0.008062481 -0.02361071 -0.05043089 -0.02028197 1.96232e-7 0.03606134 0.02028197 0.03582632 -0.02337574 -0.008062481 -0.08811706 0.04411315 -0.02028197 -0.02533286 -0.02509796 -0.02028197 -0.04387795 0.0218783 -0.01634335 0.08077198 -0.06427109 0.008062481 -0.06450617 -0.04157555 0.01634335 0.07241833 0.04584789 -0.008062481 -0.07900363 0.08385652 -0.01634335 0 -0.01287811 0.02028197 0.04893964 0.07265341 0.01634335 0.04181069 0.01334869 -0.02028197 0.04893946</float_array>
          <technique_common>
            <accessor source="#Right_Wheel-mesh-positions-array" count="432" stride="3">
              <param name="X" type="float"/>
              <param name="Y" type="float"/>
              <param name="Z" type="float"/>
            </accessor>
          </technique_common>
        </source>
        <source id="Right_Wheel-mesh-normals">
          <float_array id="Right_Wheel-mesh-normals-array" count="513">0.08157652 -0.9933231 0.08157652 0.0576803 -0.9933224 0.09991818 0 -1 0 0.0576803 0.9933224 0.09991818 0.08157652 0.9933231 0.08157652 0 1 0 0.0298472 -0.9933213 0.1114541 0.0298472 0.9933213 0.1114541 0 -0.9933237 0.1153608 0 0.9933237 0.1153608 -0.0298472 -0.9933213 0.1114541 -0.0298472 0.9933213 0.1114541 -0.0576803 -0.9933224 0.09991818 -0.0576803 0.9933224 0.09991818 -0.08157652 -0.9933231 0.08157652 -0.08157652 0.9933231 0.08157652 -0.09991818 -0.9933224 0.0576803 -0.09991818 0.9933224 0.0576803 -0.1114541 -0.9933213 0.0298472 -0.1114541 0.9933213 0.0298472 -0.1153608 -0.9933237 0 -0.1153608 0.9933237 0 -0.1114541 -0.9933213 -0.0298472 -0.1114541 0.9933213 -0.0298472 -0.09991818 -0.9933224 -0.0576803 -0.09991818 0.9933224 -0.0576803 -0.08157652 -0.9933231 -0.08157652 -0.08157652 0.9933231 -0.08157652 -0.0576803 -0.9933224 -0.09991818 -0.0576803 0.9933224 -0.09991818 -0.0298472 -0.9933213 -0.1114541 -0.0298472 0.9933213 -0.1114541 0 -0.9933237 -0.1153608 0 0.9933237 -0.1153608 0.0298472 -0.9933213 -0.1114541 0.0298472 0.9933213 -0.1114541 0.0576803 -0.9933224 -0.09991818 0.0576803 0.9933224 -0.09991818 0.08157652 -0.9933231 -0.08157652 0.08157652 0.9933231 -0.08157652 0.09991818 -0.9933224 -0.0576803 0.09991818 0.9933224 -0.0576803 0.1114541 -0.9933213 -0.0298472 0.1114541 0.9933213 -0.0298472 0.1153608 -0.9933237 0 0.1153608 0.9933237 0 0.1114541 -0.9933213 0.0298472 0.1114541 0.9933213 0.0298472 0.09991818 -0.9933224 0.0576803 0.09991818 0.9933224 0.0576803 0.1499078 0.9772694 0.1499078 0.1836005 0.97727 0.1059914 0.5208434 0.67637 0.5208129 0.6378846 0.6763694 0.3682768 0.7071068 0 0.7071068 0.8660317 0 0.4999893 0.5208211 -0.6763807 0.5208211 0.6378846 -0.6763694 0.3682768 0.1499078 -0.9772694 0.1499078 0.1836005 -0.97727 0.1059914 0.2047802 0.9772687 0.05487251 0.7114675 0.6763702 0.1906239 0.9659304 0 0.2588022 0.7114675 -0.6763702 0.1906239 0.2047802 -0.9772687 0.05487251 0.2120128 0.977267 0 0.7365584 0.6763739 0 1 0 0 0.7365584 -0.6763739 0 0.2120128 -0.977267 0 0.2047802 0.9772687 -0.05487251 0.7114675 0.6763702 -0.1906239 0.9659304 0 -0.2588022 0.7114675 -0.6763702 -0.1906239 0.2047802 -0.9772687 -0.05487251 0.1836005 0.97727 -0.1059914 0.6378846 0.6763694 -0.3682768 0.8660317 0 -0.4999893 0.6378846 -0.6763694 -0.3682768 0.1836005 -0.97727 -0.1059914 0.1499078 0.9772694 -0.1499078 0.5208211 0.6763807 -0.5208211 0.7071068 0 -0.7071068 0.5208434 -0.67637 -0.5208129 0.1499078 -0.9772694 -0.1499078 0.1059914 0.97727 -0.1836005 0.3682768 0.6763694 -0.6378846 0.4999893 0 -0.8660317 0.3682768 -0.6763694 -0.6378846 0.1059914 -0.97727 -0.1836005 0.05487251 0.9772687 -0.2047802 0.1906239 0.6763702 -0.7114675 0.2588022 0 -0.9659304 0.1906239 -0.6763702 -0.7114675 0.05487251 -0.9772687 -0.2047802 0 0.977267 -0.2120128 0 0.6763588 -0.7365725 0 0 -1 0 -0.6763588 -0.7365725 0 -0.977267 -0.2120128 -0.05487251 0.9772687 -0.2047802 -0.1906239 0.6763702 -0.7114675 -0.2588022 0 -0.9659304 -0.1906239 -0.6763702 -0.7114675 -0.05487251 -0.9772687 -0.2047802 -0.1059914 0.97727 -0.1836005 -0.3682768 0.6763694 -0.6378846 -0.4999893 0 -0.8660317 -0.3682768 -0.6763694 -0.6378846 -0.1059914 -0.97727 -0.1836005 -0.1499078 0.9772694 -0.1499078 -0.5208211 0.6763807 -0.5208211 -0.7071068 0 -0.7071068 -0.5208211 -0.6763807 -0.5208211 -0.1499078 -0.9772694 -0.1499078 -0.1836005 0.97727 -0.1059914 -0.6378846 0.6763694 -0.3682768 -0.8660317 0 -0.4999893 -0.6378846 -0.6763694 -0.3682768 -0.1836005 -0.97727 -0.1059914 -0.2047802 0.9772687 -0.05487251 -0.7114675 0.6763702 -0.1906239 -0.9659304 0 -0.2588022 -0.7114675 -0.6763702 -0.1906239 -0.2047802 -0.9772687 -0.05487251 -0.2120128 0.977267 0 -0.7365584 0.6763739 0 -1 0 0 -0.7365584 -0.6763739 0 -0.2120128 -0.977267 0 -0.2047802 0.9772687 0.05487251 -0.7114675 0.6763702 0.1906239 -0.9659304 0 0.2588022 -0.7114675 -0.6763702 0.1906239 -0.2047802 -0.9772687 0.05487251 -0.1836005 0.97727 0.1059914 -0.6378846 0.6763694 0.3682768 -0.8660317 0 0.4999893 -0.6378846 -0.6763694 0.3682768 -0.1836005 -0.97727 0.1059914 -0.1499078 0.9772694 0.1499078 -0.5208128 0.6763699 0.5208433 -0.7071068 0 0.7071068 -0.5208128 -0.6763699 0.5208433 -0.1499078 -0.9772694 0.1499078 -0.1059914 0.97727 0.1836005 -0.3682768 0.6763694 0.6378846 -0.4999893 0 0.8660317 -0.3682768 -0.6763694 0.6378846 -0.1059914 -0.97727 0.1836005 -0.05487251 0.9772687 0.2047802 -0.1906239 0.6763702 0.7114675 -0.2588022 0 0.9659304 -0.1906239 -0.6763702 0.7114675 -0.05487251 -0.9772687 0.2047802 0 0.977267 0.2120128 0 0.6763588 0.7365725 0 0 1 0 -0.6763588 0.7365725 0 -0.977267 0.2120128 0.05487251 0.9772687 0.2047802 0.1906239 0.6763702 0.7114675 0.2588022 0 0.9659304 0.1906239 -0.6763702 0.7114675 0.05487251 -0.9772687 0.2047802 0.1059914 0.97727 0.1836005 0.3682768 0.6763694 0.6378846 0.4999893 0 0.8660317 0.3682768 -0.6763694 0.6378846 0.1059914 -0.97727 0.1836005 -0.5000025 0 -0.866024</float_array>
          <technique_common>
            <accessor source="#Right_Wheel-mesh-normals-array" count="171" stride="3">
              <param name="X" type="float"/>
              <param name="Y" type="float"/>
              <param name="Z" type="float"/>
            </accessor>
          </technique_common>
        </source>
        <source id="Right_Wheel-mesh-map-0">
          <float_array id="Right_Wheel-mesh-map-0-array" count="3456">0.9294115 0.3546832 0.9040652 0.4001335 0.8692324 0.3724631 0.9294115 0.3546832 0.8692324 0.3724631 0.8888484 0.3372886 0.404064 0.1553587 0.4294115 0.2008107 0.3888483 0.218205 0.404064 0.1553587 0.3888483 0.218205 0.3692315 0.1830297 0.9040652 0.4001335 0.8682187 0.437245 0.8414906 0.4011839 0.9040652 0.4001335 0.8414906 0.4011839 0.8692324 0.3724631 0.3682174 0.1182476 0.404064 0.1553587 0.3692315 0.1830297 0.3682174 0.1182476 0.3692315 0.1830297 0.3414896 0.154309 0.8682187 0.437245 0.824316 0.4634868 0.8075139 0.4214928 0.8682187 0.437245 0.8075139 0.4214928 0.8414906 0.4011839 0.3243145 0.09200638 0.3682174 0.1182476 0.3414896 0.154309 0.3243145 0.09200638 0.3414896 0.154309 0.3075128 0.1340005 0.824316 0.4634868 0.7753487 0.4770708 0.7696177 0.4320054 0.824316 0.4634868 0.7696177 0.4320054 0.8075139 0.4214928 0.2753474 0.0784229 0.3243145 0.09200638 0.3075128 0.1340005 0.2753474 0.0784229 0.3075128 0.1340005 0.2696167 0.1234881 0.7753487 0.4770708 0.724654 0.477071 0.7303846 0.4320056 0.7753487 0.4770708 0.7303846 0.4320056 0.7696177 0.4320054 0.2246525 0.0784229 0.2753474 0.0784229 0.2696167 0.1234881 0.2246525 0.0784229 0.2696167 0.1234881 0.2303834 0.1234881 0.724654 0.477071 0.6756865 0.4634876 0.6924881 0.4214933 0.724654 0.477071 0.6924881 0.4214933 0.7303846 0.4320056 0.1756852 0.09200656 0.2246525 0.0784229 0.2303834 0.1234881 0.1756852 0.09200656 0.2303834 0.1234881 0.1924871 0.1340008 0.6756865 0.4634876 0.6317833 0.4372465 0.6585111 0.401185 0.6756865 0.4634876 0.6585111 0.401185 0.6924881 0.4214933 0.1317824 0.1182482 0.1756852 0.09200656 0.1924871 0.1340008 0.1317824 0.1182482 0.1924871 0.1340008 0.1585103 0.1543093 0.6317833 0.4372465 0.5959365 0.4001353 0.630769 0.3724643 0.6317833 0.4372465 0.630769 0.3724643 0.6585111 0.401185 0.09593582 0.1553593 0.1317824 0.1182482 0.1585103 0.1543093 0.09593582 0.1553593 0.1585103 0.1543093 0.1307682 0.18303 0.5959365 0.4001353 0.570589 0.3546838 0.6111522 0.3372892 0.5959365 0.4001353 0.6111522 0.3372892 0.630769 0.3724643 0.07058852 0.2008108 0.09593582 0.1553593 0.1307682 0.18303 0.07058852 0.2008108 0.1307682 0.18303 0.1111518 0.2182053 0.570589 0.3546838 0.557468 0.3039892 0.6009979 0.2980561 0.570589 0.3546838 0.6009979 0.2980561 0.6111522 0.3372892 0.05746781 0.2515056 0.07058852 0.2008108 0.1111518 0.2182053 0.05746781 0.2515056 0.1111518 0.2182053 0.1009977 0.2574384 0.557468 0.3039892 0.557468 0.2515062 0.6009977 0.2574389 0.557468 0.3039892 0.6009977 0.2574389 0.6009979 0.2980561 0.05746781 0.3039884 0.05746781 0.2515056 0.1009977 0.2574384 0.05746781 0.3039884 0.1009977 0.2574384 0.1009978 0.2980555 0.557468 0.2515062 0.5705885 0.2008113 0.6111518 0.2182056 0.557468 0.2515062 0.6111518 0.2182056 0.6009977 0.2574389 0.0705887 0.3546832 0.05746781 0.3039884 0.1009978 0.2980555 0.0705887 0.3546832 0.1009978 0.2980555 0.111152 0.3372886 0.5705885 0.2008113 0.5959358 0.1553594 0.6307683 0.1830301 0.5705885 0.2008113 0.6307683 0.1830301 0.6111518 0.2182056 0.09593605 0.4001349 0.0705887 0.3546832 0.111152 0.3372886 0.09593605 0.4001349 0.111152 0.3372886 0.1307686 0.372464 0.5959358 0.1553594 0.6317824 0.1182483 0.6585104 0.1543094 0.5959358 0.1553594 0.6585104 0.1543094 0.6307683 0.1830301 0.1317827 0.437246 0.09593605 0.4001349 0.1307686 0.372464 0.1317827 0.437246 0.1307686 0.372464 0.1585107 0.4011846 0.6317824 0.1182483 0.6756852 0.09200656 0.6924872 0.1340008 0.6317824 0.1182483 0.6924872 0.1340008 0.6585104 0.1543094 0.1756855 0.4634874 0.1317827 0.437246 0.1585107 0.4011846 0.1756855 0.4634874 0.1585107 0.4011846 0.1924874 0.4214931 0.6756852 0.09200656 0.7246526 0.07842296 0.7303834 0.1234884 0.6756852 0.09200656 0.7303834 0.1234884 0.6924872 0.1340008 0.2246528 0.4770709 0.1756855 0.4634874 0.1924874 0.4214931 0.2246528 0.4770709 0.1924874 0.4214931 0.2303836 0.4320055 0.7246526 0.07842296 0.7753474 0.0784229 0.7696167 0.1234883 0.7246526 0.07842296 0.7696167 0.1234883 0.7303834 0.1234884 0.2753475 0.4770707 0.2246528 0.4770709 0.2303836 0.4320055 0.2753475 0.4770707 0.2303836 0.4320055 0.2696167 0.4320054 0.7753474 0.0784229 0.8243148 0.0920065 0.8075129 0.1340007 0.7753474 0.0784229 0.8075129 0.1340007 0.7696167 0.1234883 0.3243148 0.4634872 0.2753475 0.4770707 0.2696167 0.4320054 0.3243148 0.4634872 0.2696167 0.4320054 0.3075129 0.421493 0.8243148 0.0920065 0.8682178 0.1182482 0.84149 0.1543094 0.8243148 0.0920065 0.84149 0.1543094 0.8075129 0.1340007 0.3682178 0.4372457 0.3243148 0.4634872 0.3075129 0.421493 0.3682178 0.4372457 0.3075129 0.421493 0.3414899 0.4011845 0.8682178 0.1182482 0.9040644 0.1553593 0.8692319 0.1830299 0.8682178 0.1182482 0.8692319 0.1830299 0.84149 0.1543094 0.4040644 0.4001345 0.3682178 0.4372457 0.3414899 0.4011845 0.4040644 0.4001345 0.3414899 0.4011845 0.3692318 0.3724637 0.9040644 0.1553593 0.9294117 0.2008106 0.8888484 0.2182052 0.9040644 0.1553593 0.8888484 0.2182052 0.8692319 0.1830299 0.4294117 0.354683 0.4040644 0.4001345 0.3692318 0.3724637 0.4294117 0.354683 0.3692318 0.3724637 0.3888484 0.3372885 0.9294117 0.2008106 0.9425325 0.2515055 0.8990026 0.2574384 0.9294117 0.2008106 0.8990026 0.2574384 0.8888484 0.2182052 0.4425324 0.3039883 0.4294117 0.354683 0.3888484 0.3372885 0.4425324 0.3039883 0.3888484 0.3372885 0.3990025 0.2980554 0.9425325 0.2515055 0.9425323 0.3039885 0.8990026 0.2980555 0.9425325 0.2515055 0.8990026 0.2980555 0.8990026 0.2574384 0.4425323 0.2515054 0.4425324 0.3039883 0.3990025 0.2980554 0.4425323 0.2515054 0.3990025 0.2980554 0.3990027 0.2574383 0.9425323 0.3039885 0.9294115 0.3546832 0.8888484 0.3372886 0.9425323 0.3039885 0.8888484 0.3372886 0.8990026 0.2980555 0.4294115 0.2008107 0.4425323 0.2515054 0.3990027 0.2574383 0.4294115 0.2008107 0.3990027 0.2574383 0.3888483 0.218205 0.4294115 0.2008107 0.4791612 0.1794766 0.4959203 0.2442287 0.4294115 0.2008107 0.4959203 0.2442287 0.4425323 0.2515054 0.596957 0.8243046 0.5723939 0.8332409 0.5723939 0.7626006 0.596957 0.8243046 0.5723939 0.7626006 0.596957 0.7595525 0.5723939 0.8332409 0.5245631 0.8332409 0.5245632 0.7626007 0.5723939 0.8332409 0.5245632 0.7626007 0.5723939 0.7626006 0.5245631 0.8332409 0.5 0.8243047 0.5 0.7595527 0.5245631 0.8332409 0.5 0.7595527 0.5245632 0.7626007 0.9791612 0.376017 0.9294115 0.3546832 0.9425323 0.3039885 0.9791612 0.376017 0.9425323 0.3039885 0.9959203 0.3112651 0.4425323 0.2515054 0.4959203 0.2442287 0.4959204 0.3112649 0.4425323 0.2515054 0.4959204 0.3112649 0.4425324 0.3039883 0.596957 0.7595525 0.5723939 0.7626006 0.5723939 0.6894685 0.596957 0.7595525 0.5723939 0.6894685 0.596957 0.6925163 0.5723939 0.7626006 0.5245632 0.7626007 0.5245632 0.6894685 0.5723939 0.7626006 0.5245632 0.6894685 0.5723939 0.6894685 0.5245632 0.7626007 0.5 0.7595527 0.5 0.6925165 0.5245632 0.7626007 0.5 0.6925165 0.5245632 0.6894685 0.9959203 0.3112651 0.9425323 0.3039885 0.9425325 0.2515055 0.9959203 0.3112651 0.9425325 0.2515055 0.9959204 0.2442288 0.4425324 0.3039883 0.4959204 0.3112649 0.4791613 0.3760169 0.4425324 0.3039883 0.4791613 0.3760169 0.4294117 0.354683 0.596957 0.6925163 0.5723939 0.6894685 0.5723939 0.6188282 0.596957 0.6925163 0.5723939 0.6188282 0.596957 0.6277644 0.5723939 0.6894685 0.5245632 0.6894685 0.5245632 0.6188281 0.5723939 0.6894685 0.5245632 0.6188281 0.5723939 0.6188282 0.5245632 0.6894685 0.5 0.6925165 0.5 0.6277644 0.5245632 0.6894685 0.5 0.6277644 0.5245632 0.6188281 0.9959204 0.2442288 0.9425325 0.2515055 0.9294117 0.2008106 0.9959204 0.2442288 0.9294117 0.2008106 0.9791613 0.1794767 0.4294117 0.354683 0.4791613 0.3760169 0.4467855 0.4340718 0.4294117 0.354683 0.4467855 0.4340718 0.4040644 0.4001345 0.4791613 0.3760169 0.5 0.3849531 0.46468 0.4482872 0.4791613 0.3760169 0.46468 0.4482872 0.4467855 0.4340718 0.5723939 0.6188282 0.5245632 0.6188281 0.5245632 0.555494 0.5723939 0.6188282 0.5245632 0.555494 0.5723939 0.5554941 1 0.1705405 0.9791613 0.1794767 0.9467855 0.1214218 1 0.1705405 0.9467855 0.1214218 0.9646801 0.1072064 0.9791613 0.1794767 0.9294117 0.2008106 0.9040644 0.1553593 0.9791613 0.1794767 0.9040644 0.1553593 0.9467855 0.1214218 0.4040644 0.4001345 0.4467855 0.4340718 0.4009988 0.4814738 0.4040644 0.4001345 0.4009988 0.4814738 0.3682178 0.4372457 0.4467855 0.4340718 0.46468 0.4482872 0.41473 0.4999995 0.4467855 0.4340718 0.41473 0.4999995 0.4009988 0.4814738 0.2184772 0.5554941 0.266308 0.555494 0.266308 0.6188282 0.2184772 0.5554941 0.266308 0.6188282 0.2184773 0.6188282 0.9646801 0.1072064 0.9467855 0.1214218 0.9009988 0.07402008 0.9646801 0.1072064 0.9009988 0.07402008 0.9147298 0.05549412 0.9467855 0.1214218 0.9040644 0.1553593 0.8682178 0.1182482 0.9467855 0.1214218 0.8682178 0.1182482 0.9009988 0.07402008 0.3682178 0.4372457 0.4009988 0.4814738 0.3449218 0.5149918 0.3682178 0.4372457 0.3449218 0.5149918 0.3243148 0.4634872 0.1939141 0.6277646 0.2184773 0.6188282 0.2184773 0.6894686 0.1939141 0.6277646 0.2184773 0.6894686 0.1939141 0.6925166 0.2184773 0.6188282 0.266308 0.6188282 0.266308 0.6894686 0.2184773 0.6188282 0.266308 0.6894686 0.2184773 0.6894686 0.266308 0.6188282 0.2908711 0.6277645 0.2908711 0.6925166 0.266308 0.6188282 0.2908711 0.6925166 0.266308 0.6894686 0.9009988 0.07402008 0.8682178 0.1182482 0.8243148 0.0920065 0.9009988 0.07402008 0.8243148 0.0920065 0.8449217 0.04050195 0.3243148 0.4634872 0.3449218 0.5149918 0.2823762 0.5323423 0.3243148 0.4634872 0.2823762 0.5323423 0.2753475 0.4770707 0.1939141 0.6925166 0.2184773 0.6894686 0.2184773 0.7626007 0.1939141 0.6925166 0.2184773 0.7626007 0.1939141 0.7595528 0.2184773 0.6894686 0.266308 0.6894686 0.266308 0.7626007 0.2184773 0.6894686 0.266308 0.7626007 0.2184773 0.7626007 0.266308 0.6894686 0.2908711 0.6925166 0.2908711 0.7595528 0.266308 0.6894686 0.2908711 0.7595528 0.266308 0.7626007 0.8449217 0.04050195 0.8243148 0.0920065 0.7753474 0.0784229 0.8449217 0.04050195 0.7753474 0.0784229 0.7823761 0.02315157 0.2753475 0.4770707 0.2823762 0.5323423 0.2176241 0.5323423 0.2753475 0.4770707 0.2176241 0.5323423 0.2246528 0.4770709 0.1939141 0.7595528 0.2184773 0.7626007 0.2184773 0.833241 0.1939141 0.7595528 0.2184773 0.833241 0.1939141 0.8243048 0.2184773 0.7626007 0.266308 0.7626007 0.266308 0.8332412 0.2184773 0.7626007 0.266308 0.8332412 0.2184773 0.833241 0.266308 0.7626007 0.2908711 0.7595528 0.2908711 0.824305 0.266308 0.7626007 0.2908711 0.824305 0.266308 0.8332412 0.7823761 0.02315157 0.7753474 0.0784229 0.7246526 0.07842296 0.7823761 0.02315157 0.7246526 0.07842296 0.7176238 0.02315163 0.2246528 0.4770709 0.2176241 0.5323423 0.1550785 0.5149921 0.2246528 0.4770709 0.1550785 0.5149921 0.1756855 0.4634874 0.2176241 0.5323423 0.21468 0.555494 0.1464468 0.5365658 0.2176241 0.5323423 0.1464468 0.5365658 0.1550785 0.5149921 0.2184773 0.833241 0.266308 0.8332412 0.2663079 0.8965753 0.2184773 0.833241 0.2663079 0.8965753 0.2184772 0.8965753 0.7146797 0 0.7176238 0.02315163 0.6550782 0.04050189 0.7146797 0 0.6550782 0.04050189 0.6464466 0.01892817 0.7176238 0.02315163 0.7246526 0.07842296 0.6756852 0.09200656 0.7176238 0.02315163 0.6756852 0.09200656 0.6550782 0.04050189 0.1756855 0.4634874 0.1550785 0.5149921 0.09900164 0.481474 0.1756855 0.4634874 0.09900164 0.481474 0.1317827 0.437246 0.1550785 0.5149921 0.1464468 0.5365658 0.08527052 0.4999998 0.1550785 0.5149921 0.08527052 0.4999998 0.09900164 0.481474 0.2184772 0.8965753 0.2663079 0.8965753 0.2663079 0.9482876 0.2184772 0.8965753 0.2663079 0.9482876 0.2184772 0.9482876 0.6464466 0.01892817 0.6550782 0.04050189 0.5990012 0.07402008 0.6464466 0.01892817 0.5990012 0.07402008 0.5852704 0.05549424 0.6550782 0.04050189 0.6756852 0.09200656 0.6317824 0.1182483 0.6550782 0.04050189 0.6317824 0.1182483 0.5990012 0.07402008 0.1317827 0.437246 0.09900164 0.481474 0.05321502 0.4340723 0.1317827 0.437246 0.05321502 0.4340723 0.09593605 0.4001349 0.09900164 0.481474 0.08527052 0.4999998 0.03532022 0.4482876 0.09900164 0.481474 0.03532022 0.4482876 0.05321502 0.4340723 0.02456319 0.555494 0.07239389 0.555494 0.07239389 0.6072063 0.02456319 0.555494 0.07239389 0.6072063 0.02456313 0.6072061 0.5852704 0.05549424 0.5990012 0.07402008 0.5532147 0.1214221 0.5852704 0.05549424 0.5532147 0.1214221 0.5353202 0.1072066 0.5990012 0.07402008 0.6317824 0.1182483 0.5959358 0.1553594 0.5990012 0.07402008 0.5959358 0.1553594 0.5532147 0.1214221 0.09593605 0.4001349 0.05321502 0.4340723 0.02083891 0.376017 0.09593605 0.4001349 0.02083891 0.376017 0.0705887 0.3546832 0.05321502 0.4340723 0.03532022 0.4482876 0 0.3849533 0.05321502 0.4340723 0 0.3849533 0.02083891 0.376017 0.02456313 0.6072061 0.07239389 0.6072063 0.07239389 0.6705408 0.02456313 0.6072061 0.07239389 0.6705408 0.02456313 0.6705405 0.5353202 0.1072066 0.5532147 0.1214221 0.5208389 0.1794772 0.5353202 0.1072066 0.5208389 0.1794772 0.5 0.170541 0.5532147 0.1214221 0.5959358 0.1553594 0.5705885 0.2008113 0.5532147 0.1214221 0.5705885 0.2008113 0.5208389 0.1794772 0.0705887 0.3546832 0.02083891 0.376017 0.004079699 0.3112651 0.0705887 0.3546832 0.004079699 0.3112651 0.05746781 0.3039884 0 0.6794767 0.02456313 0.6705405 0.02456313 0.741181 0 0.6794767 0.02456313 0.741181 0 0.7442287 0.02456313 0.6705405 0.07239389 0.6705408 0.07239389 0.7411811 0.02456313 0.6705405 0.07239389 0.7411811 0.02456313 0.741181 0.07239389 0.6705408 0.09695702 0.679477 0.09695702 0.7442292 0.07239389 0.6705408 0.09695702 0.7442292 0.07239389 0.7411811 0.5208389 0.1794772 0.5705885 0.2008113 0.557468 0.2515062 0.5208389 0.1794772 0.557468 0.2515062 0.5040798 0.2442294 0.05746781 0.3039884 0.004079699 0.3112651 0.004079878 0.2442287 0.05746781 0.3039884 0.004079878 0.2442287 0.05746781 0.2515056 0 0.7442287 0.02456313 0.741181 0.02456313 0.8143132 0 0.7442287 0.02456313 0.8143132 0 0.8112651 0.02456313 0.741181 0.07239389 0.7411811 0.07239389 0.8143134 0.02456313 0.741181 0.07239389 0.8143134 0.02456313 0.8143132 0.07239389 0.7411811 0.09695702 0.7442292 0.09695702 0.8112655 0.07239389 0.7411811 0.09695702 0.8112655 0.07239389 0.8143134 0.5040798 0.2442294 0.557468 0.2515062 0.557468 0.3039892 0.5040798 0.2442294 0.557468 0.3039892 0.5040799 0.3112657 0.05746781 0.2515056 0.004079878 0.2442287 0.02083879 0.1794769 0.05746781 0.2515056 0.02083879 0.1794769 0.07058852 0.2008108 0 0.8112651 0.02456313 0.8143132 0.02456313 0.8849531 0 0.8112651 0.02456313 0.8849531 0 0.8760169 0.02456313 0.8143132 0.07239389 0.8143134 0.07239389 0.8849536 0.02456313 0.8143132 0.07239389 0.8849536 0.02456313 0.8849531 0.07239389 0.8143134 0.09695702 0.8112655 0.09695702 0.8760175 0.07239389 0.8143134 0.09695702 0.8760175 0.07239389 0.8849536 0.5040799 0.3112657 0.557468 0.3039892 0.570589 0.3546838 0.5040799 0.3112657 0.570589 0.3546838 0.5208393 0.3760178 0.07058852 0.2008108 0.02083879 0.1794769 0.05321478 0.1214219 0.07058852 0.2008108 0.05321478 0.1214219 0.09593582 0.1553593 0.02083879 0.1794769 0 0.1705407 0.0353204 0.1072062 0.02083879 0.1794769 0.0353204 0.1072062 0.05321478 0.1214219 0.02456313 0.8849531 0.07239389 0.8849536 0.07239389 0.9482878 0.02456313 0.8849531 0.07239389 0.9482878 0.02456313 0.9482876 0.5000004 0.3849538 0.5208393 0.3760178 0.5532155 0.4340727 0.5000004 0.3849538 0.5532155 0.4340727 0.5353207 0.448288 0.5208393 0.3760178 0.570589 0.3546838 0.5959365 0.4001353 0.5208393 0.3760178 0.5959365 0.4001353 0.5532155 0.4340727 0.09593582 0.1553593 0.05321478 0.1214219 0.0990014 0.0740199 0.09593582 0.1553593 0.0990014 0.0740199 0.1317824 0.1182482 0.05321478 0.1214219 0.0353204 0.1072062 0.08527058 0.05549389 0.05321478 0.1214219 0.08527058 0.05549389 0.0990014 0.0740199 0.02456313 0.9482876 0.07239389 0.9482878 0.07239389 1 0.02456313 0.9482876 0.07239389 1 0.02456313 0.9999999 0.5353207 0.448288 0.5532155 0.4340727 0.5990023 0.4814743 0.5353207 0.448288 0.5990023 0.4814743 0.5852712 0.5000002 0.5532155 0.4340727 0.5959365 0.4001353 0.6317833 0.4372465 0.5532155 0.4340727 0.6317833 0.4372465 0.5990023 0.4814743 0.1317824 0.1182482 0.0990014 0.0740199 0.1550784 0.04050189 0.1317824 0.1182482 0.1550784 0.04050189 0.1756852 0.09200656 0.0990014 0.0740199 0.08527058 0.05549389 0.1464469 0.01892787 0.0990014 0.0740199 0.1464469 0.01892787 0.1550784 0.04050189 0.1215202 0.555494 0.1693509 0.5554941 0.1693509 0.6072064 0.1215202 0.555494 0.1693509 0.6072064 0.1215202 0.6072062 0.5852712 0.5000002 0.5990023 0.4814743 0.6550794 0.5149923 0.5852712 0.5000002 0.6550794 0.5149923 0.6464475 0.5365661 0.5990023 0.4814743 0.6317833 0.4372465 0.6756865 0.4634876 0.5990023 0.4814743 0.6756865 0.4634876 0.6550794 0.5149923 0.1756852 0.09200656 0.1550784 0.04050189 0.2176241 0.02315145 0.1756852 0.09200656 0.2176241 0.02315145 0.2246525 0.0784229 0.1550784 0.04050189 0.1464469 0.01892787 0.2146803 0 0.1550784 0.04050189 0.2146803 0 0.2176241 0.02315145 0.1215202 0.6072062 0.1693509 0.6072064 0.1693509 0.6705411 0.1215202 0.6072062 0.1693509 0.6705411 0.1215202 0.6705407 0.6464475 0.5365661 0.6550794 0.5149923 0.7176254 0.5323423 0.6464475 0.5365661 0.7176254 0.5323423 0.714681 0.5554939 0.6550794 0.5149923 0.6756865 0.4634876 0.724654 0.477071 0.6550794 0.5149923 0.724654 0.477071 0.7176254 0.5323423 0.2246525 0.0784229 0.2176241 0.02315145 0.2823762 0.02315163 0.2246525 0.0784229 0.2823762 0.02315163 0.2753474 0.0784229 0.09695702 0.6794765 0.1215202 0.6705407 0.1215202 0.7411809 0.09695702 0.6794765 0.1215202 0.7411809 0.09695702 0.7442287 0.1215202 0.6705407 0.1693509 0.6705411 0.1693509 0.7411813 0.1215202 0.6705407 0.1693509 0.7411813 0.1215202 0.7411809 0.1693509 0.6705411 0.1939141 0.6794775 0.1939141 0.7442296 0.1693509 0.6705411 0.1939141 0.7442296 0.1693509 0.7411813 0.7176254 0.5323423 0.724654 0.477071 0.7753487 0.4770708 0.7176254 0.5323423 0.7753487 0.4770708 0.7823774 0.532342 0.2753474 0.0784229 0.2823762 0.02315163 0.3449218 0.04050177 0.2753474 0.0784229 0.3449218 0.04050177 0.3243145 0.09200638 0.09695702 0.7442287 0.1215202 0.7411809 0.1215202 0.8143131 0.09695702 0.7442287 0.1215202 0.8143131 0.09695702 0.8112648 0.1215202 0.7411809 0.1693509 0.7411813 0.1693509 0.8143135 0.1215202 0.7411809 0.1693509 0.8143135 0.1215202 0.8143131 0.1693509 0.7411813 0.1939141 0.7442296 0.1939141 0.8112658 0.1693509 0.7411813 0.1939141 0.8112658 0.1693509 0.8143135 0.7823774 0.532342 0.7753487 0.4770708 0.824316 0.4634868 0.7823774 0.532342 0.824316 0.4634868 0.844923 0.5149915 0.3243145 0.09200638 0.3449218 0.04050177 0.4009987 0.0740199 0.3243145 0.09200638 0.4009987 0.0740199 0.3682174 0.1182476 0.09695702 0.8112648 0.1215202 0.8143131 0.1215202 0.8849533 0.09695702 0.8112648 0.1215202 0.8849533 0.09695702 0.8760169 0.1215202 0.8143131 0.1693509 0.8143135 0.1693509 0.8849537 0.1215202 0.8143131 0.1693509 0.8849537 0.1215202 0.8849533 0.1693509 0.8143135 0.1939141 0.8112658 0.1939141 0.8760177 0.1693509 0.8143135 0.1939141 0.8760177 0.1693509 0.8849537 0.844923 0.5149915 0.824316 0.4634868 0.8682187 0.437245 0.844923 0.5149915 0.8682187 0.437245 0.9009997 0.4814731 0.3682174 0.1182476 0.4009987 0.0740199 0.4467853 0.1214217 0.3682174 0.1182476 0.4467853 0.1214217 0.404064 0.1553587 0.4009987 0.0740199 0.41473 0.05549424 0.4646802 0.1072067 0.4009987 0.0740199 0.4646802 0.1072067 0.4467853 0.1214217 0.1215202 0.8849533 0.1693509 0.8849537 0.1693509 0.948288 0.1215202 0.8849533 0.1693509 0.948288 0.1215202 0.9482877 0.9147306 0.4999991 0.9009997 0.4814731 0.9467861 0.4340709 0.9147306 0.4999991 0.9467861 0.4340709 0.9646807 0.4482866 0.9009997 0.4814731 0.8682187 0.437245 0.9040652 0.4001335 0.9009997 0.4814731 0.9040652 0.4001335 0.9467861 0.4340709 0.9294115 0.3546832 0.9791612 0.376017 0.9467861 0.4340709 0.9294115 0.3546832 0.9467861 0.4340709 0.9040652 0.4001335 0.9791612 0.376017 1 0.3849533 0.9646807 0.4482866 0.9791612 0.376017 0.9646807 0.4482866 0.9467861 0.4340709 0.5245631 0.8332409 0.5723939 0.8332409 0.5723938 0.8965745 0.5245631 0.8332409 0.5723938 0.8965745 0.5245631 0.8965741 0.5 0.1705403 0.4791612 0.1794766 0.4467853 0.1214217 0.5 0.1705403 0.4467853 0.1214217 0.4646802 0.1072067 0.4791612 0.1794766 0.4294115 0.2008107 0.404064 0.1553587 0.4791612 0.1794766 0.404064 0.1553587 0.4467853 0.1214217 0.5 0.7384734 0.4759354 0.7384734 0.4759354 0.6992403 0.5 0.7384734 0.4759354 0.6992403 0.5 0.6992403 0.4759354 0.7384734 0.4518706 0.7384734 0.4518706 0.6992403 0.4759354 0.7384734 0.4518706 0.6992403 0.4759354 0.6992403 0.4518706 0.7384734 0.4278062 0.7384734 0.4278062 0.6992402 0.4518706 0.7384734 0.4278062 0.6992402 0.4518706 0.6992403 0.4278062 0.7384734 0.4037417 0.7384734 0.4037417 0.6992402 0.4278062 0.7384734 0.4037417 0.6992402 0.4278062 0.6992402 0.4037417 0.7384734 0.3796771 0.7384734 0.3796771 0.6992402 0.4037417 0.7384734 0.3796771 0.6992402 0.4037417 0.6992402 0.5 0.6992403 0.4759354 0.6992403 0.4759354 0.6586232 0.5 0.6992403 0.4759354 0.6586232 0.5 0.6586232 0.4759354 0.6992403 0.4518706 0.6992403 0.4518708 0.6586232 0.4759354 0.6992403 0.4518708 0.6586232 0.4759354 0.6586232 0.4518706 0.6992403 0.4278062 0.6992402 0.4278062 0.6586232 0.4518706 0.6992403 0.4278062 0.6586232 0.4518708 0.6586232 0.4278062 0.6992402 0.4037417 0.6992402 0.4037417 0.658623 0.4278062 0.6992402 0.4037417 0.658623 0.4278062 0.6586232 0.4037417 0.6992402 0.3796771 0.6992402 0.3796771 0.658623 0.4037417 0.6992402 0.3796771 0.658623 0.4037417 0.658623 0.5 0.6586232 0.4759354 0.6586232 0.4759354 0.61939 0.5 0.6586232 0.4759354 0.61939 0.5 0.61939 0.4759354 0.6586232 0.4518708 0.6586232 0.4518708 0.61939 0.4759354 0.6586232 0.4518708 0.61939 0.4759354 0.61939 0.4518708 0.6586232 0.4278062 0.6586232 0.4278062 0.61939 0.4518708 0.6586232 0.4278062 0.61939 0.4518708 0.61939 0.4278062 0.6586232 0.4037417 0.658623 0.4037417 0.6193899 0.4278062 0.6586232 0.4037417 0.6193899 0.4278062 0.61939 0.4037417 0.658623 0.3796771 0.658623 0.3796771 0.6193899 0.4037417 0.658623 0.3796771 0.6193899 0.4037417 0.6193899 0.5 0.61939 0.4759354 0.61939 0.4759354 0.5842147 0.5 0.61939 0.4759354 0.5842147 0.5 0.5842147 0.4759354 0.61939 0.4518708 0.61939 0.4518708 0.5842147 0.4759354 0.61939 0.4518708 0.5842147 0.4759354 0.5842147 0.4518708 0.61939 0.4278062 0.61939 0.4278062 0.5842147 0.4518708 0.61939 0.4278062 0.5842147 0.4518708 0.5842147 0.4278062 0.61939 0.4037417 0.6193899 0.4037417 0.5842147 0.4278062 0.61939 0.4037417 0.5842147 0.4278062 0.5842147 0.4037417 0.6193899 0.3796771 0.6193899 0.3796771 0.5842148 0.4037417 0.6193899 0.3796771 0.5842148 0.4037417 0.5842147 0.5 0.5842147 0.4759354 0.5842147 0.4759354 0.5554941 0.5 0.5842147 0.4759354 0.5554941 0.5 0.5554941 0.4759354 0.5842147 0.4518708 0.5842147 0.4518708 0.5554941 0.4759354 0.5842147 0.4518708 0.5554941 0.4759354 0.5554941 0.4518708 0.5842147 0.4278062 0.5842147 0.4278062 0.555494 0.4518708 0.5842147 0.4278062 0.555494 0.4518708 0.5554941 0.4278062 0.5842147 0.4037417 0.5842147 0.4037416 0.555494 0.4278062 0.5842147 0.4037416 0.555494 0.4278062 0.555494 0.4037417 0.5842147 0.3796771 0.5842148 0.3796771 0.555494 0.4037417 0.5842147 0.3796771 0.555494 0.4037416 0.555494 0.8376029 0.773649 0.8135383 0.773649 0.8135383 0.7449283 0.8376029 0.773649 0.8135383 0.7449283 0.8376029 0.7449283 0.8135383 0.773649 0.7894737 0.773649 0.7894737 0.7449283 0.8135383 0.773649 0.7894737 0.7449283 0.8135383 0.7449283 0.7894737 0.773649 0.7654092 0.773649 0.7654092 0.7449283 0.7894737 0.773649 0.7654092 0.7449283 0.7894737 0.7449283 0.7654092 0.773649 0.7413446 0.773649 0.7413446 0.7449283 0.7654092 0.773649 0.7413446 0.7449283 0.7654092 0.7449283 0.7413446 0.773649 0.71728 0.773649 0.71728 0.7449283 0.7413446 0.773649 0.71728 0.7449283 0.7413446 0.7449283 0.8376029 0.7449283 0.8135383 0.7449283 0.8135383 0.7097529 0.8376029 0.7449283 0.8135383 0.7097529 0.8376029 0.7097529 0.8135383 0.7449283 0.7894737 0.7449283 0.7894738 0.7097529 0.8135383 0.7449283 0.7894738 0.7097529 0.8135383 0.7097529 0.7894737 0.7449283 0.7654092 0.7449283 0.7654094 0.7097529 0.7894737 0.7449283 0.7654094 0.7097529 0.7894738 0.7097529 0.7654092 0.7449283 0.7413446 0.7449283 0.7413446 0.7097529 0.7654092 0.7449283 0.7413446 0.7097529 0.7654094 0.7097529 0.7413446 0.7449283 0.71728 0.7449283 0.71728 0.7097529 0.7413446 0.7449283 0.71728 0.7097529 0.7413446 0.7097529 0.8376029 0.7097529 0.8135383 0.7097529 0.8135383 0.6705198 0.8376029 0.7097529 0.8135383 0.6705198 0.8376029 0.6705197 0.8135383 0.7097529 0.7894738 0.7097529 0.7894738 0.6705198 0.8135383 0.7097529 0.7894738 0.6705198 0.8135383 0.6705198 0.7894738 0.7097529 0.7654094 0.7097529 0.7654094 0.6705198 0.7894738 0.7097529 0.7654094 0.6705198 0.7894738 0.6705198 0.7654094 0.7097529 0.7413446 0.7097529 0.7413446 0.6705198 0.7654094 0.7097529 0.7413446 0.6705198 0.7654094 0.6705198 0.7413446 0.7097529 0.71728 0.7097529 0.71728 0.6705198 0.7413446 0.7097529 0.71728 0.6705198 0.7413446 0.6705198 0.8376029 0.6705197 0.8135383 0.6705198 0.8135383 0.6299027 0.8376029 0.6705197 0.8135383 0.6299027 0.8376029 0.6299026 0.8135383 0.6705198 0.7894738 0.6705198 0.7894738 0.6299027 0.8135383 0.6705198 0.7894738 0.6299027 0.8135383 0.6299027 0.7894738 0.6705198 0.7654094 0.6705198 0.7654094 0.6299028 0.7894738 0.6705198 0.7654094 0.6299028 0.7894738 0.6299027 0.7654094 0.6705198 0.7413446 0.6705198 0.7413446 0.6299028 0.7654094 0.6705198 0.7413446 0.6299028 0.7654094 0.6299028 0.7413446 0.6705198 0.71728 0.6705198 0.71728 0.6299028 0.7413446 0.6705198 0.71728 0.6299028 0.7413446 0.6299028 0.8376029 0.6299026 0.8135383 0.6299027 0.8135383 0.5906696 0.8376029 0.6299026 0.8135383 0.5906696 0.8376029 0.5906695 0.8135383 0.6299027 0.7894738 0.6299027 0.7894738 0.5906698 0.8135383 0.6299027 0.7894738 0.5906698 0.8135383 0.5906696 0.7894738 0.6299027 0.7654094 0.6299028 0.7654094 0.5906698 0.7894738 0.6299027 0.7654094 0.5906698 0.7894738 0.5906698 0.7654094 0.6299028 0.7413446 0.6299028 0.7413446 0.5906698 0.7654094 0.6299028 0.7413446 0.5906698 0.7654094 0.5906698 0.7413446 0.6299028 0.71728 0.6299028 0.71728 0.5906699 0.7413446 0.6299028 0.71728 0.5906699 0.7413446 0.5906698 0.8376029 0.5906695 0.8135383 0.5906696 0.8135383 0.5554941 0.8376029 0.5906695 0.8135383 0.5554941 0.8376029 0.555494 0.8135383 0.5906696 0.7894738 0.5906698 0.7894737 0.5554941 0.8135383 0.5906696 0.7894737 0.5554941 0.8135383 0.5554941 0.7894738 0.5906698 0.7654094 0.5906698 0.7654093 0.5554941 0.7894738 0.5906698 0.7654093 0.5554941 0.7894737 0.5554941 0.7654094 0.5906698 0.7413446 0.5906698 0.7413446 0.5554943 0.7654094 0.5906698 0.7413446 0.5554943 0.7654093 0.5554941 0.7413446 0.5906698 0.71728 0.5906699 0.71728 0.5554943 0.7413446 0.5906698 0.71728 0.5554943 0.7413446 0.5554943 0.71728 0.7736494 0.7413446 0.7736493 0.7413446 0.8088248 0.71728 0.7736494 0.7413446 0.8088248 0.71728 0.808825 0.7413446 0.7736493 0.7654092 0.7736493 0.7654091 0.8088249 0.7413446 0.7736493 0.7654091 0.8088249 0.7413446 0.8088248 0.7654092 0.7736493 0.7894735 0.7736493 0.7894737 0.8088249 0.7654092 0.7736493 0.7894737 0.8088249 0.7654091 0.8088249 0.7894735 0.7736493 0.8135383 0.7736493 0.8135383 0.8088247 0.7894735 0.7736493 0.8135383 0.8088247 0.7894737 0.8088249 0.8135383 0.7736493 0.8376029 0.7736493 0.8376029 0.8088247 0.8135383 0.7736493 0.8376029 0.8088247 0.8135383 0.8088247 0.71728 0.808825 0.7413446 0.8088248 0.7413446 0.8480581 0.71728 0.808825 0.7413446 0.8480581 0.71728 0.8480582 0.7413446 0.8088248 0.7654091 0.8088249 0.7654091 0.8480579 0.7413446 0.8088248 0.7654091 0.8480579 0.7413446 0.8480581 0.7654091 0.8088249 0.7894737 0.8088249 0.7894737 0.8480579 0.7654091 0.8088249 0.7894737 0.8480579 0.7654091 0.8480579 0.7894737 0.8088249 0.8135383 0.8088247 0.8135383 0.8480578 0.7894737 0.8088249 0.8135383 0.8480578 0.7894737 0.8480579 0.8135383 0.8088247 0.8376029 0.8088247 0.8376029 0.8480577 0.8135383 0.8088247 0.8376029 0.8480577 0.8135383 0.8480578 0.71728 0.8480582 0.7413446 0.8480581 0.7413446 0.8886752 0.71728 0.8480582 0.7413446 0.8886752 0.71728 0.8886753 0.7413446 0.8480581 0.7654091 0.8480579 0.7654091 0.8886752 0.7413446 0.8480581 0.7654091 0.8886752 0.7413446 0.8886752 0.7654091 0.8480579 0.7894737 0.8480579 0.7894737 0.888675 0.7654091 0.8480579 0.7894737 0.888675 0.7654091 0.8886752 0.7894737 0.8480579 0.8135383 0.8480578 0.8135383 0.8886749 0.7894737 0.8480579 0.8135383 0.8886749 0.7894737 0.888675 0.8135383 0.8480578 0.8376029 0.8480577 0.8376029 0.8886747 0.8135383 0.8480578 0.8376029 0.8886747 0.8135383 0.8886749 0.71728 0.8886753 0.7413446 0.8886752 0.7413446 0.9279083 0.71728 0.8886753 0.7413446 0.9279083 0.71728 0.9279084 0.7413446 0.8886752 0.7654091 0.8886752 0.7654091 0.9279078 0.7413446 0.8886752 0.7654091 0.9279078 0.7413446 0.9279083 0.7654091 0.8886752 0.7894737 0.888675 0.7894737 0.9279078 0.7654091 0.8886752 0.7894737 0.9279078 0.7654091 0.9279078 0.7894737 0.888675 0.8135383 0.8886749 0.8135383 0.9279079 0.7894737 0.888675 0.8135383 0.9279079 0.7894737 0.9279078 0.8135383 0.8886749 0.8376029 0.8886747 0.8376029 0.9279078 0.8135383 0.8886749 0.8376029 0.9279078 0.8135383 0.9279079 0.71728 0.9279084 0.7413446 0.9279083 0.7413446 0.9630837 0.71728 0.9279084 0.7413446 0.9630837 0.71728 0.9630836 0.7413446 0.9279083 0.7654091 0.9279078 0.7654091 0.9630835 0.7413446 0.9279083 0.7654091 0.9630835 0.7413446 0.9630837 0.7654091 0.9279078 0.7894737 0.9279078 0.7894737 0.9630834 0.7654091 0.9279078 0.7894737 0.9630834 0.7654091 0.9630835 0.7894737 0.9279078 0.8135383 0.9279079 0.8135383 0.9630834 0.7894737 0.9279078 0.8135383 0.9630834 0.7894737 0.9630834 0.8135383 0.9279079 0.8376029 0.9279078 0.8376029 0.9630833 0.8135383 0.9279079 0.8376029 0.9630833 0.8135383 0.9630834 0.71728 0.7736486 0.6932154 0.7736488 0.6932154 0.7384732 0.71728 0.7736486 0.6932154 0.7384732 0.71728 0.7384731 0.6932154 0.7736488 0.6691508 0.7736489 0.6691506 0.7384735 0.6932154 0.7736488 0.6691506 0.7384735 0.6932154 0.7384732 0.6691508 0.7736489 0.6450862 0.773649 0.6450862 0.7384735 0.6691508 0.7736489 0.6450862 0.7384735 0.6691506 0.7384735 0.6450862 0.773649 0.6210216 0.773649 0.6210216 0.7384737 0.6450862 0.773649 0.6210216 0.7384737 0.6450862 0.7384735 0.6210216 0.773649 0.5969571 0.7736493 0.5969571 0.7384739 0.6210216 0.773649 0.5969571 0.7384739 0.6210216 0.7384737 0.71728 0.7384731 0.6932154 0.7384732 0.6932154 0.6992401 0.71728 0.7384731 0.6932154 0.6992401 0.7172799 0.6992399 0.6932154 0.7384732 0.6691506 0.7384735 0.6691506 0.6992403 0.6932154 0.7384732 0.6691506 0.6992403 0.6932154 0.6992401 0.6691506 0.7384735 0.6450862 0.7384735 0.6450862 0.6992405 0.6691506 0.7384735 0.6450862 0.6992405 0.6691506 0.6992403 0.6450862 0.7384735 0.6210216 0.7384737 0.6210216 0.6992406 0.6450862 0.7384735 0.6210216 0.6992406 0.6450862 0.6992405 0.6210216 0.7384737 0.5969571 0.7384739 0.5969571 0.6992409 0.6210216 0.7384737 0.5969571 0.6992409 0.6210216 0.6992406 0.7172799 0.6992399 0.6932154 0.6992401 0.6932154 0.6586229 0.7172799 0.6992399 0.6932154 0.6586229 0.7172799 0.6586228 0.6932154 0.6992401 0.6691506 0.6992403 0.6691506 0.6586232 0.6932154 0.6992401 0.6691506 0.6586232 0.6932154 0.6586229 0.6691506 0.6992403 0.6450862 0.6992405 0.6450862 0.6586233 0.6691506 0.6992403 0.6450862 0.6586233 0.6691506 0.6586232 0.6450862 0.6992405 0.6210216 0.6992406 0.6210216 0.6586236 0.6450862 0.6992405 0.6210216 0.6586236 0.6450862 0.6586233 0.6210216 0.6992406 0.5969571 0.6992409 0.596957 0.6586238 0.6210216 0.6992406 0.596957 0.6586238 0.6210216 0.6586236 0.7172799 0.6586228 0.6932154 0.6586229 0.6932154 0.6193898 0.7172799 0.6586228 0.6932154 0.6193898 0.7172799 0.6193897 0.6932154 0.6586229 0.6691506 0.6586232 0.6691506 0.6193901 0.6932154 0.6586229 0.6691506 0.6193901 0.6932154 0.6193898 0.6691506 0.6586232 0.6450862 0.6586233 0.6450862 0.6193902 0.6691506 0.6586232 0.6450862 0.6193902 0.6691506 0.6193901 0.6450862 0.6586233 0.6210216 0.6586236 0.6210216 0.6193903 0.6450862 0.6586233 0.6210216 0.6193903 0.6450862 0.6193902 0.6210216 0.6586236 0.596957 0.6586238 0.596957 0.6193905 0.6210216 0.6586236 0.596957 0.6193905 0.6210216 0.6193903 0.7172799 0.6193897 0.6932154 0.6193898 0.6932154 0.5842145 0.7172799 0.6193897 0.6932154 0.5842145 0.7172799 0.5842143 0.6932154 0.6193898 0.6691506 0.6193901 0.6691506 0.5842147 0.6932154 0.6193898 0.6691506 0.5842147 0.6932154 0.5842145 0.6691506 0.6193901 0.6450862 0.6193902 0.6450862 0.5842149 0.6691506 0.6193901 0.6450862 0.5842149 0.6691506 0.5842147 0.6450862 0.6193902 0.6210216 0.6193903 0.6210216 0.5842151 0.6450862 0.6193902 0.6210216 0.5842151 0.6450862 0.5842149 0.6210216 0.6193903 0.596957 0.6193905 0.5969571 0.5842152 0.6210216 0.6193903 0.5969571 0.5842152 0.6210216 0.5842151 0.7172799 0.5842143 0.6932154 0.5842145 0.6932154 0.555494 0.7172799 0.5842143 0.6932154 0.555494 0.71728 0.555494 0.6932154 0.5842145 0.6691506 0.5842147 0.6691507 0.5554941 0.6932154 0.5842145 0.6691507 0.5554941 0.6932154 0.555494 0.6691506 0.5842147 0.6450862 0.5842149 0.6450862 0.5554943 0.6691506 0.5842147 0.6450862 0.5554943 0.6691507 0.5554941 0.6450862 0.5842149 0.6210216 0.5842151 0.6210217 0.5554944 0.6450862 0.5842149 0.6210217 0.5554944 0.6450862 0.5554943 0.6210216 0.5842151 0.5969571 0.5842152 0.5969571 0.5554946 0.6210216 0.5842151 0.5969571 0.5554946 0.6210217 0.5554944 0.5 0.8023687 0.4759353 0.8023689 0.4759354 0.7736482 0.5 0.8023687 0.4759354 0.7736482 0.5 0.7736479 0.4759353 0.8023689 0.4518706 0.802369 0.4518706 0.7736482 0.4759353 0.8023689 0.4518706 0.7736482 0.4759354 0.7736482 0.4518706 0.802369 0.4278062 0.8023691 0.4278062 0.7736485 0.4518706 0.802369 0.4278062 0.7736485 0.4518706 0.7736482 0.4278062 0.8023691 0.4037416 0.8023694 0.4037417 0.7736487 0.4278062 0.8023691 0.4037417 0.7736487 0.4278062 0.7736485 0.4037416 0.8023694 0.3796771 0.8023695 0.3796771 0.7736488 0.4037416 0.8023694 0.3796771 0.7736488 0.4037417 0.7736487 0.3796771 0.7384734 0.4037417 0.7384734 0.4037417 0.7736487 0.3796771 0.7384734 0.4037417 0.7736487 0.3796771 0.7736488 0.4037417 0.7384734 0.4278062 0.7384734 0.4278062 0.7736485 0.4037417 0.7384734 0.4278062 0.7736485 0.4037417 0.7736487 0.4278062 0.7384734 0.4518706 0.7384734 0.4518706 0.7736482 0.4278062 0.7384734 0.4518706 0.7736482 0.4278062 0.7736485 0.4518706 0.7384734 0.4759354 0.7384734 0.4759354 0.7736482 0.4518706 0.7384734 0.4759354 0.7736482 0.4518706 0.7736482 0.4759354 0.7384734 0.5 0.7384734 0.5 0.7736479 0.4759354 0.7384734 0.5 0.7736479 0.4759354 0.7736482</float_array>
          <technique_common>
            <accessor source="#Right_Wheel-mesh-map-0-array" count="1728" stride="2">
              <param name="S" type="float"/>
              <param name="T" type="float"/>
            </accessor>
          </technique_common>
        </source>
        <vertices id="Right_Wheel-mesh-vertices">
          <input semantic="POSITION" source="#Right_Wheel-mesh-positions"/>
        </vertices>
        <polylist material="PBRFULL_RightWheel-material" count="576">
          <input semantic="VERTEX" source="#Right_Wheel-mesh-vertices" offset="0"/>
          <input semantic="NORMAL" source="#Right_Wheel-mesh-normals" offset="1"/>
          <input semantic="TEXCOORD" source="#Right_Wheel-mesh-map-0" offset="2" set="0"/>
          <vcount>3 3 3 3 3 3 3 3 3 3 3 3 3 3 3 3 3 3 3 3 3 3 3 3 3 3 3 3 3 3 3 3 3 3 3 3 3 3 3 3 3 3 3 3 3 3 3 3 3 3 3 3 3 3 3 3 3 3 3 3 3 3 3 3 3 3 3 3 3 3 3 3 3 3 3 3 3 3 3 3 3 3 3 3 3 3 3 3 3 3 3 3 3 3 3 3 3 3 3 3 3 3 3 3 3 3 3 3 3 3 3 3 3 3 3 3 3 3 3 3 3 3 3 3 3 3 3 3 3 3 3 3 3 3 3 3 3 3 3 3 3 3 3 3 3 3 3 3 3 3 3 3 3 3 3 3 3 3 3 3 3 3 3 3 3 3 3 3 3 3 3 3 3 3 3 3 3 3 3 3 3 3 3 3 3 3 3 3 3 3 3 3 3 3 3 3 3 3 3 3 3 3 3 3 3 3 3 3 3 3 3 3 3 3 3 3 3 3 3 3 3 3 3 3 3 3 3 3 3 3 3 3 3 3 3 3 3 3 3 3 3 3 3 3 3 3 3 3 3 3 3 3 3 3 3 3 3 3 3 3 3 3 3 3 3 3 3 3 3 3 3 3 3 3 3 3 3 3 3 3 3 3 3 3 3 3 3 3 3 3 3 3 3 3 3 3 3 3 3 3 3 3 3 3 3 3 3 3 3 3 3 3 3 3 3 3 3 3 3 3 3 3 3 3 3 3 3 3 3 3 3 3 3 3 3 3 3 3 3 3 3 3 3 3 3 3 3 3 3 3 3 3 3 3 3 3 3 3 3 3 3 3 3 3 3 3 3 3 3 3 3 3 3 3 3 3 3 3 3 3 3 3 3 3 3 3 3 3 3 3 3 3 3 3 3 3 3 3 3 3 3 3 3 3 3 3 3 3 3 3 3 3 3 3 3 3 3 3 3 3 3 3 3 3 3 3 3 3 3 3 3 3 3 3 3 3 3 3 3 3 3 3 3 3 3 3 3 3 3 3 3 3 3 3 3 3 3 3 3 3 3 3 3 3 3 3 3 3 3 3 3 3 3 3 3 3 3 3 3 3 3 3 3 3 3 3 3 3 3 3 3 3 3 3 3 3 3 3 3 3 3 3 3 3 3 3 3 3 3 3 3 3 3 3 3 3 3 3 3 3 3 3 3 3 3 3 3 3 3 3 3 3 3 3 3 3 3 3 3 3 3 3 3 3 3 3 3 3 3 3 3 3 3 3 3 3 3 3 3 3 3 3 3 3 3 3 3 3 3 3 3 3 3 3 3 3 </vcount>
          <p>0 0 0 1 1 1 384 2 2 0 0 3 384 2 4 385 2 5 4 3 6 5 4 7 6 5 8 4 3 9 6 5 10 7 5 11 1 1 12 8 6 13 9 2 14 1 1 15 9 2 16 384 2 17 10 7 18 4 3 19 7 5 20 10 7 21 7 5 22 11 5 23 8 6 24 12 8 25 13 2 26 8 6 27 13 2 28 9 2 29 14 9 30 10 7 31 11 5 32 14 9 33 11 5 34 397 5 35 12 8 36 16 10 37 375 2 38 12 8 39 375 2 40 13 2 41 18 11 42 14 9 43 397 5 44 18 11 45 397 5 46 429 5 47 16 10 48 20 12 49 318 2 50 16 10 51 318 2 52 375 2 53 22 13 54 18 11 55 429 5 56 22 13 57 429 5 58 23 5 59 20 12 60 24 14 61 319 2 62 20 12 63 319 2 64 318 2 65 26 15 66 22 13 67 23 5 68 26 15 69 23 5 70 348 5 71 24 14 72 28 16 73 29 2 74 24 14 75 29 2 76 319 2 77 30 17 78 26 15 79 348 5 80 30 17 81 348 5 82 31 5 83 28 16 84 32 18 85 360 2 86 28 16 87 360 2 88 29 2 89 34 19 90 30 17 91 31 5 92 34 19 93 31 5 94 302 5 95 32 18 96 36 20 97 37 2 98 32 18 99 37 2 100 360 2 101 38 21 102 34 19 103 302 5 104 38 21 105 302 5 106 303 5 107 36 20 108 40 22 109 41 2 110 36 20 111 41 2 112 37 2 113 42 23 114 38 21 115 303 5 116 42 23 117 303 5 118 43 5 119 40 22 120 44 24 121 322 2 122 40 22 123 322 2 124 41 2 125 46 25 126 42 23 127 43 5 128 46 25 129 43 5 130 47 5 131 44 24 132 48 26 133 323 2 134 44 24 135 323 2 136 322 2 137 50 27 138 46 25 139 47 5 140 50 27 141 47 5 142 314 5 143 48 26 144 52 28 145 53 2 146 48 26 147 53 2 148 323 2 149 54 29 150 50 27 151 314 5 152 54 29 153 314 5 154 315 5 155 52 28 156 56 30 157 57 2 158 52 28 159 57 2 160 53 2 161 58 31 162 54 29 163 315 5 164 58 31 165 315 5 166 59 5 167 56 30 168 60 32 169 351 2 170 56 30 171 351 2 172 57 2 173 62 33 174 58 31 175 59 5 176 62 33 177 59 5 178 63 5 179 60 32 180 64 34 181 342 2 182 60 32 183 342 2 184 351 2 185 66 35 186 62 33 187 63 5 188 66 35 189 63 5 190 67 5 191 64 34 192 68 36 193 343 2 194 64 34 195 343 2 196 342 2 197 70 37 198 66 35 199 67 5 200 70 37 201 67 5 202 71 5 203 68 36 204 72 38 205 73 2 206 68 36 207 73 2 208 343 2 209 74 39 210 70 37 211 71 5 212 74 39 213 71 5 214 304 5 215 72 38 216 76 40 217 422 2 218 72 38 219 422 2 220 73 2 221 78 41 222 74 39 223 304 5 224 78 41 225 304 5 226 305 5 227 76 40 228 80 42 229 330 2 230 76 40 231 330 2 232 422 2 233 82 43 234 78 41 235 305 5 236 82 43 237 305 5 238 398 5 239 80 42 240 84 44 241 331 2 242 80 42 243 331 2 244 330 2 245 86 45 246 82 43 247 398 5 248 86 45 249 398 5 250 87 5 251 84 44 252 88 46 253 378 2 254 84 44 255 378 2 256 331 2 257 90 47 258 86 45 259 87 5 260 90 47 261 87 5 262 298 5 263 88 46 264 92 48 265 416 2 266 88 46 267 416 2 268 378 2 269 94 49 270 90 47 271 298 5 272 94 49 273 298 5 274 95 5 275 92 48 276 0 0 277 385 2 278 92 48 279 385 2 280 416 2 281 5 4 282 94 49 283 95 5 284 5 4 285 95 5 286 6 5 287 5 4 288 96 50 289 430 51 290 5 4 291 430 51 292 94 49 293 338 52 294 98 52 295 99 53 296 338 52 297 99 53 298 97 53 299 379 54 300 100 54 301 392 55 302 379 54 303 392 55 304 380 55 305 306 56 306 102 56 307 344 57 308 306 56 309 344 57 310 101 57 311 355 58 312 0 0 313 92 48 314 355 58 315 92 48 316 103 59 317 94 49 318 430 51 319 104 60 320 94 49 321 104 60 322 90 47 323 97 53 324 99 53 325 105 61 326 97 53 327 105 61 328 399 61 329 380 55 330 392 55 331 400 62 332 380 55 333 400 62 334 408 62 335 101 57 336 344 57 337 107 63 338 101 57 339 107 63 340 106 63 341 103 59 342 92 48 343 88 46 344 103 59 345 88 46 346 345 64 347 90 47 348 104 60 349 366 65 350 90 47 351 366 65 352 86 45 353 399 61 354 105 61 355 109 66 356 399 61 357 109 66 358 108 66 359 408 62 360 400 62 361 110 67 362 408 62 363 110 67 364 409 67 365 106 63 366 107 63 367 428 68 368 106 63 369 428 68 370 417 68 371 345 64 372 88 46 373 84 44 374 345 64 375 84 44 376 111 69 377 86 45 378 366 65 379 112 70 380 86 45 381 112 70 382 82 43 383 108 66 384 109 66 385 326 71 386 108 66 387 326 71 388 312 71 389 409 67 390 110 67 391 340 72 392 409 67 393 340 72 394 113 72 395 417 68 396 428 68 397 115 73 398 417 68 399 115 73 400 114 73 401 111 69 402 84 44 403 80 42 404 111 69 405 80 42 406 395 74 407 82 43 408 112 70 409 313 75 410 82 43 411 313 75 412 78 41 413 312 71 414 326 71 415 327 76 416 312 71 417 327 76 418 116 76 419 113 72 420 340 72 421 341 77 422 113 72 423 341 77 424 117 77 425 114 73 426 115 73 427 357 78 428 114 73 429 357 78 430 118 78 431 395 74 432 80 42 433 76 40 434 395 74 435 76 40 436 119 79 437 78 41 438 313 75 439 120 80 440 78 41 441 120 80 442 74 39 443 116 76 444 327 76 445 121 81 446 116 76 447 121 81 448 406 81 449 117 77 450 341 77 451 383 82 452 117 77 453 383 82 454 376 82 455 118 78 456 357 78 457 292 83 458 118 78 459 292 83 460 122 83 461 119 79 462 76 40 463 72 38 464 119 79 465 72 38 466 123 84 467 74 39 468 120 80 469 124 85 470 74 39 471 124 85 472 70 37 473 406 81 474 121 81 475 415 86 476 406 81 477 415 86 478 373 86 479 376 82 480 383 82 481 126 87 482 376 82 483 126 87 484 125 87 485 122 83 486 292 83 487 293 88 488 122 83 489 293 88 490 427 88 491 123 84 492 72 38 493 68 36 494 123 84 495 68 36 496 127 89 497 70 37 498 124 85 499 128 90 500 70 37 501 128 90 502 66 35 503 373 86 504 415 86 505 288 91 506 373 86 507 288 91 508 371 91 509 125 87 510 126 87 511 130 92 512 125 87 513 130 92 514 129 92 515 427 88 516 293 88 517 320 93 518 427 88 519 320 93 520 336 93 521 127 89 522 68 36 523 64 34 524 127 89 525 64 34 526 131 94 527 66 35 528 128 90 529 132 95 530 66 35 531 132 95 532 62 33 533 371 91 534 288 91 535 289 96 536 371 91 537 289 96 538 372 96 539 129 92 540 130 92 541 337 97 542 129 92 543 337 97 544 133 97 545 336 93 546 320 93 547 321 98 548 336 93 549 321 98 550 134 98 551 131 94 552 64 34 553 60 32 554 131 94 555 60 32 556 135 99 557 62 33 558 132 95 559 402 100 560 62 33 561 402 100 562 58 31 563 372 96 564 289 96 565 349 101 566 372 96 567 349 101 568 136 101 569 133 97 570 337 97 571 421 102 572 133 97 573 421 102 574 137 102 575 134 98 576 321 98 577 139 103 578 134 98 579 139 103 580 138 103 581 135 99 582 60 32 583 56 30 584 135 99 585 56 30 586 411 104 587 58 31 588 402 100 589 296 105 590 58 31 591 296 105 592 54 29 593 136 101 594 349 101 595 141 106 596 136 101 597 141 106 598 140 106 599 137 102 600 421 102 601 374 107 602 137 102 603 374 107 604 391 107 605 138 103 606 139 103 607 365 108 608 138 103 609 365 108 610 142 108 611 411 104 612 56 30 613 52 28 614 411 104 615 52 28 616 143 109 617 54 29 618 296 105 619 297 110 620 54 29 621 297 110 622 50 27 623 140 106 624 141 106 625 145 111 626 140 106 627 145 111 628 144 111 629 391 107 630 374 107 631 324 112 632 391 107 633 324 112 634 425 112 635 142 108 636 365 108 637 308 113 638 142 108 639 308 113 640 146 113 641 143 109 642 52 28 643 48 26 644 143 109 645 48 26 646 147 114 647 50 27 648 297 110 649 148 115 650 50 27 651 148 115 652 46 25 653 144 111 654 145 111 655 334 116 656 144 111 657 334 116 658 361 116 659 425 112 660 324 112 661 325 117 662 425 112 663 325 117 664 149 117 665 146 113 666 308 113 667 309 118 668 146 113 669 309 118 670 150 118 671 147 114 672 48 26 673 44 24 674 147 114 675 44 24 676 151 119 677 46 25 678 148 115 679 394 120 680 46 25 681 394 120 682 42 23 683 361 116 684 334 116 685 335 121 686 361 116 687 335 121 688 152 121 689 149 117 690 325 117 691 418 122 692 149 117 693 418 122 694 153 122 695 150 118 696 309 118 697 155 123 698 150 118 699 155 123 700 154 123 701 151 119 702 44 24 703 40 22 704 151 119 705 40 22 706 410 124 707 42 23 708 394 120 709 290 125 710 42 23 711 290 125 712 38 21 713 152 121 714 335 121 715 157 126 716 152 121 717 157 126 718 156 126 719 153 122 720 418 122 721 350 127 722 153 122 723 350 127 724 388 127 725 154 123 726 155 123 727 382 128 728 154 123 729 382 128 730 158 128 731 410 124 732 40 22 733 36 20 734 410 124 735 36 20 736 159 129 737 38 21 738 290 125 739 291 130 740 38 21 741 291 130 742 34 19 743 156 126 744 157 126 745 294 131 746 156 126 747 294 131 748 160 131 749 388 127 750 350 127 751 162 132 752 388 127 753 162 132 754 161 132 755 158 128 756 382 128 757 163 133 758 158 128 759 163 133 760 310 133 761 159 129 762 36 20 763 32 18 764 159 129 765 32 18 766 328 134 767 34 19 768 291 130 769 346 135 770 34 19 771 346 135 772 30 17 773 160 131 774 294 131 775 295 136 776 160 131 777 295 136 778 164 136 779 161 132 780 162 132 781 311 137 782 161 132 783 311 137 784 165 137 785 310 133 786 163 133 787 329 138 788 310 133 789 329 138 790 166 138 791 328 134 792 32 18 793 28 16 794 328 134 795 28 16 796 167 139 797 30 17 798 346 135 799 387 140 800 30 17 801 387 140 802 26 15 803 164 136 804 295 136 805 354 141 806 164 136 807 354 141 808 168 141 809 165 137 810 311 137 811 404 142 812 165 137 813 404 142 814 169 142 815 166 138 816 329 138 817 171 143 818 166 138 819 171 143 820 170 143 821 167 139 822 28 16 823 24 14 824 167 139 825 24 14 826 414 144 827 26 15 828 387 140 829 172 145 830 26 15 831 172 145 832 22 13 833 168 141 834 354 141 835 396 146 836 168 141 837 396 146 838 426 146 839 169 142 840 404 142 841 174 147 842 169 142 843 174 147 844 173 147 845 170 143 846 171 143 847 377 148 848 170 143 849 377 148 850 369 148 851 414 144 852 24 14 853 20 12 854 414 144 855 20 12 856 175 149 857 22 13 858 172 145 859 176 150 860 22 13 861 176 150 862 18 11 863 426 146 864 396 146 865 300 151 866 426 146 867 300 151 868 352 151 869 173 147 870 174 147 871 178 152 872 173 147 873 178 152 874 177 152 875 369 148 876 377 148 877 179 153 878 369 148 879 179 153 880 316 153 881 175 149 882 20 12 883 16 10 884 175 149 885 16 10 886 332 154 887 18 11 888 176 150 889 353 155 890 18 11 891 353 155 892 14 9 893 352 151 894 300 151 895 301 156 896 352 151 897 301 156 898 180 156 899 177 152 900 178 152 901 317 157 902 177 152 903 317 157 904 181 157 905 316 153 906 179 153 907 333 158 908 316 153 909 333 158 910 182 158 911 332 154 912 16 10 913 12 8 914 332 154 915 12 8 916 183 159 917 14 9 918 353 155 919 390 160 920 14 9 921 390 160 922 10 7 923 180 156 924 301 156 925 358 161 926 180 156 927 358 161 928 184 161 929 181 157 930 317 157 931 413 162 932 181 157 933 413 162 934 185 162 935 182 158 936 333 158 937 187 163 938 182 158 939 187 163 940 186 163 941 183 159 942 12 8 943 8 6 944 183 159 945 8 6 946 424 164 947 10 7 948 390 160 949 188 165 950 10 7 951 188 165 952 4 3 953 184 161 954 358 161 955 189 166 956 184 161 957 189 166 958 339 166 959 185 162 960 413 162 961 307 167 962 185 162 963 307 167 964 403 167 965 186 163 966 187 163 967 356 168 968 186 163 969 356 168 970 190 168 971 424 164 972 8 6 973 1 1 974 424 164 975 1 1 976 191 169 977 0 0 978 355 58 979 191 169 980 0 0 981 191 169 982 1 1 983 102 56 984 306 56 985 190 168 986 102 56 987 190 168 988 356 168 989 100 54 990 379 54 991 403 167 992 100 54 993 403 167 994 307 167 995 98 52 996 338 52 997 339 166 998 98 52 999 339 166 1000 189 166 1001 96 50 1002 5 4 1003 4 3 1004 96 50 1005 4 3 1006 188 165 1007 3 112 1008 192 112 1009 193 117 1010 3 112 1011 193 117 1012 93 117 1013 192 112 1014 194 112 1015 195 117 1016 192 112 1017 195 117 1018 193 117 1019 194 112 1020 196 112 1021 197 117 1022 194 112 1023 197 117 1024 195 117 1025 196 112 1026 198 112 1027 199 117 1028 196 112 1029 199 117 1030 197 117 1031 198 112 1032 420 112 1033 299 117 1034 198 112 1035 299 117 1036 199 117 1037 93 117 1038 193 117 1039 200 122 1040 93 117 1041 200 122 1042 89 122 1043 193 117 1044 195 117 1045 201 122 1046 193 117 1047 201 122 1048 200 122 1049 195 117 1050 197 117 1051 202 122 1052 195 117 1053 202 122 1054 201 122 1055 197 117 1056 199 117 1057 203 122 1058 197 117 1059 203 122 1060 202 122 1061 199 117 1062 299 117 1063 91 122 1064 199 117 1065 91 122 1066 203 122 1067 89 122 1068 200 122 1069 204 127 1070 89 122 1071 204 127 1072 85 127 1073 200 122 1074 201 122 1075 205 127 1076 200 122 1077 205 127 1078 204 127 1079 201 122 1080 202 122 1081 206 127 1082 201 122 1083 206 127 1084 205 127 1085 202 122 1086 203 122 1087 207 127 1088 202 122 1089 207 127 1090 206 127 1091 203 122 1092 91 122 1093 364 127 1094 203 122 1095 364 127 1096 207 127 1097 85 127 1098 204 127 1099 208 132 1100 85 127 1101 208 132 1102 81 132 1103 204 127 1104 205 127 1105 209 132 1106 204 127 1107 209 132 1108 208 132 1109 205 127 1110 206 127 1111 210 132 1112 205 127 1113 210 132 1114 209 132 1115 206 127 1116 207 127 1117 211 132 1118 206 127 1119 211 132 1120 210 132 1121 207 127 1122 364 127 1123 83 132 1124 207 127 1125 83 132 1126 211 132 1127 81 132 1128 208 132 1129 212 137 1130 81 132 1131 212 137 1132 77 137 1133 208 132 1134 209 132 1135 213 137 1136 208 132 1137 213 137 1138 212 137 1139 209 132 1140 210 132 1141 214 137 1142 209 132 1143 214 137 1144 213 137 1145 210 132 1146 211 132 1147 215 137 1148 210 132 1149 215 137 1150 214 137 1151 211 132 1152 83 132 1153 79 137 1154 211 132 1155 79 137 1156 215 137 1157 77 137 1158 212 137 1159 216 142 1160 77 137 1161 216 142 1162 386 142 1163 212 137 1164 213 137 1165 217 142 1166 212 137 1167 217 142 1168 216 142 1169 213 137 1170 214 137 1171 218 142 1172 213 137 1173 218 142 1174 217 142 1175 214 137 1176 215 137 1177 219 142 1178 214 137 1179 219 142 1180 218 142 1181 215 137 1182 79 137 1183 75 142 1184 215 137 1185 75 142 1186 219 142 1187 386 142 1188 216 142 1189 220 147 1190 386 142 1191 220 147 1192 69 147 1193 216 142 1194 217 142 1195 221 147 1196 216 142 1197 221 147 1198 220 147 1199 217 142 1200 218 142 1201 222 147 1202 217 142 1203 222 147 1204 221 147 1205 218 142 1206 219 142 1207 223 147 1208 218 142 1209 223 147 1210 222 147 1211 219 142 1212 75 142 1213 368 147 1214 219 142 1215 368 147 1216 223 147 1217 69 147 1218 220 147 1219 224 152 1220 69 147 1221 224 152 1222 65 152 1223 220 147 1224 221 147 1225 225 152 1226 220 147 1227 225 152 1228 224 152 1229 221 147 1230 222 147 1231 226 152 1232 221 147 1233 226 152 1234 225 152 1235 222 147 1236 223 147 1237 227 152 1238 222 147 1239 227 152 1240 226 152 1241 223 147 1242 368 147 1243 405 152 1244 223 147 1245 405 152 1246 227 152 1247 65 152 1248 224 152 1249 228 157 1250 65 152 1251 228 157 1252 61 157 1253 224 152 1254 225 152 1255 229 157 1256 224 152 1257 229 157 1258 228 157 1259 225 152 1260 226 152 1261 230 157 1262 225 152 1263 230 157 1264 229 157 1265 226 152 1266 227 152 1267 231 157 1268 226 152 1269 231 157 1270 230 157 1271 227 152 1272 405 152 1273 407 157 1274 227 152 1275 407 157 1276 231 157 1277 61 157 1278 228 157 1279 232 162 1280 61 157 1281 232 162 1282 389 162 1283 228 157 1284 229 157 1285 233 162 1286 228 157 1287 233 162 1288 232 162 1289 229 157 1290 230 157 1291 234 162 1292 229 157 1293 234 162 1294 233 162 1295 230 157 1296 231 157 1297 235 162 1298 230 157 1299 235 162 1300 234 162 1301 231 157 1302 407 157 1303 370 162 1304 231 157 1305 370 162 1306 235 162 1307 389 162 1308 232 162 1309 236 167 1310 389 162 1311 236 167 1312 423 167 1313 232 162 1314 233 162 1315 237 167 1316 232 162 1317 237 167 1318 236 167 1319 233 162 1320 234 162 1321 238 167 1322 233 162 1323 238 167 1324 237 167 1325 234 162 1326 235 162 1327 239 167 1328 234 162 1329 239 167 1330 238 167 1331 235 162 1332 370 162 1333 55 167 1334 235 162 1335 55 167 1336 239 167 1337 423 167 1338 236 167 1339 240 54 1340 423 167 1341 240 54 1342 49 54 1343 236 167 1344 237 167 1345 241 54 1346 236 167 1347 241 54 1348 240 54 1349 237 167 1350 238 167 1351 242 54 1352 237 167 1353 242 54 1354 241 54 1355 238 167 1356 239 167 1357 243 54 1358 238 167 1359 243 54 1360 242 54 1361 239 167 1362 55 167 1363 51 54 1364 239 167 1365 51 54 1366 243 54 1367 49 54 1368 240 54 1369 244 55 1370 49 54 1371 244 55 1372 45 55 1373 240 54 1374 241 54 1375 245 55 1376 240 54 1377 245 55 1378 244 55 1379 241 54 1380 242 54 1381 246 55 1382 241 54 1383 246 55 1384 245 55 1385 242 54 1386 243 54 1387 247 55 1388 242 54 1389 247 55 1390 246 55 1391 243 54 1392 51 54 1393 401 55 1394 243 54 1395 401 55 1396 247 55 1397 45 55 1398 244 55 1399 248 62 1400 45 55 1401 248 62 1402 381 62 1403 244 55 1404 245 55 1405 249 62 1406 244 55 1407 249 62 1408 248 62 1409 245 55 1410 246 55 1411 250 62 1412 245 55 1413 250 62 1414 249 62 1415 246 55 1416 247 55 1417 251 62 1418 246 55 1419 251 62 1420 250 62 1421 247 55 1422 401 55 1423 367 62 1424 247 55 1425 367 62 1426 251 62 1427 381 62 1428 248 62 1429 252 67 1430 381 62 1431 252 67 1432 419 67 1433 248 62 1434 249 62 1435 253 67 1436 248 62 1437 253 67 1438 252 67 1439 249 62 1440 250 62 1441 254 67 1442 249 62 1443 254 67 1444 253 67 1445 250 62 1446 251 62 1447 255 67 1448 250 62 1449 255 67 1450 254 67 1451 251 62 1452 367 62 1453 39 67 1454 251 62 1455 39 67 1456 255 67 1457 419 67 1458 252 67 1459 256 72 1460 419 67 1461 256 72 1462 33 72 1463 252 67 1464 253 67 1465 257 72 1466 252 67 1467 257 72 1468 256 72 1469 253 67 1470 254 67 1471 258 72 1472 253 67 1473 258 72 1474 257 72 1475 254 67 1476 255 67 1477 259 72 1478 254 67 1479 259 72 1480 258 72 1481 255 67 1482 39 67 1483 35 72 1484 255 67 1485 35 72 1486 259 72 1487 33 72 1488 256 72 1489 260 77 1490 33 72 1491 260 77 1492 359 77 1493 256 72 1494 257 72 1495 261 77 1496 256 72 1497 261 77 1498 260 77 1499 257 72 1500 258 72 1501 262 77 1502 257 72 1503 262 77 1504 261 77 1505 258 72 1506 259 72 1507 263 77 1508 258 72 1509 263 77 1510 262 77 1511 259 72 1512 35 72 1513 393 77 1514 259 72 1515 393 77 1516 263 77 1517 359 77 1518 260 77 1519 264 82 1520 359 77 1521 264 82 1522 25 82 1523 260 77 1524 261 77 1525 265 82 1526 260 77 1527 265 82 1528 264 82 1529 261 77 1530 262 77 1531 266 82 1532 261 77 1533 266 82 1534 265 82 1535 262 77 1536 263 77 1537 267 82 1538 262 77 1539 267 82 1540 266 82 1541 263 77 1542 393 77 1543 27 82 1544 263 77 1545 27 82 1546 267 82 1547 25 82 1548 264 82 1549 268 87 1550 25 82 1551 268 87 1552 21 87 1553 264 82 1554 265 82 1555 269 87 1556 264 82 1557 269 87 1558 268 87 1559 265 82 1560 266 82 1561 270 87 1562 265 82 1563 270 87 1564 269 87 1565 266 82 1566 267 82 1567 271 87 1568 266 82 1569 271 87 1570 270 87 1571 267 82 1572 27 82 1573 347 87 1574 267 82 1575 347 87 1576 271 87 1577 21 87 1578 268 87 1579 272 92 1580 21 87 1581 272 92 1582 17 92 1583 268 87 1584 269 87 1585 273 92 1586 268 87 1587 273 92 1588 272 92 1589 269 87 1590 270 87 1591 274 92 1592 269 87 1593 274 92 1594 273 92 1595 270 87 1596 271 87 1597 275 92 1598 270 87 1599 275 92 1600 274 92 1601 271 87 1602 347 87 1603 19 92 1604 271 87 1605 19 92 1606 275 92 1607 17 92 1608 272 92 1609 276 97 1610 17 92 1611 276 97 1612 412 97 1613 272 92 1614 273 92 1615 277 97 1616 272 92 1617 277 97 1618 276 97 1619 273 92 1620 274 92 1621 278 97 1622 273 92 1623 278 97 1624 277 97 1625 274 92 1626 275 92 1627 279 97 1628 274 92 1629 279 97 1630 278 97 1631 275 92 1632 19 92 1633 15 97 1634 275 92 1635 15 97 1636 279 97 1637 412 97 1638 276 97 1639 280 102 1640 412 97 1641 280 102 1642 431 102 1643 276 97 1644 277 97 1645 281 102 1646 276 97 1647 281 102 1648 280 102 1649 277 97 1650 278 97 1651 282 102 1652 277 97 1653 282 102 1654 281 102 1655 278 97 1656 279 97 1657 283 102 1658 278 97 1659 283 102 1660 282 102 1661 279 97 1662 15 97 1663 363 102 1664 279 97 1665 363 102 1666 283 102 1667 431 102 1668 280 102 1669 284 107 1670 431 102 1671 284 107 1672 2 170 1673 280 102 1674 281 102 1675 285 107 1676 280 102 1677 285 107 1678 284 107 1679 281 102 1680 282 102 1681 286 107 1682 281 102 1683 286 107 1684 285 107 1685 282 102 1686 283 102 1687 287 107 1688 282 102 1689 287 107 1690 286 107 1691 283 102 1692 363 102 1693 362 107 1694 283 102 1695 362 107 1696 287 107 1697 420 112 1698 198 112 1699 287 107 1700 420 112 1701 287 107 1702 362 107 1703 198 112 1704 196 112 1705 286 107 1706 198 112 1707 286 107 1708 287 107 1709 196 112 1710 194 112 1711 285 107 1712 196 112 1713 285 107 1714 286 107 1715 194 112 1716 192 112 1717 284 107 1718 194 112 1719 284 107 1720 285 107 1721 192 112 1722 3 112 1723 2 170 1724 192 112 1725 2 170 1726 284 107 1727</p>
        </polylist>
      </mesh>
    </geometry>
  </library_geometries>
  <library_controllers/>
  <library_visual_scenes>
    <visual_scene id="Scene" name="Scene">
      <node id="Right_Wheel" name="Right_Wheel" type="NODE">
        <matrix sid="transform">1 0 0 0 0 1 0 0 0 0 1 0 0 0 0 1</matrix>
        <instance_geometry url="#Right_Wheel-mesh" name="Right_Wheel">
          <bind_material>
            <technique_common>
              <instance_material symbol="PBRFULL_RightWheel-material" target="#PBRFULL_RightWheel-material"/>
            </technique_common>
          </bind_material>
        </instance_geometry>
      </node>
    </visual_scene>
  </library_visual_scenes>
  <scene>
    <instance_visual_scene url="#Scene"/>
  </scene>
</COLLADA>