<?xml version="1.0" encoding="utf-8"?>
<COLLADA xmlns="http://www.collada.org/2005/11/COLLADASchema" version="1.4.1">
  <asset>
    <contributor>
      <author>Blender User</author>
      <authoring_tool>Blender 2.77.0 commit date:2016-04-05, commit time:18:12, hash:abf6f08</authoring_tool>
    </contributor>
    <created>2017-07-31T17:10:50</created>
    <modified>2017-07-31T17:10:50</modified>
    <unit name="meter" meter="1"/>
    <up_axis>Z_UP</up_axis>
  </asset>
  <library_images>
    <image id="PBRFULL_TopWindowGlass-material_Base_Color_jpg" name="PBRFULL_TopWindowGlass-material_Base_Color_jpg">
      <init_from>PBRFULL_TopWindowGlass-material_Base_Color.jpg</init_from>
    </image>
    <image id="PBRFULL_TopWindowBorder-material_Base_Color_jpg" name="PBRFULL_TopWindowBorder-material_Base_Color_jpg">
      <init_from>PBRFULL_TopWindowBorder-material_Base_Color.jpg</init_from>
    </image>
  </library_images>
  <library_effects>
    <effect id="PBRFULL_TopWindowGlass-effect">
      <profile_COMMON>
        <newparam sid="PBRFULL_TopWindowGlass-material_Base_Color_jpg-surface">
          <surface type="2D">
            <init_from>PBRFULL_TopWindowGlass-material_Base_Color_jpg</init_from>
          </surface>
        </newparam>
        <newparam sid="PBRFULL_TopWindowGlass-material_Base_Color_jpg-sampler">
          <sampler2D>
            <source>PBRFULL_TopWindowGlass-material_Base_Color_jpg-surface</source>
          </sampler2D>
        </newparam>
        <technique sid="common">
          <phong>
            <emission>
              <color sid="emission">0 0 0 1</color>
            </emission>
            <ambient>
              <color sid="ambient">0 0 0 1</color>
            </ambient>
            <diffuse>
              <texture texture="PBRFULL_TopWindowGlass-material_Base_Color_jpg-sampler"/>
            </diffuse>
            <specular>
              <color sid="specular">0.5 0.5 0.5 1</color>
            </specular>
            <shininess>
              <float sid="shininess">50</float>
            </shininess>
            <transparency>
              <float sid="transparency">0.4021739</float>
            </transparency>
            <index_of_refraction>
              <float sid="index_of_refraction">1</float>
            </index_of_refraction>
          </phong>
        </technique>
      </profile_COMMON>
    </effect>
    <effect id="PBRFULL_TopWindowBorder-effect">
      <profile_COMMON>
        <newparam sid="PBRFULL_TopWindowBorder-material_Base_Color_jpg-surface">
          <surface type="2D">
            <init_from>PBRFULL_TopWindowBorder-material_Base_Color_jpg</init_from>
          </surface>
        </newparam>
        <newparam sid="PBRFULL_TopWindowBorder-material_Base_Color_jpg-sampler">
          <sampler2D>
            <source>PBRFULL_TopWindowBorder-material_Base_Color_jpg-surface</source>
          </sampler2D>
        </newparam>
        <technique sid="common">
          <phong>
            <emission>
              <color sid="emission">0 0 0 1</color>
            </emission>
            <ambient>
              <color sid="ambient">0 0 0 1</color>
            </ambient>
            <diffuse>
              <texture texture="PBRFULL_TopWindowBorder-material_Base_Color_jpg-sampler"/>
            </diffuse>
            <specular>
              <color sid="specular">0.5 0.5 0.5 1</color>
            </specular>
            <shininess>
              <float sid="shininess">50</float>
            </shininess>
            <index_of_refraction>
              <float sid="index_of_refraction">1</float>
            </index_of_refraction>
          </phong>
        </technique>
      </profile_COMMON>
    </effect>
  </library_effects>
  <library_materials>
    <material id="PBRFULL_TopWindowGlass-material" name="PBRFULL_TopWindowGlass">
      <instance_effect url="#PBRFULL_TopWindowGlass-effect"/>
    </material>
    <material id="PBRFULL_TopWindowBorder-material" name="PBRFULL_TopWindowBorder">
      <instance_effect url="#PBRFULL_TopWindowBorder-effect"/>
    </material>
  </library_materials>
  <library_geometries>
    <geometry id="Cube_005-mesh" name="Cube.005">
      <mesh>
        <source id="Cube_005-mesh-positions">
          <float_array id="Cube_005-mesh-positions-array" count="24">-4.594329 -1.913702 2.082717 -4.594329 0.08629775 2.032717 -4.594329 -1.913702 2.032717 -4.594329 0.08629775 2.082717 -2.655211 0.08629775 2.032717 -2.655211 -1.913702 2.082717 -2.655211 -1.913702 2.032717 -2.655211 0.08629775 2.082717</float_array>
          <technique_common>
            <accessor source="#Cube_005-mesh-positions-array" count="8" stride="3">
              <param name="X" type="float"/>
              <param name="Y" type="float"/>
              <param name="Z" type="float"/>
            </accessor>
          </technique_common>
        </source>
        <source id="Cube_005-mesh-normals">
          <float_array id="Cube_005-mesh-normals-array" count="12">0 0 -1 0 1 0 0 -1 0 0 0 1</float_array>
          <technique_common>
            <accessor source="#Cube_005-mesh-normals-array" count="4" stride="3">
              <param name="X" type="float"/>
              <param name="Y" type="float"/>
              <param name="Z" type="float"/>
            </accessor>
          </technique_common>
        </source>
        <source id="Cube_005-mesh-map-0">
          <float_array id="Cube_005-mesh-map-0-array" count="48">0.5025745 0.4974479 0.9974256 0.002552151 0.9974256 0.4974477 0.002574443 0.9974478 0.01544612 0.5025522 0.01544624 0.9974478 0.03346681 0.5025522 0.02059507 0.9974478 0.02059495 0.5025522 0.4974256 0.002552151 0.002574443 0.4974479 0.002574324 0.002552211 0.5025745 0.4974479 0.5025744 0.002552211 0.9974256 0.002552151 0.002574443 0.9974478 0.002574324 0.5025522 0.01544612 0.5025522 0.03346681 0.5025522 0.03346687 0.9974478 0.02059507 0.9974478 0.4974256 0.002552151 0.4974256 0.4974477 0.002574443 0.4974479</float_array>
          <technique_common>
            <accessor source="#Cube_005-mesh-map-0-array" count="24" stride="2">
              <param name="S" type="float"/>
              <param name="T" type="float"/>
            </accessor>
          </technique_common>
        </source>
        <vertices id="Cube_005-mesh-vertices">
          <input semantic="POSITION" source="#Cube_005-mesh-positions"/>
        </vertices>
        <polylist material="PBRFULL_TopWindowGlass-material" count="8">
          <input semantic="VERTEX" source="#Cube_005-mesh-vertices" offset="0"/>
          <input semantic="NORMAL" source="#Cube_005-mesh-normals" offset="1"/>
          <input semantic="TEXCOORD" source="#Cube_005-mesh-map-0" offset="2" set="0"/>
          <vcount>3 3 3 3 3 3 3 3 </vcount>
          <p>1 0 0 6 0 1 2 0 2 3 1 3 4 1 4 1 1 5 5 2 6 2 2 7 6 2 8 7 3 9 0 3 10 5 3 11 1 0 12 4 0 13 6 0 14 3 1 15 7 1 16 4 1 17 5 2 18 0 2 19 2 2 20 7 3 21 3 3 22 0 3 23</p>
        </polylist>
      </mesh>
    </geometry>
    <geometry id="Cube_003-mesh" name="Cube.003">
      <mesh>
        <source id="Cube_003-mesh-positions">
          <float_array id="Cube_003-mesh-positions-array" count="192">0.9700657 1 0.03759694 -0.9690528 -0.9732213 0.03759694 -0.9690528 1 0.03759694 0.9700657 -1 0.03759694 -1 0.9928642 0.03759694 1 -0.9928642 0.03759694 -0.9690528 -1 0.03759694 0.9700657 -0.9732213 0.03759694 -0.9690528 -0.9611141 0.02499997 -0.9690528 0.9611141 -0.02499997 -0.9690528 -0.9611141 -0.02499997 -0.9690528 0.9611141 0.02499997 0.9700657 0.9611141 -0.02499997 0.9700657 -0.9611141 0.02499997 0.9700657 -0.9611141 -0.02499997 0.9700657 0.9611141 0.02499997 -1 -0.9928642 -0.05803471 -1 -0.9928642 0.05803471 -1 0.9928642 0.05803471 -1 0.9928642 -0.05803471 0.9700657 1 0.06545907 1 0.9928642 0.05803471 1 0.9928642 -0.05803471 -0.9690528 1 -0.06545907 1 -0.9928642 0.05803471 1 -0.9928642 -0.05803471 -0.9690528 -1 0.06545907 0.9700657 -1 -0.06545907 -0.9690528 -1 -0.06545907 -0.9690528 1 0.06545907 0.9700657 1 -0.06545907 0.9700657 -1 0.06545907 1 0.9928642 0.03759694 -0.9690528 0.9732213 0.03759694 -1 -0.9928642 0.03759694 0.9700657 0.9732213 0.03759694 -1 -0.9928642 -0.04288411 0.9700657 -1 -0.04288387 -0.9690528 -1 -0.04288411 1 -0.9928642 -0.04288387 -1 0.9928642 -0.04288411 -0.9690528 1 -0.04288411 0.9700657 1 -0.04288387 0.9700657 0.9783026 -0.04288387 1 0.9928642 -0.04288387 -0.9690528 -0.9783028 -0.04288411 0.9700657 -0.9783026 -0.04288387 -0.9690528 0.9783028 -0.04288411 0.9403867 0.9732213 0.03759694 0.9403867 -0.9732213 0.03759694 0.9403867 -1 0.06545907 0.9403867 1 0.06545907 -0.9393737 -0.9732213 0.03759694 -0.9393737 0.9732213 0.03759694 -0.9393737 1 0.06545907 -0.9393737 -1 0.06545907 0.9403867 -0.9783026 -0.04288387 0.9403867 0.9783026 -0.04288387 0.9403867 1 -0.06545907 0.9403867 -1 -0.06545907 -0.9393737 0.9783028 -0.04288411 -0.9393737 -0.9783028 -0.04288411 -0.9393737 -1 -0.06545907 -0.9393737 1 -0.06545907</float_array>
          <technique_common>
            <accessor source="#Cube_003-mesh-positions-array" count="64" stride="3">
              <param name="X" type="float"/>
              <param name="Y" type="float"/>
              <param name="Z" type="float"/>
            </accessor>
          </technique_common>
        </source>
        <source id="Cube_003-mesh-normals">
          <float_array id="Cube_003-mesh-normals-array" count="177">-1 0 0 1 3.83202e-6 0 -1 -3.83202e-6 0 1 -1.91601e-6 0 -1 2.87402e-6 0 1 0 0 -0.2246849 0.9744315 0 0.2318853 -0.9727432 0 -0.2332851 0 -0.9724084 0.2407289 0 0.9705925 -0.224684 -0.9744317 0 -0.2332854 0 0.9724084 0.2407292 0 -0.9705923 0.2318849 0.9727433 0 -0.2246848 -0.9744316 0 -0.224684 0.9744318 0 0.2318854 -0.9727432 0 0.2318853 0.9727432 0 0.2318849 -0.9727432 0 -0.224684 -0.9744318 0 -0.2246845 0.9744316 0 0.2318854 0.9727432 0 0 0 -1 0 -0.7209848 -0.6929509 0 0 1 0 0.7209848 -0.6929509 0 0 -1 0 0.7209864 -0.6929493 0 0 1 0 0.7209863 0.6929494 0 -0.7209843 0.6929515 0 -0.7209845 0.6929513 0 0.7209845 0.6929513 -1 0 0 1 1.36705e-6 0 1 -1.19035e-6 0 -1 -1.32231e-6 0 1 2.3807e-6 0 -1 -1.14953e-6 0 1 0 0 -0.2246845 0.9744316 0 0.2318843 -0.9727435 0 -0.2332854 0 -0.9724084 0.2407292 0 0.9705923 -0.2246847 -0.9744315 0 -0.2332851 0 0.9724084 0.2407289 0 -0.9705924 0.2318849 0.9727432 0 -0.2246843 -0.9744317 0 -0.2246853 0.9744315 0 0.2318841 -0.9727435 0 0.2318843 0.9727435 0 0.2318849 -0.9727433 0 -0.2246853 -0.9744315 0 -0.224684 0.9744317 0 0.2318841 0.9727435 0 0 -0.7209864 -0.6929493 0 0.7209843 0.6929515 0 -0.7209863 0.6929494</float_array>
          <technique_common>
            <accessor source="#Cube_003-mesh-normals-array" count="59" stride="3">
              <param name="X" type="float"/>
              <param name="Y" type="float"/>
              <param name="Z" type="float"/>
            </accessor>
          </technique_common>
        </source>
        <source id="Cube_003-mesh-map-0">
          <float_array id="Cube_003-mesh-map-0-array" count="696">0.0285741 0.004950463 0.0285741 0.01820725 0.007546842 0.004950463 0.07581526 0.02420085 0.08931219 0.9843083 0.07581537 0.9757991 0.1519773 0.02420085 0.1424706 0.004950463 0.1897117 0.02420085 0.03808087 0.02420085 0.0285741 0.004950463 0.07581526 0.02420085 0.1897116 0.9757991 0.1424704 0.9950495 0.1519772 0.9757991 0.07581537 0.9757991 0.02857422 0.9950495 0.03808104 0.9757991 0.03808104 0.9757991 0.0285741 0.01820725 0.03808087 0.02420085 0.1897117 0.02420085 0.2032085 0.9843084 0.1897116 0.9757991 0.1519772 0.9757991 0.1424706 0.01820725 0.1519773 0.02420085 0.2353395 0.004950463 0.2507638 0.9879844 0.2353397 0.9879844 0.9690976 0.01004827 0.9924531 0.01489514 0.9690976 0.01734298 0.3380297 0.004950463 0.3534537 0.9879844 0.3380296 0.9879844 0.6224982 0.01004832 0.6450893 0.01489514 0.6224982 0.01734304 0.5616505 0.01004832 0.5850061 0.6910399 0.5616505 0.6912419 0.5015603 0.008483111 0.5241584 0.9950494 0.5015603 0.991517 0.5850061 0.6990975 0.5616505 0.6912419 0.5850061 0.6910399 0.4640681 0.9950494 0.4407196 0.008482992 0.4640681 0.004950463 0.6450894 0.7377677 0.6224983 0.05147624 0.6450893 0.05167824 0.9916886 0.06963688 0.9690976 0.06178128 0.9916886 0.06157922 0.02857422 0.9817927 0.02857422 0.9950495 0.007546961 0.9950495 0.2507637 0.004950463 0.3115019 0.9879844 0.2507638 0.9879844 0.3534538 0.004950463 0.4141916 0.9879844 0.3534537 0.9879844 0.5850061 0.727823 0.5616505 0.7326698 0.5616505 0.7253751 0.1424706 0.004950463 0.1424706 0.01820725 0.1214433 0.004950463 0.1424704 0.9817927 0.1424704 0.9950495 0.1214432 0.9950495 0.9690976 0.01734298 0.9924531 0.0436207 0.9690976 0.0460686 0.6450893 0.01489514 0.6224983 0.04606854 0.6224982 0.01734304 0.9916886 0.09836232 0.9690976 0.1032091 0.9690976 0.09591442 0.6450893 0.04362064 0.6224983 0.05147624 0.6224983 0.04606854 0.08931207 0.01569175 0.08931207 0.004950463 0.1063493 0.004950463 0.08931219 0.9950495 0.08931219 0.9843083 0.1063494 0.9950495 0.5616505 0.6966496 0.5850061 0.727823 0.5616505 0.7253751 0.4141917 0.004950463 0.4256257 0.9879844 0.4141916 0.9879844 0.9924531 0.0436207 0.9690976 0.05147618 0.9690976 0.0460686 0.2032086 0.01569163 0.2032086 0.004950463 0.2202457 0.004950463 0.2032085 0.9950495 0.2032085 0.9843084 0.2202457 0.9950495 0.9690976 0.06718897 0.9916886 0.09836232 0.9690976 0.09591442 0.3115017 0.004950463 0.3229358 0.9879844 0.3115019 0.9879844 0.778636 0.9817927 0.7576086 0.004950463 0.7786359 0.01820725 0.9165115 0.02408146 0.8941132 0.6917982 0.8941131 0.02408146 0.9165115 0.004950463 0.8941131 0.02408146 0.8941131 0.004950463 0.5465567 0.004950523 0.5241584 0.9950494 0.5241583 0.004950463 0.9690976 0.1373389 0.991496 0.118208 0.991496 0.1373389 0.7937298 0.01820725 0.8147572 0.9950495 0.7937299 0.9817928 0.9316055 0.6917982 0.9540038 0.02408146 0.9540038 0.6917982 0.991496 0.1472399 0.9690976 0.1663709 0.9690976 0.1472399 0.4864665 0.004950463 0.4640681 0.9950494 0.4640681 0.004950463 0.9316054 0.02408146 0.9540038 0.004950463 0.9540038 0.02408146 0.8298509 0.01569175 0.8468883 0.9950495 0.829851 0.9843083 0.7050014 0.01569163 0.682603 0.9843081 0.6826031 0.01569169 0.7049801 0.004950463 0.6826031 0.01569169 0.6825817 0.004950523 0.6674877 0.05167824 0.6450894 0.7377677 0.6450893 0.05167824 0.7050014 0.984308 0.6825816 0.9950495 0.682603 0.9843081 0.8619822 0.01569163 0.8790193 0.9950495 0.8619821 0.9843083 0.7424935 0.01569181 0.7200951 0.9843084 0.7200951 0.01569187 0.7425149 0.004950523 0.7200951 0.01569187 0.7201164 0.004950463 0.6074044 0.004950463 0.5850061 0.6910399 0.5850061 0.004950463 0.7424936 0.9843084 0.7201165 0.9950495 0.7200951 0.9843084 0.07581526 0.02420085 0.08931207 0.01569175 0.08931219 0.9843083 0.2032086 0.01569163 0.1897117 0.02420085 0.2032086 0.004950463 0.1519773 0.02420085 0.1424706 0.01820725 0.1424706 0.004950463 0.1424706 0.004950463 0.2032086 0.004950463 0.1897117 0.02420085 0.08931207 0.01569175 0.07581526 0.02420085 0.08931207 0.004950463 0.03808087 0.02420085 0.0285741 0.01820725 0.0285741 0.004950463 0.0285741 0.004950463 0.08931207 0.004950463 0.07581526 0.02420085 0.1424704 0.9817927 0.1519772 0.9757991 0.1424704 0.9950495 0.1897116 0.9757991 0.2032085 0.9843084 0.2032085 0.9950495 0.2032085 0.9950495 0.1424704 0.9950495 0.1897116 0.9757991 0.02857422 0.9817927 0.03808104 0.9757991 0.02857422 0.9950495 0.07581537 0.9757991 0.08931219 0.9843083 0.08931219 0.9950495 0.08931219 0.9950495 0.02857422 0.9950495 0.07581537 0.9757991 0.03808104 0.9757991 0.02857422 0.9817927 0.0285741 0.01820725 0.1897117 0.02420085 0.2032086 0.01569163 0.2032085 0.9843084 0.1519772 0.9757991 0.1424704 0.9817927 0.1424706 0.01820725 0.2353395 0.004950463 0.2507637 0.004950463 0.2507638 0.9879844 0.9690976 0.01004827 0.9924531 0.004950463 0.9924531 0.01489514 0.3380297 0.004950463 0.3534538 0.004950463 0.3534537 0.9879844 0.6224982 0.01004832 0.6450893 0.004950463 0.6450893 0.01489514 0.5616505 0.01004832 0.5850061 0.004950463 0.5850061 0.6910399 0.5015603 0.008483111 0.5241583 0.004950463 0.5241584 0.9950494 0.5850061 0.6990975 0.5616505 0.6966496 0.5616505 0.6912419 0.4640681 0.9950494 0.4407198 0.9915168 0.4407196 0.008482992 0.6450894 0.7377677 0.6224983 0.7326698 0.6224983 0.05147624 0.9916886 0.06963688 0.9690976 0.06718897 0.9690976 0.06178128 0.2507637 0.004950463 0.3115017 0.004950463 0.3115019 0.9879844 0.3534538 0.004950463 0.4141917 0.004950463 0.4141916 0.9879844 0.5850061 0.727823 0.5850061 0.7377677 0.5616505 0.7326698 0.9690976 0.01734298 0.9924531 0.01489514 0.9924531 0.0436207 0.6450893 0.01489514 0.6450893 0.04362064 0.6224983 0.04606854 0.9916886 0.09836232 0.9916886 0.108307 0.9690976 0.1032091 0.6450893 0.04362064 0.6450893 0.05167824 0.6224983 0.05147624 0.5616505 0.6966496 0.5850061 0.6990975 0.5850061 0.727823 0.4141917 0.004950463 0.4256259 0.004950463 0.4256257 0.9879844 0.9924531 0.0436207 0.9924531 0.05167824 0.9690976 0.05147618 0.9690976 0.06718897 0.9916886 0.06963688 0.9916886 0.09836232 0.3115017 0.004950463 0.3229357 0.004950463 0.3229358 0.9879844 0.778636 0.9817927 0.7576088 0.9950495 0.7576086 0.004950463 0.9165115 0.02408146 0.9165117 0.6917982 0.8941132 0.6917982 0.9165115 0.004950463 0.9165115 0.02408146 0.8941131 0.02408146 0.5465567 0.004950523 0.5465568 0.9950494 0.5241584 0.9950494 0.9690976 0.1373389 0.9690976 0.118208 0.991496 0.118208 0.7937298 0.01820725 0.8147571 0.004950463 0.8147572 0.9950495 0.9316055 0.6917982 0.9316054 0.02408146 0.9540038 0.02408146 0.991496 0.1472399 0.991496 0.1663709 0.9690976 0.1663709 0.4864665 0.004950463 0.4864665 0.9950494 0.4640681 0.9950494 0.9316054 0.02408146 0.9316054 0.004950463 0.9540038 0.004950463 0.8298509 0.01569175 0.8468882 0.004950463 0.8468883 0.9950495 0.7050014 0.01569163 0.7050014 0.984308 0.682603 0.9843081 0.7049801 0.004950463 0.7050014 0.01569163 0.6826031 0.01569169 0.6674877 0.05167824 0.6674878 0.7377677 0.6450894 0.7377677 0.7050014 0.984308 0.70498 0.9950494 0.6825816 0.9950495 0.8619822 0.01569163 0.8790193 0.004950463 0.8790193 0.9950495 0.7424935 0.01569181 0.7424936 0.9843084 0.7200951 0.9843084 0.7425149 0.004950523 0.7424935 0.01569181 0.7200951 0.01569187 0.6074044 0.004950463 0.6074044 0.6910399 0.5850061 0.6910399 0.7424936 0.9843084 0.7425149 0.9950495 0.7201165 0.9950495</float_array>
          <technique_common>
            <accessor source="#Cube_003-mesh-map-0-array" count="348" stride="2">
              <param name="S" type="float"/>
              <param name="T" type="float"/>
            </accessor>
          </technique_common>
        </source>
        <vertices id="Cube_003-mesh-vertices">
          <input semantic="POSITION" source="#Cube_003-mesh-positions"/>
        </vertices>
        <polylist material="PBRFULL_TopWindowBorder-material" count="116">
          <input semantic="VERTEX" source="#Cube_003-mesh-vertices" offset="0"/>
          <input semantic="NORMAL" source="#Cube_003-mesh-normals" offset="1"/>
          <input semantic="TEXCOORD" source="#Cube_003-mesh-map-0" offset="2" set="0"/>
          <vcount>3 3 3 3 3 3 3 3 3 3 3 3 3 3 3 3 3 3 3 3 3 3 3 3 3 3 3 3 3 3 3 3 3 3 3 3 3 3 3 3 3 3 3 3 3 3 3 3 3 3 3 3 3 3 3 3 3 3 3 3 3 3 3 3 3 3 3 3 3 3 3 3 3 3 3 3 3 3 3 3 3 3 3 3 3 3 3 3 3 3 3 3 3 3 3 3 3 3 3 3 3 3 3 3 3 3 3 3 3 3 3 3 3 3 3 3 </vcount>
          <p>0 0 0 35 0 1 20 0 2 12 0 3 46 0 4 14 0 5 8 1 6 6 1 7 10 1 8 15 2 9 0 2 10 12 2 11 9 3 12 2 3 13 11 3 14 14 4 15 3 4 16 13 4 17 13 0 18 35 0 19 15 0 20 10 5 21 47 5 22 9 5 23 11 5 24 1 5 25 8 5 26 18 0 27 34 0 28 17 0 29 18 6 30 2 6 31 4 6 32 24 5 33 32 5 34 21 5 35 24 7 36 3 7 37 5 7 38 19 8 39 28 8 40 16 8 41 21 9 42 31 9 43 24 9 44 38 10 45 16 10 46 28 10 47 29 11 48 17 11 49 26 11 50 30 12 51 25 12 52 27 12 53 42 13 54 22 13 55 30 13 56 7 0 57 3 0 58 31 0 59 4 0 60 36 0 61 34 0 62 5 5 63 44 5 64 32 5 65 6 14 66 17 14 67 34 14 68 6 5 69 1 5 70 26 5 71 33 5 72 2 5 73 29 5 74 4 15 75 41 15 76 40 15 77 3 16 78 39 16 79 5 16 80 0 17 81 21 17 82 32 17 83 37 18 84 25 18 85 39 18 86 43 0 87 42 0 88 30 0 89 37 0 90 46 0 91 27 0 92 36 19 93 6 19 94 34 19 95 39 5 96 22 5 97 44 5 98 41 20 99 19 20 100 40 20 101 45 5 102 38 5 103 28 5 104 41 5 105 47 5 106 23 5 107 44 21 108 0 21 109 32 21 110 40 0 111 16 0 112 36 0 113 49 0 114 51 0 115 48 0 116 49 22 117 35 22 118 7 22 119 50 23 120 7 23 121 31 23 122 51 24 123 31 24 124 20 24 125 48 25 126 20 25 127 35 25 128 53 5 129 55 5 130 52 5 131 53 26 132 1 26 133 33 26 134 54 27 135 33 27 136 29 27 137 55 24 138 29 24 139 26 24 140 52 23 141 26 23 142 1 23 143 57 0 144 59 0 145 56 0 146 57 28 147 46 28 148 43 28 149 58 29 150 43 29 151 30 29 152 59 22 153 30 22 154 27 22 155 56 30 156 27 30 157 46 30 158 61 5 159 63 5 160 60 5 161 61 24 162 47 24 163 45 24 164 62 31 165 45 31 166 28 31 167 63 22 168 28 22 169 23 22 170 60 32 171 23 32 172 47 32 173 12 33 174 43 33 175 46 33 176 45 5 177 10 5 178 38 5 179 8 34 180 1 34 181 6 34 182 6 35 183 38 35 184 10 35 185 43 0 186 12 0 187 42 0 188 15 36 189 35 36 190 0 36 191 0 0 192 42 0 193 12 0 194 33 5 195 11 5 196 2 5 197 9 5 198 47 5 199 41 5 200 41 37 201 2 37 202 9 37 203 7 0 204 13 0 205 3 0 206 14 38 207 46 38 208 37 38 209 37 0 210 3 0 211 14 0 212 13 0 213 7 0 214 35 0 215 10 5 216 45 5 217 47 5 218 11 39 219 33 39 220 1 39 221 18 0 222 4 0 223 34 0 224 18 40 225 29 40 226 2 40 227 24 5 228 5 5 229 32 5 230 24 41 231 31 41 232 3 41 233 19 42 234 23 42 235 28 42 236 21 43 237 20 43 238 31 43 239 38 44 240 36 44 241 16 44 242 29 45 243 18 45 244 17 45 245 30 46 246 22 46 247 25 46 248 42 47 249 44 47 250 22 47 251 4 0 252 40 0 253 36 0 254 5 5 255 39 5 256 44 5 257 6 48 258 26 48 259 17 48 260 4 49 261 2 49 262 41 49 263 3 50 264 37 50 265 39 50 266 0 51 267 20 51 268 21 51 269 37 52 270 27 52 271 25 52 272 36 53 273 38 53 274 6 53 275 39 5 276 25 5 277 22 5 278 41 54 279 23 54 280 19 54 281 44 55 282 42 55 283 0 55 284 40 0 285 19 0 286 16 0 287 49 0 288 50 0 289 51 0 290 49 22 291 48 22 292 35 22 293 50 23 294 49 23 295 7 23 296 51 24 297 50 24 298 31 24 299 48 25 300 51 25 301 20 25 302 53 5 303 54 5 304 55 5 305 53 26 306 52 26 307 1 26 308 54 25 309 53 25 310 33 25 311 55 24 312 54 24 313 29 24 314 52 56 315 55 56 316 26 56 317 57 0 318 58 0 319 59 0 320 57 28 321 56 28 322 46 28 323 58 57 324 57 57 325 43 57 326 59 22 327 58 22 328 30 22 329 56 58 330 59 58 331 27 58 332 61 5 333 62 5 334 63 5 335 61 24 336 60 24 337 47 24 338 62 31 339 61 31 340 45 31 341 63 22 342 62 22 343 28 22 344 60 32 345 63 32 346 23 32 347</p>
        </polylist>
      </mesh>
    </geometry>
  </library_geometries>
  <library_controllers/>
  <library_visual_scenes>
    <visual_scene id="Scene" name="Scene">
      <node id="topwindow" name="topwindow" type="NODE">
        <matrix sid="transform">1 0 0 0 0 1 0 0 0 0 1 0 0 0 0 1</matrix>
        <instance_geometry url="#Cube_003-mesh" name="topwindow">
          <bind_material>
            <technique_common>
              <instance_material symbol="PBRFULL_TopWindowBorder-material" target="#PBRFULL_TopWindowBorder-material"/>
            </technique_common>
          </bind_material>
        </instance_geometry>
        <node id="topwindowglass" name="topwindowglass" type="NODE">
          <matrix sid="transform">1 0 0 3.625277 0 1 0 0.9137022 0 0 1 -2.057717 0 0 0 1</matrix>
          <instance_geometry url="#Cube_005-mesh" name="topwindowglass">
            <bind_material>
              <technique_common>
                <instance_material symbol="PBRFULL_TopWindowGlass-material" target="#PBRFULL_TopWindowGlass-material"/>
              </technique_common>
            </bind_material>
          </instance_geometry>
        </node>
      </node>
    </visual_scene>
  </library_visual_scenes>
  <scene>
    <instance_visual_scene url="#Scene"/>
  </scene>
</COLLADA>