<?xml version="1.0" encoding="utf-8"?>
<COLLADA xmlns="http://www.collada.org/2005/11/COLLADASchema" version="1.4.1">
  <asset>
    <contributor>
      <author>Blender User</author>
      <authoring_tool>Blender 2.77.0 commit date:2016-04-05, commit time:18:12, hash:abf6f08</authoring_tool>
    </contributor>
    <created>2017-08-07T15:05:26</created>
    <modified>2017-08-07T15:05:26</modified>
    <unit name="meter" meter="1"/>
    <up_axis>Z_UP</up_axis>
  </asset>
  <library_images>
    <image id="PBRFULL_PlaygroundSurface-material_Base_Color_jpg" name="PBRFULL_PlaygroundSurface-material_Base_Color_jpg">
      <init_from>PBRFULL_PlaygroundSurface-material_Base_Color.jpg</init_from>
    </image>
    <image id="PBRFULL_PlaygroundSupport-material_Base_Color_jpg" name="PBRFULL_PlaygroundSupport-material_Base_Color_jpg">
      <init_from>PBRFULL_PlaygroundSupport-material_Base_Color.jpg</init_from>
    </image>
  </library_images>
  <library_effects>
    <effect id="PBRFULL_PlaygroundSurface-effect">
      <profile_COMMON>
        <newparam sid="PBRFULL_PlaygroundSurface-material_Base_Color_jpg-surface">
          <surface type="2D">
            <init_from>PBRFULL_PlaygroundSurface-material_Base_Color_jpg</init_from>
          </surface>
        </newparam>
        <newparam sid="PBRFULL_PlaygroundSurface-material_Base_Color_jpg-sampler">
          <sampler2D>
            <source>PBRFULL_PlaygroundSurface-material_Base_Color_jpg-surface</source>
          </sampler2D>
        </newparam>
        <technique sid="common">
          <phong>
            <emission>
              <color sid="emission">0 0 0 1</color>
            </emission>
            <ambient>
              <color sid="ambient">0 0 0 1</color>
            </ambient>
            <diffuse>
              <texture texture="PBRFULL_PlaygroundSurface-material_Base_Color_jpg-sampler"/>
            </diffuse>
            <specular>
              <color sid="specular">0.5 0.5 0.5 1</color>
            </specular>
            <shininess>
              <float sid="shininess">50</float>
            </shininess>
            <index_of_refraction>
              <float sid="index_of_refraction">1</float>
            </index_of_refraction>
          </phong>
        </technique>
      </profile_COMMON>
    </effect>
    <effect id="PBRFULL_PlaygroundSupport-effect">
      <profile_COMMON>
        <newparam sid="PBRFULL_PlaygroundSupport-material_Base_Color_jpg-surface">
          <surface type="2D">
            <init_from>PBRFULL_PlaygroundSupport-material_Base_Color_jpg</init_from>
          </surface>
        </newparam>
        <newparam sid="PBRFULL_PlaygroundSupport-material_Base_Color_jpg-sampler">
          <sampler2D>
            <source>PBRFULL_PlaygroundSupport-material_Base_Color_jpg-surface</source>
          </sampler2D>
        </newparam>
        <technique sid="common">
          <phong>
            <emission>
              <color sid="emission">0 0 0 1</color>
            </emission>
            <ambient>
              <color sid="ambient">0 0 0 1</color>
            </ambient>
            <diffuse>
              <texture texture="PBRFULL_PlaygroundSupport-material_Base_Color_jpg-sampler"/>
            </diffuse>
            <specular>
              <color sid="specular">0.5 0.5 0.5 1</color>
            </specular>
            <shininess>
              <float sid="shininess">50</float>
            </shininess>
            <index_of_refraction>
              <float sid="index_of_refraction">1</float>
            </index_of_refraction>
          </phong>
        </technique>
      </profile_COMMON>
    </effect>
  </library_effects>
  <library_materials>
    <material id="PBRFULL_PlaygroundSurface-material" name="PBRFULL_PlaygroundSurface">
      <instance_effect url="#PBRFULL_PlaygroundSurface-effect"/>
    </material>
    <material id="PBRFULL_PlaygroundSupport-material" name="PBRFULL_PlaygroundSupport">
      <instance_effect url="#PBRFULL_PlaygroundSupport-effect"/>
    </material>
  </library_materials>
  <library_geometries>
    <geometry id="top-mesh" name="top">
      <mesh>
        <source id="top-mesh-positions">
          <float_array id="top-mesh-positions-array" count="12">-3.408908 -6.414935 0.3400926 -3.408908 6.414935 0.3400926 3.408908 -6.414935 0.3400926 3.408908 6.414935 0.3400926</float_array>
          <technique_common>
            <accessor source="#top-mesh-positions-array" count="4" stride="3">
              <param name="X" type="float"/>
              <param name="Y" type="float"/>
              <param name="Z" type="float"/>
            </accessor>
          </technique_common>
        </source>
        <source id="top-mesh-normals">
          <float_array id="top-mesh-normals-array" count="3">0 0 1</float_array>
          <technique_common>
            <accessor source="#top-mesh-normals-array" count="1" stride="3">
              <param name="X" type="float"/>
              <param name="Y" type="float"/>
              <param name="Z" type="float"/>
            </accessor>
          </technique_common>
        </source>
        <source id="top-mesh-map-0">
          <float_array id="top-mesh-map-0-array" count="12">0.9999249 0.563927 7.50844e-5 7.51189e-5 0.9999249 7.50844e-5 0.9999249 0.563927 7.50844e-5 0.5639271 7.50844e-5 7.51189e-5</float_array>
          <technique_common>
            <accessor source="#top-mesh-map-0-array" count="6" stride="2">
              <param name="S" type="float"/>
              <param name="T" type="float"/>
            </accessor>
          </technique_common>
        </source>
        <vertices id="top-mesh-vertices">
          <input semantic="POSITION" source="#top-mesh-positions"/>
        </vertices>
        <polylist material="PBRFULL_PlaygroundSurface-material" count="2">
          <input semantic="VERTEX" source="#top-mesh-vertices" offset="0"/>
          <input semantic="NORMAL" source="#top-mesh-normals" offset="1"/>
          <input semantic="TEXCOORD" source="#top-mesh-map-0" offset="2" set="0"/>
          <vcount>3 3 </vcount>
          <p>1 0 0 2 0 1 3 0 2 1 0 3 0 0 4 2 0 5</p>
        </polylist>
      </mesh>
    </geometry>
    <geometry id="support-mesh" name="support">
      <mesh>
        <source id="support-mesh-positions">
          <float_array id="support-mesh-positions-array" count="60">-3.023746 -5.984058 0.2298017 -3.023746 5.984058 0.2298017 3.023746 -5.984058 0.2298017 3.023746 5.984058 0.2298017 -3.408908 -6.414935 0.3400926 -3.5 -6.5 0.301206 -3.408908 6.414935 0.3400926 -3.5 6.5 0.301206 3.408908 -6.414935 0.3400926 3.5 -6.5 0.301206 3.408908 6.414935 0.3400926 3.5 6.5 0.301206 -3.5 6.5 0.2298017 -3.5 -6.5 0.2298017 3.5 6.5 0.2298017 3.5 -6.5 0.2298017 -3.023746 5.984058 0.01905703 -3.023746 -5.984058 0.01905703 3.023746 5.984058 0.01905703 3.023746 -5.984058 0.01905703</float_array>
          <technique_common>
            <accessor source="#support-mesh-positions-array" count="20" stride="3">
              <param name="X" type="float"/>
              <param name="Y" type="float"/>
              <param name="Z" type="float"/>
            </accessor>
          </technique_common>
        </source>
        <source id="support-mesh-normals">
          <float_array id="support-mesh-normals-array" count="45">1 0 0 -1 0 0 0 1 0 -0.3926148 0 0.9197031 0 0.4157606 0.9094742 0.3926148 0 0.9197031 0 -0.4157606 0.9094742 0 -1 0 0 0 -1 0 0 -1 0 0 -1 -0.3926151 0 0.919703 0 0.4157552 0.9094765 0.3926151 0 0.919703 0 -0.4157552 0.9094765</float_array>
          <technique_common>
            <accessor source="#support-mesh-normals-array" count="15" stride="3">
              <param name="X" type="float"/>
              <param name="Y" type="float"/>
              <param name="Z" type="float"/>
            </accessor>
          </technique_common>
        </source>
        <source id="support-mesh-map-0">
          <float_array id="support-mesh-map-0-array" count="204">0.9930202 0.6702175 0.9965099 0 0.9965101 0.6702175 0.9965101 0.6702175 1 0 1 0.6702175 0.9724195 0 0.9827198 0.6170186 0.9724197 0.6170186 0.6915202 1 0.69501 0.6170185 0.69501 1 0.667464 0.00438553 0.6709198 0.6702175 0.6674641 0.6658319 0.3539103 0.00438559 0.6709197 0 0.667464 0.00438553 0.3539105 0.6658321 0.3489873 1.36965e-7 0.3539103 0.00438559 0.6674641 0.6658319 0.3489874 0.6702176 0.3539105 0.6658321 0.6984999 0.6170185 0.6950101 1 0.69501 0.6170185 0.02374374 0.6436179 0 0 0.0237438 0.0265994 0.0237438 0.0265994 0.3489873 0 0.3252435 0.02659946 0.3252435 0.02659946 0.3489873 0.6702175 0.3252435 0.643618 0.3252435 0.643618 0 0.6702174 0.02374374 0.6436179 0.9724196 0 0.6709198 0.6170185 0.6709198 0 0.9827198 0 0.99302 0.6170186 0.9827198 0.6170186 0.68122 0.9478868 0.6709198 0.6170185 0.6812199 0.6170185 0.6812199 0.6170185 0.6915201 0.9478868 0.68122 0.9478868 0.9930202 0.6702175 0.99302 0 0.9965099 0 0.9965101 0.6702175 0.99651 0 1 0 0.9724195 0 0.9827197 0 0.9827198 0.6170186 0.6915202 1 0.6915201 0.6170185 0.69501 0.6170185 0.667464 0.00438553 0.6709197 0 0.6709198 0.6702175 0.3539103 0.00438559 0.3489873 1.36965e-7 0.6709197 0 0.3539105 0.6658321 0.3489874 0.6702176 0.3489873 1.36965e-7 0.6674641 0.6658319 0.6709198 0.6702175 0.3489874 0.6702176 0.6984999 0.6170185 0.6984999 1 0.6950101 1 0.02374374 0.6436179 0 0.6702174 0 0 0.0237438 0.0265994 0 0 0.3489873 0 0.3252435 0.02659946 0.3489873 0 0.3489873 0.6702175 0.3252435 0.643618 0.3489873 0.6702175 0 0.6702174 0.9724196 0 0.9724195 0.6170185 0.6709198 0.6170185 0.9827198 0 0.9930199 0 0.99302 0.6170186 0.68122 0.9478868 0.6709198 0.9478868 0.6709198 0.6170185 0.6812199 0.6170185 0.6915201 0.6170185 0.6915201 0.9478868</float_array>
          <technique_common>
            <accessor source="#support-mesh-map-0-array" count="102" stride="2">
              <param name="S" type="float"/>
              <param name="T" type="float"/>
            </accessor>
          </technique_common>
        </source>
        <vertices id="support-mesh-vertices">
          <input semantic="POSITION" source="#support-mesh-positions"/>
        </vertices>
        <polylist material="PBRFULL_PlaygroundSupport-material" count="34">
          <input semantic="VERTEX" source="#support-mesh-vertices" offset="0"/>
          <input semantic="NORMAL" source="#support-mesh-normals" offset="1"/>
          <input semantic="TEXCOORD" source="#support-mesh-map-0" offset="2" set="0"/>
          <vcount>3 3 3 3 3 3 3 3 3 3 3 3 3 3 3 3 3 3 3 3 3 3 3 3 3 3 3 3 3 3 3 3 3 3 </vcount>
          <p>11 0 0 15 0 1 14 0 2 5 1 3 12 1 4 13 1 5 2 0 6 18 0 7 3 0 8 7 2 9 14 2 10 12 2 11 6 3 12 5 3 13 4 3 14 10 4 15 7 4 16 6 4 17 8 5 18 11 5 19 10 5 20 4 6 21 9 6 22 8 6 23 9 7 24 13 7 25 15 7 26 0 8 27 12 8 28 1 8 29 1 9 30 14 9 31 3 9 32 3 10 33 15 10 34 2 10 35 2 9 36 13 9 37 0 9 38 18 9 39 17 9 40 16 9 41 1 1 42 17 1 43 0 1 44 0 7 45 19 7 46 2 7 47 3 2 48 16 2 49 1 2 50 11 0 51 9 0 52 15 0 53 5 1 54 7 1 55 12 1 56 2 0 57 19 0 58 18 0 59 7 2 60 11 2 61 14 2 62 6 11 63 7 11 64 5 11 65 10 12 66 11 12 67 7 12 68 8 13 69 9 13 70 11 13 71 4 14 72 5 14 73 9 14 74 9 7 75 5 7 76 13 7 77 0 9 78 13 9 79 12 9 80 1 9 81 12 9 82 14 9 83 3 9 84 14 9 85 15 9 86 2 9 87 15 9 88 13 9 89 18 9 90 19 9 91 17 9 92 1 1 93 16 1 94 17 1 95 0 7 96 17 7 97 19 7 98 3 2 99 18 2 100 16 2 101</p>
        </polylist>
      </mesh>
    </geometry>
  </library_geometries>
  <library_controllers/>
  <library_visual_scenes>
    <visual_scene id="Scene" name="Scene">
      <node id="Playground_support" name="Playground_support" type="NODE">
        <matrix sid="transform">1 0 0 0 0 1 0 0 0 0 1 0 0 0 0 1</matrix>
        <instance_geometry url="#support-mesh" name="Playground_support">
          <bind_material>
            <technique_common>
              <instance_material symbol="PBRFULL_PlaygroundSupport-material" target="#PBRFULL_PlaygroundSupport-material"/>
            </technique_common>
          </bind_material>
        </instance_geometry>
        <node id="Playground__top" name="Playground__top" type="NODE">
          <matrix sid="transform">1 0 0 0 0 1 0 0 0 0 1 0 0 0 0 1</matrix>
          <instance_geometry url="#top-mesh" name="Playground__top">
            <bind_material>
              <technique_common>
                <instance_material symbol="PBRFULL_PlaygroundSurface-material" target="#PBRFULL_PlaygroundSurface-material"/>
              </technique_common>
            </bind_material>
          </instance_geometry>
        </node>
      </node>
    </visual_scene>
  </library_visual_scenes>
  <scene>
    <instance_visual_scene url="#Scene"/>
  </scene>
</COLLADA>