<?xml version="1.0" encoding="utf-8"?>
<COLLADA xmlns="http://www.collada.org/2005/11/COLLADASchema" version="1.4.1">
  <asset>
    <contributor>
      <author>Blender User</author>
      <authoring_tool>Blender 2.77.0 commit date:2016-04-05, commit time:18:12, hash:abf6f08</authoring_tool>
    </contributor>
    <created>2017-08-11T10:34:06</created>
    <modified>2017-08-11T10:34:06</modified>
    <unit name="meter" meter="1"/>
    <up_axis>Z_UP</up_axis>
  </asset>
  <library_images>
    <image id="PBRFULL_Stairs-material_Base_Color_jpg" name="PBRFULL_Stairs-material_Base_Color_jpg">
      <init_from>PBRFULL_Stairs-material_Base_Color.jpg</init_from>
    </image>
  </library_images>
  <library_effects>
    <effect id="PBRFULL_Stairs-effect">
      <profile_COMMON>
        <newparam sid="PBRFULL_Stairs-material_Base_Color_jpg-surface">
          <surface type="2D">
            <init_from>PBRFULL_Stairs-material_Base_Color_jpg</init_from>
          </surface>
        </newparam>
        <newparam sid="PBRFULL_Stairs-material_Base_Color_jpg-sampler">
          <sampler2D>
            <source>PBRFULL_Stairs-material_Base_Color_jpg-surface</source>
          </sampler2D>
        </newparam>
        <technique sid="common">
          <phong>
            <emission>
              <color sid="emission">0 0 0 1</color>
            </emission>
            <ambient>
              <color sid="ambient">0 0 0 1</color>
            </ambient>
            <diffuse>
              <texture texture="PBRFULL_Stairs-material_Base_Color_jpg-sampler"/>
            </diffuse>
            <specular>
              <color sid="specular">0.5 0.5 0.5 1</color>
            </specular>
            <shininess>
              <float sid="shininess">50</float>
            </shininess>
            <index_of_refraction>
              <float sid="index_of_refraction">1</float>
            </index_of_refraction>
          </phong>
        </technique>
      </profile_COMMON>
    </effect>
  </library_effects>
  <library_materials>
    <material id="PBRFULL_Stairs-material" name="PBRFULL_Stairs">
      <instance_effect url="#PBRFULL_Stairs-effect"/>
    </material>
  </library_materials>
  <library_geometries>
    <geometry id="Cube_001-mesh" name="Cube.001">
      <mesh>
        <source id="Cube_001-mesh-positions">
          <float_array id="Cube_001-mesh-positions-array" count="264">0.5 -0.5 0 0.5 0.5 0 -0.5 0.5 0 -0.5 -0.5 0 0 -0.5 0.5 0 0.5 0.5 -0.5 0.5 1 0.5000001 -0.5 0.25 -0.25 0.5 1 0.125 0.5 0 0 -0.5 0.75 0.25 -0.5 0.5 0.5 0.5 0.25 0 0.5 0.75 0.25 0.5 0.5 -0.5 -0.5 1 -0.25 0.5000001 0.75 -0.25 -0.5000001 0.75 0.25 -0.5 0.25 -0.25 -0.5 1 0.25 0.5 0.25 -0.25 0.5 0.875 -0.5 0.5 0.9711039 -0.25 0.3769653 0.9711039 -0.5 -0.5 0.9711039 -0.4692413 -0.5 0.9711039 -0.5 -0.4692414 0.9711039 -0.4692414 0.5 0.971104 -0.25 0.5 0.9711039 -0.25 -0.5 0.9711039 -0.2627463 -0.5000001 0.7192112 -0.5 0.5 0.7192113 0 -0.5 0.7192113 0 0.5 0.7192113 0 -0.3470442 0.7192113 -0.5 -0.5 0.7192113 -0.2627463 0.5000001 0.7192112 -0.5 -0.2117611 0.7192113 -0.2117611 0.5000001 0.7192113 -0.211761 -0.5000001 0.7192112 0.008803606 0.5 0.4685106 -0.3450715 -0.5000001 0.4685106 -0.5 -0.5 0.4685107 -0.5 0.5 0.4685106 -0.3450715 0.5000001 0.4685105 0.25 -0.3591422 0.4685106 -0.5 0.03521436 0.4685107 0.25 0.5 0.4685106 0.25 -0.5 0.4685106 0.03521442 -0.5 0.4685107 0.03521436 0.5 0.4685108 -0.03521454 -0.5 0.4685106 -0.03521448 0.5 0.4685106 0.07259625 0.5 0.2152026 -0.5 -0.5 0.2152025 -0.4301284 -0.5 0.2152025 0.5 0.5 0.2152025 -0.5 0.5 0.2152025 -0.4301283 0.5 0.2152025 0.2298074 0.5 0.2152025 0.1288444 -0.5 0.2152025 -0.2903852 -0.5 0.2152025 0.2903851 -0.5 0.2152025 -0.5 0.2903851 0.2152025 0.5000001 -0.5 0.2152025 0.4394224 0.5 0.2152026 0.5 0.3384595 0.2152025 -0.290385 0.5 0.2152026 -0.2321131 0.5 1 -0.2321131 -0.5 1 0.5178869 -0.5 0.25 0.5178869 0.5 0.25 0.01788681 0.5 0.75 0.01788681 -0.5 0.75 0.2678868 0.5 0.5 0.2678868 -0.5 0.5 0.5178869 0.5 0.2152025 -0.2321131 -0.5 0.9711039 -0.2321131 0.3769653 0.9711039 -0.2321131 0.5 0.9711039 0.01788681 -0.5 0.7192113 0.01788681 0.5 0.7192113 0.01788681 -0.3470442 0.7192113 0.2678868 -0.3591422 0.4685106 0.2678868 0.5 0.4685106 0.2678868 -0.5 0.4685106 0.5178869 -0.5 0.2152025 0.5178869 0.3384595 0.2152025</float_array>
          <technique_common>
            <accessor source="#Cube_001-mesh-positions-array" count="88" stride="3">
              <param name="X" type="float"/>
              <param name="Y" type="float"/>
              <param name="Z" type="float"/>
            </accessor>
          </technique_common>
        </source>
        <source id="Cube_001-mesh-normals">
          <float_array id="Cube_001-mesh-normals-array" count="123">0 1 0 0 0 1 0 -1 0 2.38419e-7 -1 0 0 0 -1 0 1 -2.7842e-7 -4.76837e-7 0 1 1 0 0 2.38419e-7 1 4.83982e-7 -1 0 0 5.96046e-7 0 1 -2.51228e-7 -1 2.54991e-7 2.81471e-7 -1 0 1.92362e-7 1 0 -3.84724e-7 1 0 -2.51227e-7 -1 1.25263e-7 2.81471e-7 1 0 1.92362e-7 -1 -1.91824e-7 -3.84724e-7 -1 0 1.92362e-7 -1 0 0 1 0 0 -1 3.30332e-7 0 -1 0 1 0 -4.15455e-7 1 0 -2.76703e-7 -2.42059e-7 1 0 -2.51228e-7 1 0 2.81472e-7 -1 0 2.81471e-7 1 0 -2.42059e-7 -1 0 1.30453e-7 1 -2.58923e-7 -2.51227e-7 1 1.25263e-7 -3.84724e-7 -1 0 1.30453e-7 -1 0 0 1 6.68205e-7 -3.84724e-7 1 0 1.92362e-7 1 0 0 1 -1.9076e-7 0 -1 0 1 0 0 1 1.27682e-7 0</float_array>
          <technique_common>
            <accessor source="#Cube_001-mesh-normals-array" count="41" stride="3">
              <param name="X" type="float"/>
              <param name="Y" type="float"/>
              <param name="Z" type="float"/>
            </accessor>
          </technique_common>
        </source>
        <source id="Cube_001-mesh-map-0">
          <float_array id="Cube_001-mesh-map-0-array" count="1014">0.283694 0.042988 0.2712734 0.135035 0.2712734 0.01355117 0.6154434 0.9951403 0.5262087 0.5092052 0.6154434 0.5092052 0.5461165 0.2565188 0.5348767 0.2736308 0.5348767 0.2394068 0.1037937 0.4994865 0.01388353 0.4994865 0.01388347 0.4845398 0.6243615 0.3594209 0.6353512 0.2565188 0.6353512 0.3780026 0.7142718 0.4845396 0.7245859 0.3780025 0.7245859 0.4994863 0.4444612 0.1154105 0.4568818 0.01355117 0.4568818 0.135035 0.5348767 0.2394068 0.5461165 0.135035 0.5461165 0.2565188 0.6353512 0.3780026 0.6243615 0.3841965 0.6243615 0.3594209 0.9437042 0.4310076 0.9373196 0.004859328 0.9437042 0.004859328 0.283694 0.2212417 0.1932786 0.2522408 0.1932785 0.2394069 0.950843 0.004859328 0.9572275 0.4164679 0.950843 0.4164679 0.8273439 0.5092052 0.7381092 0.9951403 0.7381092 0.5092052 0.6289667 0.9951403 0.7182014 0.5092052 0.7182013 0.9951403 0.7317246 0.004859328 0.8209594 0.004859328 0.8209595 0.4907944 0.8344828 0.07918596 0.9127278 0.004859328 0.912728 0.4907945 0.8344826 0.5776529 0.9124776 0.5092052 0.9124776 0.9951404 0.2712734 0.01355117 0.283694 0.01355117 0.283694 0.042988 0.7245859 0.4994863 0.7142718 0.4994863 0.7142718 0.4845396 0.1820388 0.2565189 0.1932786 0.2522408 0.1932786 0.2736308 0.09280407 0.2565189 0.1037937 0.3594211 0.09280407 0.3780027 0.003569364 0.5092054 0.01388365 0.9801939 0.003569483 0.9951406 0.003569364 0.3780027 0.01388347 0.4845398 0.003569364 0.4994865 0.09280407 0.3780027 0.1037937 0.3594211 0.1037938 0.3841966 0.950843 0.4164679 0.9572275 0.4907945 0.950843 0.4907945 0.4568818 0.135035 0.4444612 0.1939088 0.4444612 0.1154105 0.6154434 0.9951403 0.5262087 0.9951403 0.5262087 0.5092052 0.1820388 0.135035 0.1932785 0.2394069 0.1820388 0.2565189 0.003569483 0.9951406 0.01388365 0.9801939 0.01388365 0.9951406 0.5190699 0.9951404 0.4744526 0.9951404 0.4401493 0.9353535 0.8273439 0.5092052 0.8273439 0.9951404 0.7381092 0.9951403 0.6289667 0.9951403 0.6289667 0.5092052 0.7182014 0.5092052 0.8209595 0.4907944 0.7317248 0.4907945 0.7317246 0.004859328 0.912728 0.4907945 0.8344829 0.4907945 0.8344828 0.07918596 0.9124776 0.9951404 0.8344827 0.9951404 0.8344826 0.5776529 0.7142717 0.3780025 0.7142718 0.4845396 0.6353512 0.3780026 0.01388347 0.4845398 0.01388353 0.4994865 0.003569364 0.4994865 0.01388353 0.5092054 0.1037939 0.8550752 0.01388365 0.9801939 0.01388365 0.9801939 0.1037939 0.9951406 0.01388365 0.9951406 0.6243616 0.4994864 0.6243615 0.3841965 0.6353512 0.3780026 0.4401493 0.9353535 0.4401493 0.5092052 0.5190699 0.5092052 0.01388347 0.3780027 0.09280407 0.3780027 0.01388347 0.4845398 0.09280407 0.2565189 0.1037937 0.247827 0.1037937 0.2565189 0.6243615 0.2565188 0.6243615 0.3594209 0.5461165 0.2565188 0.9643663 0.4223467 0.9707508 0.4907945 0.9643663 0.4907945 0.1037937 0.3594211 0.1932786 0.2736308 0.1932786 0.4242013 0.1037937 0.4994865 0.1932786 0.4242013 0.1932786 0.4994865 0.6243616 0.4994864 0.5348767 0.4242012 0.6243615 0.3841965 0.1037937 0.3594211 0.1037937 0.2565189 0.1820388 0.2565189 0.1037937 0.5092054 0.1932786 0.735061 0.1037939 0.8550752 0.5348767 0.4242012 0.5348767 0.2736308 0.6243615 0.3594209 0.6243615 0.2565188 0.6353512 0.2478269 0.6353512 0.2565188 0.1037939 0.8550752 0.1932787 0.9951405 0.1037939 0.9951406 0.5348768 0.4994864 0.4444612 0.4655333 0.5348767 0.4242012 0.1932786 0.5092053 0.2836941 0.6110646 0.1932786 0.735061 0.1932786 0.2736308 0.283694 0.2212417 0.283694 0.3976272 0.1932785 0.2394069 0.1932785 0.135035 0.2712734 0.135035 0.5348767 0.2736308 0.4444612 0.1939088 0.5348767 0.2394068 0.1932786 0.4994865 0.2836941 0.4655334 0.2836941 0.4994864 0.5348767 0.4242012 0.4444612 0.3976272 0.5348767 0.2736308 0.3769438 0.9166421 0.3705593 0.5092052 0.3769439 0.5092052 0.1932786 0.735061 0.2836942 0.9951404 0.1932787 0.9951405 0.1932785 0.2394069 0.1932786 0.2522408 0.1820388 0.2565189 0.8209594 0.004859328 0.827344 0.4907944 0.8209595 0.4907944 0.5348767 0.135035 0.5348767 0.2394068 0.4568818 0.135035 0.1932786 0.4242013 0.283694 0.3976272 0.2836941 0.4655334 0.283694 0.042988 0.3605082 0.01355117 0.3605082 0.1957769 0.283694 0.3976272 0.3605082 0.1957769 0.3605083 0.4994864 0.4444612 0.1939088 0.4444612 0.3976272 0.3676471 0.4994865 0.4444612 0.3976272 0.4444612 0.4655333 0.3676471 0.4994865 0.2836941 0.6110646 0.3605083 0.9951404 0.2836942 0.9951404 0.2836941 0.4655334 0.283694 0.3976272 0.3605083 0.4994864 0.4444612 0.1939088 0.3676471 0.01355123 0.4444612 0.1154105 0.283694 0.1448473 0.283694 0.042988 0.3605082 0.1957769 0.4444612 0.01355117 0.4444612 0.1154105 0.3676471 0.01355123 0.283694 0.2212417 0.283694 0.1448473 0.3605082 0.1957769 0.2836941 0.6110646 0.2836941 0.5092053 0.3605082 0.5092052 0.2836941 0.4994864 0.2836941 0.4655334 0.3605083 0.4994864 0.9196165 0.9166422 0.9964306 0.9951404 0.9196165 0.9951404 0.4444612 0.4655333 0.4444612 0.4994865 0.3676471 0.4994865 0.9196165 0.9166422 0.9196164 0.5092052 0.9964305 0.5092052 0.4205899 0.5092052 0.4330105 0.9166422 0.42059 0.9951404 0.9198667 0.004859328 0.9301808 0.4310076 0.9198667 0.4907945 0.42059 0.9951404 0.4330105 0.9166422 0.4330105 0.9951404 0.9301808 0.4310076 0.9301809 0.4907945 0.9198667 0.4907945 0.3950724 0.5835317 0.3840827 0.9951403 0.3840827 0.5092052 0.3950724 0.5092052 0.3950724 0.5835317 0.3840827 0.5092052 0.413451 0.5092052 0.413451 0.5776529 0.4022112 0.5092052 0.413451 0.5776529 0.4022113 0.9951404 0.4022112 0.5092052 0.1820388 0.135035 0.1932785 0.1263432 0.1932785 0.135035 0.003569364 0.3780027 0.01388347 0.3693109 0.01388347 0.3780027 0.2712734 0.01355117 0.283694 0.004859328 0.283694 0.01355117 0.4444612 0.01355117 0.4568818 0.004859328 0.4568818 0.01355117 0.7381092 0.9951403 0.7317246 0.5092052 0.7381092 0.5092052 0.7142717 0.3780025 0.7245859 0.3693107 0.7245859 0.3780025 0.5348767 0.135035 0.5461165 0.1263431 0.5461165 0.135035 0.6154434 0.5092052 0.6218279 0.9951403 0.6154434 0.9951403 0.9643663 0.004859328 0.9707508 0.4223467 0.9643663 0.4223467 0.3769438 0.9951403 0.3705593 0.9166421 0.3769438 0.9166421 0.7182014 0.5092052 0.7245859 0.9951403 0.7182013 0.9951403 0.9437042 0.4907945 0.9373197 0.4310076 0.9437042 0.4310076 0.283694 0.042988 0.283694 0.1448473 0.2712734 0.135035 0.01388347 0.4845398 0.09280407 0.3780027 0.1037937 0.4994865 0.1037938 0.3841966 0.1037937 0.4994865 0.09280407 0.3780027 0.6243615 0.3594209 0.6243615 0.2565188 0.6353512 0.2565188 0.7142718 0.4845396 0.7142717 0.3780025 0.7245859 0.3780025 0.4444612 0.1154105 0.4444612 0.01355117 0.4568818 0.01355117 0.5348767 0.2394068 0.5348767 0.135035 0.5461165 0.135035 0.9437042 0.4310076 0.9373197 0.4310076 0.9373196 0.004859328 0.1932785 0.2394069 0.2712734 0.135035 0.283694 0.2212417 0.283694 0.1448473 0.283694 0.2212417 0.2712734 0.135035 0.950843 0.004859328 0.9572275 0.004859328 0.9572275 0.4164679 0.8344828 0.07918596 0.8344828 0.004859328 0.9127278 0.004859328 0.8344826 0.5776529 0.8344826 0.5092052 0.9124776 0.5092052 0.09280407 0.2565189 0.1037937 0.2565189 0.1037937 0.3594211 0.003569364 0.5092054 0.01388353 0.5092054 0.01388365 0.9801939 0.003569364 0.3780027 0.01388347 0.3780027 0.01388347 0.4845398 0.950843 0.4164679 0.9572275 0.4164679 0.9572275 0.4907945 0.1820388 0.135035 0.1932785 0.135035 0.1932785 0.2394069 0.4401493 0.9353535 0.5190699 0.5092052 0.5190699 0.9951404 0.4744526 0.9951404 0.4401493 0.9951404 0.4401493 0.9353535 0.01388353 0.5092054 0.1037937 0.5092054 0.1037939 0.8550752 0.01388365 0.9801939 0.1037939 0.8550752 0.1037939 0.9951406 0.6353512 0.3780026 0.7142718 0.4845396 0.6243616 0.4994864 0.7142718 0.4994863 0.6243616 0.4994864 0.7142718 0.4845396 0.01388347 0.3780027 0.04818665 0.3780027 0.09280407 0.3780027 0.09280407 0.2565189 0.09280407 0.247827 0.1037937 0.247827 0.9643663 0.4223467 0.9707508 0.4223467 0.9707508 0.4907945 0.1932786 0.4242013 0.1037938 0.3841966 0.1037937 0.3594211 0.1037937 0.3594211 0.1820388 0.2565189 0.1932786 0.2736308 0.1037937 0.4994865 0.1037938 0.3841966 0.1932786 0.4242013 0.6243616 0.4994864 0.5348768 0.4994864 0.5348767 0.4242012 0.1037937 0.5092054 0.1932786 0.5092053 0.1932786 0.735061 0.5461165 0.2565188 0.6243615 0.3594209 0.5348767 0.2736308 0.6243615 0.3841965 0.5348767 0.4242012 0.6243615 0.3594209 0.6243615 0.2565188 0.6243615 0.2478269 0.6353512 0.2478269 0.1037939 0.8550752 0.1932786 0.735061 0.1932787 0.9951405 0.5348768 0.4994864 0.4444612 0.4994865 0.4444612 0.4655333 0.1932786 0.5092053 0.2836941 0.5092053 0.2836941 0.6110646 0.1932786 0.2736308 0.1932786 0.2522408 0.283694 0.2212417 0.4568818 0.135035 0.5348767 0.2394068 0.4444612 0.1939088 0.5348767 0.2736308 0.4444612 0.3976272 0.4444612 0.1939088 0.1932786 0.4994865 0.1932786 0.4242013 0.2836941 0.4655334 0.5348767 0.4242012 0.4444612 0.4655333 0.4444612 0.3976272 0.3769438 0.9166421 0.3705593 0.9166421 0.3705593 0.5092052 0.1932786 0.735061 0.2836941 0.6110646 0.2836942 0.9951404 0.8209594 0.004859328 0.8273439 0.004859328 0.827344 0.4907944 0.1932786 0.4242013 0.1932786 0.2736308 0.283694 0.3976272 0.283694 0.042988 0.283694 0.01355117 0.3605082 0.01355117 0.283694 0.3976272 0.283694 0.2212417 0.3605082 0.1957769 0.2836941 0.6110646 0.3605082 0.5092052 0.3605083 0.9951404 0.4444612 0.1939088 0.3676471 0.4994865 0.3676471 0.01355123 0.9196165 0.9166422 0.9964305 0.5092052 0.9964306 0.9951404 0.4205899 0.5092052 0.4330104 0.5092052 0.4330105 0.9166422 0.9198667 0.004859328 0.9301808 0.004859328 0.9301808 0.4310076 0.3950724 0.5835317 0.3950724 0.9951403 0.3840827 0.9951403 0.413451 0.5776529 0.4134511 0.9951404 0.4022113 0.9951404 0.1820388 0.135035 0.1820388 0.1263432 0.1932785 0.1263432 0.003569364 0.3780027 0.003569364 0.3693109 0.01388347 0.3693109 0.2712734 0.01355117 0.2712734 0.004859328 0.283694 0.004859328 0.4444612 0.01355117 0.4444612 0.004859328 0.4568818 0.004859328 0.7381092 0.9951403 0.7317247 0.9951403 0.7317246 0.5092052 0.7142717 0.3780025 0.7142717 0.3693107 0.7245859 0.3693107 0.5348767 0.135035 0.5348767 0.1263431 0.5461165 0.1263431 0.6154434 0.5092052 0.6218279 0.5092052 0.6218279 0.9951403 0.9643663 0.004859328 0.9707508 0.004859328 0.9707508 0.4223467 0.3769438 0.9951403 0.3705593 0.9951403 0.3705593 0.9166421 0.7182014 0.5092052 0.7245859 0.5092052 0.7245859 0.9951403 0.9437042 0.4907945 0.9373197 0.4907945 0.9373197 0.4310076</float_array>
          <technique_common>
            <accessor source="#Cube_001-mesh-map-0-array" count="507" stride="2">
              <param name="S" type="float"/>
              <param name="T" type="float"/>
            </accessor>
          </technique_common>
        </source>
        <vertices id="Cube_001-mesh-vertices">
          <input semantic="POSITION" source="#Cube_001-mesh-positions"/>
        </vertices>
        <polylist material="PBRFULL_Stairs-material" count="169">
          <input semantic="VERTEX" source="#Cube_001-mesh-vertices" offset="0"/>
          <input semantic="NORMAL" source="#Cube_001-mesh-normals" offset="1"/>
          <input semantic="TEXCOORD" source="#Cube_001-mesh-map-0" offset="2" set="0"/>
          <vcount>3 3 3 3 3 3 3 3 3 3 3 3 3 3 3 3 3 3 3 3 3 3 3 3 3 3 3 3 3 3 3 3 3 3 3 3 3 3 3 3 3 3 3 3 3 3 3 3 3 3 3 3 3 3 3 3 3 3 3 3 3 3 3 3 3 3 3 3 3 3 3 3 3 3 3 3 3 3 3 3 3 3 3 3 3 3 3 3 3 3 3 3 3 3 3 3 3 3 3 3 3 3 3 3 3 3 3 3 3 3 3 3 3 3 3 3 3 3 3 3 3 3 3 3 3 3 3 3 3 3 3 3 3 3 3 3 3 3 3 3 3 3 3 3 3 3 3 3 3 3 3 3 3 3 3 3 3 3 3 3 3 3 3 3 3 3 3 3 3 </vcount>
          <p>65 0 0 20 0 1 12 0 2 8 1 3 15 1 4 19 1 5 4 2 6 51 2 7 49 2 8 31 0 9 22 0 10 27 0 11 39 3 12 10 3 13 17 3 14 25 2 15 19 2 16 15 2 17 62 2 18 7 2 19 18 2 20 49 2 21 11 2 22 4 2 23 17 2 24 30 2 25 39 2 26 23 4 27 77 4 28 29 4 29 53 5 30 40 5 31 50 5 32 33 4 33 82 4 34 34 4 35 16 6 36 10 6 37 13 6 38 5 1 39 11 1 40 14 1 41 18 1 42 7 1 43 12 1 44 34 7 45 4 7 46 5 7 47 45 7 48 18 7 49 20 7 50 12 0 51 56 0 52 65 0 53 15 2 54 24 2 55 25 2 56 5 0 57 40 0 58 52 0 59 13 8 60 38 8 61 16 8 62 6 9 63 26 9 64 15 9 65 8 0 66 27 0 67 6 0 68 16 0 69 38 0 70 36 0 71 34 4 72 80 4 73 32 4 74 18 2 75 60 2 76 62 2 77 8 1 78 6 1 79 15 1 80 14 0 81 50 0 82 5 0 83 15 9 84 26 9 85 24 9 86 16 7 87 21 7 88 23 7 89 16 10 90 17 10 91 10 10 92 5 1 93 4 1 94 11 1 95 12 1 96 20 1 97 18 1 98 5 7 99 33 7 100 34 7 101 20 7 102 47 7 103 45 7 104 29 2 105 25 2 106 17 2 107 27 0 108 22 0 109 6 0 110 22 9 111 37 9 112 26 9 113 26 9 114 35 9 115 24 9 116 35 11 117 30 11 118 17 11 119 23 7 120 29 7 121 17 7 122 28 0 123 16 0 124 27 0 125 13 0 126 81 0 127 33 0 128 32 12 129 39 12 130 4 12 131 45 4 132 85 4 133 48 4 134 38 13 135 52 13 136 44 13 137 31 14 138 44 14 139 43 14 140 35 15 141 41 15 142 30 15 143 38 16 144 33 16 145 5 16 146 31 9 147 46 9 148 37 9 149 41 17 150 51 17 151 39 17 152 32 2 153 73 2 154 10 2 155 37 9 156 42 9 157 35 9 158 42 18 159 55 18 160 41 18 161 43 9 162 63 9 163 46 9 164 52 0 165 53 0 166 67 0 167 50 0 168 47 0 169 20 0 170 51 2 171 60 2 172 49 2 173 43 0 174 58 0 175 57 0 176 41 19 177 61 19 178 51 19 179 66 4 180 86 4 181 64 4 182 46 9 183 54 9 184 42 9 185 50 0 186 40 0 187 5 0 188 7 1 189 71 1 190 12 1 191 48 2 192 49 2 193 18 2 194 44 20 195 67 20 196 58 20 197 65 0 198 1 0 199 9 0 200 67 0 201 9 0 202 2 0 203 60 21 204 61 21 205 3 21 206 61 2 207 55 2 208 3 2 209 63 9 210 3 9 211 54 9 212 58 0 213 67 0 214 2 0 215 60 22 216 0 22 217 62 22 218 59 0 219 65 0 220 9 0 221 64 2 222 62 2 223 0 2 224 53 0 225 59 0 226 9 0 227 63 9 228 57 9 229 2 9 230 57 0 231 58 0 232 2 0 233 66 7 234 1 7 235 56 7 236 55 2 237 54 2 238 3 2 239 66 23 240 64 23 241 0 23 242 70 24 243 87 24 244 71 24 245 69 7 246 78 7 247 68 7 248 71 7 249 87 7 250 76 7 251 78 7 252 79 7 253 68 7 254 82 7 255 72 7 256 73 7 257 80 7 258 82 7 259 73 7 260 85 7 261 83 7 262 75 7 263 83 7 264 74 7 265 75 7 266 14 0 267 84 0 268 47 0 269 8 0 270 79 0 271 28 0 272 12 0 273 76 0 274 56 0 275 64 2 276 70 2 277 7 2 278 10 1 279 72 1 280 13 1 281 29 2 282 69 2 283 19 2 284 48 2 285 75 2 286 11 2 287 19 1 288 68 1 289 8 1 290 47 4 291 83 4 292 45 4 293 56 4 294 87 4 295 66 4 296 11 1 297 74 1 298 14 1 299 28 4 300 78 4 301 23 4 302 65 0 303 59 0 304 20 0 305 27 25 306 16 25 307 31 25 308 36 26 309 31 26 310 16 26 311 39 27 312 32 27 313 10 27 314 25 2 315 29 2 316 19 2 317 62 2 318 64 2 319 7 2 320 49 2 321 48 2 322 11 2 323 23 4 324 78 4 325 77 4 326 50 0 327 20 0 328 53 0 329 59 0 330 53 0 331 20 0 332 33 4 333 81 4 334 82 4 335 34 7 336 32 7 337 4 7 338 45 7 339 48 7 340 18 7 341 13 28 342 33 28 343 38 28 344 6 9 345 22 9 346 26 9 347 8 0 348 28 0 349 27 0 350 34 4 351 82 4 352 80 4 353 14 0 354 47 0 355 50 0 356 23 7 357 17 7 358 16 7 359 21 7 360 28 7 361 23 7 362 22 9 363 31 9 364 37 9 365 26 9 366 37 9 367 35 9 368 17 29 369 25 29 370 35 29 371 24 2 372 35 2 373 25 2 374 28 7 375 21 7 376 16 7 377 13 0 378 72 0 379 81 0 380 45 4 381 83 4 382 85 4 383 44 0 384 36 0 385 38 0 386 38 30 387 5 30 388 52 30 389 31 31 390 36 31 391 44 31 392 35 32 393 42 32 394 41 32 395 31 9 396 43 9 397 46 9 398 4 33 399 39 33 400 51 33 401 30 2 402 41 2 403 39 2 404 32 2 405 80 2 406 73 2 407 37 9 408 46 9 409 42 9 410 42 2 411 54 2 412 55 2 413 43 9 414 57 9 415 63 9 416 52 34 417 40 34 418 53 34 419 18 2 420 49 2 421 60 2 422 51 2 423 61 2 424 60 2 425 43 35 426 44 35 427 58 35 428 41 2 429 55 2 430 61 2 431 66 4 432 87 4 433 86 4 434 46 9 435 63 9 436 54 9 437 7 1 438 70 1 439 71 1 440 44 36 441 52 36 442 67 36 443 65 0 444 56 0 445 1 0 446 67 37 447 53 37 448 9 37 449 63 9 450 2 9 451 3 9 452 60 38 453 3 38 454 0 38 455 66 39 456 0 39 457 1 39 458 70 40 459 86 40 460 87 40 461 69 7 462 77 7 463 78 7 464 82 7 465 81 7 466 72 7 467 83 7 468 84 7 469 74 7 470 14 0 471 74 0 472 84 0 473 8 0 474 68 0 475 79 0 476 12 0 477 71 0 478 76 0 479 64 2 480 86 2 481 70 2 482 10 1 483 73 1 484 72 1 485 29 2 486 77 2 487 69 2 488 48 2 489 85 2 490 75 2 491 19 1 492 69 1 493 68 1 494 47 4 495 84 4 496 83 4 497 56 4 498 76 4 499 87 4 500 11 1 501 75 1 502 74 1 503 28 4 504 79 4 505 78 4 506</p>
        </polylist>
      </mesh>
    </geometry>
  </library_geometries>
  <library_controllers/>
  <library_visual_scenes>
    <visual_scene id="Scene" name="Scene">
      <node id="stair" name="stair" type="NODE">
        <matrix sid="transform">1 0 0 0 0 1 0 0 0 0 1 0 0 0 0 1</matrix>
        <instance_geometry url="#Cube_001-mesh" name="stair">
          <bind_material>
            <technique_common>
              <instance_material symbol="PBRFULL_Stairs-material" target="#PBRFULL_Stairs-material"/>
            </technique_common>
          </bind_material>
        </instance_geometry>
      </node>
    </visual_scene>
  </library_visual_scenes>
  <scene>
    <instance_visual_scene url="#Scene"/>
  </scene>
</COLLADA>