<?xml version="1.0" encoding="utf-8"?>
<COLLADA xmlns="http://www.collada.org/2005/11/COLLADASchema" version="1.4.1">
  <asset>
    <contributor>
      <author>Blender User</author>
      <authoring_tool>Blender 2.78.0 commit date:2017-02-24, commit time:14:33, hash:e92f2352830</authoring_tool>
    </contributor>
    <created>2017-06-30T10:52:11</created>
    <modified>2017-06-30T10:52:11</modified>
    <unit name="meter" meter="1"/>
    <up_axis>Z_UP</up_axis>
  </asset>
  <library_images/>
  <library_geometries>
    <geometry id="node-mesh" name="node">
      <mesh>
        <source id="node-mesh-positions">
          <float_array id="node-mesh-positions-array" count="1110">0.453228 -0.168627 0.552111 0.392015 -0.03884029 0.407767 0.194424 -0.515355 0.0325998 0.403201 -0.07577359 0.04824775 0.1674489 -0.47689 0.47067 0.308074 -0.483097 0.599737 0.419685 -0.516406 0.447359 0.250082 -0.170536 0.545855 0.139371 -0.116786 0.02899998 0.07514548 -0.417511 0.102908 0.401244 -0.501622 0.03305822 0.705919 -0.388471 0.74277 0.445544 -0.245212 0.654824 0.428396 -0.086241 0.565004 0.446333 -0.08458769 0.43306 0.439908 -0.520592 0.413238 0.742498 -0.151933 0.725398 0.839543 -0.13558 0.555134 0.832503 -0.417319 0.529942 0.788995 -0.504721 -0.605895 0.395577 -0.09824955 0.005195558 0.439668 -0.04836899 0.05220502 0.688904 -0.09440767 -0.384941 0.569597 -0.443931 -0.642708 0.715762 -0.510257 -0.1231 0.459257 -0.155721 0.05435419 0.391598 -0.456837 0.0830506 0.523117 -0.478648 -0.290391 0.544854 -0.125104 -0.374966 0.722411 -0.257501 -0.653378 0.887562 -0.209022 -0.493586 0.883839 -0.130653 -0.216895 0.822351 -0.190794 -0.137812 0.796766 -0.391072 -0.112092 0.897735 -0.463086 -0.243426 0.472739 -0.506305 0.116082 0.417711 -0.0482611 0.114122 0.462032 -0.49049 0.07350957 0.724668 -0.502719 0.22421 0.834834 -0.502498 -0.144807 0.836058 -0.09882968 0.01278907 0.841472 -0.467876 0.170821 0.798271 -0.105394 0.170661 0.685882 -0.07337915 0.222044 0.80287 -0.08338516 -0.105615 0.440368 -0.491562 0.1264449 0.425127 -0.02993983 0.397836 0.608277 -0.513218 0.35537 0.633924 -0.498677 0.22944 0.631573 -0.08427369 0.226168 0.613206 -0.06834846 0.333124 0.686296 -0.492576 0.273932 0.801618 -0.485211 0.304451 0.79018 -0.318231 0.504681 0.777962 -0.09845477 0.303324 0.574646 -0.06494945 0.456549 0.680867 -0.06700217 0.260939 0.533615 -0.445988 0.437403 0.382282 -0.02426755 -0.07534337 0.23895 -0.499587 -0.582585 0.1468 -0.432714 0.0143764 0.385264 -0.497699 0.006792545 0.484407 -0.483397 -0.203814 0.508351 -0.515284 -0.542713 0.262177 -0.354882 -0.609277 0.546569 -0.38081 -0.673685 0.511915 -0.132928 -0.339201 0.418479 -0.06953299 -0.264698 0.188123 -0.07711708 -0.02941101 0.0902363 -0.316914 -0.11402 0.134666 -0.366609 -0.327186 0.106158 -0.499579 -0.190928 0.309661 -0.178449 -0.36491 0.456071 -0.230129 -0.577425 1.2728 -0.453213 0.707178 1.14971 -0.277932 0.54116 1.28829 -0.212504 0.639612 0.866781 -0.14584 0.626258 0.849854 -0.401546 0.623892 0.748827 -0.252621 0.748828 0.87703 -0.254246 0.491875 0.985299 -0.344462 0.73272 1.20413 -0.251246 0.760617 1.31146 -0.3684 0.542676 1.69418 -0.277965 0.676454 1.64825 -0.246538 0.811274 1.31557 -0.418914 0.759609 1.42052 -0.208544 0.677459 1.7105 -0.289874 0.785761 1.91077 -0.292757 0.683338 2.00986 -0.301704 0.852029 1.78234 -0.397949 0.263596 1.81888 -0.444836 0.329311 1.90634 -0.323037 0.233413 1.95197 -0.496524 0.477798 1.80339 -0.186072 0.506117 1.88258 -0.2488909 0.549913 1.78442 -0.366204 0.526134 0.774611 -0.164891 0.200451 0.841654 -0.122207 0.398306 1.68774 -0.438926 0.429122 0.844041 -0.360675 0.488136 1.13154 -0.296862 0.488912 0.89124 -0.209501 0.473665 1.11558 -0.158203 0.438936 1.96109 -0.174423 0.345338 1.92661 -0.242641 0.259647 1.95442 -0.160015 0.441412 1.14977 -0.195784 0.256321 1.14112 -0.146594 0.324751 1.13215 -0.327739 0.248775 1.13724 -0.385879 0.32354 1.13172 -0.382495 0.42357 0.819643 -0.416438 0.313752 0.761514 -0.337252 0.212884 2.05033 -0.229746 0.443312 2.03725 -0.401773 0.357615 1.98604 -0.273187 0.577629 2.06149 -0.412725 0.2154279 2.03467 -0.13637 0.415931 2.01375 -0.183811 0.2399449 2.07638 -0.49037 0.477116 2.40897 -0.234637 0.541193 2.39294 -0.145128 0.41338 2.39256 -0.381706 0.333342 2.42335 -0.371205 0.497113 2.69352 -0.285287 0.565292 2.66458 -0.150848 0.555631 2.71636 -0.09371787 0.394582 2.43936 -0.226144 0.304862 2.74659 -0.336883 0.486297 3.04393 -0.328731 0.524295 3.0434 -0.229618 0.655152 2.99951 -0.0187276 0.573871 3.0155 -0.02558207 0.39851 3.13853 -0.173085 0.34485 2.79148 -0.296026 0.372116 3.48239 -0.171033 0.459542 3.7026 -0.241307 0.620915 3.57748 -0.408657 0.635829 3.51257 -0.425279 0.489288 3.62633 -0.341409 0.394564 3.35966 -0.312017 0.62147 3.38603 -0.255918 0.383936 3.40369 -0.16891 0.606252 3.12119 -0.204177 0.318688 3.18392 -0.02010345 0.459498 3.15796 -0.0403319 0.584548 3.13038 -0.181213 0.666815 3.10676 -0.32919 0.562384 3.6754 -0.217765 0.569536 3.95428 -0.305721 0.549856 3.73143 -0.365703 0.415457 3.73771 -0.373763 0.654723 3.97981 -0.162563 0.52385 2.37151 -0.265153 0.288559 2.50062 -0.119864 0.218313 2.46237 -0.486456 0.194023 2.4428 -0.402916 -0.03643029 2.14124 -0.399784 0.09749257 2.14596 -0.333678 0.005599558 2.15152 -0.251541 -0.01658296 1.23166 -0.111935 0.03943896 1.19753 -0.109425 0.127699 1.35799 -0.178109 0.211319 0.861732 -0.449009 0.186814 0.94846 -0.448953 -0.04937928 0.919855 -0.503412 0.08322799 1.23789 -0.377993 0.173862 1.22817 -0.331068 0.208918 0.861873 -0.26056 0.219011 2.13962 -0.166804 0.00551635 2.45296 -0.155906 -0.0314238 2.62682 -0.28217 0.106124 2.1567 -0.118447 0.08783227 2.32631 -0.09274256 0.178399 2.15428 -0.14135 0.184483 1.24615 -0.415868 0.0999419 1.24398 -0.396549 0.01645398 0.882075 -0.18704 -0.134892 0.906707 -0.0942682 -0.06657278 0.893576 -0.08416199 0.09743529 0.834016 -0.13231 0.183631 1.23501 -0.138487 -0.01018196 1.23641 -0.177841 -0.04415196 1.23696 -0.232541 -0.05998796 1.24501 -0.331016 -0.04628133 2.16753 -0.326452 0.227496 2.1896 -0.240855 0.247056 2.13584 -0.380268 0.180323 2.57138 -0.203068 0.266007 4.11561 -0.03325599 0.299411 2.55055 -0.395215 0.276072 2.60413 -0.123065 0.04485577 2.56438 -0.210405 -0.06090503 2.64221 -0.460804 -0.001409292 2.67736 -0.472099 0.145152 2.79227 -0.352037 0.278698 2.692 -0.355611 -0.06180936 3.02562 -0.332933 0.0569241 3.01345 -0.356278 0.173155 3.01126 -0.294512 0.2449409 3.00019 -0.197841 0.245097 2.95076 -0.1115 0.1624889 2.97864 -0.1267099 0.053038 3.0056 -0.221292 0.004352271 3.59631 -0.178546 0.259913 3.58939 -0.106303 0.285606 3.57921 -0.02778846 0.262693 3.57661 0.03754115 0.168466 3.54784 0.01028823 0.07595926 3.59108 -0.05798727 0.02431792 3.60863 -0.160407 0.03845107 3.62842 -0.205068 0.100959 3.63405 -0.221249 0.185888 3.92906 0.155823 0.14362 4.02116 0.08870238 0.01978355 4.05309 -0.109082 0.03639376 4.00167 -0.178782 0.224285 3.98092 -0.110561 0.34503 3.95576 0.09414905 0.315486 4.65985 -0.283691 0.06490427 4.63461 -0.206052 0.216589 4.55744 -0.31174 0.311898 4.50062 -0.434912 0.2134619 4.51528 -0.370856 0.06168067 4.46587 -0.109768 0.139013 4.447 -0.140052 0.278757 4.31436 -0.287471 0.146048 4.41164 -0.208932 0.05255573 4.10634 -0.0813294 0.04706239 4.153 0.06483906 0.06257367 4.24811 0.08740365 0.236442 4.12744 -0.03032255 0.352562 4.22692 -0.193576 0.298461 4.07864 -0.164503 0.19564 4.66614 -0.245149 0.07899487 4.72514 -0.291186 0.291184 4.73957 -0.405245 0.145364 4.97529 -0.169504 0.1658869 2.44834 -0.482173 -0.288283 2.37869 -0.355262 -0.383424 2.33378 -0.1748729 -0.06969988 2.38285 -0.153119 -0.354507 2.40228 -0.357484 -0.05986481 2.05313 -0.380435 -0.145807 2.05984 -0.402112 -0.226993 1.29934 -0.282137 -0.363376 1.29377 -0.175439 -0.344727 0.879707 -0.07596516 -0.235262 0.890135 -0.15238 -0.126687 0.951371 -0.346509 -0.396838 0.906062 -0.459949 -0.347253 0.861433 -0.490883 -0.210847 0.843247 -0.406854 -0.121178 1.33695 -0.150913 -0.141466 1.30266 -0.114547 -0.251548 2.05773 -0.354134 -0.309943 2.55201 -0.370265 -0.319812 2.49668 -0.472727 -0.11948 2.55831 -0.1393 -0.160307 2.08389 -0.2288219 -0.34678 2.05239 -0.140888 -0.297837 1.29199 -0.267169 -0.113427 1.29888 -0.342931 -0.153281 1.30418 -0.384417 -0.217118 0.899703 -0.1531029 -0.398539 1.30664 -0.369014 -0.311753 2.09102 -0.178104 -0.105233 2.07814 -0.117696 -0.201066 2.33596 -0.09735387 -0.162138 2.05778 -0.297771 -0.08995205 2.5651 -0.345141 -0.333071 2.56359 -0.132495 -0.319671 2.64366 -0.470497 -0.280244 2.65033 -0.440282 -0.103178 2.52451 -0.326072 -0.03399878 2.58818 -0.173875 -0.09375238 2.59372 -0.280713 -0.401343 2.63689 -0.398055 -0.37433 2.96462 -0.207054 -0.0890814 2.92298 -0.118859 -0.170497 2.91935 -0.126689 -0.282323 2.9688 -0.226356 -0.342168 2.97498 -0.336321 -0.294403 2.96574 -0.372387 -0.179879 2.98373 -0.307672 -0.09468168 3.58278 -0.21885 -0.136886 3.55779 -0.155426 -0.07723599 3.53656 -0.06862747 -0.07289069 3.48469 0.007175624 -0.154259 3.50245 0.008850216 -0.262185 3.54423 -0.04457592 -0.312476 3.54138 -0.141083 -0.319147 3.58646 -0.209531 -0.2464939 4.10204 -0.06520247 -0.318534 4.00849 -0.152463 -0.240664 4.05386 -0.138996 -0.06738609 3.99408 -0.04602783 -3.49648e-4 4.00952 0.08747178 -0.02763855 3.98889 0.164161 -0.173593 3.96616 0.118785 -0.281561 4.01864 0.03722333 -0.333571 4.61176 -0.342684 -0.04665082 4.44815 -0.1276479 -0.232794 4.61146 -0.209829 -0.143028 4.46066 -0.442435 -0.148891 4.53561 -0.331431 -0.313623 4.38836 -0.09086298 -0.102931 4.33104 -0.223188 -0.04367256 4.23796 -0.263518 -0.197412 4.32674 -0.182584 -0.297414 4.13817 0.0500245 -0.30898 4.21242 0.103025 -0.1311579 4.10582 -0.02697163 0.01683795 4.05774 -0.1774269 -0.08815819 4.10622 -0.127502 -0.29826 4.9203 -0.25623 -0.2045519 4.94962 -0.121503 -0.158352 4.71378 -0.411261 -0.197355 4.6434 -0.335009 -0.0315665 4.63433 -0.225907 -0.286535 1.8942 -0.400255 -0.70175 1.76587 -0.43623 -0.553127 1.7609 -0.373752 -0.659178 1.87815 -0.286883 -0.368717 0.767925 -0.349947 -0.711582 1.92765 -0.149078 -0.420539 2.04633 -0.246562 -0.507644 1.95544 -0.414903 -0.425971 1.92144 -0.135902 -0.556206 1.90089 -0.205928 -0.648881 1.2846 -0.166177 -0.569697 1.3423 -0.1969799 -0.451082 1.35732 -0.280724 -0.413133 1.32992 -0.398416 -0.457766 1.33845 -0.328111 -0.649781 1.35696 -0.230152 -0.642855 0.96495 -0.434115 -0.451227 1.33033 -0.408965 -0.57452 0.855222 -0.472154 -0.591741 0.827807 -0.197854 -0.671252 0.910876 -0.189002 -0.446749 0.933602 -0.309955 -0.392977 1.99782 -0.17457 -0.404516 3.06362 -0.235915 -0.460278 1.96657 -0.2206079 -0.693372 1.98223 -0.399258 -0.376511 2.28707 -0.127946 -0.559653 2.02892 -0.425729 -0.678959 2.32697 -0.242866 -0.380563 2.27402 -0.390081 -0.497651 2.74035 -0.190504 -0.360674 2.6194 -0.07709389 -0.421613 2.65376 -0.118262 -0.574021 2.68585 -0.254717 -0.461227 2.95492 0.01778477 -0.374229 2.5964 -0.225835 -0.581914 2.93877 -0.06576895 -0.595122 3.37348 -0.376878 -0.312833 3.27505 -0.366386 -0.413489 3.43838 -0.299327 -0.512614 3.46077 -0.2489939 -0.343496 3.08873 -0.115758 -0.560002 3.20262 -0.08361035 -0.459569 3.0823 -0.0683493 -0.327248 3.00068 -0.249373 -0.387934 3.53164 -0.360601 -0.331935 3.50935 -0.309127 -0.500201 3.49858 -0.20987 -0.378986</float_array>
          <technique_common>
            <accessor source="#node-mesh-positions-array" count="370" stride="3">
              <param name="X" type="float"/>
              <param name="Y" type="float"/>
              <param name="Z" type="float"/>
            </accessor>
          </technique_common>
        </source>
        <source id="node-mesh-normals">
          <float_array id="node-mesh-normals-array" count="1098">-0.02212625 -0.5534018 0.8326206 0.6643486 -0.7209012 0.1973391 0.7558981 0.3560973 0.549375 0.5579956 0.6070716 -0.5657782 -0.6083697 0.5531605 -0.569122 0.4082873 0.8880509 0.2113462 -0.5423842 0.4772565 0.6914085 -0.9347299 -0.2517191 -0.250834 -0.7456348 -0.5390227 0.3917695 0.5839523 -0.5442469 -0.6023247 -0.3127291 -0.7014508 -0.6404432 -0.4729246 -0.7336802 -0.4879096 -0.7336549 -0.03363233 0.6786895 -0.6603424 0.6966602 0.2803792 -0.4099107 0.6244339 -0.6648726 0.2148549 -0.4926708 0.8432751 0.7981469 -0.5157496 -0.3113908 0.3694077 0.5087901 0.7776057 0.8055471 0.5367059 -0.2510792 -0.9304603 0.3657996 0.02084439 -0.2151605 0.7459813 0.6302524 -0.6734427 0.6140212 -0.4116466 0.07352089 0.4377073 -0.8961066 0.05588036 0.9489292 -0.3105009 0.7924405 0.434507 -0.4280674 0.7557362 0.6013723 0.2592569 0.2598722 -0.8590584 0.4410045 -0.5583867 -0.5188638 0.6472903 -0.7014856 -0.6887897 -0.1829936 0.6049881 -0.1732897 0.7771486 0.3590951 0.06882196 0.9307601 -0.6084625 -0.3746239 -0.699593 0.4250749 -0.6917234 -0.5838066 0.8161137 -0.5324378 0.2246517 0.6091307 0.2186388 0.7623366 0.4114956 -0.5361682 -0.7370176 -0.5954229 -0.6878951 0.4150565 -0.7722364 -0.4729006 -0.4242829 0.8075916 0.5894729 0.01782304 0.7699452 -0.4305077 0.4710069 0.07870966 -0.636636 0.7671372 0.06692779 0.6310382 0.7728593 -0.8080045 0.584571 0.07352149 0.3133423 0.6004685 -0.7356998 0.6751143 0.5166283 0.5266081 0.2587144 -0.6778092 0.6882163 -0.5696088 -0.5272787 -0.6304944 0.7379474 -0.563196 -0.3718119 -0.585053 0.6759696 0.4480828 0.5345826 0.5863439 -0.6086233 0.662117 0.5929907 0.4582173 -0.1624522 0.6771236 -0.7177137 -0.7741336 -0.5549103 0.3046177 -0.5407922 0.7150237 0.4430406 -0.2244091 -0.7192506 -0.6575099 0.6860689 -0.6737698 -0.2744886 0.6019615 -0.09821087 0.7924627 0.776632 0.5734937 -0.2606678 0.4133853 -0.5699804 0.710095 -0.5146141 -0.3578982 0.7791543 -0.724354 -0.6893784 0.008301317 -0.5551716 0.7289774 -0.4004706 -0.5223409 0.7067091 0.4772026 0.3415473 0.8416452 0.4183047 -0.01190257 0.9558083 -0.2937498 0.8285078 -0.4943823 0.2629849 0.8220288 0.565883 -0.06360155 0.5659211 -0.7920393 -0.228926 -0.5307611 -0.6184431 -0.5795004 -0.5802649 0.3191716 -0.7492812 -0.9098002 0.2639583 -0.3202963 0.6253088 -0.03586006 -0.7795531 0.104316 0.7639975 -0.6367307 -0.9753718 0.2135142 0.05533176 0.6106242 -0.7679191 0.1934905 -0.4901344 -0.8558431 -0.1652296 0.2843185 0.02395766 -0.9584306 0.8068673 0.5591732 -0.190501 -0.8287725 0.1093799 0.5487917 -0.3137025 0.9446174 -0.09637832 -0.3346107 0.1003771 -0.9369953 0.3204532 0.3821023 0.8667801 -0.1275989 -0.5051466 0.8535488 -0.3444424 0.9374658 -0.05017393 0.5950081 0.2620099 0.7598134 0.9376618 -0.01129198 -0.3473658 -0.612614 -0.5875882 0.528625 -0.5646919 -0.2541617 -0.7851912 0.03189361 0.9989045 0.03424543 0.3189593 -0.174602 -0.9315467 0.04150646 -0.890528 -0.4530312 0.04089552 -0.6380625 -0.7688978 0.3257942 0.8996803 0.2905749 0.2244043 0.2272121 0.9476378 0.9036958 0.3405301 0.2595634 0.008362114 0.7573549 0.6529501 0.8303029 -0.4412453 -0.3404407 0.3673327 -0.8348609 0.4099684 -0.5476972 -0.8344249 -0.06134355 -0.5517629 -0.4253815 0.717362 -0.5279893 0.7705898 0.3569574 -0.2714967 0.3672958 0.8895974 0.0132147 0.8752545 0.4834821 -0.1357503 -0.940425 0.3117252 0.4090735 0.4424915 -0.7980352 0.4561747 0.770739 -0.4448214 -0.03680646 -0.3035159 0.9521153 -0.004974603 -0.8921957 0.4516218 0.07230025 0.9660584 -0.2479999 0.09021335 0.4900087 -0.8670369 -0.09287023 -0.3995893 0.9119779 0.004181087 -0.9491167 -0.3148971 0.04699891 -0.4190537 -0.9067443 -0.622258 0.5095807 -0.5942412 -0.7437223 -0.4025177 -0.5337197 -0.392605 -0.5322018 -0.7500818 -0.3375144 -0.8753888 0.3460903 -0.6617465 0.09302228 0.7439345 0.8095248 -0.03082448 -0.586276 0.2764149 0.8056837 0.5238974 0.4713919 -0.1810979 0.8631299 0.2868791 0.8462933 -0.4488742 -0.4569985 0.8736198 0.1671551 -0.5746186 0.479032 -0.6635826 0.2977153 -0.76585 -0.569947 -0.09692835 0.286482 0.95317 -0.05304247 0.9985905 -0.001922667 0.1150583 0.3139536 -0.9424409 0.105108 -0.7889205 0.6054393 -0.2430865 0.5894809 0.7703384 -0.07821959 -0.4552791 0.8869062 -0.2321625 0.9410104 -0.2461709 0.141915 -0.7362793 -0.661629 0.08942097 -0.9841498 0.1531448 0.4898025 -0.8647308 0.1110593 -0.4171409 0.7974141 0.4360324 -0.5607364 -0.02240133 -0.8276913 -0.7332933 -0.6450307 0.2149797 -0.2053017 0.9259485 -0.316971 0.3298197 -0.7236989 0.6062004 0.07620674 -0.9697825 -0.2317638 0.8565132 0.2840089 0.4309574 -0.05462872 -0.4341613 0.8991772 0.6348939 -0.2718663 -0.7231863 0.3859459 0.8154121 -0.43145 0.1924231 -6.40902e-4 -0.9813119 0.2716178 0.62289 0.7336429 -0.581096 0.1009288 0.8075525 -0.2807789 -0.557224 0.7814504 -0.7608463 0.6240282 0.1780496 -0.3523774 -0.4578525 -0.8162117 0.7234368 0.6858366 -0.07916784 0.8655921 -0.4778122 0.1498199 0.09964537 0.01580893 0.9948974 0.3392812 -0.8521552 0.3983967 0.9997186 -0.02304202 -0.005646049 0.2475707 -0.5580718 -0.7920005 -0.04043745 0.9366537 0.3479148 0.5141571 0.676855 0.5267921 0.3170662 0.5683631 -0.7592315 -0.7275921 0.4689368 0.5007078 -0.3725478 -0.6600081 -0.6523784 -0.4315756 -0.8998662 -0.06311422 -0.118416 -0.4121673 0.9033803 -0.1288523 -0.9702374 -0.2050283 -0.09860712 -0.5505946 -0.8289284 0.1376711 0.06885075 -0.9880821 0.1337965 -0.4125596 -0.9010511 0.009491264 0.0401929 -0.9991469 0.1256782 0.4812273 -0.8675398 -0.002472043 0.593597 -0.8047588 -0.05691742 0.9835891 -0.1712102 0.07470959 0.9697908 -0.2322163 0.02694821 0.9387024 0.3436741 -0.01648038 0.5226736 0.8523736 -0.2898129 0.9470497 0.1382226 -0.4825599 -0.004181027 0.875853 -0.6890919 -0.5684802 0.449425 -0.5578539 0.1121262 -0.8223302 0.0813657 -0.7480397 0.6586472 0.1196332 -0.9849907 0.1244246 0.02038681 -0.39559 0.918201 -0.1184129 0.1893691 0.9747399 -0.08893281 0.7911176 0.6051644 0.1141122 0.77672 -0.6194227 -0.1229609 -0.8316416 0.5415284 0.1472544 -0.8624684 -0.4842153 -0.3470672 0.8069039 -0.4779652 -0.3782578 -0.7878286 -0.4860525 -0.7234877 -0.4068512 0.5577076 -0.6505693 0.4420343 0.6175479 0.1755752 0.6945186 0.697723 0.8793349 0.04776173 0.4738026 0.4883921 0.5488193 -0.6784325 -0.004852473 -0.9825528 0.1859205 -0.4536063 0.8743436 -0.1725248 -0.6736482 0.2443664 -0.6974835 0.1493311 -0.4002305 0.9041658 -0.1064821 0.9379217 0.3300976 0.0443753 -0.2848381 -0.957548 -0.04425287 0.3456 0.9373379 -0.05148643 0.806204 -0.5893932 0.1281178 0.04513728 -0.9907314 0.2753754 -0.7651182 -0.582033 0.2660622 -0.9283186 0.2596838 0.1426754 -0.413011 0.8994809 0.1021799 -0.4839507 -0.8691093 -0.0572834 0.2111583 -0.9757719 0.1671558 -0.8987717 -0.4053003 0.1446621 -0.9738448 0.175212 0.03836274 -0.6278128 0.7774185 -0.112677 -0.02969521 0.9931879 -0.2253857 0.5520347 0.8027821 -0.2928634 0.9363023 0.1938282 -0.2105499 0.8033798 -0.5570006 0.4079842 -0.9023996 0.1386499 0.1919683 -0.4197361 0.8871132 0.129677 0.9901415 -0.05295115 0.6116419 -0.4484234 -0.6517751 0.05801695 0.9570822 0.2839506 -0.9093058 -0.4095004 0.07397741 -0.5809318 0.3328722 0.7427748 -0.3792991 0.7712944 -0.5111138 -0.6887038 -0.08624815 -0.7198948 0.8459002 0.4263835 0.3203904 0.4410662 -0.279527 0.8528338 0.8291289 -0.05908393 -0.5559266 0.05194365 -0.9738988 0.2209591 -0.001098692 -0.6598601 -0.7513878 -0.529725 -0.7709197 -0.3536586 -0.01351988 0.02761965 -0.9995271 0.5396436 0.7674402 -0.3461508 0.389486 0.5223055 0.7586157 -0.2787278 -0.5762856 0.7682486 -0.6838727 0.3417838 -0.6445946 -0.09689885 -0.972163 -0.2133302 -0.3184053 -0.007873892 0.9479219 0.8797612 0.4743819 -0.03134262 0.816398 -0.2082349 -0.5386396 0.1937038 -0.8943274 -0.403308 0.05914497 -0.2555016 -0.9649978 0.4875763 -0.7041108 0.5162339 0.037355 0.9753504 0.217477 -0.09238177 0.5390312 0.8372043 0.05569744 0.4350811 0.898667 -0.03396773 0.9888491 0.1449962 0.7681447 0.592261 0.2432707 0.1435017 -0.1976124 0.96972 0.2154363 0.6292488 -0.7467484 -0.1144772 -0.8043619 0.5830067 -0.0898776 -0.2153706 0.9723876 -0.1299824 -0.9841006 -0.1210402 0.08768087 -0.1695632 -0.9816112 -0.1001028 -0.6083077 -0.7873635 0.109961 -0.8109585 -0.5746782 -0.08081412 0.1248835 -0.9888747 0.07822024 0.5493118 -0.8319485 -0.01245194 0.8063881 -0.5912557 0.05630701 0.9888978 -0.1375173 -0.5106788 0.4325801 -0.743022 -0.5875352 0.8084674 0.03439569 0.008057057 0.6768283 0.7360969 -0.4960857 0.4336439 0.7522314 -0.6859834 -0.3338207 0.6465219 0.01638883 -0.1063292 0.994196 -0.5653008 -0.815586 0.1235098 -0.1366951 -0.2263603 -0.9644042 -0.4029516 -0.6838244 -0.6082881 0.05991017 -0.6595617 0.7492592 0.09930783 -0.9725395 0.2104874 -0.7246218 -0.1213145 0.6783849 -0.9024797 -0.2960656 -0.312851 -0.2489137 -0.9393777 -0.235821 -0.5238956 0.6688626 0.5274053 -0.6324275 0.6847686 -0.3621152 -0.4341049 0.0563994 -0.8990952 -0.1911095 -0.5744273 -0.7959338 -0.1168884 -0.840406 0.5292022 -0.009827136 0.3177045 0.9481388 0.1513463 -0.4721981 0.8684027 -0.1021792 0.9220237 0.3734057 -0.05874913 0.8500773 -0.523371 0.08478188 0.06634837 -0.9941881 0.2612441 -0.7224498 -0.6401702 0.2857805 -0.9451448 0.1582108 -9.1557e-4 -0.3894835 0.9210331 0.1495747 -0.918934 0.3649489 -0.1699008 0.3095877 0.9355689 -0.2559665 0.8872916 0.3836598 -0.2217818 0.8686023 -0.4431059 -0.09171098 0.3601602 -0.9283715 0.08054018 -0.3257009 -0.9420363 0.1751821 -0.8850664 -0.431241 0.3089767 -0.8951292 -0.3213676 0.6600196 -0.5867723 0.4691187 0.2804113 -0.1214057 0.9521713 0.4436874 0.5689075 0.6924491 0.3462364 0.9371117 0.04406917 0.1430155 0.7815798 -0.6071901 0.3720029 0.3913523 -0.841699 0.7910172 -0.1956256 -0.5796744 0.006134271 0.9781966 0.2075905 -0.3833594 0.6598688 -0.6462265 -0.8518763 -0.4336137 0.2937452 -0.5265204 0.3679721 0.7664026 0.5003092 -0.2680849 -0.8232991 0.587925 0.6293398 -0.5082084 0.7600246 -0.2854785 0.5838361 0.9429271 0.1776838 -0.2816329 0.541929 0.6037304 0.5846559 -0.09115946 -0.3010064 0.9492551 -0.102332 -0.9909697 0.08664494 -0.4556151 -0.862217 -0.2213528 0.003601253 -0.1338878 -0.99099 -0.6463668 -0.2820282 -0.7089923 0.8685175 -0.3922642 -0.3029953 -0.6456031 0.3642466 -0.6712087 0.7138464 0.6860738 0.1404498 -0.5013991 -0.2174489 0.8374455 -0.04968452 -0.9655227 -0.2555338 0.3312498 -0.5142704 -0.7910749 -0.04016238 -0.9948738 -0.09280687 -0.2386935 -0.8195418 -0.5209384 0.2019159 -0.01388627 0.9793044 0.5326533 -0.6835408 0.4990516 0.3692525 0.7044455 0.6061429 -0.03323495 0.03793483 0.9987274 0.3429066 0.8937362 -0.2892244 0.9888882 0.142678 0.04175043 0.3313183 0.4975268 -0.8016828 0.03219741 -0.3264912 -0.9446517 0.0295729 -0.93724 -0.3474289 0.01324522 0.4411827 -0.8973196 0.004974544 0.9782167 -0.2075273 -0.04464936 0.7526612 0.6568924 0.01763999 -0.7964863 0.6043993 -0.1736546 -0.7562366 0.630833 -0.8470068 -0.1766467 -0.5013738 -0.6434736 0.6486009 -0.4065201 -0.5152195 0.6629307 0.5432052 -0.4507692 -0.04919701 0.8912839 -0.5670806 -0.8210323 -0.06576925 -0.02267545 0.9725742 -0.2314853 -0.5501672 0.6353458 0.5418965 0.002258419 0.08902472 0.9960269 -0.5446197 -0.5503879 0.632821 -0.6294929 0.3829268 -0.676096 -0.3225326 -0.7101944 -0.6257768 -0.2003576 0.8774536 0.4358122 -0.122229 0.6223456 -0.7731404 0.1624221 -0.4518032 -0.8772075 0.2927752 -0.9352143 0.1991408 0.01657181 -0.3366556 0.941482 0.1712108 -0.9814254 0.08655148 0.3958908 0.7630635 0.510886 0.3617811 0.4115284 -0.8365159 0.8374829 -0.5433979 0.05780375 -0.4199416 0.3398903 -0.8415008 -0.8434022 -0.4824498 0.2364639 -0.3985187 0.6601287 0.6367205 0.2101873 -0.7433009 0.6350789 0.8568543 0.2623117 0.4438393 -0.3476445 -0.9295852 -0.1225347 0.6689512 -0.2145197 -0.7116781 0.3390351 0.9121507 -0.230296 -0.9787276 -0.192584 0.07073742</float_array>
          <technique_common>
            <accessor source="#node-mesh-normals-array" count="366" stride="3">
              <param name="X" type="float"/>
              <param name="Y" type="float"/>
              <param name="Z" type="float"/>
            </accessor>
          </technique_common>
        </source>
        <vertices id="node-mesh-vertices">
          <input semantic="POSITION" source="#node-mesh-positions"/>
        </vertices>
        <polylist count="634">
          <input semantic="VERTEX" source="#node-mesh-vertices" offset="0"/>
          <input semantic="NORMAL" source="#node-mesh-normals" offset="1"/>
          <vcount>3 3 3 3 3 3 3 3 3 3 3 3 3 3 3 3 3 3 3 3 3 3 3 3 3 3 3 3 3 3 3 3 3 3 3 3 3 3 3 3 3 3 3 3 3 3 3 3 3 3 3 3 3 3 3 3 3 3 3 3 3 3 3 3 3 3 3 3 3 3 3 3 3 3 3 3 3 3 3 3 3 3 3 3 3 3 3 3 3 3 3 3 3 3 3 3 3 3 3 3 3 3 3 3 3 3 3 3 3 3 3 3 3 3 3 3 3 3 3 3 3 3 3 3 3 3 3 3 3 3 3 3 3 3 3 3 3 3 3 3 3 3 3 3 3 3 3 3 3 3 3 3 3 3 3 3 3 3 3 3 3 3 3 3 3 3 3 3 3 3 3 3 3 3 3 3 3 3 3 3 3 3 3 3 3 3 3 3 3 3 3 3 3 3 3 3 3 3 3 3 3 3 3 3 3 3 3 3 3 3 3 3 3 3 3 3 3 3 3 3 3 3 3 3 3 3 3 3 3 3 3 3 3 3 3 3 3 3 3 3 3 3 3 3 3 3 3 3 3 3 3 3 3 3 3 3 3 3 3 3 3 3 3 3 3 3 3 3 3 3 3 3 3 3 3 3 3 3 3 3 3 3 3 3 3 3 3 3 3 3 3 3 3 3 3 3 3 3 3 3 3 3 3 3 3 3 3 3 3 3 3 3 3 3 3 3 3 3 3 3 3 3 3 3 3 3 3 3 3 3 3 3 3 3 3 3 3 3 3 3 3 3 3 3 3 3 3 3 3 3 3 3 3 3 3 3 3 3 3 3 3 3 3 3 3 3 3 3 3 3 3 3 3 3 3 3 3 3 3 3 3 3 3 3 3 3 3 3 3 3 3 3 3 3 3 3 3 3 3 3 3 3 3 3 3 3 3 3 3 3 3 3 3 3 3 3 3 3 3 3 3 3 3 3 3 3 3 3 3 3 3 3 3 3 3 3 3 3 3 3 3 3 3 3 3 3 3 3 3 3 3 3 3 3 3 3 3 3 3 3 3 3 3 3 3 3 3 3 3 3 3 3 3 3 3 3 3 3 3 3 3 3 3 3 3 3 3 3 3 3 3 3 3 3 3 3 3 3 3 3 3 3 3 3 3 3 3 3 3 3 3 3 3 3 3 3 3 3 3 3 3 3 3 3 3 3 3 3 3 3 3 3 3 3 3 3 3 3 3 3 3 3 3 3 3 3 3 3 3 3 3 3 3 3 3 3 3 3 3 3 3 3 3 3 3 3 3 3 3 3 3 3 3 3 3 3 3 3 3 3 3 3 3 3 3 3 3 3 3 3 3 3 3 3 3 3 3 3 3 3 3 3 3 3 3 3 3 3 3 3 3 3 3 3 3 3 3 3 3 3 3 3 3 3 3 3 3 3 3 3 3 3 3 3 </vcount>
          <p>5 0 6 1 0 2 3 3 8 4 1 5 1 5 8 4 7 6 9 7 7 6 8 4 4 8 7 6 9 7 5 0 4 8 6 1 7 6 5 0 0 2 7 6 0 2 1 5 0 2 6 1 1 5 10 9 8 4 3 3 2 10 8 4 10 9 2 10 9 7 8 4 4 8 9 7 2 10 6 1 4 8 2 10 3 3 6 1 10 9 6 1 3 3 1 5 10 9 6 1 2 10 7 6 4 8 5 0 15 11 12 12 13 13 15 11 13 13 14 14 11 15 15 11 18 16 16 17 13 13 12 12 16 17 12 12 11 15 13 13 16 17 17 18 13 13 17 18 14 14 17 18 15 11 14 14 18 16 15 11 17 18 16 17 11 15 17 18 11 15 18 16 17 18 15 11 11 15 12 12 20 19 21 20 28 21 29 22 22 23 30 24 21 20 22 23 28 21 21 20 31 25 22 23 24 26 26 27 27 28 33 29 26 27 24 26 26 27 25 30 21 20 26 27 21 20 20 19 27 28 20 19 28 21 20 19 27 28 26 27 28 21 23 31 27 28 28 21 22 23 29 22 23 31 28 21 29 22 19 32 23 31 29 22 29 22 30 24 19 32 34 33 30 24 31 25 22 23 31 25 30 24 32 34 34 33 31 25 34 33 32 34 33 29 34 33 19 32 30 24 24 26 19 32 34 33 24 26 34 33 33 29 26 27 33 29 25 30 32 34 25 30 33 29 31 25 21 20 25 30 31 25 25 30 32 34 27 28 19 32 24 26 27 28 23 31 19 32 39 35 35 36 37 37 40 38 41 39 39 35 41 39 38 40 39 35 43 41 35 36 38 40 36 42 35 36 43 41 36 42 37 37 35 36 37 37 44 43 39 35 44 43 37 37 36 42 44 43 40 38 39 35 42 44 41 39 40 38 42 44 38 40 41 39 38 40 42 44 43 41 36 42 43 41 44 43 40 38 44 43 43 41 40 38 43 41 42 44 38 40 35 36 39 35 47 45 45 46 48 47 47 45 46 48 45 46 45 46 49 49 48 47 47 45 49 49 50 50 49 49 47 45 48 47 47 45 50 50 46 48 45 46 46 48 49 49 50 50 49 49 46 48 56 51 57 52 55 53 51 54 52 55 57 52 55 53 57 52 53 56 53 56 54 57 55 53 52 55 54 57 53 56 56 51 55 53 54 57 57 52 56 51 51 54 52 55 53 56 57 52 52 55 56 51 54 57 56 51 52 55 51 54 61 58 60 59 71 60 72 61 68 62 58 63 58 63 67 64 72 61 58 63 68 62 61 58 58 63 62 65 66 66 62 65 58 63 61 58 61 58 68 62 60 59 63 67 62 65 61 58 59 68 63 67 71 60 61 58 71 60 63 67 64 69 59 68 70 70 65 71 64 69 73 72 64 69 65 71 59 68 59 68 65 71 63 67 65 71 73 72 66 66 62 65 65 71 66 66 58 63 66 66 67 64 72 61 67 64 73 72 73 72 67 64 66 66 60 59 68 62 69 73 60 59 69 73 71 60 69 73 70 70 71 60 69 73 72 61 70 70 72 61 69 73 68 62 71 60 70 70 59 68 72 61 73 72 64 69 72 61 64 69 70 70 63 67 65 71 62 65 74 74 78 75 75 76 75 76 76 77 74 74 79 78 77 79 80 80 78 75 79 78 80 80 77 79 76 77 75 76 77 79 82 81 76 77 82 81 77 79 79 78 82 81 79 78 81 82 78 75 81 82 79 78 78 75 80 80 75 76 82 81 81 82 74 74 82 81 74 74 76 77 74 74 81 82 78 75 75 76 80 80 77 79 87 83 85 84 84 85 85 84 86 86 84 85 87 83 84 85 83 87 87 83 86 86 85 84 86 86 83 87 84 85 87 83 83 87 86 86 88 88 90 88 89 88 93 89 92 90 91 91 107 92 96 93 115 94 107 92 95 95 96 93 116 96 94 97 92 90 93 89 116 96 92 90 113 98 101 99 99 100 103 101 104 102 99 100 94 97 100 103 92 90 106 104 115 94 116 96 115 94 106 104 105 105 106 104 116 96 93 89 102 106 101 99 112 107 103 101 101 99 102 106 104 102 96 93 95 95 96 93 104 102 103 101 107 92 104 102 95 95 105 105 109 108 107 92 104 102 107 92 109 108 106 104 109 108 105 105 109 108 106 104 108 109 108 109 106 104 93 89 96 93 103 101 102 106 96 93 102 106 97 110 112 107 97 110 102 106 112 107 100 103 97 110 100 103 112 107 111 111 111 111 92 90 100 103 92 90 111 111 110 112 110 112 91 91 92 90 110 112 93 89 91 91 93 89 110 112 108 109 108 109 98 113 109 108 99 100 109 108 98 113 109 108 99 100 104 102 98 113 108 109 110 112 110 112 114 114 98 113 112 107 101 99 113 98 113 98 111 111 112 107 114 114 110 112 113 98 111 111 113 98 110 112 114 114 99 100 98 113 114 114 113 98 99 100 99 100 101 99 103 101 94 97 116 96 115 94 105 105 107 92 115 94 94 97 97 110 100 103 96 93 97 110 94 97 115 94 96 93 94 97 118 115 121 116 117 117 135 118 133 119 132 120 133 119 135 118 134 121 119 122 120 123 117 117 120 123 118 115 117 117 121 116 118 115 124 124 119 122 122 125 123 126 122 125 119 122 117 117 123 126 120 123 119 122 129 127 120 123 123 126 118 115 129 127 124 124 129 127 118 115 120 123 121 116 124 124 125 128 121 116 122 125 117 117 122 125 121 116 125 128 127 129 122 125 126 130 127 129 123 126 122 125 128 131 123 126 127 129 128 131 129 127 123 126 136 132 124 124 129 127 124 124 136 132 130 133 124 124 130 133 125 128 125 128 130 133 126 130 125 128 126 130 122 125 132 120 126 130 131 134 130 133 131 134 126 130 126 130 132 120 127 129 133 119 127 129 132 120 133 119 128 131 127 129 134 121 128 131 133 119 129 127 134 121 135 118 134 121 129 127 128 131 136 132 129 127 135 118 136 132 131 134 130 133 136 132 135 118 131 134 132 120 131 134 135 118 147 135 145 136 149 137 147 135 146 138 145 136 139 139 140 140 138 141 140 140 139 139 142 142 140 140 141 143 138 141 138 141 141 143 137 144 143 145 137 144 141 143 138 141 137 144 144 146 142 142 139 139 138 141 142 142 138 141 144 146 141 143 140 140 143 145 145 136 137 144 143 145 137 144 145 136 146 138 146 138 144 146 137 144 144 146 146 138 147 135 144 146 147 135 148 147 148 147 142 142 144 146 142 142 148 147 149 137 142 142 149 137 140 140 140 140 149 137 145 136 145 136 143 145 140 140 148 147 147 135 149 137 153 148 150 149 152 150 154 151 150 149 153 148 154 151 153 148 151 152 154 151 151 152 152 150 150 149 154 151 152 150 151 152 153 148 152 150 155 153 157 154 173 155 157 154 158 156 173 155 175 157 155 153 156 158 175 157 156 158 172 159 182 160 166 161 167 162 155 153 187 163 157 154 156 158 155 153 173 155 157 154 159 164 158 156 158 156 159 164 160 165 185 166 160 165 186 167 160 165 185 166 161 168 184 169 161 168 185 166 161 168 184 169 171 170 174 171 162 172 163 173 164 174 181 175 182 160 181 175 164 174 163 173 170 176 164 174 182 160 167 162 165 177 182 160 182 160 179 178 166 161 168 179 167 162 177 180 167 162 168 179 165 177 169 181 165 177 168 179 170 176 165 177 169 181 164 174 188 182 176 183 164 174 176 183 163 173 171 170 162 172 174 171 162 172 171 170 183 184 183 184 171 170 184 169 158 156 161 168 171 170 158 156 171 170 172 159 158 156 160 165 161 168 158 156 172 159 173 155 174 171 172 159 171 170 172 159 174 171 175 157 175 157 174 171 176 183 174 171 163 173 176 183 188 182 164 174 170 176 177 180 189 185 168 179 166 161 177 180 167 162 177 180 166 161 178 186 178 186 166 161 186 167 179 178 186 167 166 161 183 184 180 187 162 172 181 175 163 173 162 172 181 175 162 172 180 187 181 175 180 187 182 160 180 187 179 178 182 160 170 176 182 160 165 177 179 178 183 184 184 169 183 184 179 178 180 187 179 178 184 169 185 166 179 178 185 166 186 167 178 186 160 165 159 164 160 165 178 186 186 167 159 164 177 180 178 186 187 163 168 179 189 185 168 179 187 163 169 181 188 182 169 181 187 163 169 181 188 182 170 176 155 153 188 182 187 163 189 185 157 154 187 163 159 164 157 154 189 185 189 185 177 180 159 164 176 183 155 153 175 157 155 153 176 183 188 182 156 158 173 155 172 159 195 188 192 189 190 190 220 191 191 192 216 193 192 189 195 188 196 194 193 195 194 196 190 190 190 190 194 196 195 188 192 189 196 194 197 197 197 197 190 190 192 189 203 198 193 195 190 190 198 199 195 188 194 196 202 200 190 190 197 197 190 190 202 200 203 198 193 195 203 198 204 201 204 201 194 196 193 195 205 202 194 196 204 201 205 202 198 199 194 196 198 199 205 202 199 203 199 203 195 188 198 199 196 194 199 203 200 204 199 203 196 194 195 188 200 204 197 197 196 194 201 205 197 197 200 204 202 200 197 197 201 205 212 206 205 202 211 207 205 202 212 206 199 203 213 208 199 203 212 206 214 209 200 204 199 203 214 209 199 203 213 208 206 210 201 205 200 204 206 210 200 204 214 209 201 205 207 211 202 200 207 211 201 205 206 210 202 200 207 211 208 212 202 200 208 212 203 198 203 198 208 212 209 213 209 213 204 201 203 198 204 201 209 213 210 214 204 201 210 214 211 207 211 207 205 202 204 201 206 210 218 215 219 216 218 215 206 210 214 209 219 216 207 211 206 210 207 211 220 191 208 212 220 191 207 211 219 216 208 212 220 191 209 213 209 213 220 191 215 217 209 213 215 217 210 214 210 214 215 217 216 193 210 214 216 193 211 207 217 218 212 206 211 207 217 218 211 207 216 193 217 218 213 208 212 206 218 215 214 209 213 208 218 215 213 208 217 218 220 191 219 216 191 192 216 193 215 217 220 191 191 192 219 216 218 215 191 192 217 218 216 193 191 192 218 215 217 218 232 219 235 220 233 221 235 220 231 222 230 223 235 220 232 219 231 222 222 224 223 225 221 226 221 226 223 225 224 227 225 228 221 226 224 227 224 227 228 229 225 228 225 228 228 229 229 230 229 230 221 226 225 228 221 226 229 230 226 231 221 226 226 231 222 224 227 232 222 224 226 231 227 232 223 225 222 224 223 225 227 232 234 233 223 225 234 233 224 227 224 227 234 233 228 229 234 233 235 220 228 229 228 229 235 220 230 223 230 223 229 230 228 229 229 230 230 223 231 222 229 230 231 222 226 231 232 219 226 231 231 222 232 219 227 232 226 231 227 232 232 219 233 221 233 221 234 233 227 232 235 220 234 233 233 221 236 234 238 235 237 236 239 237 238 235 236 234 237 236 238 235 239 237 239 237 236 234 237 236 258 238 240 239 241 240 240 239 258 238 259 241 270 242 268 243 242 244 268 243 270 242 269 245 260 246 242 244 244 247 243 248 260 246 258 238 260 246 244 247 259 241 245 249 259 241 244 247 244 247 271 250 245 249 246 251 259 241 245 249 259 241 246 251 240 239 247 252 257 253 267 254 257 253 247 252 261 255 248 256 261 255 247 252 261 255 248 256 262 257 256 258 266 259 249 260 266 259 256 258 248 256 249 260 255 261 256 258 250 262 255 261 249 260 254 263 263 264 250 262 255 261 250 262 263 264 249 260 254 263 250 262 253 265 254 263 249 260 253 265 249 260 266 259 251 266 252 267 266 259 252 267 253 265 266 259 253 265 264 268 254 263 264 268 253 265 265 269 263 264 254 263 264 268 269 245 256 258 255 261 256 258 269 245 262 257 256 258 262 257 248 256 240 239 257 253 241 240 240 239 246 251 257 253 258 238 260 246 259 241 241 240 257 253 261 255 261 255 243 248 241 240 262 257 243 248 261 255 255 261 268 243 269 245 263 264 268 243 255 261 268 243 263 264 271 250 271 250 263 264 264 268 271 250 264 268 245 249 265 269 245 249 264 268 252 267 265 269 253 265 265 269 252 267 267 254 267 254 252 267 251 266 267 254 251 266 247 252 266 259 247 252 251 266 247 252 266 259 248 256 267 254 257 253 246 251 246 251 265 269 267 254 265 269 246 251 245 249 243 248 269 245 270 242 269 245 243 248 262 257 243 248 270 242 260 246 242 244 268 243 271 250 242 244 271 250 244 247 258 238 241 240 243 248 242 244 260 246 270 242 276 270 272 271 274 272 276 270 277 273 272 271 273 274 272 271 277 273 272 271 273 274 278 275 272 271 278 275 279 276 274 272 272 271 279 276 275 277 276 270 274 272 280 278 276 270 286 279 280 278 277 273 276 270 277 273 280 278 281 280 281 280 273 274 277 273 273 274 281 280 282 281 273 274 283 282 278 275 283 282 273 274 282 281 279 276 283 282 284 283 283 282 279 276 278 275 284 283 274 272 279 276 274 272 284 283 285 284 285 284 275 277 274 272 286 279 275 277 285 284 286 279 276 270 275 277 288 285 286 279 287 286 280 278 288 285 289 287 288 285 280 278 286 279 281 280 289 287 290 288 289 287 281 280 280 278 290 288 282 281 281 280 282 281 290 288 291 289 292 290 283 282 282 281 292 290 282 281 291 289 293 291 283 282 292 290 293 291 284 283 283 282 294 292 284 283 293 291 294 292 285 284 284 283 287 286 285 284 294 292 287 286 286 279 285 284 287 286 296 293 297 294 296 293 287 286 294 292 288 285 297 294 298 295 297 294 288 285 287 286 298 295 289 287 288 285 299 296 289 287 298 295 299 296 290 288 289 287 290 288 299 296 300 297 290 288 300 297 291 289 291 289 300 297 301 298 292 290 301 298 302 299 301 298 292 290 291 289 302 299 293 291 292 290 295 300 293 291 302 299 293 291 296 293 294 292 296 293 293 291 295 300 299 296 298 295 297 294 301 298 300 297 302 299 295 300 302 299 300 297 299 296 295 300 300 297 297 294 296 293 295 300 299 296 297 294 295 300 313 301 312 302 315 303 314 304 313 301 315 303 307 305 304 306 303 307 305 308 303 307 304 306 308 309 305 308 304 306 308 309 303 307 305 308 303 307 308 309 309 310 309 310 306 311 303 307 310 312 306 311 309 310 306 311 307 305 303 307 311 313 304 306 307 305 310 312 307 305 306 311 307 305 310 312 311 313 311 313 316 314 312 302 312 302 304 306 311 313 313 301 304 306 312 302 313 301 308 309 304 306 314 304 308 309 313 301 308 309 314 304 309 310 309 310 314 304 315 303 309 310 315 303 310 312 310 312 315 303 316 314 316 314 311 313 310 312 316 314 315 303 312 302 317 315 321 316 318 317 320 318 317 315 318 317 319 319 317 315 320 318 321 316 317 315 319 319 318 317 321 316 320 318 319 319 320 318 321 316 322 320 323 321 324 322 325 323 329 324 327 325 325 323 327 325 334 326 330 327 328 328 331 329 331 329 328 328 322 320 328 328 330 327 327 325 329 324 322 320 328 328 329 324 323 321 322 320 329 324 328 328 327 325 336 330 324 322 339 331 323 321 339 331 324 322 331 329 322 320 337 332 322 320 324 322 337 332 332 333 330 327 331 329 332 333 331 329 337 332 327 325 332 333 333 334 332 333 327 325 330 327 333 334 334 326 327 325 325 323 334 326 335 335 335 335 329 324 325 323 329 324 335 335 339 331 339 331 323 321 329 324 338 336 339 331 335 335 336 330 339 331 326 337 326 337 337 332 336 330 337 332 326 337 341 338 324 322 336 330 337 332 341 338 332 333 337 332 342 339 333 334 332 333 333 334 342 339 343 340 333 334 343 340 334 326 334 326 343 340 338 336 334 326 338 336 335 335 340 341 326 337 339 331 342 339 332 333 341 338 338 336 340 341 339 331 340 341 341 338 326 337 342 339 341 338 340 341 338 336 343 340 340 341 343 340 342 339 340 341 348 342 344 343 350 344 347 345 346 346 349 347 346 346 347 345 344 343 347 345 350 344 344 343 353 348 348 342 350 344 348 342 353 348 354 349 346 346 348 342 357 350 344 343 348 342 346 346 351 351 347 345 349 347 351 351 350 344 347 345 350 344 352 352 353 348 354 349 357 350 348 342 357 350 349 347 346 346 351 351 349 347 357 350 352 352 351 351 355 353 351 351 352 352 350 344 353 348 352 352 356 354 353 348 356 354 358 355 353 348 358 355 354 349 351 351 357 350 355 353 352 352 355 353 345 356 354 349 358 355 357 350 357 350 358 355 345 356 345 356 355 353 357 350 356 354 352 352 345 356 345 356 358 355 356 354 363 357 366 358 365 359 365 359 359 360 362 361 359 360 365 359 360 362 359 360 360 362 361 363 361 363 363 357 364 364 361 363 364 364 362 361 362 361 364 364 365 359 363 357 361 363 360 362 366 358 360 362 365 359 366 358 363 357 360 362 365 359 364 364 363 357 361 363 362 361 359 360 368 365 367 365 369 365</p>
        </polylist>
      </mesh>
    </geometry>
  </library_geometries>
  <library_visual_scenes>
    <visual_scene id="Scene" name="Scene">
      <node id="node" name="node" type="NODE">
        <matrix sid="transform">1 0 0 0 0 1 0 0 0 0 1 0 0 0 0 1</matrix>
        <instance_geometry url="#node-mesh" name="node"/>
      </node>
    </visual_scene>
  </library_visual_scenes>
  <scene>
    <instance_visual_scene url="#Scene"/>
  </scene>
</COLLADA>