<?xml version="1.0" encoding="utf-8"?>
<COLLADA xmlns="http://www.collada.org/2005/11/COLLADASchema" version="1.4.1">
  <asset>
    <contributor>
      <author>Blender User</author>
      <authoring_tool>Blender 2.77.0 commit date:2016-04-05, commit time:18:12, hash:abf6f08</authoring_tool>
    </contributor>
    <created>2017-07-27T14:11:52</created>
    <modified>2017-07-27T14:11:52</modified>
    <unit name="meter" meter="1"/>
    <up_axis>Z_UP</up_axis>
  </asset>
  <library_images>
    <image id="PBRFULL_ConcreteWallHigh-material_Base_Color_jpg" name="PBRFULL_ConcreteWallHigh-material_Base_Color_jpg">
      <init_from>PBRFULL_ConcreteWallHigh-material_Base_Color.jpg</init_from>
    </image>
  </library_images>
  <library_effects>
    <effect id="PBRFULL_ConcreteWallHigh-effect">
      <profile_COMMON>
        <newparam sid="PBRFULL_ConcreteWallHigh-material_Base_Color_jpg-surface">
          <surface type="2D">
            <init_from>PBRFULL_ConcreteWallHigh-material_Base_Color_jpg</init_from>
          </surface>
        </newparam>
        <newparam sid="PBRFULL_ConcreteWallHigh-material_Base_Color_jpg-sampler">
          <sampler2D>
            <source>PBRFULL_ConcreteWallHigh-material_Base_Color_jpg-surface</source>
          </sampler2D>
        </newparam>
        <technique sid="common">
          <phong>
            <emission>
              <color sid="emission">0 0 0 1</color>
            </emission>
            <ambient>
              <color sid="ambient">0 0 0 1</color>
            </ambient>
            <diffuse>
              <texture texture="PBRFULL_ConcreteWallHigh-material_Base_Color_jpg-sampler"/>
            </diffuse>
            <specular>
              <color sid="specular">0.5 0.5 0.5 1</color>
            </specular>
            <shininess>
              <float sid="shininess">50</float>
            </shininess>
            <index_of_refraction>
              <float sid="index_of_refraction">1</float>
            </index_of_refraction>
          </phong>
        </technique>
      </profile_COMMON>
    </effect>
  </library_effects>
  <library_materials>
    <material id="PBRFULL_ConcreteWallHigh-material" name="PBRFULL_ConcreteWallHigh">
      <instance_effect url="#PBRFULL_ConcreteWallHigh-effect"/>
    </material>
  </library_materials>
  <library_geometries>
    <geometry id="Cube-mesh" name="Cube">
      <mesh>
        <source id="Cube-mesh-positions">
          <float_array id="Cube-mesh-positions-array" count="108">0.488732 0.09999996 0.004895389 0.488732 -0.1 0.004895389 -0.4887321 -0.09999996 0.004895389 -0.4887319 0.1 0.004895389 0.4887323 0.0999999 2.004895 0.4887318 -0.1 2.004895 -0.4887322 -0.09999996 2.004895 -0.488732 0.1 2.004895 -0.488732 -0.06083995 0.004895389 0.4887319 -0.06083959 2.004895 -0.4887322 -0.06083953 2.004895 0.488732 -0.06083995 0.004895389 -0.4887319 0.06055784 0.004895389 0.488732 0.0607565 0.004895389 -0.488732 0.06055784 2.004895 0.4887322 0.0607565 2.004895 0.4887322 0.0607565 1.981704 0.4887319 -0.06083959 1.981704 0.488732 0.0607565 0.004895389 0.488732 -0.06083995 0.004895389 -0.4887322 -0.06083953 1.981704 -0.488732 -0.06083995 0.004895389 -0.4887319 0.06055784 0.004895389 -0.488732 0.06055784 1.981704 0.488732 0.0607565 0.004895389 0.488732 -0.06083995 0.004895389 -0.488732 -0.06083995 0.004895389 -0.4887319 0.06055784 0.004895389 -0.4999999 -0.06083995 0.004895389 -0.5 -0.06083953 1.979061 -0.4999999 0.06055784 1.979061 -0.4999998 0.06055784 0.004895389 0.4999999 0.0607565 0.004895389 0.5 0.0607565 1.979061 0.4999997 -0.06083959 1.979061 0.4999999 -0.06083995 0.004895389</float_array>
          <technique_common>
            <accessor source="#Cube-mesh-positions-array" count="36" stride="3">
              <param name="X" type="float"/>
              <param name="Y" type="float"/>
              <param name="Z" type="float"/>
            </accessor>
          </technique_common>
        </source>
        <source id="Cube-mesh-normals">
          <float_array id="Cube-mesh-normals-array" count="153">0 2.84783e-7 -1 0 0 1 1 -1.39183e-7 -1.19209e-7 0 -1 0 -1 1.52208e-6 0 0 1 0 -0.01159471 -0.9999329 0 1 0 0 0 0 -1 -1 1.37271e-6 0 0 0 -1 2.50743e-7 0 1 0.3419783 0.9397079 0 2.03246e-4 -1 0 0 1 0 -1 1.04146e-6 0 0 -1 1.95469e-7 -0.228403 1.65713e-7 0.9735667 0 1 0 0 0 -1 1 0 1.20769e-7 0 1 0 0.2284111 -6.6177e-7 0.9735649 0 -1 1.93379e-7 0 0 -1 0 2.83348e-7 -1 1.79666e-7 0 1 1 -3.03769e-6 0 0 -1 0 -1 1.52206e-6 0 0 1 0 0 0 1 1 -3.04412e-6 1.63913e-7 0 0 -1 -1 0 0 0.02781838 -0.9996131 0 0 0 -1 1.19833e-7 0 1 -0.6977415 0.7163498 0 2.03246e-4 -1 0 0 1 0 -1 9.94826e-7 0 0 -1 2.04105e-7 -0.2284231 1.65712e-7 0.973562 0 1 0 0 0 -1 1 -2.9796e-6 0 0 1 0 0.2284106 -6.61768e-7 0.9735649 0 -1 1.92592e-7 0 0 -1</float_array>
          <technique_common>
            <accessor source="#Cube-mesh-normals-array" count="51" stride="3">
              <param name="X" type="float"/>
              <param name="Y" type="float"/>
              <param name="Z" type="float"/>
            </accessor>
          </technique_common>
        </source>
        <source id="Cube-mesh-map-0">
          <float_array id="Cube-mesh-map-0-array" count="408">0.789838 0.004682123 0.7765189 0.4623473 0.7765188 0.004682123 0.8379631 0.9293771 0.8246438 0.4717118 0.837963 0.4717118 0.8846805 0.9411161 0.8713614 0.004682123 0.8846806 0.004682123 0.003393948 0.004682362 0.3351445 0.941116 0.003394126 0.9411162 0.9248385 0.9411162 0.9115476 0.004682123 0.9248385 0.004682123 0.3419324 0.004682242 0.6736829 0.9411162 0.3419325 0.9411162 0 0 0 0 0 0 0.9873672 0.4623473 0.974076 0.004682183 0.9873671 0.004682123 0.9047595 0.9411161 0.8914685 0.004682123 0.9047594 0.004682123 0.8311078 0.4623474 0.8443986 0.004682123 0.8443987 0.4623475 0.8645734 0.9411162 0.8511867 0.004682123 0.8645734 0.004682123 0 0 0 0 0 0 0 0 0 0 0 0 0.7899056 0.4623473 0.8311077 0.004682123 0.8311078 0.4623474 0 0 0 0 0 0 0.8177211 0.9346529 0.7765188 0.4769877 0.8177884 0.4769876 0 0 0 0 0 0 0 0 0 0 0 0 0 0 0 0 0 0 0 0 0 0 0 0 0.9819471 0.9293771 0.974076 0.4717118 0.9819471 0.4717118 0.996606 0.929377 0.988735 0.4717118 0.996606 0.4717118 0 0 0 0 0 0 0 0 0 0 0 0 0 0 0 0 0 0 0 0 0 0 0 0 0.7285287 0.004682123 0.7697309 0.92902 0.7285286 0.9290201 0.9354508 0.005919814 0.9316267 0.9302576 0.9316265 0.004682123 0.8177211 0.9399287 0.7765189 0.9346529 0.8177211 0.9346529 0.9634639 0.004682123 0.967288 0.92902 0.9634638 0.9302577 0.6949074 0.9952248 0.6910832 0.9383843 0.6949074 0.9383843 0.680471 0.9290199 0.7217406 0.004682183 0.7217407 0.9290199 0.9566758 0.005919873 0.9528514 0.9302577 0.9528515 0.004682123 0.7765188 0.4717119 0.8177884 0.4769876 0.7765188 0.4769877 0.9460634 0.9302576 0.942239 0.005919814 0.9460632 0.004682123 0.6842952 0.9383843 0.680471 0.9953178 0.680471 0.9383843 0.789838 0.004682123 0.7899056 0.4623473 0.7765189 0.4623473 0.8379631 0.9293771 0.8245764 0.9293771 0.8246438 0.4717118 0.8846805 0.9411161 0.8713614 0.9411161 0.8713614 0.004682123 0.003393948 0.004682362 0.3351442 0.004682123 0.3351445 0.941116 0.9248385 0.9411162 0.9115475 0.9411162 0.9115476 0.004682123 0.3419324 0.004682242 0.6736828 0.004682123 0.6736829 0.9411162 0 0 0 0 0 0 0.9873672 0.4623473 0.9740762 0.4623474 0.974076 0.004682183 0.9047595 0.9411161 0.8914685 0.941116 0.8914685 0.004682123 0.8311078 0.4623474 0.8311077 0.004682123 0.8443986 0.004682123 0.8645734 0.9411162 0.8511868 0.9411162 0.8511867 0.004682123 0 0 0 0 0 0 0 0 0 0 0 0 0.7899056 0.4623473 0.789838 0.004682123 0.8311077 0.004682123 0.8177211 0.9346529 0.7765189 0.9346529 0.7765188 0.4769877 0 0 0 0 0 0 0 0 0 0 0 0 0 0 0 0 0 0 0.9819471 0.9293771 0.974076 0.9293771 0.974076 0.4717118 0.996606 0.929377 0.988735 0.929377 0.988735 0.4717118 0 0 0 0 0 0 0 0 0 0 0 0 0.7285287 0.004682123 0.7697309 0.004682123 0.7697309 0.92902 0.9354508 0.005919814 0.935451 0.9302576 0.9316267 0.9302576 0.8177211 0.9399287 0.7765189 0.9399287 0.7765189 0.9346529 0.9634639 0.004682123 0.9672881 0.004682123 0.967288 0.92902 0.6949074 0.9952248 0.6910832 0.9952248 0.6910832 0.9383843 0.680471 0.9290199 0.6804711 0.004682123 0.7217406 0.004682183 0.9566758 0.005919873 0.9566757 0.9302577 0.9528514 0.9302577 0.7765188 0.4717119 0.8177884 0.4717118 0.8177884 0.4769876 0.9460634 0.9302576 0.9422392 0.9302576 0.942239 0.005919814 0.6842952 0.9383843 0.6842952 0.9953178 0.680471 0.9953178</float_array>
          <technique_common>
            <accessor source="#Cube-mesh-map-0-array" count="204" stride="2">
              <param name="S" type="float"/>
              <param name="T" type="float"/>
            </accessor>
          </technique_common>
        </source>
        <vertices id="Cube-mesh-vertices">
          <input semantic="POSITION" source="#Cube-mesh-positions"/>
        </vertices>
        <polylist material="PBRFULL_ConcreteWallHigh-material" count="68">
          <input semantic="VERTEX" source="#Cube-mesh-vertices" offset="0"/>
          <input semantic="NORMAL" source="#Cube-mesh-normals" offset="1"/>
          <input semantic="TEXCOORD" source="#Cube-mesh-map-0" offset="2" set="0"/>
          <vcount>3 3 3 3 3 3 3 3 3 3 3 3 3 3 3 3 3 3 3 3 3 3 3 3 3 3 3 3 3 3 3 3 3 3 3 3 3 3 3 3 3 3 3 3 3 3 3 3 3 3 3 3 3 3 3 3 3 3 3 3 3 3 3 3 3 3 3 3 </vcount>
          <p>13 0 0 3 0 1 0 0 2 7 1 3 15 1 4 4 1 5 4 2 6 13 2 7 0 2 8 5 3 9 2 3 10 1 3 11 6 4 12 8 4 13 2 4 14 0 5 15 7 5 16 4 5 17 12 6 18 23 6 19 14 6 20 10 1 21 5 1 22 9 1 23 9 7 24 1 7 25 11 7 26 8 8 27 1 8 28 2 8 29 14 9 30 3 9 31 12 9 32 13 1 33 19 1 34 11 1 35 13 1 36 16 1 37 18 1 38 12 10 39 11 10 40 8 10 41 23 1 42 22 1 43 27 1 44 23 11 45 17 11 46 16 11 47 18 1 48 16 1 49 24 1 50 8 1 51 22 1 52 12 1 53 11 12 54 17 12 55 9 12 56 8 1 57 20 1 58 21 1 59 14 13 60 16 13 61 15 13 62 9 14 63 20 14 64 10 14 65 21 1 66 27 1 67 22 1 68 18 1 69 25 1 70 19 1 71 17 1 72 19 1 73 25 1 74 21 1 75 20 1 76 26 1 77 29 15 78 31 15 79 28 15 80 29 16 81 26 16 82 20 16 83 30 17 84 20 17 85 23 17 86 27 18 87 30 18 88 23 18 89 26 19 90 31 19 91 27 19 92 32 20 93 34 20 94 35 20 95 33 21 96 24 21 97 16 21 98 34 22 99 16 22 100 17 22 101 25 23 102 34 23 103 17 23 104 32 24 105 25 24 106 24 24 107 13 25 108 12 25 109 3 25 110 7 26 111 14 26 112 15 26 113 4 27 114 15 27 115 13 27 116 5 28 117 6 28 118 2 28 119 6 29 120 10 29 121 8 29 122 0 30 123 3 30 124 7 30 125 12 1 126 22 1 127 23 1 128 10 31 129 6 31 130 5 31 131 9 32 132 5 32 133 1 32 134 8 33 135 11 33 136 1 33 137 14 34 138 7 34 139 3 34 140 13 1 141 18 1 142 19 1 143 13 35 144 15 35 145 16 35 146 12 36 147 13 36 148 11 36 149 23 37 150 20 37 151 17 37 152 8 1 153 21 1 154 22 1 155 11 1 156 19 1 157 17 1 158 8 38 159 10 38 160 20 38 161 14 39 162 23 39 163 16 39 164 9 40 165 17 40 166 20 40 167 21 1 168 26 1 169 27 1 170 18 1 171 24 1 172 25 1 173 29 41 174 30 41 175 31 41 176 29 42 177 28 42 178 26 42 179 30 43 180 29 43 181 20 43 182 27 44 183 31 44 184 30 44 185 26 45 186 28 45 187 31 45 188 32 46 189 33 46 190 34 46 191 33 47 192 32 47 193 24 47 194 34 48 195 33 48 196 16 48 197 25 49 198 35 49 199 34 49 200 32 50 201 35 50 202 25 50 203</p>
        </polylist>
      </mesh>
    </geometry>
  </library_geometries>
  <library_controllers/>
  <library_visual_scenes>
    <visual_scene id="Scene" name="Scene">
      <node id="Cube" name="Cube" type="NODE">
        <matrix sid="transform">2 0 0 0 0 1.999999 0 0 0 0 2 0 0 0 0 1</matrix>
        <instance_geometry url="#Cube-mesh" name="Cube">
          <bind_material>
            <technique_common>
              <instance_material symbol="PBRFULL_ConcreteWallHigh-material" target="#PBRFULL_ConcreteWallHigh-material"/>
            </technique_common>
          </bind_material>
        </instance_geometry>
      </node>
    </visual_scene>
  </library_visual_scenes>
  <scene>
    <instance_visual_scene url="#Scene"/>
  </scene>
</COLLADA>