<?xml version="1.0" encoding="utf-8"?>
<COLLADA xmlns="http://www.collada.org/2005/11/COLLADASchema" version="1.4.1">
  <asset>
    <contributor>
      <author>Blender User</author>
      <authoring_tool>Blender 2.76.0 commit date:2015-11-03, commit time:10:56, hash:f337fea</authoring_tool>
    </contributor>
    <created>2016-01-14T15:16:29</created>
    <modified>2016-01-14T15:16:29</modified>
    <unit name="meter" meter="1"/>
    <up_axis>Z_UP</up_axis>
  </asset>
  <library_images/>
  <library_effects>
    <effect id="Leiste_unten-effect">
      <profile_COMMON>
        <technique sid="common">
          <lambert>
            <emission>
              <color sid="emission">0 0 0 1</color>
            </emission>
            <ambient>
              <color sid="ambient">0 0 0 1</color>
            </ambient>
            <diffuse>
              <color sid="diffuse">0.01892046 0.01892046 0.01892046 1</color>
            </diffuse>
            <index_of_refraction>
              <float sid="index_of_refraction">1</float>
            </index_of_refraction>
          </lambert>
        </technique>
      </profile_COMMON>
    </effect>
    <effect id="Leiste-effect">
      <profile_COMMON>
        <technique sid="common">
          <lambert>
            <emission>
              <color sid="emission">0 0 0 1</color>
            </emission>
            <ambient>
              <color sid="ambient">0 0 0 1</color>
            </ambient>
            <diffuse>
              <color sid="diffuse">0.58125 0.5718274 0.3772959 1</color>
            </diffuse>
            <index_of_refraction>
              <float sid="index_of_refraction">1</float>
            </index_of_refraction>
          </lambert>
        </technique>
      </profile_COMMON>
    </effect>
  </library_effects>
  <library_materials>
    <material id="Leiste_unten-material" name="Leiste_unten">
      <instance_effect url="#Leiste_unten-effect"/>
    </material>
    <material id="Leiste-material" name="Leiste">
      <instance_effect url="#Leiste-effect"/>
    </material>
  </library_materials>
  <library_geometries>
    <geometry id="Cube_089-mesh" name="Cube.089">
      <mesh>
        <source id="Cube_089-mesh-positions">
          <float_array id="Cube_089-mesh-positions-array" count="96">-72.50093 0.9999998 -1.000023 -72.50093 -1 -1.000023 -74.50093 -0.9999999 -1.000023 -74.50093 1 -1.000023 -72.50093 0.9999993 0.9999771 -72.50093 -1.000001 0.9999771 -74.50093 -0.9999998 0.9999771 -74.50093 0.9999999 0.9999771 73.50296 1 -1.00003 73.50296 -0.9999999 -1.00003 71.50296 -0.9999997 -1.00003 71.50296 1 -1.00003 73.50296 0.9999995 0.9999695 73.50296 -1 0.9999695 71.50296 -0.9999995 0.9999695 71.50296 1 0.9999695 77.66532 -0.7415775 -1.000023 -76.66732 -0.7415778 -1.000023 -76.6673 -0.7156597 -1.000023 77.66536 -0.7156595 -1.000023 77.66529 -0.7415775 0.9999771 -76.66736 -0.7415778 0.9999771 -76.66728 -0.7156597 0.9999771 77.66533 -0.7156595 0.9999771 77.66532 0.7156595 -1.000023 -76.66733 0.7156593 -1.000023 -76.66732 0.7415773 -1.000023 77.66535 0.7415775 -1.000023 77.66529 0.7156595 0.9999771 -76.66738 0.7156593 0.9999771 -76.6673 0.7415773 0.9999771 77.66532 0.7415775 0.9999771</float_array>
          <technique_common>
            <accessor source="#Cube_089-mesh-positions-array" count="32" stride="3">
              <param name="X" type="float"/>
              <param name="Y" type="float"/>
              <param name="Z" type="float"/>
            </accessor>
          </technique_common>
        </source>
        <source id="Cube_089-mesh-normals">
          <float_array id="Cube_089-mesh-normals-array" count="87">0 0 -1 0 0 1 1 0 0 -4.76837e-7 -1 0 -1 0 0 2.38419e-7 1 1.78814e-7 0 0 -1 -4.76837e-7 -1 1.19209e-7 2.38419e-7 1 2.38419e-7 0 0 -1 0 0 1 0 -1 0 -0.9999958 0.002943634 7.62929e-6 0 1 0 0.9999985 -0.001766145 1.52587e-5 0 0 1 0 -1 0 -0.9999958 0.002943634 7.62943e-6 0 1 0 0.9999994 -0.00117743 1.52588e-5 -1.19209e-7 -1 -2.38419e-7 2.98023e-7 1 2.38419e-7 0 -1 -3.57628e-7 2.98023e-7 1 1.78814e-7 0 -1 0 -0.9999999 5.88733e-4 -2.28882e-5 0 1 0 0.9999985 -0.001766145 1.52588e-5 0 -1 0</float_array>
          <technique_common>
            <accessor source="#Cube_089-mesh-normals-array" count="29" stride="3">
              <param name="X" type="float"/>
              <param name="Y" type="float"/>
              <param name="Z" type="float"/>
            </accessor>
          </technique_common>
        </source>
        <vertices id="Cube_089-mesh-vertices">
          <input semantic="POSITION" source="#Cube_089-mesh-positions"/>
        </vertices>
        <polylist material="Leiste_unten-material" count="48">
          <input semantic="VERTEX" source="#Cube_089-mesh-vertices" offset="0"/>
          <input semantic="NORMAL" source="#Cube_089-mesh-normals" offset="1"/>
          <vcount>3 3 3 3 3 3 3 3 3 3 3 3 3 3 3 3 3 3 3 3 3 3 3 3 3 3 3 3 3 3 3 3 3 3 3 3 3 3 3 3 3 3 3 3 3 3 3 3 </vcount>
          <p>0 0 1 0 2 0 4 1 7 1 6 1 4 2 5 2 1 2 5 3 6 3 2 3 2 4 6 4 7 4 0 5 3 5 7 5 8 6 9 6 10 6 12 1 15 1 14 1 12 2 13 2 9 2 13 7 14 7 10 7 10 4 14 4 15 4 8 8 11 8 15 8 16 9 17 9 18 9 20 10 23 10 22 10 20 11 21 11 17 11 21 12 22 12 18 12 18 13 22 13 23 13 16 14 19 14 23 14 24 9 25 9 26 9 28 15 31 15 30 15 28 16 29 16 25 16 29 17 30 17 26 17 26 18 30 18 31 18 24 19 27 19 31 19 3 9 0 9 2 9 5 1 4 1 6 1 0 2 4 2 1 2 1 20 5 20 2 20 3 4 2 4 7 4 4 21 0 21 7 21 11 9 8 9 10 9 13 1 12 1 14 1 8 2 12 2 9 2 9 22 13 22 10 22 11 4 10 4 15 4 12 23 8 23 15 23 19 9 16 9 18 9 21 1 20 1 22 1 16 24 20 24 17 24 17 25 21 25 18 25 19 26 18 26 23 26 20 27 16 27 23 27 27 9 24 9 26 9 29 1 28 1 30 1 24 28 28 28 25 28 25 25 29 25 26 25 27 26 26 26 31 26 28 19 24 19 31 19</p>
        </polylist>
      </mesh>
    </geometry>
  </library_geometries>
  <library_controllers/>
  <library_visual_scenes>
    <visual_scene id="Scene" name="Scene">
      <node id="Leiste_004" name="Leiste_004" type="NODE">
        <matrix sid="transform">-0.03479343 -4.05406e-7 0 0 5.25366e-9 -2.684881 0 0 0 0 0.03479343 0 0 0 0 1</matrix>
        <instance_geometry url="#Cube_089-mesh" name="Leiste_004">
          <bind_material>
            <technique_common>
              <instance_material symbol="Leiste_unten-material" target="#Leiste_unten-material"/>
              <instance_material symbol="Leiste-material" target="#Leiste-material"/>
            </technique_common>
          </bind_material>
        </instance_geometry>
      </node>
    </visual_scene>
  </library_visual_scenes>
  <scene>
    <instance_visual_scene url="#Scene"/>
  </scene>
</COLLADA>