<?xml version="1.0" encoding="utf-8"?>
<COLLADA xmlns="http://www.collada.org/2005/11/COLLADASchema" version="1.4.1">
  <asset>
    <contributor>
      <author>Blender User</author>
      <authoring_tool>Blender 2.76.0 commit date:2015-10-09, commit time:12:01, hash:a3cf9c5</authoring_tool>
    </contributor>
    <created>2015-10-29T12:52:29</created>
    <modified>2015-10-29T12:52:29</modified>
    <unit name="meter" meter="1"/>
    <up_axis>Z_UP</up_axis>
  </asset>
  <library_images>
    <image id="fliesentextur_512_jpg" name="fliesentextur_512_jpg">
      <init_from>fliesentextur_512.jpg</init_from>
    </image>
  </library_images>
  <library_effects>
    <effect id="Spüleauflage-effect">
      <profile_COMMON>
        <newparam sid="fliesentextur_512_jpg-surface">
          <surface type="2D">
            <init_from>fliesentextur_512_jpg</init_from>
          </surface>
        </newparam>
        <newparam sid="fliesentextur_512_jpg-sampler">
          <sampler2D>
            <source>fliesentextur_512_jpg-surface</source>
          </sampler2D>
        </newparam>
        <technique sid="common">
          <phong>
            <emission>
              <color sid="emission">0 0 0 1</color>
            </emission>
            <ambient>
              <color sid="ambient">0 0 0 1</color>
            </ambient>
            <diffuse>
              <texture texture="fliesentextur_512_jpg-sampler" texcoord="UVMap"/>
            </diffuse>
            <specular>
              <color sid="specular">0.3421053 0.3421053 0.3421053 1</color>
            </specular>
            <shininess>
              <float sid="shininess">50</float>
            </shininess>
            <index_of_refraction>
              <float sid="index_of_refraction">1</float>
            </index_of_refraction>
          </phong>
        </technique>
      </profile_COMMON>
    </effect>
    <effect id="Spüleauflage2-effect">
      <profile_COMMON>
        <technique sid="common">
          <phong>
            <emission>
              <color sid="emission">0 0 0 1</color>
            </emission>
            <ambient>
              <color sid="ambient">0 0 0 1</color>
            </ambient>
            <diffuse>
              <color sid="diffuse">0.64 0.566121 0.3034383 1</color>
            </diffuse>
            <specular>
              <color sid="specular">0.5 0.5 0.5 1</color>
            </specular>
            <shininess>
              <float sid="shininess">50</float>
            </shininess>
            <index_of_refraction>
              <float sid="index_of_refraction">1</float>
            </index_of_refraction>
          </phong>
        </technique>
      </profile_COMMON>
    </effect>
  </library_effects>
  <library_materials>
    <material id="Spüleauflage-material" name="Spüleauflage">
      <instance_effect url="#Spüleauflage-effect"/>
    </material>
    <material id="Spüleauflage2-material" name="Spüleauflage2">
      <instance_effect url="#Spüleauflage2-effect"/>
    </material>
  </library_materials>
  <library_geometries>
    <geometry id="Cube_006-mesh" name="Cube.006">
      <mesh>
        <source id="Cube_006-mesh-positions">
          <float_array id="Cube_006-mesh-positions-array" count="336">1 0.9999995 1 0.9999994 -1.000001 1 -1 -0.9999997 1 -1 1 1 0.9999998 -0.04713332 1 -1 -0.04713261 1 0.9999994 -0.7830737 1 -1 -0.7830727 1 0.7123544 0.9999998 1 -0.4839382 0.9999999 1 0.7123528 -1 1 -0.4839394 -0.9999999 1 -0.4839389 -0.04713284 1 0.7123536 -0.04713308 1 -0.4839393 -0.783073 1 0.7123528 -0.7830733 1 -1 -0.1962647 1 0.9999997 -0.1962655 1 0.7123535 -0.1962652 1 -0.4839389 -0.1962649 1 -0.4839393 -0.783073 0.1950309 0.7123528 -0.7830733 0.1950309 0.7123535 -0.1962652 0.1950309 -0.4839389 -0.1962649 0.1950309 -1 0.9788281 1 1 0.9788275 1 0.7123544 0.9788278 1 -0.4839382 0.978828 1 0.9999994 -0.9602273 1 -1 -0.9602263 1 0.7123528 -0.9602269 1 -0.4839394 -0.9602265 1 -0.9350411 1 1 -0.9350416 -0.9999997 1 -0.9350414 -0.04713261 1 -0.9350416 -0.7830728 1 -0.9350414 -0.1962647 1 -0.9350411 0.9788281 1 -0.9350416 -0.9602264 1 0.8838558 -0.04713326 1 0.8838553 -0.7830736 1 0.8838566 0.9999996 1 0.8838552 -1 1 0.8838558 -0.1962653 1 0.8838566 0.9788277 1 0.8838552 -0.9602271 1 0.9999994 -0.9602273 1.033259 0.9999994 -1.000001 1.033259 -0.9350411 1 1.033259 -1 1 1.033259 -0.9350416 -0.9999997 1.033259 -1 -0.9999997 1.033259 -1 0.9788281 1.033259 1 0.9788275 1.033259 0.9999998 -0.04713332 1.033259 -1 -0.1962647 1.033259 -1 -0.04713261 1.033259 0.8838558 -0.04713326 1.033259 0.9999997 -0.1962655 1.033259 0.9999994 -0.7830737 1.033259 -1 -0.9602263 1.033259 -1 -0.7830727 1.033259 0.8838553 -0.7830736 1.033259 0.8838566 0.9999996 1.033259 0.7123544 0.9999998 1.033259 -0.4839382 0.9999999 1.033259 0.8838552 -1 1.033259 0.7123528 -1 1.033259 -0.4839394 -0.9999999 1.033259 0.7123528 -0.9602269 1.033259 -0.4839394 -0.9602265 1.033259 0.8838558 -0.1962653 1.033259 1 0.9999995 1.033259 0.7123544 0.9788278 1.033259 -0.4839382 0.978828 1.033259 0.8838566 0.9788277 1.033259 -0.9350411 0.9788281 1.033259 0.8838552 -0.9602271 1.033259 -0.9350416 -0.9602264 1.033259 -0.9350414 -0.04713261 1.033259 -0.9350416 -0.7830728 1.033259 -0.9350414 -0.1962647 1.033259 -1 -0.055606 1 0.9999998 -0.05560678 1 0.7123536 -0.05560648 1 -0.4839389 -0.05560624 1 -0.9350414 -0.05560606 1 0.8838558 -0.05560666 1 -1 -0.055606 1.033259 0.9999998 -0.05560678 1.033259 -0.9350414 -0.05560606 1.033259 0.8838558 -0.05560666 1.033259 -0.9675205 1 1 -0.967521 -0.9999997 1 -0.9675205 1 1.033259 -0.967521 -0.9999997 1.033259 -0.9675207 -0.04713261 1.033259 -0.967521 -0.7830727 1.033259 -0.9675207 -0.1962647 1.033259 -0.9675205 0.9788281 1.033259 -0.967521 -0.9602263 1.033259 -0.9675207 -0.055606 1.033259 -0.9512811 -0.04713261 1.033259 -0.9512813 -0.7830727 1.033259 -0.9512811 -0.1962647 1.033259 -0.9512808 0.9788281 1.033259 -0.9512813 -0.9602263 1.033259 -0.9512811 -0.055606 1.033259 -0.9512808 1 1 -0.9512813 -0.9999997 1 -0.9512808 1 1.033259 -0.9512813 -0.9999997 1.033259</float_array>
          <technique_common>
            <accessor source="#Cube_006-mesh-positions-array" count="112" stride="3">
              <param name="X" type="float"/>
              <param name="Y" type="float"/>
              <param name="Z" type="float"/>
            </accessor>
          </technique_common>
        </source>
        <source id="Cube_006-mesh-normals">
          <float_array id="Cube_006-mesh-normals-array" count="192">0 1 0 1.04263e-6 1 0 1 -2.72931e-7 0 0 0 1 1 -6.30921e-7 0 -5.29297e-7 0 1 0 0 1 -1 2.18345e-7 0 -2.64262e-7 -1 0 0 0 1 1 -3.81749e-7 0 0 0 1 2.98947e-7 1 0 -1 1.13566e-6 0 -2.2421e-7 -1 0 2.98947e-7 1 0 -1 3.98151e-7 0 -1 0 0 -1.02639e-6 -1 0 1 -6.55036e-7 0 0 0 1 1.02639e-6 1 0 1 0 0 -3.96394e-7 -1 0 0 -1 0 2.64262e-7 1 0 -1 6.32258e-7 0 4.62052e-7 0 1 0 0 1 0 0 1 0 0 1 0 0 1 0 0 1 0 0 1 0 0 1 1.92699e-7 0 1 0 0 1 -7.30108e-7 0 1 0 0 1 -1.28241e-7 0 1 -8.16381e-7 0 1 -1.04263e-6 -1 0 3.96394e-7 1 0 -1 7.64208e-7 0 -1.39018e-6 -1 0 -1 3.81749e-7 0 1 -5.72624e-7 0 -2.98947e-7 -1 0 0 1 0 -1 7.63499e-7 0 1.39018e-6 1 0 -3.67031e-6 -1 0 1 -7.96303e-7 0 -5.11974e-7 0 1 -1.13301e-6 0 1 2.70124e-6 0 1 0 -1 0 2.16967e-7 0 1 4.62053e-7 0 1 -2.69833e-6 0 1 2.08028e-7 0 1 -6.52342e-6 0 1 6.89077e-7 0 1 1.80082e-6 0 1</float_array>
          <technique_common>
            <accessor source="#Cube_006-mesh-normals-array" count="64" stride="3">
              <param name="X" type="float"/>
              <param name="Y" type="float"/>
              <param name="Z" type="float"/>
            </accessor>
          </technique_common>
        </source>
        <source id="Cube_006-mesh-map-0">
          <float_array id="Cube_006-mesh-map-0-array" count="776">0 0 1 0 1 1 0 1 0 0 1 0 1 1 0 1 0 0 1 0 1 1 0 1 0 0 1 0 1 1 0 1 0 0 1 0 1 1 0 1 0 0 1 0 1 1 0 1 0 0 1 0 1 1 0 1 0 0 1 0 1 1 0 1 0 0 1 0 1 1 0 1 0 0 1 0 1 1 0 1 0 0 1 0 1 1 0 1 0 0 1 0 1 1 0 1 0 0 1 0 1 1 0 1 0 0 1 0 1 1 0 1 0 0 1 0 1 1 0 1 0 0 1 0 1 1 0 1 0 0 1 0 1 1 0 1 0 0 1 0 1 1 0 1 0 0 1 0 1 1 0 1 0 0 1 0 1 1 0 1 0 0 1 0 1 1 0 1 0 0 1 0 1 1 0 1 0 0 1 0 1 1 0 1 0 0 1 0 1 1 0 1 0 0 1 0 1 1 0 1 0 0 1 0 1 1 0 1 0 0 1 0 1 1 0 1 0 0 1 0 1 1 0 1 0 0 1 0 1 1 0 1 0 0 1 0 1 1 0 1 0 0 1 0 1 1 0 1 0 0 1 0 1 1 0 1 0 0 1 0 1 1 0 1 0 0 1 0 1 1 0 1 0 0 1 0 1 1 0 1 0 0 1 0 1 1 0 1 0 0 1 0 1 1 0 1 0 0 1 0 1 1 0 1 0 0 1 0 1 1 0 1 0 0 1 0 1 1 0 1 0 0 1 0 1 1 0 1 0 0 1 0 1 1 0 1 0 0 1 0 1 1 0 1 0 0 1 0 1 1 0 1 0 0 1 0 1 1 0 1 0 0 1 0 1 1 0 1 0 0 1 0 1 1 0 1 0 0 1 0 1 1 0 1 0 0 1 0 1 1 0 1 0 0 1 0 1 1 0 1 0 0 1 0 1 1 0 1 0 0 1 0 1 1 0 1 0 0 1 0 1 1 0 1 0 0 1 0 1 1 0 1 0 0 1 0 1 1 0 1 0 0 1 0 1 1 0 1 0 0 1 0 1 1 0 1 0 0 1 0 1 1 0 1 0 0 1 0 1 1 0 1 0 0 1 0 1 1 0 1 0 0 1 0 1 1 0 1 0 0 1 0 1 1 0 1 0 0 1 0 1 1 0 1 0 0 1 0 1 1 0 1 0 0 1 0 1 1 0 1 0 0 1 0 1 1 0 1 0 0 1 0 1 1 0 1 0 0 1 0 1 1 0 1 0 0 1 0 1 1 0 1 0 0 1 0 1 1 0 1 0 0 1 0 1 1 0 1 0 0 1 0 1 1 0 1 0 0 1 0 1 1 0 1 0 0 1 0 1 1 0 1 0 0 1 0 1 1 0 1 0 0 1 0 1 1 0 1 0 0 1 0 1 1 0 1 0 0 1 0 1 1 0 1 0 0 1 0 1 1 0 1 0 0 1 0 1 1 0 1 0 0 1 0 1 1 0 1 0 0 1 0 1 1 0 1 0 0 1 0 1 1 0 1 0 0 1 0 1 1 0 1 0 0 1 0 1 1 0 1 0 0 1 0 1 1 0 1 0 0 1 0 1 1 0 1 0 0 1 0 1 1 0 1 0 0 1 0 1 1 0 1 0 0 1 0 1 1 0 1 0 0 1 0 1 1 0 1 0 0 1 0 1 1 0 1 0 0 1 0 1 1 0 1 0 0 1 0 1 1 0 1 0 0 1 0 1 1 0 1 0 0 1 0 1 1 0 1 0 0 1 0 1 1 0 1</float_array>
          <technique_common>
            <accessor source="#Cube_006-mesh-map-0-array" count="388" stride="2">
              <param name="S" type="float"/>
              <param name="T" type="float"/>
            </accessor>
          </technique_common>
        </source>
        <vertices id="Cube_006-mesh-vertices">
          <input semantic="POSITION" source="#Cube_006-mesh-positions"/>
        </vertices>
        <polylist material="Spüleauflage-material" count="97">
          <input semantic="VERTEX" source="#Cube_006-mesh-vertices" offset="0"/>
          <input semantic="NORMAL" source="#Cube_006-mesh-normals" offset="1"/>
          <input semantic="TEXCOORD" source="#Cube_006-mesh-map-0" offset="2" set="0"/>
          <vcount>4 4 4 4 4 4 4 4 4 4 4 4 4 4 4 4 4 4 4 4 4 4 4 4 4 4 4 4 4 4 4 4 4 4 4 4 4 4 4 4 4 4 4 4 4 4 4 4 4 4 4 4 4 4 4 4 4 4 4 4 4 4 4 4 4 4 4 4 4 4 4 4 4 4 4 4 4 4 4 4 4 4 4 4 4 4 4 4 4 4 4 4 4 4 4 4 4 </vcount>
          <p>8 0 0 9 0 1 65 0 2 64 0 3 41 1 4 8 1 5 64 1 6 63 1 7 34 2 8 37 2 9 76 2 10 79 2 11 43 3 12 18 3 13 15 3 14 40 3 15 19 4 16 14 4 17 20 4 18 23 4 19 44 5 20 26 5 21 13 5 22 39 5 23 26 6 24 27 6 25 12 6 26 13 6 27 24 7 28 5 7 29 56 7 30 52 7 31 37 8 32 27 8 33 74 8 34 76 8 35 84 9 36 85 9 37 19 9 38 18 9 39 87 3 40 84 3 41 18 3 42 43 3 43 35 10 44 36 10 45 81 10 46 80 10 47 22 11 48 23 11 49 20 11 50 21 11 51 14 12 52 15 12 53 21 12 54 20 12 55 15 13 56 18 13 57 22 13 58 21 13 59 18 14 60 19 14 61 23 14 62 22 14 63 30 15 64 31 15 65 70 15 66 69 15 67 87 16 68 43 16 69 71 16 70 91 16 71 82 17 72 16 17 73 55 17 74 88 17 75 15 3 76 14 3 77 31 3 78 30 3 79 40 3 80 15 3 81 30 3 82 45 3 83 42 18 84 1 18 85 47 18 86 66 18 87 14 3 88 35 3 89 38 3 90 31 3 91 4 19 92 25 19 93 53 19 94 54 19 95 85 3 96 86 3 97 36 3 98 19 3 99 19 3 100 36 3 101 35 3 102 14 3 103 27 20 104 37 20 105 34 20 106 12 20 107 0 21 108 41 21 109 63 21 110 72 21 111 86 22 112 34 22 113 79 22 114 90 22 115 33 23 116 11 23 117 68 23 118 50 23 119 27 24 120 26 24 121 73 24 122 74 24 123 3 17 124 24 17 125 52 17 126 49 17 127 9 25 128 32 25 129 48 25 130 65 25 131 40 26 132 45 26 133 77 26 134 62 26 135 100 3 136 60 3 137 51 3 138 95 3 139 99 27 140 52 27 141 56 27 142 96 27 143 98 3 144 55 3 145 61 3 146 97 3 147 77 28 148 69 28 149 67 28 150 66 28 151 69 29 152 70 29 153 68 29 154 67 29 155 101 30 156 88 30 157 55 30 158 98 30 159 64 31 160 65 31 161 74 31 162 73 31 163 63 32 164 64 32 165 73 32 166 75 32 167 94 3 168 49 3 169 52 3 170 99 3 171 97 3 172 61 3 173 60 3 174 100 3 175 65 33 176 48 33 177 76 33 178 74 33 179 70 34 180 78 34 181 50 34 182 68 34 183 59 35 184 62 35 185 77 35 186 46 35 187 72 36 188 63 36 189 75 36 190 53 36 191 89 37 192 91 37 193 71 37 194 58 37 195 46 38 196 77 38 197 66 38 198 47 38 199 53 39 200 75 39 201 57 39 202 54 39 203 58 40 204 71 40 205 62 40 206 59 40 207 26 41 208 44 41 209 75 41 210 73 41 211 25 22 212 0 22 213 72 22 214 53 22 215 31 42 216 38 42 217 78 42 218 70 42 219 44 43 220 39 43 221 57 43 222 75 43 223 28 22 224 6 22 225 59 22 226 46 22 227 10 44 228 42 44 229 66 44 230 67 44 231 16 45 232 7 45 233 61 45 234 55 45 235 6 46 236 17 46 237 58 46 238 59 46 239 1 22 240 28 22 241 46 22 242 47 22 243 11 47 244 10 47 245 67 47 246 68 47 247 92 48 248 3 48 249 49 48 250 94 48 251 43 49 252 40 49 253 62 49 254 71 49 255 29 17 256 2 17 257 51 17 258 60 17 259 83 22 260 4 22 261 54 22 262 89 22 263 45 50 264 30 50 265 69 50 266 77 50 267 7 17 268 29 17 269 60 17 270 61 17 271 109 51 272 33 51 273 50 51 274 111 51 275 38 22 276 35 22 277 80 22 278 78 22 279 17 52 280 83 52 281 89 52 282 58 52 283 54 53 284 57 53 285 91 53 286 89 53 287 96 54 288 56 54 289 88 54 290 101 54 291 36 22 292 86 22 293 90 22 294 81 22 295 12 3 296 34 3 297 86 3 298 85 3 299 5 17 300 82 17 301 88 17 302 56 17 303 39 17 304 87 17 305 91 17 306 57 17 307 39 3 308 13 3 309 84 3 310 87 3 311 13 3 312 12 3 313 85 3 314 84 3 315 102 55 316 96 55 317 101 55 318 107 55 319 2 56 320 93 56 321 95 56 322 51 56 323 108 48 324 92 48 325 94 48 326 110 48 327 103 3 328 97 3 329 100 3 330 106 3 331 110 3 332 94 3 333 99 3 334 105 3 335 107 57 336 101 57 337 98 57 338 104 57 339 104 3 340 98 3 341 97 3 342 103 3 343 105 58 344 99 58 345 96 58 346 102 58 347 106 3 348 100 3 349 95 3 350 111 3 351 78 59 352 106 59 353 111 59 354 50 59 355 76 27 356 105 27 357 102 27 358 79 27 359 81 60 360 104 60 361 103 60 362 80 60 363 90 61 364 107 61 365 104 61 366 81 61 367 48 3 368 110 3 369 105 3 370 76 3 371 80 62 372 103 62 373 106 62 374 78 62 375 32 48 376 108 48 377 110 48 378 48 48 379 79 63 380 102 63 381 107 63 382 90 63 383 93 56 384 109 56 385 111 56 386 95 56 387</p>
        </polylist>
      </mesh>
    </geometry>
  </library_geometries>
  <library_controllers/>
  <library_visual_scenes>
    <visual_scene id="Scene" name="Scene">
      <node id="SpüleAuflage" name="SpüleAuflage" type="NODE">
        <matrix sid="transform">3.69564e-7 -4.515961 0 2.621041 1.898049 8.7929e-7 0 3.226595 0 0 1.898049 2.049479 0 0 0 1</matrix>
        <instance_geometry url="#Cube_006-mesh" name="SpüleAuflage">
          <bind_material>
            <technique_common>
              <instance_material symbol="Spüleauflage-material" target="#Spüleauflage-material">
                <bind_vertex_input semantic="UVMap" input_semantic="TEXCOORD" input_set="0"/>
              </instance_material>
              <instance_material symbol="Spüleauflage2-material" target="#Spüleauflage2-material">
                <bind_vertex_input semantic="UVMap" input_semantic="TEXCOORD" input_set="0"/>
              </instance_material>
            </technique_common>
          </bind_material>
        </instance_geometry>
      </node>
    </visual_scene>
  </library_visual_scenes>
  <scene>
    <instance_visual_scene url="#Scene"/>
  </scene>
</COLLADA>