<?xml version="1.0" encoding="utf-8"?>
<COLLADA xmlns="http://www.collada.org/2005/11/COLLADASchema" version="1.4.1">
  <asset>
    <contributor>
      <author>Blender User</author>
      <authoring_tool>Blender 2.77.0 commit date:2016-04-05, commit time:18:12, hash:abf6f08</authoring_tool>
    </contributor>
    <created>2017-03-06T16:52:48</created>
    <modified>2017-03-06T16:52:48</modified>
    <unit name="meter" meter="1"/>
    <up_axis>Z_UP</up_axis>
  </asset>
  <library_images>
    <image id="PBRFULL_SinkBase-material_Base_Color_jpg" name="PBRFULL_SinkBase-material_Base_Color_jpg">
      <init_from>PBRFULL_SinkBase-material_Base_Color.jpg</init_from>
    </image>
  </library_images>
  <library_effects>
    <effect id="PBRFULL_SinkBase-effect">
      <profile_COMMON>
        <newparam sid="PBRFULL_SinkBase-material_Base_Color_jpg-surface">
          <surface type="2D">
            <init_from>PBRFULL_SinkBase-material_Base_Color_jpg</init_from>
          </surface>
        </newparam>
        <newparam sid="PBRFULL_SinkBase-material_Base_Color_jpg-sampler">
          <sampler2D>
            <source>PBRFULL_SinkBase-material_Base_Color_jpg-surface</source>
          </sampler2D>
        </newparam>
        <technique sid="common">
          <phong>
            <emission>
              <color sid="emission">0 0 0 1</color>
            </emission>
            <ambient>
              <color sid="ambient">0 0 0 1</color>
            </ambient>
            <diffuse>
              <texture texture="PBRFULL_SinkBase-material_Base_Color_jpg-sampler"/>
            </diffuse>
            <specular>
              <color sid="specular">0.25 0.25 0.25 1</color>
            </specular>
            <shininess>
              <float sid="shininess">50</float>
            </shininess>
            <index_of_refraction>
              <float sid="index_of_refraction">1</float>
            </index_of_refraction>
          </phong>
        </technique>
      </profile_COMMON>
    </effect>
  </library_effects>
  <library_materials>
    <material id="PBRFULL_SinkBase-material" name="PBRFULL_SinkBase">
      <instance_effect url="#PBRFULL_SinkBase-effect"/>
    </material>
  </library_materials>
  <library_geometries>
    <geometry id="Cube_001-mesh" name="Cube.001">
      <mesh>
        <source id="Cube_001-mesh-positions">
          <float_array id="Cube_001-mesh-positions-array" count="1230">1.193939 1.08373 0.6863498 1.193938 -0.9162704 0.6863498 -0.8060616 -0.9162695 0.6863498 -0.8060612 1.08373 0.6863498 -0.8060612 0.03659754 -1.31365 1.193939 0.03659677 0.6863498 -0.8060613 0.03659749 0.6863498 1.193938 -0.6993435 0.6863498 -0.8060616 -0.6993426 0.6863498 0.9062932 1.08373 0.6863498 -0.2899994 1.08373 0.6863498 0.9062916 -0.9162701 0.6863498 -0.2900006 -0.9162697 0.6863498 -0.8060613 -0.1125345 0.6863498 1.193939 -0.1125352 0.6863498 -0.8060612 1.062558 0.6863498 1.193939 1.062558 0.6863498 1.193938 -0.8764971 0.6863498 -0.8060616 -0.8764961 0.6863498 -0.7411023 1.08373 0.6863498 -0.7411028 -0.9162696 0.6863498 1.077795 1.08373 0.6863498 1.077794 -0.9162703 0.6863498 1.193939 1.08373 0.6068265 1.193938 -0.9162704 0.6068265 -0.8060616 -0.9162695 0.6068265 -0.8060612 1.08373 0.6068265 -0.8060613 0.03659749 0.6068265 1.193939 0.03659677 0.6068265 -0.8060616 -0.6993426 0.6068265 1.193938 -0.6993435 0.6068265 0.9062932 1.08373 0.6068265 -0.2899994 1.08373 0.6068265 0.9062916 -0.9162701 0.6068265 -0.2900005 -0.9162697 0.6068265 1.193939 -0.1125352 0.6068265 -0.8060613 -0.1125345 0.6068265 1.193939 1.062558 0.6068265 -0.8060612 1.062558 0.6068265 -0.8060616 -0.8764961 0.6068265 1.193938 -0.8764971 0.6068265 -0.7411023 1.08373 0.6068265 -0.7411028 -0.9162696 0.6068265 1.077794 -0.9162703 0.6068265 1.077795 1.08373 0.6068265 1.230125 1.100329 0.6068265 1.230125 1.100329 0.6863498 1.230124 -0.9300833 0.6068265 1.230124 -0.9300833 0.6863498 -0.8434323 -0.9300824 0.6068265 -0.8434323 -0.9300824 0.6863498 -0.8434319 1.10033 0.6068265 -0.8434319 1.10033 0.6863498 1.230124 -0.8897053 0.6863498 -0.776084 1.10033 0.6863498 -0.7760844 -0.9300825 0.6863498 -0.8434319 1.078836 0.6863498 1.230125 1.078835 0.6863498 1.230124 0.03727328 0.6863498 -0.843432 -0.1141257 0.6863498 -0.843432 0.03727406 0.6863498 1.230124 -0.1141265 0.6863498 1.230124 -0.7098578 0.6863498 -0.8434323 -0.8897043 0.6863498 -0.8434323 -0.7098569 0.6863498 1.109709 1.100329 0.6863498 0.9318997 1.100329 0.6863498 -0.3083903 1.100329 0.6863498 1.109708 -0.9300832 0.6863498 0.931898 -0.930083 0.6863498 -0.3083915 -0.9300826 0.6863498 0.9318997 1.100329 0.6068265 -0.3083903 1.100329 0.6068265 -0.776084 1.10033 0.6068265 1.109709 1.100329 0.6068265 -0.843432 0.03727406 0.6068265 1.230124 0.03727328 0.6068265 -0.8434323 -0.7098569 0.6068265 1.230124 -0.7098578 0.6068265 0.931898 -0.930083 0.6068265 -0.3083915 -0.9300826 0.6068265 1.230124 -0.1141265 0.6068265 -0.843432 -0.1141257 0.6068265 1.230125 1.078835 0.6068265 -0.8434319 1.078836 0.6068265 -0.8434323 -0.8897043 0.6068265 1.230124 -0.8897053 0.6068265 -0.7760844 -0.9300825 0.6068265 1.109708 -0.9300832 0.6068265 -0.8060612 0.02812421 -1.31365 -0.8060613 0.02812409 0.6863498 1.193939 0.02812331 0.6863498 1.193939 0.02812331 0.6068265 -0.8060613 0.02812409 0.6068265 -0.843432 0.0286718 0.6863498 1.230124 0.02867108 0.6863498 1.230124 0.02867108 0.6068265 -0.843432 0.0286718 0.6068265 -0.7940253 0.02773463 -1.296378 -0.7940253 0.03610336 -1.296378 -0.7940254 0.0361033 0.1314778 1.181265 1.070298 0.1314778 1.181265 1.070298 0.1523514 1.181264 -0.9049919 0.1314778 1.181264 -0.9049919 0.1523514 -0.7940257 -0.9049912 0.1314778 -0.7940257 -0.9049912 0.1523514 -0.7940252 1.070299 0.1314778 -0.7940252 1.070299 0.1523514 0.8971731 1.070299 0.1314778 0.8971731 1.070299 0.1523514 -0.2843394 1.070299 0.1314778 -0.2843394 1.070299 0.1523514 -0.729869 1.070299 0.1314778 -0.729869 1.070299 0.1523514 1.066556 1.070298 0.1314778 1.066556 1.070298 0.1523514 1.181264 -0.86571 0.1523514 -0.7298694 -0.9049912 0.1523514 -0.7940252 1.049388 0.1523514 -0.7940254 0.02773457 0.1523514 -0.7940254 0.0361033 0.1523514 1.181265 1.049388 0.1523514 1.181265 0.03610271 0.1523514 -0.7940257 -0.8657092 0.1523514 -0.7940257 -0.6907443 0.1523514 1.181265 -0.1111869 0.1523514 1.181264 -0.6907451 0.1523514 1.066555 -0.9049918 0.1523514 0.8971717 -0.9049916 0.1523514 -0.2843404 -0.9049913 0.1523514 1.181265 0.02773398 0.1523514 -0.7940254 -0.1111862 0.1523514 1.181265 0.03610271 0.1314778 -0.7940257 -0.6907443 0.1314778 1.181264 -0.6907451 0.1314778 0.8971717 -0.9049916 0.1314778 -0.2843404 -0.9049913 0.1314778 1.181265 -0.1111869 0.1314778 -0.7940254 -0.1111862 0.1314778 1.181265 1.049388 0.1314778 -0.7940252 1.049388 0.1314778 -0.7940257 -0.8657092 0.1314778 1.181264 -0.86571 0.1314778 -0.7298694 -0.9049912 0.1314778 1.066555 -0.9049918 0.1314778 1.181265 0.02773398 0.1314778 -0.7940254 0.02773457 0.1314778 -0.7735818 1.08373 0.6863498 -0.7735822 -0.9162695 0.6863498 -0.7735818 1.08373 0.6068265 -0.7735822 -0.9162695 0.6068265 -0.8097579 1.10033 0.6863498 -0.8097584 -0.9300824 0.6863498 -0.8097579 1.10033 0.6068265 -0.8097584 -0.9300824 0.6068265 -0.7619476 -0.9049912 0.1523514 -0.7619471 1.070299 0.1523514 -0.7619476 -0.9049912 0.1314778 -0.7619471 1.070299 0.1314778 -0.7573421 1.08373 0.6863498 -0.7573425 -0.9162695 0.6863498 -0.7573421 1.08373 0.6068265 -0.7573425 -0.9162695 0.6068265 -0.7929209 1.10033 0.6863498 -0.7929214 -0.9300824 0.6863498 -0.7929209 1.10033 0.6068265 -0.7929214 -0.9300824 0.6068265 -0.7459085 -0.9049912 0.1523514 -0.745908 1.070299 0.1523514 -0.7459085 -0.9049912 0.1314778 -0.745908 1.070299 0.1314778 -0.7573418 1.081332 -1.31365 -0.7735815 1.081332 -1.31365 -0.7573423 -0.9138715 -1.31365 -0.7735819 -0.9138715 -1.31365 -0.7573421 1.081332 0.6068265 -0.7735818 1.081332 0.6068265 -0.7573425 -0.9138714 0.6068265 -0.7735822 -0.9138714 0.6068265 -0.7573425 -0.9138715 0.1532016 -0.7735822 -0.9138715 0.1532016 -0.757342 1.081332 0.1532016 -0.7735817 1.081332 0.1532016 -0.7573425 -0.9138715 0.132067 -0.7735822 -0.9138715 0.132067 -0.757342 1.081332 0.132067 -0.7735817 1.081332 0.132067 1.193939 1.08373 -1.31365 1.193939 -0.9162698 -1.31365 -0.8060613 -0.9162697 -1.31365 -0.8060609 1.08373 -1.31365 1.193939 0.03659725 -1.31365 -0.8060612 0.03659754 -1.31365 1.193939 -0.6993429 -1.31365 -0.8060613 -0.6993427 -1.31365 0.9062929 1.08373 -1.31365 -0.2899993 1.08373 -1.31365 0.9062927 -0.9162697 -1.31365 -0.29 -0.9162697 -1.31365 0.9062927 0.03659737 -1.31365 -0.2899998 0.03659749 -1.31365 0.9062927 -0.6993428 -1.31365 -0.29 -0.6993428 -1.31365 -0.8060612 -0.1125345 -1.31365 1.193939 -0.1125348 -1.31365 0.9062927 -0.1125347 -1.31365 -0.2899998 -0.1125346 -1.31365 -0.8060609 1.062559 -1.31365 1.193939 1.062558 -1.31365 0.9062929 1.062558 -1.31365 -0.2899993 1.062558 -1.31365 1.193939 -0.8764965 -1.31365 -0.8060613 -0.8764963 -1.31365 0.9062927 -0.8764964 -1.31365 -0.29 -0.8764964 -1.31365 -0.741102 1.08373 -1.31365 -0.7411026 -0.9162697 -1.31365 -0.7411024 0.03659754 -1.31365 -0.7411026 -0.6993427 -1.31365 -0.7411024 -0.1125345 -1.31365 -0.741102 1.062559 -1.31365 -0.7411026 -0.8764963 -1.31365 1.077795 1.08373 -1.31365 1.077795 -0.9162698 -1.31365 1.077795 0.03659731 -1.31365 1.077795 -0.6993429 -1.31365 1.077795 -0.1125348 -1.31365 1.077795 1.062558 -1.31365 1.077795 -0.8764964 -1.31365 1.193939 1.08373 0.6068265 1.193938 -0.9162704 0.6068265 -0.8060616 -0.9162695 0.6068265 -0.8060612 1.08373 0.6068265 -0.8060613 0.03659749 0.6068265 1.193939 0.03659677 0.6068265 -0.8060616 -0.6993426 0.6068265 1.193938 -0.6993435 0.6068265 0.9062932 1.08373 0.6068265 -0.2899994 1.08373 0.6068265 0.9062916 -0.9162701 0.6068265 -0.2900005 -0.9162697 0.6068265 1.193939 -0.1125352 0.6068265 -0.8060613 -0.1125345 0.6068265 1.193939 1.062558 0.6068265 -0.8060612 1.062558 0.6068265 -0.8060616 -0.8764961 0.6068265 1.193938 -0.8764971 0.6068265 -0.7411023 1.08373 0.6068265 -0.7411028 -0.9162696 0.6068265 1.077794 -0.9162703 0.6068265 1.077795 1.08373 0.6068265 -0.8060613 0.03659749 0.1532016 1.193939 0.03659689 0.1532016 -0.8060616 -0.6993426 0.1532016 1.193938 -0.6993434 0.1532016 0.9062919 -0.91627 0.1532016 -0.2900004 -0.9162697 0.1532016 1.193939 -0.1125352 0.1532016 -0.8060613 -0.1125345 0.1532016 1.193939 1.062558 0.1532016 -0.8060611 1.062558 0.1532016 -0.8060616 -0.8764962 0.1532016 1.193938 -0.876497 0.1532016 -0.7411028 -0.9162696 0.1532016 1.077794 -0.9162702 0.1532016 1.193939 1.08373 0.1532016 1.193938 -0.9162703 0.1532016 -0.8060616 -0.9162696 0.1532016 -0.8060611 1.08373 0.1532016 0.9062932 1.08373 0.1532016 -0.2899994 1.08373 0.1532016 -0.7411023 1.08373 0.1532016 1.077795 1.08373 0.1532016 -0.8060613 0.03659749 0.132067 1.193939 0.03659689 0.132067 -0.8060616 -0.6993426 0.132067 1.193938 -0.6993434 0.132067 0.9062919 -0.91627 0.132067 -0.2900004 -0.9162697 0.132067 1.193939 -0.1125352 0.132067 -0.8060613 -0.1125345 0.132067 1.193939 1.062558 0.132067 -0.8060611 1.062558 0.132067 -0.8060616 -0.8764962 0.132067 1.193938 -0.876497 0.132067 -0.7411028 -0.9162696 0.132067 1.077794 -0.9162702 0.132067 1.193939 1.08373 0.132067 1.193938 -0.9162703 0.132067 -0.8060616 -0.9162696 0.132067 -0.8060611 1.08373 0.132067 0.9062932 1.08373 0.132067 -0.2899994 1.08373 0.132067 -0.7411023 1.08373 0.132067 1.077795 1.08373 0.132067 -0.8060612 0.02812421 -1.31365 0.9062927 0.02812397 -1.31365 -0.2899998 0.02812409 -1.31365 1.193939 0.02812385 -1.31365 -0.7411024 0.02812415 -1.31365 1.077795 0.02812391 -1.31365 1.193939 0.02812331 0.6068265 -0.8060613 0.02812409 0.6068265 -0.8060613 0.02812415 0.1532016 1.193939 0.02812343 0.1532016 1.193939 0.02812343 0.132067 -0.8060613 0.02812415 0.132067 -0.7940253 0.02773463 -1.296378 -0.7940253 0.03610336 -1.296378 -0.7940254 0.0361033 0.1314778 1.181265 1.070298 0.1314778 1.181265 1.070298 0.1523514 1.181264 -0.9049919 0.1314778 1.181264 -0.9049919 0.1523514 -0.7940257 -0.9049912 0.1314778 -0.7940257 -0.9049912 0.1523514 -0.7940252 1.070299 0.1314778 -0.7940252 1.070299 0.1523514 0.8971731 1.070299 0.1314778 0.8971731 1.070299 0.1523514 -0.2843394 1.070299 0.1314778 -0.2843394 1.070299 0.1523514 -0.729869 1.070299 0.1314778 -0.729869 1.070299 0.1523514 1.066556 1.070298 0.1314778 1.066556 1.070298 0.1523514 1.181264 -0.86571 0.1523514 -0.7298694 -0.9049912 0.1523514 -0.7940252 1.049388 0.1523514 -0.7940254 0.02773457 0.1523514 -0.7940254 0.0361033 0.1523514 1.181265 1.049388 0.1523514 1.181265 0.03610271 0.1523514 -0.7940257 -0.8657092 0.1523514 -0.7940257 -0.6907443 0.1523514 1.181265 -0.1111869 0.1523514 1.181264 -0.6907451 0.1523514 1.066555 -0.9049918 0.1523514 0.8971717 -0.9049916 0.1523514 -0.2843404 -0.9049913 0.1523514 1.181265 0.02773398 0.1523514 -0.7940254 -0.1111862 0.1523514 1.181265 0.03610271 0.1314778 -0.7940257 -0.6907443 0.1314778 1.181264 -0.6907451 0.1314778 0.8971717 -0.9049916 0.1314778 -0.2843404 -0.9049913 0.1314778 1.181265 -0.1111869 0.1314778 -0.7940254 -0.1111862 0.1314778 1.181265 1.049388 0.1314778 -0.7940252 1.049388 0.1314778 -0.7940257 -0.8657092 0.1314778 1.181264 -0.86571 0.1314778 -0.7298694 -0.9049912 0.1314778 1.066555 -0.9049918 0.1314778 1.181265 0.02773398 0.1314778 -0.7940254 0.02773457 0.1314778 -0.7735815 1.08373 -1.31365 -0.7735819 -0.9162697 -1.31365 -0.7735818 0.03659754 -1.31365 -0.7735819 -0.6993427 -1.31365 -0.7735818 -0.1125345 -1.31365 -0.7735815 1.062559 -1.31365 -0.7735819 -0.8764963 -1.31365 -0.7735818 1.08373 0.6068265 -0.7735822 -0.9162695 0.6068265 -0.7735822 -0.9162696 0.1532016 -0.7735817 1.08373 0.1532016 -0.7735822 -0.9162696 0.132067 -0.7735817 1.08373 0.132067 -0.7735818 0.02812415 -1.31365 -0.7619476 -0.9049912 0.1523514 -0.7619471 1.070299 0.1523514 -0.7619476 -0.9049912 0.1314778 -0.7619471 1.070299 0.1314778 -0.7573418 1.08373 -1.31365 -0.7573423 -0.9162697 -1.31365 -0.7573421 0.03659754 -1.31365 -0.7573423 -0.6993427 -1.31365 -0.7573421 -0.1125345 -1.31365 -0.7573418 1.062559 -1.31365 -0.7573423 -0.8764963 -1.31365 -0.7573421 1.08373 0.6068265 -0.7573425 -0.9162695 0.6068265 -0.7573425 -0.9162696 0.1532016 -0.757342 1.08373 0.1532016 -0.7573425 -0.9162696 0.132067 -0.757342 1.08373 0.132067 -0.7573421 0.02812415 -1.31365 -0.7459085 -0.9049912 0.1523514 -0.745908 1.070299 0.1523514 -0.7459085 -0.9049912 0.1314778 -0.745908 1.070299 0.1314778 -0.7573418 1.081332 -1.31365 -0.7735815 1.081332 -1.31365 -0.7573423 -0.9138715 -1.31365 -0.7735819 -0.9138715 -1.31365 -0.7573421 1.081332 0.6068265 -0.7735818 1.081332 0.6068265 -0.7573425 -0.9138714 0.6068265 -0.7735822 -0.9138714 0.6068265 -0.7573425 -0.9138715 0.1532016 -0.7735822 -0.9138715 0.1532016 -0.757342 1.081332 0.1532016 -0.7735817 1.081332 0.1532016 -0.7573425 -0.9138715 0.132067 -0.7735822 -0.9138715 0.132067 -0.757342 1.081332 0.132067 -0.7735817 1.081332 0.132067</float_array>
          <technique_common>
            <accessor source="#Cube_001-mesh-positions-array" count="410" stride="3">
              <param name="X" type="float"/>
              <param name="Y" type="float"/>
              <param name="Z" type="float"/>
            </accessor>
          </technique_common>
        </source>
        <source id="Cube_001-mesh-normals">
          <float_array id="Cube_001-mesh-normals-array" count="831">8.30344e-6 0 -1 1.37849e-6 0 -1 0 0 -1 -1.45281e-6 0 -1 0 0 1 -2.79234e-6 0 -1 0 0 -1 -2.29228e-6 0 1 2.98929e-7 0 -1 -2.2171e-6 0 -1 1.82652e-7 0 -1 -9.75899e-7 0 -1 0 0 1 1 0 0 0 -1 0 -1 0 0 1 -8.99519e-7 0 -1.34086e-6 -1 0 -2.88342e-7 -1 0 -1 6.2908e-7 0 -2.54888e-7 -1 0 -4.9499e-7 -1 0 0 1 0 2.0391e-6 1 0 -1.29419e-6 0 -1 -2.67731e-6 0 -1 -1.58197e-6 0 1 0 0 -1 4.94785e-7 0 -1 -1.54743e-6 0 1 -0.8204468 0 0.5717229 1.13905e-6 0 1 -9.72084e-7 0 -1 3.67637e-7 0 -1 -3.32203e-7 0 1 1 -1.5397e-6 0 -1.05568e-6 -1 0 -2.52239e-7 -1 0 -1 3.0794e-7 0 -1 1.7613e-7 0 -2.67568e-7 -1 0 -1.03923e-6 -1 0 -1 0 0 6.33407e-6 1 0 -7.08023e-6 -1 0 -1.17912e-6 0 1 0 -1 0 0 -1 2.52848e-7 0 1 0 -8.00897e-6 0 -1 -5.79724e-7 0 -1 2.28968e-6 0 -1 2.94109e-6 0 1 3.21107e-6 0 -1 -2.88327e-7 0 -1 2.25081e-6 0 -1 -2.76496e-6 0 -1 -5.88545e-7 0 1 1 -8.9952e-7 0 -2.88343e-7 -1 0 -1 3.14539e-7 0 -1 1.79904e-7 0 -4.94988e-7 -1 0 2.0391e-6 1 0 6.07811e-7 0 -1 -5.98705e-7 0 1 2.3245e-6 0 1 2.67731e-6 0 1 -7.86282e-7 0 -1 -2.92769e-6 0 1 -0.8204449 0 0.5717258 -2.99198e-6 0 1 1 -1.5397e-6 0 -1.05568e-6 -1 0 -2.52239e-7 -1 0 -1 6.1588e-7 0 -1 3.52258e-7 0 -2.67568e-7 -1 0 -1.03923e-6 -1 0 6.33408e-6 1 0 -7.08019e-6 -1 0 0 -1 2.52844e-7 0 1 0 7.43052e-7 0 -1 8.89998e-7 0 -1 0 1 0 0 1 0 0 0 -1 0 0 -1 6.6555e-7 0 -1 0 0 -1 -1.60389e-7 0 -1 -2.16655e-7 0 -1 -7.10899e-7 0 -1 -6.04501e-7 0 -1 -5.13197e-7 -1 -5.65662e-7 -2.64262e-7 -1 0 -1 1.28072e-7 0 -1 6.71751e-7 0 -2.98947e-7 -1 -1.37426e-7 -1.39018e-6 -1 -2.58422e-7 1 -1.79134e-6 0 -1 0 -2.62791e-7 0 -1 2.52845e-7 -0.07046073 0 -0.9975146 0 -0.04382228 0.9990394 -1.20103e-7 -0.07516926 -0.9971708 0.0488938 0 0.998804 0 0.06316977 -0.9980029 -0.04102385 -0.9991582 0 -0.04643768 0 0.9989213 0.06693166 -1.24944e-7 -0.9977577 -0.04643911 0 0.9989212 0 0.06317448 -0.9980025 0 0.05216932 0.9986383 -0.07046449 0 -0.9975143 0 0.05217021 0.9986382 0 0.06317633 -0.9980025 0.04889386 0 0.998804 0.06692963 0 -0.9977578 0 0.05216974 0.9986383 0 1 -1.62145e-7 -1.02639e-6 -1 -2.71302e-7 -2.64262e-7 -1 1.2157e-7 1 0 6.59655e-7 -1 0 -2.06142e-7 -1 3.21482e-7 0 -1 2.81035e-7 0 -2.49122e-7 -1 1.66382e-7 -1.04263e-6 -1 -1.62744e-7 1 -1.68621e-6 6.59654e-7 -1 0 -2.06142e-7 -1 0 -1.23686e-7 0 -1 1.27186e-7 1 0 6.59653e-7 0 0.06316977 -0.9980028 -0.0704621 0 -0.9975146 -1.78054e-7 -0.07516974 -0.9971709 -0.04643845 0 0.9989212 -0.07046222 0 -0.9975144 -1 0 0 0 -0.07516944 -0.9971708 0.04889398 0 0.998804 1.39302e-7 0 -1 4.98132e-7 0 -1 0 0 -1 0 0.06317603 -0.9980025 0.04889518 0 0.9988039 0 -0.07517045 -0.9971708 0 -0.04382544 0.9990392 0.06693392 0 -0.9977575 -0.04643738 0 0.9989212 0.06693178 0 -0.9977576 0 -0.04382586 0.9990392 -0.04643774 0 0.9989212 0.04889416 0 0.998804 -0.07046252 0 -0.9975144 -3.37464e-7 -0.04382574 0.9990393 0.04889458 0 0.998804 -0.04643875 0 0.9989212 0.0669322 0 -0.9977576 0 -0.04382586 0.9990392 0.03234636 0.9994767 0 0 0.05216991 0.9986382 -0.07046276 0 -0.9975144 1.20208e-7 0.05216985 0.9986383 -0.07046419 0 -0.9975144 0.06693172 0 -0.9977576 -0.04643869 0 0.9989212 0.06693035 0 -0.9977577 0 -0.07517004 -0.9971708 0 -0.07517045 -0.9971708 0 -0.04382604 0.9990392 0 0.06317549 -0.9980025 0 0.05216944 0.9986383 -1 0 -1.23685e-7 0 1 0 -7.34056e-6 -1 2.52844e-7 0 -1 1.24163e-7 0 -0.0438258 0.9990392 0 -0.07517033 -0.9971708 0 0.05216962 0.9986383 1 0 1.23685e-7 1 0 2.06135e-7 1 0 2.62793e-7 -1 0 -2.62793e-7 -1 0 -1.6491e-7 1.69815e-7 0 -1 0 1 -1.37854e-7 -1.77111e-7 0 -1 1.23542e-6 0 -1 -4.50338e-7 0 -1 -5.1515e-7 0 -1 -1.02639e-6 -1 0 -2.64262e-7 -1 0 -1 2.56143e-7 -2.62793e-7 -1 4.47834e-7 0 -2.49122e-7 -1 -4.39345e-7 -1.04263e-6 -1 0 1 -1.79134e-6 0 -1 0 -2.62794e-7 -0.07046598 0 -0.9975142 0 -0.04382228 0.9990394 0 -0.07517015 -0.9971708 0.04889446 0 0.998804 4.08557e-7 0.06317466 -0.9980026 -0.04102432 -0.9991582 0 -0.04643779 0 0.9989212 0.06693345 0 -0.9977576 -0.04643875 0 0.9989212 0 0.06317484 -0.9980025 0 0.05216991 0.9986383 -0.07046186 0 -0.9975146 0 0.05216938 0.9986383 0 0.06317442 -0.9980026 0.04889452 0 0.998804 0.06693053 0 -0.9977577 0 0.05216956 0.9986383 0 -1 -3.54977e-7 0 -1 0 1 0 6.59655e-7 -1 0 -2.06143e-7 -1 1.60741e-7 -1.23685e-7 -1 5.6207e-7 -2.06142e-7 0 -1 -4.13562e-7 -3.47544e-7 -1 -3.60593e-7 -1 0 -2.06142e-7 -1 0 -1.23685e-7 1 0 6.59656e-7 0 0.06316977 -0.9980029 -0.07046282 0 -0.9975144 0 -0.07516998 -0.9971708 -0.04643666 0 0.9989213 -0.07046204 0 -0.9975146 0 -0.07517075 -0.9971708 0.04889523 0 0.9988039 4.87301e-7 0 -1 0 0.06317496 -0.9980025 0.04889369 0 0.998804 0 -0.07517063 -0.9971708 0 -0.04382687 0.9990392 0.06693124 0 -0.9977576 -0.04643958 0 0.9989211 0.06693387 0 -0.9977575 0 -0.04382562 0.9990392 -0.04643911 0 0.9989211 0.04889273 0 0.998804 -0.07046329 0 -0.9975144 0 -0.04382234 0.9990394 0.04889267 0 0.9988041 -0.04643905 0 0.9989211 0.06693184 0 -0.9977576 0 -0.04382675 0.9990392 0.03234618 0.9994767 0 0 0.05217003 0.9986382 -0.07046556 0 -0.9975142 0 0.05216914 0.9986383 -0.07046312 0 -0.9975144 0.06693339 0 -0.9977576 -0.04643732 0 0.9989212 0.06693333 0 -0.9977576 0 -0.07516926 -0.9971709 0 -0.07516962 -0.9971709 0 -0.0438264 0.9990392 0 0.06317442 -0.9980025 -1 0 -1.23685e-7 0 1 1.58671e-7 0 1 -5.05688e-7 0 -0.04382652 0.9990392 0 -0.07516938 -0.9971709 0 0.0631749 -0.9980025 0 0.05217015 0.9986383 1 0 1.23685e-7 1 0 2.06145e-7 1 0 2.62793e-7 -1 0 -2.62793e-7 -1 0 -1.64918e-7</float_array>
          <technique_common>
            <accessor source="#Cube_001-mesh-normals-array" count="277" stride="3">
              <param name="X" type="float"/>
              <param name="Y" type="float"/>
              <param name="Z" type="float"/>
            </accessor>
          </technique_common>
        </source>
        <source id="Cube_001-mesh-map-0">
          <float_array id="Cube_001-mesh-map-0-array" count="3492">0.02017515 0.9870535 0.02167934 0.9870535 0.01843911 0.9883351 0.01566243 0.8034631 0.01566243 0.898649 0.01220095 0.8985863 0.01566243 0.8014988 0.01566243 0.8034631 0.01220095 0.8019528 0.01566249 0.9870535 0.01220095 0.9883351 0.01220095 0.9845889 0.01566243 0.8014988 0.01220095 0.7999587 0.01532 0.7999587 0.2009145 0.9833635 0.2009145 0.9669277 0.2042663 0.9679031 0.1063271 0.8223374 0.1062753 0.8194814 0.1069338 0.8194814 0.1792674 0.975184 0.1792674 0.9663079 0.1803247 0.9687469 0.01566243 0.9124851 0.01220095 0.9126328 0.01220095 0.8993844 0.02167928 0.8014988 0.01843911 0.7999587 0.06175971 0.7999588 0.02779155 0.975184 0.1063271 0.9751841 0.1062753 0.9779495 0.02617084 0.975184 0.02490025 0.9779495 0.02490025 0.968747 0.2009145 0.8034631 0.2042663 0.8019528 0.2042662 0.8985863 0.02167934 0.9870535 0.06346315 0.9870535 0.06175965 0.9883351 0.01566249 0.9833635 0.01220095 0.9845889 0.01220095 0.9679031 0.2009145 0.9870535 0.2042663 0.9883351 0.1931126 0.9883351 0.2009145 0.9669277 0.2009146 0.9124851 0.2042662 0.9126328 0.1792674 0.8273018 0.1803247 0.8246284 0.1803247 0.860371 0.2009145 0.8014988 0.1901565 0.8014988 0.1931126 0.7999587 0.02617096 0.8223374 0.02490025 0.8194814 0.02654558 0.8194814 0.1901565 0.8014988 0.174271 0.8014988 0.1766428 0.7999587 0.02617096 0.8273018 0.0261709 0.8617765 0.02490031 0.860371 0.211802 0.9842877 0.211802 0.9880278 0.204424 0.9880278 0.1625244 0.9590787 0.1625244 0.9611468 0.1576322 0.9611468 0.2193378 0.9860369 0.2193378 0.9880278 0.2119598 0.9880278 0.2119598 0.8887643 0.2193378 0.8887643 0.2193378 0.8895611 0.211802 0.8019496 0.211802 0.8984254 0.204424 0.8984254 0.2193378 0.8036988 0.2193378 0.8203573 0.2119598 0.8203573 0.211802 0.9124489 0.211802 0.9676291 0.204424 0.9676291 0.1625244 0.8411871 0.1625244 0.852108 0.1576322 0.852108 0.1625244 0.852108 0.1625244 0.9282852 0.1576322 0.9282852 0.211802 0.8992221 0.211802 0.9124489 0.204424 0.9124489 0.2193378 0.8203573 0.2193378 0.8755375 0.2119598 0.8755375 0.211802 0.7999587 0.211802 0.8019496 0.204424 0.8019496 0.2193378 0.8895611 0.2193378 0.9860369 0.2119598 0.9860369 0.2193378 0.7999587 0.2193378 0.8036988 0.2119598 0.8036988 0.211802 0.9676291 0.211802 0.9842877 0.204424 0.9842877 0.1625244 0.9282852 0.1625244 0.9570104 0.1576322 0.9570104 0.1625244 0.8337912 0.1625244 0.8411871 0.1576322 0.8411871 0.162629 0.9611469 0.162629 0.9537511 0.1675212 0.9537511 0.162629 0.866653 0.162629 0.8379277 0.1675212 0.8379277 0.162629 0.9428302 0.162629 0.866653 0.1675212 0.866653 0.162629 0.9537511 0.162629 0.9428302 0.1675212 0.9428302 0.162629 0.8358594 0.162629 0.8337912 0.1675212 0.8337912 0.02779161 0.8223374 0.02654558 0.8194814 0.1062753 0.8194814 0.2009145 0.8014988 0.2042663 0.7999587 0.2042663 0.8019528 0.02617084 0.9663079 0.02490025 0.968747 0.02490025 0.9551582 0.2009145 0.9870535 0.2009145 0.9833635 0.2042663 0.9845889 0.01566249 0.9669277 0.01220095 0.9679031 0.01220095 0.9126328 0.02617084 0.9532012 0.02490025 0.9551582 0.02490031 0.860371 0.02617084 0.975184 0.02779155 0.975184 0.02654558 0.9779495 0.2009146 0.898649 0.2042662 0.8985863 0.2042662 0.8993844 0.1762228 0.975184 0.1772338 0.9779495 0.1634668 0.9779495 0.1792674 0.9663079 0.1792674 0.9532011 0.1803247 0.9551581 0.162662 0.8223374 0.1177428 0.8223374 0.1178647 0.8194814 0.162662 0.975184 0.1634668 0.9779495 0.1178647 0.9779495 0.1742709 0.9870535 0.1766428 0.9883351 0.06175965 0.9883351 0.1792674 0.975184 0.1803247 0.9779495 0.1772338 0.9779495 0.1792674 0.9532011 0.1792674 0.8617765 0.1803247 0.860371 0.1901565 0.9870535 0.1931126 0.9883351 0.1766428 0.9883351 0.02617096 0.8260607 0.02617096 0.8273018 0.02490025 0.8246283 0.1792673 0.8223374 0.1762228 0.8223374 0.1772338 0.8194814 0.1177428 0.9751842 0.1178647 0.9779495 0.1069338 0.9779495 0.1762228 0.8223374 0.162662 0.8223374 0.1634668 0.8194814 0.174271 0.8014988 0.06346321 0.8014988 0.06175971 0.7999588 0.1792673 0.8223374 0.1803247 0.8194814 0.1803247 0.8220549 0.09398889 0.8812782 0.09401178 0.8822944 0.09352028 0.8822944 0.1063271 0.9751841 0.1069757 0.9751841 0.1069338 0.9779495 0.2009146 0.9124851 0.2009146 0.8994352 0.2042662 0.8993844 0.211802 0.8984254 0.211802 0.8992221 0.204424 0.8992221 0.2193378 0.8755375 0.2193378 0.8887643 0.2119598 0.8887643 0.01566243 0.898649 0.01566243 0.8994352 0.01220095 0.8993844 0.1177428 0.8223374 0.1069757 0.8223374 0.1069338 0.8194814 0.2214321 0.9792835 0.2214321 0.982922 0.2194955 0.982922 0.2235264 0.9799507 0.2235264 0.982922 0.2215899 0.982922 0.03400576 0.9675234 0.03277754 0.9675234 0.03277754 0.9662955 0.09401178 0.9675234 0.09352028 0.9675234 0.09352028 0.9662955 0.2214321 0.8018955 0.2214321 0.8957522 0.2194955 0.8957522 0.1464875 0.9675234 0.1362111 0.9675234 0.1362111 0.9662955 0.2214321 0.909395 0.2214321 0.9630772 0.2194955 0.9630772 0.2235264 0.8105837 0.2235264 0.826273 0.2215899 0.826273 0.2235264 0.826273 0.2235265 0.9357119 0.2215899 0.9357119 0.2214321 0.8965273 0.2214321 0.909395 0.2194955 0.909395 0.1362111 0.9675234 0.1021713 0.9675234 0.1021713 0.9662955 0.2214321 0.7999587 0.2214321 0.8018955 0.2194955 0.8018955 0.09352028 0.9675234 0.03400576 0.9675234 0.03400576 0.9662955 0.1487947 0.9675234 0.1464875 0.9675234 0.1464875 0.9662955 0.2214321 0.9630772 0.2214321 0.9792835 0.2194955 0.9792835 0.2235265 0.9357119 0.2235265 0.9769794 0.2215899 0.9769794 0.2235265 0.7999587 0.2235264 0.8105837 0.2215899 0.8105837 0.09401178 0.9662955 0.09352028 0.9662955 0.09352028 0.8822944 0.1487947 0.9688515 0.1420574 0.9688515 0.1420574 0.9676235 0.06271356 0.9688515 0.03654569 0.9688515 0.03654569 0.9676235 0.1321088 0.9688515 0.06271356 0.9688515 0.06271356 0.9676235 0.1420574 0.9688515 0.1321088 0.9688515 0.1321088 0.9676235 0.03466165 0.9688515 0.03277754 0.9688515 0.03277754 0.9676235 0.2214321 0.8957522 0.2214321 0.8965273 0.2194955 0.8965273 0.1021713 0.9675234 0.09401178 0.9675234 0.09401178 0.9662955 0.03560364 0.9688515 0.03466165 0.9688515 0.03466165 0.9676235 0.2235265 0.9784651 0.2235264 0.9799507 0.2215899 0.9799507 0.02017509 0.8014988 0.02017509 0.8017213 0.01867085 0.8017213 0.1792673 0.8248196 0.1803247 0.8220549 0.1803247 0.8233416 0.02617096 0.8223374 0.02617096 0.8248196 0.02490025 0.8220549 0.162629 0.8368936 0.162629 0.8358594 0.1675212 0.8358594 0.1625244 0.9580445 0.1625244 0.9590787 0.1576322 0.9590787 0.01867085 0.8014988 0.01532 0.7999587 0.01687955 0.7999587 0.01566249 0.9870535 0.01867091 0.9870535 0.01532006 0.9883351 0.02017509 0.8014988 0.01687955 0.7999587 0.01843911 0.7999587 0.1625244 0.9570104 0.1625244 0.9580445 0.1576322 0.9580445 0.162629 0.8379277 0.162629 0.8368936 0.1675212 0.8368936 0.1792673 0.8260607 0.1803247 0.8233416 0.1803247 0.8246284 0.2235265 0.9769794 0.2235265 0.9784651 0.2215899 0.9784651 0.03654569 0.9688515 0.03560364 0.9688515 0.03560364 0.9676235 0.02617096 0.8248196 0.02617096 0.8260607 0.02490025 0.8233416 0.01867091 0.9870535 0.02017515 0.9870535 0.01687961 0.9883351 0.2251909 0.9338697 0.2236842 0.9338697 0.2236842 0.7999587 0.2236842 0.976045 0.2236842 0.9340275 0.2251909 0.9340275 0.2268553 0.976045 0.2253487 0.976045 0.2253487 0.9340275 0.2253487 0.7999587 0.2268553 0.7999587 0.2268553 0.9338698 0.01867091 0.9870535 0.01867091 0.9868311 0.02017515 0.9868311 0.01687961 0.9883351 0.02017515 0.9870535 0.01843911 0.9883351 0.01220095 0.8019528 0.01566243 0.8034631 0.01220095 0.8985863 0.01220095 0.7999587 0.01566243 0.8014988 0.01220095 0.8019528 0.01566249 0.9833635 0.01566249 0.9870535 0.01220095 0.9845889 0.01867085 0.8014988 0.01566243 0.8014988 0.01532 0.7999587 0.2042663 0.9845889 0.2009145 0.9833635 0.2042663 0.9679031 0.1069757 0.8223374 0.1063271 0.8223374 0.1069338 0.8194814 0.1803247 0.9779495 0.1792674 0.975184 0.1803247 0.9687469 0.01566243 0.8994352 0.01566243 0.9124851 0.01220095 0.8993844 0.06346321 0.8014988 0.02167928 0.8014988 0.06175971 0.7999588 0.02654558 0.9779495 0.02779155 0.975184 0.1062753 0.9779495 0.02617084 0.9663079 0.02617084 0.975184 0.02490025 0.968747 0.2009146 0.898649 0.2009145 0.8034631 0.2042662 0.8985863 0.01843911 0.9883351 0.02167934 0.9870535 0.06175965 0.9883351 0.01566249 0.9669277 0.01566249 0.9833635 0.01220095 0.9679031 0.1901565 0.9870535 0.2009145 0.9870535 0.1931126 0.9883351 0.2042663 0.9679031 0.2009145 0.9669277 0.2042662 0.9126328 0.1792674 0.8617765 0.1792674 0.8273018 0.1803247 0.860371 0.2042663 0.7999587 0.2009145 0.8014988 0.1931126 0.7999587 0.02779161 0.8223374 0.02617096 0.8223374 0.02654558 0.8194814 0.1931126 0.7999587 0.1901565 0.8014988 0.1766428 0.7999587 0.02490025 0.8246283 0.02617096 0.8273018 0.02490031 0.860371 0.204424 0.9842877 0.211802 0.9842877 0.204424 0.9880278 0.1576322 0.9590787 0.1625244 0.9590787 0.1576322 0.9611468 0.2119598 0.9860369 0.2193378 0.9860369 0.2119598 0.9880278 0.2119598 0.8895611 0.2119598 0.8887643 0.2193378 0.8895611 0.204424 0.8019496 0.211802 0.8019496 0.204424 0.8984254 0.2119598 0.8036988 0.2193378 0.8036988 0.2119598 0.8203573 0.204424 0.9124489 0.211802 0.9124489 0.204424 0.9676291 0.1576322 0.8411871 0.1625244 0.8411871 0.1576322 0.852108 0.1576322 0.852108 0.1625244 0.852108 0.1576322 0.9282852 0.204424 0.8992221 0.211802 0.8992221 0.204424 0.9124489 0.2119598 0.8203573 0.2193378 0.8203573 0.2119598 0.8755375 0.204424 0.7999587 0.211802 0.7999587 0.204424 0.8019496 0.2119598 0.8895611 0.2193378 0.8895611 0.2119598 0.9860369 0.2119598 0.7999587 0.2193378 0.7999587 0.2119598 0.8036988 0.204424 0.9676291 0.211802 0.9676291 0.204424 0.9842877 0.1576322 0.9282852 0.1625244 0.9282852 0.1576322 0.9570104 0.1576322 0.8337913 0.1625244 0.8337912 0.1576322 0.8411871 0.1675212 0.9611469 0.162629 0.9611469 0.1675212 0.9537511 0.1675212 0.866653 0.162629 0.866653 0.1675212 0.8379277 0.1675212 0.9428302 0.162629 0.9428302 0.1675212 0.866653 0.1675212 0.9537511 0.162629 0.9537511 0.1675212 0.9428302 0.1675212 0.8358594 0.162629 0.8358594 0.1675212 0.8337912 0.1063271 0.8223374 0.02779161 0.8223374 0.1062753 0.8194814 0.2009145 0.8034631 0.2009145 0.8014988 0.2042663 0.8019528 0.02617084 0.9532012 0.02617084 0.9663079 0.02490025 0.9551582 0.2042663 0.9883351 0.2009145 0.9870535 0.2042663 0.9845889 0.01566243 0.9124851 0.01566249 0.9669277 0.01220095 0.9126328 0.0261709 0.8617765 0.02617084 0.9532012 0.02490031 0.860371 0.02490025 0.9779495 0.02617084 0.975184 0.02654558 0.9779495 0.2009146 0.8994352 0.2009146 0.898649 0.2042662 0.8993844 0.162662 0.975184 0.1762228 0.975184 0.1634668 0.9779495 0.1803247 0.9687469 0.1792674 0.9663079 0.1803247 0.9551581 0.1634668 0.8194814 0.162662 0.8223374 0.1178647 0.8194814 0.1177428 0.9751842 0.162662 0.975184 0.1178647 0.9779495 0.06346315 0.9870535 0.1742709 0.9870535 0.06175965 0.9883351 0.1762228 0.975184 0.1792674 0.975184 0.1772338 0.9779495 0.1803247 0.9551581 0.1792674 0.9532011 0.1803247 0.860371 0.1742709 0.9870535 0.1901565 0.9870535 0.1766428 0.9883351 0.02490025 0.8233416 0.02617096 0.8260607 0.02490025 0.8246283 0.1803247 0.8194814 0.1792673 0.8223374 0.1772338 0.8194814 0.1069757 0.9751841 0.1177428 0.9751842 0.1069338 0.9779495 0.1772338 0.8194814 0.1762228 0.8223374 0.1634668 0.8194814 0.1766428 0.7999587 0.174271 0.8014988 0.06175971 0.7999588 0.1792673 0.8248196 0.1792673 0.8223374 0.1803247 0.8220549 0.09349125 0.8812782 0.09398889 0.8812782 0.09352028 0.8822944 0.1062753 0.9779495 0.1063271 0.9751841 0.1069338 0.9779495 0.2042662 0.9126328 0.2009146 0.9124851 0.2042662 0.8993844 0.204424 0.8984254 0.211802 0.8984254 0.204424 0.8992221 0.2119598 0.8755375 0.2193378 0.8755375 0.2119598 0.8887643 0.01220095 0.8985863 0.01566243 0.898649 0.01220095 0.8993844 0.1178647 0.8194814 0.1177428 0.8223374 0.1069338 0.8194814 0.2194955 0.9792835 0.2214321 0.9792835 0.2194955 0.982922 0.2215899 0.9799507 0.2235264 0.9799507 0.2215899 0.982922 0.03400576 0.9662955 0.03400576 0.9675234 0.03277754 0.9662955 0.09401178 0.9662955 0.09401178 0.9675234 0.09352028 0.9662955 0.2194955 0.8018955 0.2214321 0.8018955 0.2194955 0.8957522 0.1464875 0.9662955 0.1464875 0.9675234 0.1362111 0.9662955 0.2194955 0.909395 0.2214321 0.909395 0.2194955 0.9630772 0.2215899 0.8105837 0.2235264 0.8105837 0.2215899 0.826273 0.2215899 0.826273 0.2235264 0.826273 0.2215899 0.9357119 0.2194955 0.8965273 0.2214321 0.8965273 0.2194955 0.909395 0.1362111 0.9662955 0.1362111 0.9675234 0.1021713 0.9662955 0.2194955 0.7999587 0.2214321 0.7999587 0.2194955 0.8018955 0.09352028 0.9662955 0.09352028 0.9675234 0.03400576 0.9662955 0.1487947 0.9662955 0.1487947 0.9675234 0.1464875 0.9662955 0.2194955 0.9630772 0.2214321 0.9630772 0.2194955 0.9792835 0.2215899 0.9357119 0.2235265 0.9357119 0.2215899 0.9769794 0.2215899 0.7999587 0.2235265 0.7999587 0.2215899 0.8105837 0.09401178 0.8822944 0.09401178 0.9662955 0.09352028 0.8822944 0.1487947 0.9676235 0.1487947 0.9688515 0.1420574 0.9676235 0.06271356 0.9676235 0.06271356 0.9688515 0.03654569 0.9676235 0.1321088 0.9676235 0.1321088 0.9688515 0.06271356 0.9676235 0.1420574 0.9676235 0.1420574 0.9688515 0.1321088 0.9676235 0.03466165 0.9676235 0.03466165 0.9688515 0.03277754 0.9676235 0.2194955 0.8957522 0.2214321 0.8957522 0.2194955 0.8965273 0.1021713 0.9662955 0.1021713 0.9675234 0.09401178 0.9662955 0.03560364 0.9676235 0.03560364 0.9688515 0.03466165 0.9676235 0.2215899 0.9784651 0.2235265 0.9784651 0.2215899 0.9799507 0.01867085 0.8014988 0.02017509 0.8014988 0.01867085 0.8017213 0.1792673 0.8260607 0.1792673 0.8248196 0.1803247 0.8233416 0.02490025 0.8194814 0.02617096 0.8223374 0.02490025 0.8220549 0.1675212 0.8368936 0.162629 0.8368936 0.1675212 0.8358594 0.1576322 0.9580445 0.1625244 0.9580445 0.1576322 0.9590787 0.02017509 0.8014988 0.01867085 0.8014988 0.01687955 0.7999587 0.01220095 0.9883351 0.01566249 0.9870535 0.01532006 0.9883351 0.02167928 0.8014988 0.02017509 0.8014988 0.01843911 0.7999587 0.1576322 0.9570104 0.1625244 0.9570104 0.1576322 0.9580445 0.1675212 0.8379277 0.162629 0.8379277 0.1675212 0.8368936 0.1792674 0.8273018 0.1792673 0.8260607 0.1803247 0.8246284 0.2215899 0.9769794 0.2235265 0.9769794 0.2215899 0.9784651 0.03654569 0.9676235 0.03654569 0.9688515 0.03560364 0.9676235 0.02490025 0.8220549 0.02617096 0.8248196 0.02490025 0.8233416 0.01532006 0.9883351 0.01867091 0.9870535 0.01687961 0.9883351 0.2251909 0.7999587 0.2251909 0.9338697 0.2236842 0.7999587 0.2251909 0.976045 0.2236842 0.976045 0.2251909 0.9340275 0.2268553 0.9340275 0.2268553 0.976045 0.2253487 0.9340275 0.2253487 0.9338698 0.2253487 0.7999587 0.2268553 0.9338698 0.02017515 0.9870535 0.01867091 0.9870535 0.02017515 0.9868311 0.3445264 0.3388367 0.3390208 0.3388367 0.3390208 0.3320984 0.8401601 0.5837681 0.8346545 0.5837681 0.8346545 0.338837 0.3445264 0.1774035 0.3390208 0.1774035 0.3390209 0.003586709 0.3445264 0.3020853 0.3390208 0.3020853 0.3390208 0.2026692 0.6583541 0.2026693 0.6583541 0.3020854 0.6292827 0.3020854 0.6292827 0.3020854 0.4264985 0.3020853 0.4264986 0.2026692 0.6583541 0.003587007 0.6583541 0.1774036 0.6292827 0.1774036 0.6292827 0.1774036 0.4264986 0.1774035 0.4264987 0.003586888 0.8291488 0.3585139 0.8291488 0.3875694 0.5840849 0.3875694 0.8291488 0.3875694 0.8291489 0.5902428 0.5840849 0.5902428 0.6583541 0.3320985 0.6583541 0.3388368 0.6292827 0.3388368 0.6292827 0.3388368 0.4264985 0.3388367 0.4264985 0.3320984 0.6292827 0.1788392 0.6292827 0.2026693 0.4264986 0.2026692 0.6583541 0.1788392 0.6583541 0.2026693 0.6292827 0.2026693 0.3445264 0.178839 0.3445264 0.2026692 0.3390208 0.2026692 0.6292827 0.003587007 0.4264987 0.003586888 0.4264987 0 0.6583541 1.21177e-7 0.6583541 0.003587007 0.6292827 0.003587007 0.3445265 0.003586709 0.3390209 0.003586709 0.3390209 0 0.6292827 0.3320985 0.4264985 0.3320984 0.4264985 0.3020853 0.6583541 0.3020854 0.6583541 0.3320985 0.6292827 0.3320985 0.3445264 0.3320984 0.3390208 0.3320984 0.3390208 0.3020853 0.4264985 0.3020853 0.4264985 0.3320984 0.350032 0.3320984 0.4264987 0 0.4264987 0.003586888 0.3500321 0.003586709 0.4264986 0.178839 0.4264986 0.2026692 0.350032 0.2026692 0.4264985 0.3020853 0.350032 0.3020853 0.350032 0.2026692 0.4264986 0.1774035 0.350032 0.1774035 0.3500321 0.003586709 0.5840849 0.5902428 0.8291489 0.5902428 0.8291489 0.6666676 0.4264985 0.3320984 0.4264985 0.3388367 0.350032 0.3388367 0.6780417 0.3020855 0.6780417 0.3320985 0.6583541 0.3320985 0.6780417 1.21177e-7 0.6780417 0.003587007 0.6583541 0.003587007 0.6780417 0.1788392 0.6780417 0.2026693 0.6583541 0.2026693 0.6780417 0.3320985 0.6780416 0.3388368 0.6583541 0.3388368 0.8291488 0.338837 0.8291488 0.3585139 0.5840848 0.3585139 0.6780417 0.003587007 0.6780417 0.1774036 0.6583541 0.1774036 0.6780417 0.2026693 0.6780417 0.3020855 0.6583541 0.3020854 0.9231058 1 0.9231058 0.9803232 0.9999999 0.9803232 0.9231057 0.7485948 0.9231057 0.6721701 0.9999999 0.6721701 0.9231057 0.03675138 0.9231058 0.006738305 0.9999999 0.006738305 0.8462116 0.6694181 0.8462116 0.6626797 0.9231057 0.6626797 0.9231057 0.5079849 0.8462116 0.5079849 0.8462116 0.3341683 0.9231058 0.3388369 0.9231058 0.33525 1 0.33525 0.8462116 0.6326667 0.8462116 0.5332506 0.9231057 0.5332506 0.9231058 0.1599977 0.9231058 0.1361675 1 0.1361675 0.9231057 0.9512677 0.9231057 0.7485948 0.9999999 0.7485948 0.9231058 0.9803232 0.9231057 0.9512677 0.9999999 0.9512677 0.9231058 0.1361675 0.9231057 0.03675138 0.9999999 0.03675138 0.8462116 0.6626797 0.8462116 0.6326667 0.9231057 0.6326667 0.9231058 0.33525 0.9231058 0.1614332 1 0.1614332 0.8462116 0.5094205 0.8462116 0.5079849 0.9231057 0.5079849 0.9231057 0.3341683 0.8462116 0.3341683 0.8462116 0.3305814 0.005505561 0.6776739 0.01101118 0.6776739 0.01101118 0.7545263 0.9231058 0.006738305 0.9231058 0 0.9999999 0 0.1600846 0 0.1600188 0.002039134 0.1364702 0.002039134 0.3193331 0.6776738 0.3174278 0.6753984 0.3368722 0.6753984 0 0.2901043 0.001911997 0.2885592 0.001911938 0.3172559 0 0.3455754 0 0.338837 0.002040088 0.340748 0.3390207 0.2901045 0.3390207 0.31916 0.336744 0.3172559 0.8422005 0.338837 0.8422006 0.5837681 0.8401601 0.580842 0.3390205 0.3455759 0.3368721 0.3474036 0.3368721 0.3407485 0.1362414 0.338837 0.03677135 0.3388369 0.03822898 0.3366897 0.3390205 0.3755889 0.3368721 0.3770458 0.3368721 0.3474036 0.3390207 0.08743035 0.3390207 0.2901045 0.3367442 0.2885594 0.01101118 0.3388371 0.01291525 0.340748 0.01019644 0.340748 0.03677147 0 0.03822916 0.002039134 0.00857079 0.002039134 0.08747768 0.3388372 0.08843702 0.3407481 0.01291525 0.340748 0.3390207 0.08743035 0.3367442 0.08838933 0.3367442 0.01290833 1.21243e-7 0.6740863 0.002040207 0.6718553 0.002040207 0.6753979 0.1615208 0.338837 0.1614372 0.3366898 0.3331996 0.3366898 0.3193329 0.3388376 0.3390205 0.3388376 0.3368721 0.3407485 0.9999999 0.3388369 0.9999999 0.3585137 0.9231057 0.3585137 0.9231057 0.5902426 0.9999999 0.5902426 0.9999999 0.6666675 0.9231057 0.3875692 0.9999999 0.3875692 0.9999999 0.5902426 0.9999999 0.3585137 0.9999999 0.3875692 0.9231057 0.3875692 0.005505561 0.7545263 0 0.7545263 0 0.6776739 0.6780416 0.3305812 0.6780417 0.3109043 0.9231057 0.3109045 0.6780416 0.07917594 0.6780416 0.00275129 0.9231057 0.00275129 0.5840848 0.6409225 0.5840848 0.6709356 0.3390208 0.6709355 0.9216692 0.91435 0.9149272 0.91435 0.9149272 0.6694189 0.7615846 0.6694189 0.7615847 0.91435 0.5876737 0.91435 0.5840849 0.338837 0.5840849 0.342424 0.3390208 0.342424 0.8848978 0.91435 0.7854278 0.91435 0.7854278 0.669419 0.5840849 0.5176762 0.5840849 0.5415064 0.3390208 0.5415064 0.6780417 0.2818489 0.6780416 0.07917594 0.9231057 0.079176 0.6780417 0.3109043 0.6780417 0.2818489 0.9231057 0.281849 0.5840849 0.5415064 0.5840848 0.6409225 0.3390208 0.6409224 0.9149272 0.91435 0.8848978 0.91435 0.8848978 0.6694189 0.5840849 0.342424 0.5840849 0.5162407 0.3390208 0.5162406 0.5876737 0.91435 0.5840849 0.91435 0.5840848 0.6694189 0.8291489 0.338837 0.8346545 0.338837 0.8346545 0.5837681 0.5840848 0.6709356 0.5840848 0.6776739 0.3390208 0.6776738 0.3390207 0.31916 0.3390208 0.3388369 0.336744 0.3366898 0.1600846 0 0.161521 0 0.1614373 0.002039134 0 0.3191599 0.001911938 0.3172559 0.001911938 0.3366897 0.3390207 0.5002706 0.3390207 0.6740869 0.3368722 0.6718559 0.3354319 0 0.3390207 0 0.3367442 0.002039134 0.7854278 0.91435 0.7615847 0.91435 0.7615846 0.669419 0.5840849 0.5162407 0.5840849 0.5176762 0.3390208 0.5176762 0 0.08743029 1.4145e-7 0.01100522 0.001912117 0.01290839 0 0.3755884 0 0.3455754 0.002040088 0.3474031 0.8462116 0.5332506 0.8462116 0.5094205 0.9231057 0.5094204 0.9231058 0.1614332 0.9231058 0.1599977 1 0.1599977 0.6780417 0.1774036 0.6780417 0.1788392 0.6583541 0.1788392 0.4264986 0.178839 0.350032 0.178839 0.350032 0.1774035 0.3445264 0.1774035 0.3445264 0.178839 0.3390208 0.178839 0.6583541 0.1774036 0.6583541 0.1788392 0.6292827 0.1788392 0.6292827 0.1788392 0.4264986 0.178839 0.4264986 0.1774035 0.3390207 0.01100522 0.3367442 0.01290833 0.3367442 0.01019108 0 0.50027 0.002040147 0.5001865 0.002040207 0.6718553 0 0.08743029 0.001912057 0.08838921 0.001911997 0.2885592 0.08747786 0.6776733 0.0110113 0.6776732 0.01291531 0.6753979 0.1600845 0.338837 0.1600186 0.3366898 0.1614372 0.3366898 0.3390207 0.6740869 0.3390207 0.6776738 0.3368722 0.6753984 0.1600845 0.338837 0.1362414 0.338837 0.1364701 0.3366898 0.08747786 0.6776733 0.08843719 0.6753981 0.2887157 0.6753985 0.3390207 0.498835 0.3390207 0.5002706 0.3368722 0.500187 0 0.4750043 0 0.3755884 0.002040088 0.3770453 0.1362415 0 0.1364702 0.002039134 0.03822916 0.002039134 0.2902618 0.6776738 0.2887157 0.6753985 0.3174278 0.6753984 0 0.4988344 0 0.4750043 0.002040147 0.475233 0.3390207 0.498835 0.3368722 0.4987692 0.3368722 0.4752334 0.3354319 0.3388369 0.3331996 0.3366898 0.336744 0.3366898 0.005505681 0.6776732 1.21243e-7 0.6776732 0.002040207 0.6753979 0.8422006 0.338837 0.844241 0.3389369 0.844241 0.580842 0.08747768 0.3388372 0.2902615 0.3388376 0.2887155 0.3407485 0.161521 0 0.3354319 0 0.3331996 0.002039134 0.2902615 0.3388376 0.3193329 0.3388376 0.3174277 0.3407485 0.006742119 0 0.00857079 0.002039134 0.001912057 0.002039134 0.00674194 0.3388369 0 0.3388369 0.001911938 0.3366897 0.3390207 0.4750049 0.3368722 0.4752334 0.3368721 0.3770458 0.03677135 0.3388369 0.00674194 0.3388369 0.008570611 0.3366897 1.61658e-7 0.005502581 1.51554e-7 0 0.001912057 0.002039134 1.51554e-7 0.008253872 1.61658e-7 0.005502581 0.001912057 0.007473766 0.008258461 0.6776732 0.005505681 0.6776732 0.00747776 0.6753979 0.3390207 0.005502581 0.3367442 0.007473766 0.3367442 0.002039134 0.3472792 0.1774035 0.3472792 0.178839 0.3445264 0.178839 0.6780416 0.3305814 0.6784482 0.3305814 0.6784482 0.3333326 0.005505561 0.338837 0.0074777 0.340748 0.002040088 0.340748 0.845054 0.5837681 0.8446476 0.5837681 0.8446475 0.338837 0.3472791 0.3320984 0.3445264 0.3320984 0.3445264 0.3020853 0.3472793 0.003586709 0.3445265 0.003586709 0.3445265 0 0.3472792 0.2026692 0.3445264 0.2026692 0.3445264 0.178839 0.3472792 0.3020853 0.3445264 0.3020853 0.3445264 0.2026692 0.3472792 0.1774035 0.3445264 0.1774035 0.3445265 0.003586709 0.6784482 0.3333342 0.6788547 0.3333342 0.6788547 0.3360855 0.3472791 0.3388367 0.3445264 0.3388367 0.3445264 0.3320984 0.350032 0.3388367 0.3472791 0.3388367 0.3472791 0.3320984 0.8291489 0.6666676 0.8291489 0.6694189 0.5840849 0.6694189 0.350032 0.1774035 0.3472792 0.1774035 0.3472793 0.003586709 0.350032 0.3020853 0.3472792 0.3020853 0.3472792 0.2026692 0.350032 0.178839 0.350032 0.2026692 0.3472792 0.2026692 0.3500321 0.003586709 0.3472793 0.003586709 0.3472793 0 0.350032 0.3320984 0.3472791 0.3320984 0.3472792 0.3020853 0.9231057 0.6721701 0.9231057 0.6694188 0.9999999 0.6694188 0.9231058 0.6666675 0.9999999 0.6666675 0.9999999 0.6694188 0.6780416 0.00275129 0.6780416 0 0.9231057 0 0.350032 0.1774035 0.350032 0.178839 0.3472792 0.178839 0.0110113 0.6776732 0.008258461 0.6776732 0.01019656 0.6753979 1.4145e-7 0.01100522 1.51554e-7 0.008253872 0.001912057 0.01019108 0.3390207 0.008253872 0.3367442 0.01019108 0.3367442 0.007473766 0.008258402 0.3388371 0.01019644 0.340748 0.0074777 0.340748 0.01141768 0.6776739 0.01182419 0.6776739 0.01182419 0.7545263 0.6780416 0.3333342 0.6784482 0.3333342 0.6784482 0.3360855 0.8454606 0.5837681 0.8450541 0.5837681 0.8450541 0.338837 0.844241 0.338837 0.8446475 0.338837 0.8446475 0.5837681 0.6784482 0.3360855 0.6788546 0.3360855 0.6788546 0.3388369 0.01101118 0.6776739 0.01141768 0.6776739 0.01141768 0.7545263 0.01263713 0.7545263 0.01223069 0.7545263 0.01223069 0.6776739 0.8458671 0.5837681 0.8454606 0.5837681 0.8454606 0.338837 0.6780416 0.3360855 0.6784482 0.3360855 0.6784482 0.3388368 0.01223063 0.7545263 0.01182419 0.7545263 0.01182419 0.6776739 0.6788547 0.3333327 0.6784482 0.3333327 0.6784482 0.3305814 0.3445264 0.3320984 0.3445264 0.3388367 0.3390208 0.3320984 0.8401601 0.338837 0.8401601 0.5837681 0.8346545 0.338837 0.3445265 0.003586709 0.3445264 0.1774035 0.3390209 0.003586709 0.3445264 0.2026692 0.3445264 0.3020853 0.3390208 0.2026692 0.6292827 0.2026693 0.6583541 0.2026693 0.6292827 0.3020854 0.6292827 0.2026693 0.6292827 0.3020854 0.4264986 0.2026692 0.6292827 0.003587007 0.6583541 0.003587007 0.6292827 0.1774036 0.6292827 0.003587007 0.6292827 0.1774036 0.4264987 0.003586888 0.5840848 0.3585139 0.8291488 0.3585139 0.5840849 0.3875694 0.5840849 0.3875694 0.8291488 0.3875694 0.5840849 0.5902428 0.6292827 0.3320985 0.6583541 0.3320985 0.6292827 0.3388368 0.6292827 0.3320985 0.6292827 0.3388368 0.4264985 0.3320984 0.4264986 0.178839 0.6292827 0.1788392 0.4264986 0.2026692 0.6292827 0.1788392 0.6583541 0.1788392 0.6292827 0.2026693 0.3390208 0.178839 0.3445264 0.178839 0.3390208 0.2026692 0.6292827 0 0.6292827 0.003587007 0.4264987 0 0.6292827 0 0.6583541 1.21177e-7 0.6292827 0.003587007 0.3445265 0 0.3445265 0.003586709 0.3390209 0 0.6292827 0.3020854 0.6292827 0.3320985 0.4264985 0.3020853 0.6292827 0.3020854 0.6583541 0.3020854 0.6292827 0.3320985 0.3445264 0.3020853 0.3445264 0.3320984 0.3390208 0.3020853 0.350032 0.3020853 0.4264985 0.3020853 0.350032 0.3320984 0.3500321 0 0.4264987 0 0.3500321 0.003586709 0.350032 0.178839 0.4264986 0.178839 0.350032 0.2026692 0.4264986 0.2026692 0.4264985 0.3020853 0.350032 0.2026692 0.4264987 0.003586888 0.4264986 0.1774035 0.3500321 0.003586709 0.5840849 0.6666676 0.5840849 0.5902428 0.8291489 0.6666676 0.350032 0.3320984 0.4264985 0.3320984 0.350032 0.3388367 0.6583541 0.3020854 0.6780417 0.3020855 0.6583541 0.3320985 0.6583541 1.21177e-7 0.6780417 1.21177e-7 0.6583541 0.003587007 0.6583541 0.1788392 0.6780417 0.1788392 0.6583541 0.2026693 0.6583541 0.3320985 0.6780417 0.3320985 0.6583541 0.3388368 0.5840848 0.3388371 0.8291488 0.338837 0.5840848 0.3585139 0.6583541 0.003587007 0.6780417 0.003587007 0.6583541 0.1774036 0.6583541 0.2026693 0.6780417 0.2026693 0.6583541 0.3020854 0.9999999 1 0.9231058 1 0.9999999 0.9803232 0.9999999 0.7485948 0.9231057 0.7485948 0.9999999 0.6721701 0.9999999 0.03675138 0.9231057 0.03675138 0.9999999 0.006738305 0.9231057 0.6694181 0.8462116 0.6694181 0.9231057 0.6626797 0.9231057 0.3341683 0.9231057 0.5079849 0.8462116 0.3341683 1 0.3388369 0.9231058 0.3388369 1 0.33525 0.9231057 0.6326667 0.8462116 0.6326667 0.9231057 0.5332506 1 0.1599977 0.9231058 0.1599977 1 0.1361675 0.9999999 0.9512677 0.9231057 0.9512677 0.9999999 0.7485948 0.9999999 0.9803232 0.9231058 0.9803232 0.9999999 0.9512677 1 0.1361675 0.9231058 0.1361675 0.9999999 0.03675138 0.9231057 0.6626797 0.8462116 0.6626797 0.9231057 0.6326667 1 0.33525 0.9231058 0.33525 1 0.1614332 0.9231057 0.5094204 0.8462116 0.5094205 0.9231057 0.5079849 0.9231057 0.3305814 0.9231057 0.3341683 0.8462116 0.3305814 0.005505561 0.7545263 0.005505561 0.6776739 0.01101118 0.7545263 0.9999999 0.006738305 0.9231058 0.006738305 0.9999999 0 0.1362415 0 0.1600846 0 0.1364702 0.002039134 0.3390207 0.6776738 0.3193331 0.6776738 0.3368722 0.6753984 0 0.3191599 0 0.2901043 0.001911938 0.3172559 0.002040088 0.3474031 0 0.3455754 0.002040088 0.340748 0.3367442 0.2885594 0.3390207 0.2901045 0.336744 0.3172559 0.8401601 0.3389369 0.8422005 0.338837 0.8401601 0.580842 0.3390205 0.3388376 0.3390205 0.3455759 0.3368721 0.3407485 0.1364701 0.3366898 0.1362414 0.338837 0.03822898 0.3366897 0.3390205 0.3455759 0.3390205 0.3755889 0.3368721 0.3474036 0.3367442 0.08838933 0.3390207 0.08743035 0.3367442 0.2885594 0.008258402 0.3388371 0.01101118 0.3388371 0.01019644 0.340748 0.006742119 0 0.03677147 0 0.00857079 0.002039134 0.01101118 0.3388371 0.08747768 0.3388372 0.01291525 0.340748 0.3390207 0.01100522 0.3390207 0.08743035 0.3367442 0.01290833 1.21243e-7 0.6776732 1.21243e-7 0.6740863 0.002040207 0.6753979 0.3354319 0.3388369 0.1615208 0.338837 0.3331996 0.3366898 0.3174277 0.3407485 0.3193329 0.3388376 0.3368721 0.3407485 0.9231057 0.3388369 0.9999999 0.3388369 0.9231057 0.3585137 0.9231058 0.6666675 0.9231057 0.5902426 0.9999999 0.6666675 0.9231057 0.5902426 0.9231057 0.3875692 0.9999999 0.5902426 0.9231057 0.3585137 0.9999999 0.3585137 0.9231057 0.3875692 0.005505561 0.6776739 0.005505561 0.7545263 0 0.6776739 0.9231057 0.3305813 0.6780416 0.3305812 0.9231057 0.3109045 0.9231057 0.079176 0.6780416 0.07917594 0.9231057 0.00275129 0.3390208 0.6409224 0.5840848 0.6409225 0.3390208 0.6709355 0.9216692 0.6694189 0.9216692 0.91435 0.9149272 0.6694189 0.5876736 0.6694189 0.7615846 0.6694189 0.5876737 0.91435 0.3390208 0.338837 0.5840849 0.338837 0.3390208 0.342424 0.8848978 0.6694189 0.8848978 0.91435 0.7854278 0.669419 0.3390208 0.5176762 0.5840849 0.5176762 0.3390208 0.5415064 0.9231057 0.281849 0.6780417 0.2818489 0.9231057 0.079176 0.9231057 0.3109045 0.6780417 0.3109043 0.9231057 0.281849 0.3390208 0.5415064 0.5840849 0.5415064 0.3390208 0.6409224 0.9149272 0.6694189 0.9149272 0.91435 0.8848978 0.6694189 0.3390208 0.342424 0.5840849 0.342424 0.3390208 0.5162406 0.5876736 0.6694189 0.5876737 0.91435 0.5840848 0.6694189 0.829149 0.5837681 0.8291489 0.338837 0.8346545 0.5837681 0.3390208 0.6709355 0.5840848 0.6709356 0.3390208 0.6776738 0.336744 0.3172559 0.3390207 0.31916 0.336744 0.3366898 0.1600188 0.002039134 0.1600846 0 0.1614373 0.002039134 0 0.3388369 0 0.3191599 0.001911938 0.3366897 0.3368722 0.500187 0.3390207 0.5002706 0.3368722 0.6718559 0.3331996 0.002039134 0.3354319 0 0.3367442 0.002039134 0.7854278 0.669419 0.7854278 0.91435 0.7615846 0.669419 0.3390208 0.5162406 0.5840849 0.5162407 0.3390208 0.5176762 0.001912057 0.08838921 0 0.08743029 0.001912117 0.01290839 0.002040088 0.3770453 0 0.3755884 0.002040088 0.3474031 0.9231057 0.5332506 0.8462116 0.5332506 0.9231057 0.5094204 1 0.1614332 0.9231058 0.1614332 1 0.1599977 0.6583541 0.1774036 0.6780417 0.1774036 0.6583541 0.1788392 0.4264986 0.1774035 0.4264986 0.178839 0.350032 0.1774035 0.3390208 0.1774035 0.3445264 0.1774035 0.3390208 0.178839 0.6292827 0.1774036 0.6583541 0.1774036 0.6292827 0.1788392 0.6292827 0.1774036 0.6292827 0.1788392 0.4264986 0.1774035 0.3390207 0.008253872 0.3390207 0.01100522 0.3367442 0.01019108 1.21243e-7 0.6740863 0 0.50027 0.002040207 0.6718553 0 0.2901043 0 0.08743029 0.001911997 0.2885592 0.08843719 0.6753981 0.08747786 0.6776733 0.01291531 0.6753979 0.1615208 0.338837 0.1600845 0.338837 0.1614372 0.3366898 0.3368722 0.6718559 0.3390207 0.6740869 0.3368722 0.6753984 0.1600186 0.3366898 0.1600845 0.338837 0.1364701 0.3366898 0.2902618 0.6776738 0.08747786 0.6776733 0.2887157 0.6753985 0.3368722 0.4987692 0.3390207 0.498835 0.3368722 0.500187 0.002040147 0.475233 0 0.4750043 0.002040088 0.3770453 0.03677147 0 0.1362415 0 0.03822916 0.002039134 0.3193331 0.6776738 0.2902618 0.6776738 0.3174278 0.6753984 0.002040147 0.4987686 0 0.4988344 0.002040147 0.475233 0.3390207 0.4750049 0.3390207 0.498835 0.3368722 0.4752334 0.3390208 0.3388369 0.3354319 0.3388369 0.336744 0.3366898 0.00747776 0.6753979 0.005505681 0.6776732 0.002040207 0.6753979 0.8422006 0.5837681 0.8422006 0.338837 0.844241 0.580842 0.08843702 0.3407481 0.08747768 0.3388372 0.2887155 0.3407485 0.1614373 0.002039134 0.161521 0 0.3331996 0.002039134 0.2887155 0.3407485 0.2902615 0.3388376 0.3174277 0.3407485 1.51554e-7 0 0.006742119 0 0.001912057 0.002039134 0.008570611 0.3366897 0.00674194 0.3388369 0.001911938 0.3366897 0.3390205 0.3755889 0.3390207 0.4750049 0.3368721 0.3770458 0.03822898 0.3366897 0.03677135 0.3388369 0.008570611 0.3366897 0.001912057 0.007473766 1.61658e-7 0.005502581 0.001912057 0.002039134 0.001912057 0.01019108 1.51554e-7 0.008253872 0.001912057 0.007473766 0.01019656 0.6753979 0.008258461 0.6776732 0.00747776 0.6753979 0.3390207 0 0.3390207 0.005502581 0.3367442 0.002039134 0.3445264 0.1774035 0.3472792 0.1774035 0.3445264 0.178839 0.6780416 0.3333326 0.6780416 0.3305814 0.6784482 0.3333326 0 0.338837 0.005505561 0.338837 0.002040088 0.340748 0.845054 0.338837 0.845054 0.5837681 0.8446475 0.338837 0.3472792 0.3020853 0.3472791 0.3320984 0.3445264 0.3020853 0.3472793 0 0.3472793 0.003586709 0.3445265 0 0.3472792 0.178839 0.3472792 0.2026692 0.3445264 0.178839 0.3472792 0.2026692 0.3472792 0.3020853 0.3445264 0.2026692 0.3472793 0.003586709 0.3472792 0.1774035 0.3445265 0.003586709 0.6784482 0.3360855 0.6784482 0.3333342 0.6788547 0.3360855 0.3472791 0.3320984 0.3472791 0.3388367 0.3445264 0.3320984 0.350032 0.3320984 0.350032 0.3388367 0.3472791 0.3320984 0.5840849 0.6666676 0.8291489 0.6666676 0.5840849 0.6694189 0.3500321 0.003586709 0.350032 0.1774035 0.3472793 0.003586709 0.350032 0.2026692 0.350032 0.3020853 0.3472792 0.2026692 0.3472792 0.178839 0.350032 0.178839 0.3472792 0.2026692 0.3500321 0 0.3500321 0.003586709 0.3472793 0 0.350032 0.3020853 0.350032 0.3320984 0.3472792 0.3020853 0.9999999 0.6721701 0.9231057 0.6721701 0.9999999 0.6694188 0.9231058 0.6694188 0.9231058 0.6666675 0.9999999 0.6694188 0.9231057 0.00275129 0.6780416 0.00275129 0.9231057 0 0.3472792 0.1774035 0.350032 0.1774035 0.3472792 0.178839 0.01291531 0.6753979 0.0110113 0.6776732 0.01019656 0.6753979 0.001912117 0.01290839 1.4145e-7 0.01100522 0.001912057 0.01019108 0.3390207 0.005502581 0.3390207 0.008253872 0.3367442 0.007473766 0.005505561 0.338837 0.008258402 0.3388371 0.0074777 0.340748 0.01141768 0.7545263 0.01141768 0.6776739 0.01182419 0.7545263 0.6780416 0.3360855 0.6780416 0.3333342 0.6784482 0.3360855 0.8454605 0.338837 0.8454606 0.5837681 0.8450541 0.338837 0.844241 0.5837681 0.844241 0.338837 0.8446475 0.5837681 0.6784482 0.3388368 0.6784482 0.3360855 0.6788546 0.3388369 0.01101118 0.7545263 0.01101118 0.6776739 0.01141768 0.7545263 0.01263713 0.6776739 0.01263713 0.7545263 0.01223069 0.6776739 0.8458671 0.338837 0.8458671 0.5837681 0.8454606 0.338837 0.6780416 0.3388368 0.6780416 0.3360855 0.6784482 0.3388368 0.01223069 0.6776739 0.01223063 0.7545263 0.01182419 0.6776739 0.6788547 0.3305814 0.6788547 0.3333327 0.6784482 0.3305814</float_array>
          <technique_common>
            <accessor source="#Cube_001-mesh-map-0-array" count="1746" stride="2">
              <param name="S" type="float"/>
              <param name="T" type="float"/>
            </accessor>
          </technique_common>
        </source>
        <vertices id="Cube_001-mesh-vertices">
          <input semantic="POSITION" source="#Cube_001-mesh-positions"/>
        </vertices>
        <polylist material="PBRFULL_SinkBase-material" count="582">
          <input semantic="VERTEX" source="#Cube_001-mesh-vertices" offset="0"/>
          <input semantic="NORMAL" source="#Cube_001-mesh-normals" offset="1"/>
          <input semantic="TEXCOORD" source="#Cube_001-mesh-map-0" offset="2" set="0"/>
          <vcount>3 3 3 3 3 3 3 3 3 3 3 3 3 3 3 3 3 3 3 3 3 3 3 3 3 3 3 3 3 3 3 3 3 3 3 3 3 3 3 3 3 3 3 3 3 3 3 3 3 3 3 3 3 3 3 3 3 3 3 3 3 3 3 3 3 3 3 3 3 3 3 3 3 3 3 3 3 3 3 3 3 3 3 3 3 3 3 3 3 3 3 3 3 3 3 3 3 3 3 3 3 3 3 3 3 3 3 3 3 3 3 3 3 3 3 3 3 3 3 3 3 3 3 3 3 3 3 3 3 3 3 3 3 3 3 3 3 3 3 3 3 3 3 3 3 3 3 3 3 3 3 3 3 3 3 3 3 3 3 3 3 3 3 3 3 3 3 3 3 3 3 3 3 3 3 3 3 3 3 3 3 3 3 3 3 3 3 3 3 3 3 3 3 3 3 3 3 3 3 3 3 3 3 3 3 3 3 3 3 3 3 3 3 3 3 3 3 3 3 3 3 3 3 3 3 3 3 3 3 3 3 3 3 3 3 3 3 3 3 3 3 3 3 3 3 3 3 3 3 3 3 3 3 3 3 3 3 3 3 3 3 3 3 3 3 3 3 3 3 3 3 3 3 3 3 3 3 3 3 3 3 3 3 3 3 3 3 3 3 3 3 3 3 3 3 3 3 3 3 3 3 3 3 3 3 3 3 3 3 3 3 3 3 3 3 3 3 3 3 3 3 3 3 3 3 3 3 3 3 3 3 3 3 3 3 3 3 3 3 3 3 3 3 3 3 3 3 3 3 3 3 3 3 3 3 3 3 3 3 3 3 3 3 3 3 3 3 3 3 3 3 3 3 3 3 3 3 3 3 3 3 3 3 3 3 3 3 3 3 3 3 3 3 3 3 3 3 3 3 3 3 3 3 3 3 3 3 3 3 3 3 3 3 3 3 3 3 3 3 3 3 3 3 3 3 3 3 3 3 3 3 3 3 3 3 3 3 3 3 3 3 3 3 3 3 3 3 3 3 3 3 3 3 3 3 3 3 3 3 3 3 3 3 3 3 3 3 3 3 3 3 3 3 3 3 3 3 3 3 3 3 3 3 3 3 3 3 3 3 3 3 3 3 3 3 3 3 3 3 3 3 3 3 3 3 3 3 3 3 3 3 3 3 3 3 3 3 3 3 3 3 3 3 3 3 3 3 3 3 3 3 3 3 3 3 3 3 3 3 3 3 3 3 3 3 3 3 3 3 3 3 3 3 3 3 3 3 3 3 3 3 3 3 3 3 3 3 3 3 3 3 3 3 3 3 3 3 3 3 3 3 3 </vcount>
          <p>163 0 0 42 0 1 87 0 2 38 1 3 27 1 4 75 1 5 26 2 6 38 2 7 84 2 8 25 2 9 49 2 10 85 2 11 26 2 12 51 2 13 154 2 14 40 3 15 30 3 16 78 3 17 6 4 18 60 4 19 94 4 20 1 4 21 22 4 22 68 4 23 36 5 24 82 5 25 97 5 26 41 6 27 73 6 28 72 6 29 16 7 30 5 7 31 58 7 32 0 4 33 46 4 34 65 4 35 37 2 36 83 2 37 76 2 38 42 8 39 34 8 40 80 8 41 39 9 42 85 9 43 77 9 44 24 10 45 47 10 46 88 10 47 30 11 48 35 11 49 81 11 50 20 12 51 55 12 52 70 12 53 23 2 54 44 2 55 74 2 56 3 4 57 52 4 58 56 4 59 44 2 60 31 2 61 71 2 62 19 4 63 10 4 64 67 4 65 53 13 66 48 13 67 47 13 68 153 14 69 50 14 70 49 14 71 56 15 72 52 15 73 51 15 74 97 15 75 94 15 76 60 15 77 57 16 78 58 16 79 76 16 80 63 15 81 64 15 82 77 15 83 61 13 84 62 13 85 78 13 86 68 17 87 69 17 88 79 17 89 69 18 90 70 18 91 80 18 92 95 13 93 61 13 94 81 13 95 64 19 96 59 19 97 82 19 98 46 13 99 57 13 100 83 13 101 60 15 102 56 15 103 84 15 104 50 15 105 63 15 106 85 15 107 62 13 108 53 13 109 86 13 110 70 20 111 55 20 112 87 20 113 48 21 114 68 21 115 88 21 116 45 22 117 74 22 118 65 22 119 72 23 120 73 23 121 54 23 122 71 22 123 72 22 124 67 22 125 74 22 126 71 22 127 66 22 128 154 22 129 51 22 130 52 22 131 15 4 132 56 4 133 60 4 134 23 2 135 45 2 136 83 2 137 21 4 138 65 4 139 66 4 140 24 24 141 40 24 142 86 24 143 29 25 144 77 25 145 82 25 146 9 4 147 66 4 148 67 4 149 0 4 150 16 4 151 57 4 152 28 2 153 76 2 154 96 2 155 17 4 156 53 4 157 62 4 158 22 4 159 11 4 160 69 4 161 8 26 162 13 26 163 59 26 164 7 4 165 62 4 166 61 4 167 33 27 168 79 27 169 80 27 170 1 4 171 48 4 172 53 4 173 11 4 174 12 4 175 70 4 176 43 28 177 88 28 178 79 28 179 160 4 180 19 4 181 54 4 182 2 4 183 18 4 184 63 4 185 14 4 186 61 4 187 95 4 188 18 29 189 8 29 190 64 29 191 31 2 192 32 2 193 72 2 194 2 4 195 50 4 196 153 4 197 89 30 198 98 30 199 99 30 200 5 31 201 91 31 202 95 31 203 35 32 204 92 32 205 96 32 206 58 13 207 95 13 208 96 13 209 59 15 210 94 15 211 97 15 212 27 33 213 93 33 214 97 33 215 13 34 216 90 34 217 94 34 218 117 13 219 104 13 220 103 13 221 156 14 222 106 14 223 105 14 224 119 15 225 108 15 226 107 15 227 120 15 228 121 15 229 100 15 230 122 13 231 123 13 232 133 13 233 124 15 234 125 15 235 134 15 236 126 35 237 127 35 238 135 35 239 128 36 240 129 36 241 136 36 242 129 37 243 130 37 244 137 37 245 131 13 246 126 13 247 138 13 248 125 38 249 132 38 250 139 38 251 102 13 252 122 13 253 140 13 254 121 39 255 119 39 256 141 39 257 106 15 258 124 15 259 142 15 260 127 13 261 117 13 262 143 13 263 130 40 264 118 40 265 144 40 266 104 41 267 128 41 268 145 41 269 147 42 270 100 42 271 99 42 272 101 22 273 115 22 274 116 22 275 111 22 276 113 22 277 114 22 278 109 22 279 111 22 280 112 22 281 115 43 282 109 43 283 110 43 284 159 22 285 107 22 286 108 22 287 123 13 288 131 13 289 146 13 290 132 15 291 120 15 292 147 15 293 171 22 294 159 22 295 157 22 296 168 14 297 156 14 298 158 14 299 162 2 300 176 2 301 177 2 302 149 4 303 153 4 304 165 4 305 3 4 306 148 4 307 152 4 308 166 22 309 154 22 310 152 22 311 165 14 312 153 14 313 155 14 314 150 2 315 154 2 316 166 2 317 25 2 318 151 2 319 155 2 320 162 2 321 166 2 322 73 2 323 55 44 324 165 44 325 167 44 326 73 22 327 166 22 328 164 22 329 161 45 330 165 45 331 55 45 332 118 14 333 168 14 334 170 14 335 113 22 336 171 22 337 169 22 338 148 4 339 160 4 340 164 4 341 151 2 342 163 2 343 167 2 344 184 46 345 185 46 346 175 46 347 176 22 348 182 22 349 183 22 350 178 47 351 179 47 352 181 47 353 172 48 354 173 48 355 187 48 356 151 2 357 179 2 358 178 2 359 167 49 360 163 49 361 87 49 362 84 2 363 38 2 364 75 2 365 51 50 366 26 50 367 84 50 368 39 2 369 25 2 370 85 2 371 150 2 372 26 2 373 154 2 374 86 51 375 40 51 376 78 51 377 90 52 378 6 52 379 94 52 380 48 4 381 1 4 382 68 4 383 93 2 384 36 2 385 97 2 386 32 2 387 41 2 388 72 2 389 57 4 390 16 4 391 58 4 392 21 4 393 0 4 394 65 4 395 28 53 396 37 53 397 76 53 398 87 54 399 42 54 400 80 54 401 29 55 402 39 55 403 77 55 404 43 2 405 24 2 406 88 2 407 78 56 408 30 56 409 81 56 410 12 4 411 20 4 412 70 4 413 45 2 414 23 2 415 74 2 416 15 57 417 3 57 418 56 57 419 74 2 420 44 2 421 71 2 422 54 4 423 19 4 424 67 4 425 86 13 426 53 13 427 47 13 428 155 14 429 153 14 430 49 14 431 84 15 432 56 15 433 51 15 434 75 15 435 97 15 436 60 15 437 83 58 438 57 58 439 76 58 440 85 15 441 63 15 442 77 15 443 81 13 444 61 13 445 78 13 446 88 17 447 68 17 448 79 17 449 79 59 450 69 59 451 80 59 452 96 13 453 95 13 454 81 13 455 77 60 456 64 60 457 82 60 458 45 13 459 46 13 460 83 13 461 75 61 462 60 61 463 84 61 464 49 15 465 50 15 466 85 15 467 78 13 468 62 13 469 86 13 470 80 20 471 70 20 472 87 20 473 47 62 474 48 62 475 88 62 476 46 22 477 45 22 478 65 22 479 67 63 480 72 63 481 54 63 482 66 22 483 71 22 484 67 22 485 65 22 486 74 22 487 66 22 488 152 22 489 154 22 490 52 22 491 6 4 492 15 4 493 60 4 494 37 64 495 23 64 496 83 64 497 9 4 498 21 4 499 66 4 500 47 2 501 24 2 502 86 2 503 36 2 504 29 2 505 82 2 506 10 4 507 9 4 508 67 4 509 46 65 510 0 65 511 57 65 512 92 2 513 28 2 514 96 2 515 7 66 516 17 66 517 62 66 518 68 4 519 22 4 520 69 4 521 64 67 522 8 67 523 59 67 524 14 4 525 7 4 526 61 4 527 34 2 528 33 2 529 80 2 530 17 4 531 1 4 532 53 4 533 69 4 534 11 4 535 70 4 536 33 68 537 43 68 538 79 68 539 164 4 540 160 4 541 54 4 542 50 4 543 2 4 544 63 4 545 91 69 546 14 69 547 95 69 548 63 4 549 18 4 550 64 4 551 71 2 552 31 2 553 72 2 554 149 4 555 2 4 556 153 4 557 4 70 558 89 70 559 99 70 560 58 71 561 5 71 562 95 71 563 81 2 564 35 2 565 96 2 566 76 13 567 58 13 568 96 13 569 82 15 570 59 15 571 97 15 572 75 2 573 27 2 574 97 2 575 59 4 576 13 4 577 94 4 578 143 13 579 117 13 580 103 13 581 158 14 582 156 14 583 105 14 584 141 15 585 119 15 586 107 15 587 147 15 588 120 15 589 100 15 590 140 13 591 122 13 592 133 13 593 142 15 594 124 15 595 134 15 596 138 72 597 126 72 598 135 72 599 145 73 600 128 73 601 136 73 602 136 74 603 129 74 604 137 74 605 146 13 606 131 13 607 138 13 608 134 75 609 125 75 610 139 75 611 101 13 612 102 13 613 140 13 614 100 76 615 121 76 616 141 76 617 105 15 618 106 15 619 142 15 620 135 13 621 127 13 622 143 13 623 137 77 624 130 77 625 144 77 626 103 78 627 104 78 628 145 78 629 98 42 630 147 42 631 99 42 632 102 22 633 101 22 634 116 22 635 112 22 636 111 22 637 114 22 638 110 22 639 109 22 640 112 22 641 116 79 642 115 79 643 110 79 644 157 22 645 159 22 646 108 22 647 133 13 648 123 13 649 146 13 650 139 15 651 132 15 652 147 15 653 169 22 654 171 22 655 157 22 656 170 14 657 168 14 658 158 14 659 150 2 660 162 2 661 177 2 662 161 4 663 149 4 664 165 4 665 52 4 666 3 4 667 152 4 668 164 22 669 166 22 670 152 22 671 167 14 672 165 14 673 155 14 674 162 2 675 150 2 676 166 2 677 49 2 678 25 2 679 155 2 680 41 2 681 162 2 682 73 2 683 87 80 684 55 80 685 167 80 686 54 22 687 73 22 688 164 22 689 20 4 690 161 4 691 55 4 692 144 14 693 118 14 694 170 14 695 114 22 696 113 22 697 169 22 698 152 4 699 148 4 700 164 4 701 155 2 702 151 2 703 167 2 704 174 14 705 184 14 706 175 14 707 177 22 708 176 22 709 183 22 710 180 81 711 178 81 712 181 81 713 186 22 714 172 22 715 187 22 716 163 2 717 151 2 718 178 2 719 359 2 720 190 2 721 213 2 722 358 82 723 191 82 724 291 82 725 360 2 726 193 2 727 208 2 728 361 2 729 195 2 730 204 2 731 227 83 732 226 83 733 202 83 734 202 2 735 203 2 736 207 2 737 228 84 738 225 84 739 200 84 740 200 2 741 201 2 742 211 2 743 223 85 744 196 85 745 292 85 746 196 86 747 197 86 748 293 86 749 229 87 750 224 87 751 198 87 752 198 2 753 199 2 754 215 2 755 297 88 756 206 88 757 207 88 758 301 89 759 227 89 760 206 89 761 371 2 762 362 2 763 204 2 764 210 2 765 211 2 766 197 2 767 223 2 768 228 2 769 210 2 770 363 2 771 208 2 772 191 2 773 214 2 774 215 2 775 203 2 776 226 2 777 229 2 778 214 2 779 364 2 780 213 2 781 195 2 782 203 90 783 215 90 784 222 90 785 197 91 786 211 91 787 221 91 788 298 92 789 207 92 790 220 92 791 203 2 792 219 2 793 220 2 794 201 2 795 218 2 796 221 2 797 293 22 798 197 22 799 216 22 800 215 2 801 199 2 802 217 2 803 194 93 804 212 93 805 229 93 806 188 2 807 209 2 808 228 2 809 299 2 810 205 2 811 227 2 812 212 2 813 189 2 814 224 2 815 188 22 816 223 22 817 295 22 818 209 94 819 192 94 820 225 94 821 205 2 822 194 2 823 226 2 824 231 95 825 250 95 826 265 95 827 241 96 828 249 96 829 264 96 830 237 13 831 247 13 832 263 13 833 232 15 834 246 15 835 262 15 836 252 97 837 234 97 838 245 97 839 230 13 840 244 13 841 260 13 842 236 98 843 243 98 844 259 98 845 302 13 846 242 13 847 258 13 848 240 99 849 241 99 850 257 99 851 250 100 852 240 100 853 256 100 854 242 101 855 237 101 856 255 101 857 246 15 858 236 15 859 254 15 860 244 13 861 235 13 862 253 13 863 303 15 864 234 15 865 252 15 866 261 102 867 245 102 868 233 102 869 366 103 870 232 103 871 268 103 872 247 13 873 231 13 874 267 13 875 304 104 876 330 104 877 342 104 878 295 105 879 325 105 880 311 105 881 256 106 882 339 106 883 338 106 884 284 107 885 290 107 886 315 107 887 270 108 888 273 108 889 326 108 890 274 109 891 193 109 892 309 109 893 285 110 894 353 110 895 313 110 896 258 111 897 255 111 898 337 111 899 277 112 900 345 112 901 353 112 902 271 113 903 270 113 904 320 113 905 286 114 906 354 114 907 392 114 908 254 115 909 335 115 910 334 115 911 279 116 912 347 116 913 354 116 914 271 117 915 322 117 916 324 117 917 283 118 918 351 118 919 317 118 920 253 119 921 333 119 922 332 119 923 287 120 924 289 120 925 313 120 926 266 22 927 273 22 928 251 22 929 239 22 930 271 22 931 272 22 932 238 22 933 270 22 934 271 22 935 273 22 936 270 22 937 238 22 938 368 121 939 269 121 940 233 121 941 289 122 942 287 122 943 224 122 944 279 123 945 286 123 946 217 123 947 277 124 948 285 124 949 212 124 950 290 125 951 284 125 952 213 125 953 193 126 954 274 126 955 283 126 956 288 13 957 282 13 958 209 13 959 276 127 960 281 127 961 204 127 962 306 13 963 280 13 964 205 13 965 278 128 966 279 128 967 199 128 968 287 129 969 278 129 970 198 129 971 280 130 972 277 130 973 194 130 974 284 131 975 276 131 976 195 131 977 282 13 978 275 13 979 192 13 980 283 132 981 291 132 982 191 132 983 369 133 984 290 133 985 190 133 986 285 134 987 289 134 988 189 134 989 273 135 990 266 135 991 312 135 992 304 136 993 252 136 994 331 136 995 265 137 996 338 137 997 314 137 998 275 138 999 282 138 1000 350 138 1001 261 139 1002 269 139 1003 318 139 1004 281 140 1005 307 140 1006 296 140 1007 275 13 1008 306 13 1009 299 13 1010 257 141 1011 264 141 1012 328 141 1013 276 142 1014 284 142 1015 352 142 1016 243 15 1017 303 15 1018 304 15 1019 235 13 1020 302 13 1021 305 13 1022 192 143 1023 299 143 1024 301 143 1025 298 2 1026 300 2 1027 218 2 1028 360 144 1029 371 144 1030 296 144 1031 225 145 1032 301 145 1033 297 145 1034 297 2 1035 298 2 1036 201 2 1037 272 146 1038 324 146 1039 391 146 1040 274 147 1041 310 147 1042 351 147 1043 257 148 1044 340 148 1045 339 148 1046 293 149 1047 294 149 1048 323 149 1049 305 150 1050 341 150 1051 333 150 1052 282 151 1053 288 151 1054 311 151 1055 305 152 1056 258 152 1057 336 152 1058 293 153 1059 321 153 1060 319 153 1061 306 154 1062 275 154 1063 343 154 1064 281 155 1065 276 155 1066 344 155 1067 259 156 1068 342 156 1069 335 156 1070 292 157 1071 319 157 1072 325 157 1073 307 158 1074 281 158 1075 349 158 1076 306 159 1077 356 159 1078 348 159 1079 260 160 1080 332 160 1081 312 160 1082 370 161 1083 291 161 1084 317 161 1085 307 162 1086 357 162 1087 308 162 1088 279 163 1089 278 163 1090 346 163 1091 252 164 1092 261 164 1093 329 164 1094 278 165 1095 287 165 1096 355 165 1097 262 166 1098 334 166 1099 316 166 1100 263 167 1101 267 167 1102 314 167 1103 280 168 1104 348 168 1105 345 168 1106 255 169 1107 263 169 1108 327 169 1109 367 170 1110 268 170 1111 316 170 1112 385 171 1113 367 171 1114 372 171 1115 388 172 1116 370 172 1117 375 172 1118 368 173 1119 373 173 1120 318 173 1121 378 2 1122 389 2 1123 371 2 1124 377 4 1125 396 4 1126 397 4 1127 369 174 1128 374 174 1129 315 174 1130 376 175 1131 394 175 1132 408 175 1133 382 2 1134 364 2 1135 361 2 1136 381 2 1137 363 2 1138 358 2 1139 380 2 1140 362 2 1141 371 2 1142 379 2 1143 361 2 1144 362 2 1145 378 2 1146 360 2 1147 363 2 1148 368 4 1149 405 4 1150 404 4 1151 377 2 1152 359 2 1153 364 2 1154 217 2 1155 377 2 1156 382 2 1157 216 176 1158 376 176 1159 388 176 1160 218 2 1161 378 2 1162 381 2 1163 219 2 1164 379 2 1165 380 2 1166 300 2 1167 220 2 1168 380 2 1169 221 2 1170 381 2 1171 376 2 1172 222 2 1173 382 2 1174 379 2 1175 249 177 1176 384 177 1177 385 177 1178 248 22 1179 272 22 1180 386 22 1181 286 178 1182 387 178 1183 377 178 1184 218 2 1185 300 2 1186 389 2 1187 294 179 1188 388 179 1189 393 179 1190 264 180 1191 385 180 1192 390 180 1193 386 173 1194 391 173 1195 373 173 1196 387 181 1197 392 181 1198 374 181 1199 367 13 1200 403 13 1201 401 13 1202 369 2 1203 407 2 1204 406 2 1205 370 182 1206 409 182 1207 395 182 1208 359 183 1209 397 183 1210 407 183 1211 388 2 1212 408 2 1213 409 2 1214 365 184 1215 399 184 1216 405 184 1217 386 185 1218 404 185 1219 398 185 1220 387 186 1221 406 186 1222 396 186 1223 385 4 1224 402 4 1225 403 4 1226 384 15 1227 400 15 1228 402 15 1229 358 4 1230 395 4 1231 394 4 1232 364 2 1233 359 2 1234 213 2 1235 370 22 1236 358 22 1237 291 22 1238 363 2 1239 360 2 1240 208 2 1241 362 2 1242 361 2 1243 204 2 1244 206 2 1245 227 2 1246 202 2 1247 206 187 1248 202 187 1249 207 187 1250 210 2 1251 228 2 1252 200 2 1253 210 2 1254 200 2 1255 211 2 1256 295 22 1257 223 22 1258 292 22 1259 292 188 1260 196 188 1261 293 188 1262 214 2 1263 229 2 1264 198 2 1265 214 2 1266 198 2 1267 215 2 1268 298 189 1269 297 189 1270 207 189 1271 297 190 1272 301 190 1273 206 190 1274 296 2 1275 371 2 1276 204 2 1277 196 2 1278 210 2 1279 197 2 1280 196 2 1281 223 2 1282 210 2 1283 358 2 1284 363 2 1285 191 2 1286 202 2 1287 214 2 1288 203 2 1289 202 2 1290 226 2 1291 214 2 1292 361 2 1293 364 2 1294 195 2 1295 219 2 1296 203 2 1297 222 2 1298 216 2 1299 197 2 1300 221 2 1301 300 2 1302 298 2 1303 220 2 1304 207 191 1305 203 191 1306 220 191 1307 211 192 1308 201 192 1309 221 192 1310 294 22 1311 293 22 1312 216 22 1313 222 2 1314 215 2 1315 217 2 1316 226 2 1317 194 2 1318 229 2 1319 223 2 1320 188 2 1321 228 2 1322 301 2 1323 299 2 1324 227 2 1325 229 2 1326 212 2 1327 224 2 1328 288 22 1329 188 22 1330 295 22 1331 228 2 1332 209 2 1333 225 2 1334 227 2 1335 205 2 1336 226 2 1337 267 193 1338 231 193 1339 265 193 1340 257 194 1341 241 194 1342 264 194 1343 255 13 1344 237 13 1345 263 13 1346 268 15 1347 232 15 1348 262 15 1349 261 195 1350 252 195 1351 245 195 1352 266 13 1353 230 13 1354 260 13 1355 254 196 1356 236 196 1357 259 196 1358 305 13 1359 302 13 1360 258 13 1361 256 197 1362 240 197 1363 257 197 1364 265 198 1365 250 198 1366 256 198 1367 258 199 1368 242 199 1369 255 199 1370 262 15 1371 246 15 1372 254 15 1373 260 13 1374 244 13 1375 253 13 1376 304 15 1377 303 15 1378 252 15 1379 269 200 1380 261 200 1381 233 200 1382 367 103 1383 366 103 1384 268 103 1385 263 13 1386 247 13 1387 267 13 1388 259 201 1389 304 201 1390 342 201 1391 288 202 1392 295 202 1393 311 202 1394 265 203 1395 256 203 1396 338 203 1397 352 204 1398 284 204 1399 315 204 1400 320 205 1401 270 205 1402 326 205 1403 310 206 1404 274 206 1405 309 206 1406 289 207 1407 285 207 1408 313 207 1409 336 208 1410 258 208 1411 337 208 1412 285 209 1413 277 209 1414 353 209 1415 322 210 1416 271 210 1417 320 210 1418 387 211 1419 286 211 1420 392 211 1421 262 212 1422 254 212 1423 334 212 1424 286 213 1425 279 213 1426 354 213 1427 272 214 1428 271 214 1429 324 214 1430 291 215 1431 283 215 1432 317 215 1433 260 216 1434 253 216 1435 332 216 1436 355 217 1437 287 217 1438 313 217 1439 230 22 1440 266 22 1441 251 22 1442 248 22 1443 239 22 1444 272 22 1445 239 22 1446 238 22 1447 271 22 1448 251 22 1449 273 22 1450 238 22 1451 365 22 1452 368 22 1453 233 22 1454 189 218 1455 289 218 1456 224 218 1457 199 219 1458 279 219 1459 217 219 1460 194 220 1461 277 220 1462 212 220 1463 190 221 1464 290 221 1465 213 221 1466 208 222 1467 193 222 1468 283 222 1469 188 13 1470 288 13 1471 209 13 1472 195 223 1473 276 223 1474 204 223 1475 299 13 1476 306 13 1477 205 13 1478 198 224 1479 278 224 1480 199 224 1481 224 225 1482 287 225 1483 198 225 1484 205 13 1485 280 13 1486 194 13 1487 213 226 1488 284 226 1489 195 226 1490 209 13 1491 282 13 1492 192 13 1493 208 227 1494 283 227 1495 191 227 1496 359 14 1497 369 14 1498 190 14 1499 212 228 1500 285 228 1501 189 228 1502 326 229 1503 273 229 1504 312 229 1505 330 230 1506 304 230 1507 331 230 1508 267 231 1509 265 231 1510 314 231 1511 343 232 1512 275 232 1513 350 232 1514 329 233 1515 261 233 1516 318 233 1517 204 140 1518 281 140 1519 296 140 1520 192 13 1521 275 13 1522 299 13 1523 340 234 1524 257 234 1525 328 234 1526 344 235 1527 276 235 1528 352 235 1529 259 15 1530 243 15 1531 304 15 1532 253 13 1533 235 13 1534 305 13 1535 225 2 1536 192 2 1537 301 2 1538 201 236 1539 298 236 1540 218 236 1541 193 2 1542 360 2 1543 296 2 1544 200 2 1545 225 2 1546 297 2 1547 200 2 1548 297 2 1549 201 2 1550 386 237 1551 272 237 1552 391 237 1553 283 238 1554 274 238 1555 351 238 1556 256 239 1557 257 239 1558 339 239 1559 321 240 1560 293 240 1561 323 240 1562 253 241 1563 305 241 1564 333 241 1565 350 242 1566 282 242 1567 311 242 1568 341 243 1569 305 243 1570 336 243 1571 292 244 1572 293 244 1573 319 244 1574 356 245 1575 306 245 1576 343 245 1577 349 246 1578 281 246 1579 344 246 1580 254 247 1581 259 247 1582 335 247 1583 295 248 1584 292 248 1585 325 248 1586 357 249 1587 307 249 1588 349 249 1589 280 250 1590 306 250 1591 348 250 1592 266 251 1593 260 251 1594 312 251 1595 375 252 1596 370 252 1597 317 252 1598 296 253 1599 307 253 1600 308 253 1601 347 254 1602 279 254 1603 346 254 1604 331 255 1605 252 255 1606 329 255 1607 346 256 1608 278 256 1609 355 256 1610 268 257 1611 262 257 1612 316 257 1613 327 258 1614 263 258 1615 314 258 1616 277 259 1617 280 259 1618 345 259 1619 337 260 1620 255 260 1621 327 260 1622 372 261 1623 367 261 1624 316 261 1625 390 262 1626 385 262 1627 372 262 1628 393 263 1629 388 263 1630 375 263 1631 269 264 1632 368 264 1633 318 264 1634 360 2 1635 378 2 1636 371 2 1637 359 4 1638 377 4 1639 397 4 1640 290 211 1641 369 211 1642 315 211 1643 388 265 1644 376 265 1645 408 265 1646 379 2 1647 382 2 1648 361 2 1649 376 2 1650 381 2 1651 358 2 1652 389 2 1653 380 2 1654 371 2 1655 380 2 1656 379 2 1657 362 2 1658 381 2 1659 378 2 1660 363 2 1661 386 4 1662 368 4 1663 404 4 1664 382 2 1665 377 2 1666 364 2 1667 222 2 1668 217 2 1669 382 2 1670 294 266 1671 216 266 1672 388 266 1673 221 2 1674 218 2 1675 381 2 1676 220 2 1677 219 2 1678 380 2 1679 389 2 1680 300 2 1681 380 2 1682 216 2 1683 221 2 1684 376 2 1685 219 2 1686 222 2 1687 379 2 1688 264 14 1689 249 14 1690 385 14 1691 383 267 1692 248 267 1693 386 267 1694 217 14 1695 286 14 1696 377 14 1697 378 2 1698 218 2 1699 389 2 1700 323 268 1701 294 268 1702 393 268 1703 328 269 1704 264 269 1705 390 269 1706 368 270 1707 386 270 1708 373 270 1709 369 271 1710 387 271 1711 374 271 1712 366 13 1713 367 13 1714 401 13 1715 387 2 1716 369 2 1717 406 2 1718 358 272 1719 370 272 1720 395 272 1721 369 273 1722 359 273 1723 407 273 1724 370 2 1725 388 2 1726 409 2 1727 368 274 1728 365 274 1729 405 274 1730 383 275 1731 386 275 1732 398 275 1733 377 276 1734 387 276 1735 396 276 1736 367 4 1737 385 4 1738 403 4 1739 385 15 1740 384 15 1741 402 15 1742 376 4 1743 358 4 1744 394 4 1745</p>
        </polylist>
      </mesh>
    </geometry>
  </library_geometries>
  <library_controllers/>
  <library_visual_scenes>
    <visual_scene id="Scene" name="Scene">
      <node id="Spüle_001" name="Spüle_001" type="NODE">
        <matrix sid="transform">1.12318e-7 -1.372498 0 0 0.5768579 2.67235e-7 0 0 0 0 0.5768579 0 0 0 0 1</matrix>
        <instance_geometry url="#Cube_001-mesh" name="Spüle_001">
          <bind_material>
            <technique_common>
              <instance_material symbol="PBRFULL_SinkBase-material" target="#PBRFULL_SinkBase-material"/>
            </technique_common>
          </bind_material>
        </instance_geometry>
      </node>
    </visual_scene>
  </library_visual_scenes>
  <scene>
    <instance_visual_scene url="#Scene"/>
  </scene>
</COLLADA>