<?xml version="1.0" encoding="utf-8"?>
<COLLADA xmlns="http://www.collada.org/2005/11/COLLADASchema" version="1.4.1">
  <asset>
    <contributor>
      <author>Blender User</author>
      <authoring_tool>Blender 2.78.0</authoring_tool>
    </contributor>
    <created>2017-09-18T16:27:44</created>
    <modified>2017-09-18T16:27:44</modified>
    <unit name="meter" meter="1"/>
    <up_axis>Z_UP</up_axis>
  </asset>
  <library_images>
    <image id="PBRFULL_Abero-material_Base_Color_jpg" name="PBRFULL_Abero-material_Base_Color_jpg">
      <init_from>PBRFULL_Abero-material_Base_Color.jpg</init_from>
    </image>
  </library_images>
  <library_effects>
    <effect id="PBRFULL_Abero-effect">
      <profile_COMMON>
        <newparam sid="PBRFULL_Abero-material_Base_Color_jpg-surface">
          <surface type="2D">
            <init_from>PBRFULL_Abero-material_Base_Color_jpg</init_from>
          </surface>
        </newparam>
        <newparam sid="PBRFULL_Abero-material_Base_Color_jpg-sampler">
          <sampler2D>
            <source>PBRFULL_Abero-material_Base_Color_jpg-surface</source>
          </sampler2D>
        </newparam>
        <technique sid="common">
          <phong>
            <emission>
              <color sid="emission">0 0 0 1</color>
            </emission>
            <ambient>
              <color sid="ambient">0 0 0 1</color>
            </ambient>
            <diffuse>
              <texture texture="PBRFULL_Abero-material_Base_Color_jpg-sampler"/>
            </diffuse>
            <specular>
              <color sid="specular">0.5 0.5 0.5 1</color>
            </specular>
            <shininess>
              <float sid="shininess">50</float>
            </shininess>
            <index_of_refraction>
              <float sid="index_of_refraction">1</float>
            </index_of_refraction>
          </phong>
        </technique>
      </profile_COMMON>
    </effect>
  </library_effects>
  <library_materials>
    <material id="PBRFULL_Abero-material" name="PBRFULL_Abero">
      <instance_effect url="#PBRFULL_Abero-effect"/>
    </material>
  </library_materials>
  <library_geometries>
    <geometry id="Mesh-1_004-mesh" name="Mesh-1.004">
      <mesh>
        <source id="Mesh-1_004-mesh-positions">
          <float_array id="Mesh-1_004-mesh-positions-array" count="342">-0.15 -0.002999961 0 -0.15 -0.002598047 -0.001499891 -0.15 -0.002598047 0.001499891 -0.15 -0.001499891 -0.002598047 -0.15 -0.001499891 0.002598047 -0.15 0 0.002999961 -0.15 0 -0.002999961 -0.15 0 0 -0.15 0.001499891 -0.002598047 -0.15 0.001499891 0.002598047 -0.15 0.002598047 -0.001499891 -0.15 0.002598047 0.001499891 -0.15 0.002999961 0 -0.00999999 -0.002999961 0 -0.00999999 -0.002598047 -0.001499891 -0.00999999 -0.002598047 0.001499891 -0.00999999 -0.001999974 0 -0.00999999 -0.001731932 -9.99987e-4 -0.00999999 -0.001731932 9.99987e-4 -0.00999999 -0.001499891 -0.002598047 -0.00999999 -0.001499891 0.002598047 -0.00999999 -9.99987e-4 -0.001731932 -0.00999999 -9.99987e-4 0.001731932 -0.00999999 0 -0.001999974 -0.00999999 0 0.001999974 -0.00999999 0 0.002999961 -0.00999999 0 -0.002999961 -0.00999999 9.99987e-4 -0.001731932 -0.00999999 9.99987e-4 0.001731932 -0.00999999 0.001499891 -0.002598047 -0.00999999 0.001499891 0.002598047 -0.00999999 0.001731932 -9.99987e-4 -0.00999999 0.001731932 9.99987e-4 -0.00999999 0.001999974 0 -0.00999999 0.002598047 -0.001499891 -0.00999999 0.002598047 0.001499891 -0.00999999 0.002999961 0 0 -0.001999974 0 0 -0.001731932 -9.99987e-4 0 -0.001731932 9.99987e-4 0 -9.99987e-4 -0.001731932 0 -9.99987e-4 0.001731932 0 0 -0.001999974 0 0 0.001999974 0 0 0 0 9.99987e-4 -0.001731932 0 9.99987e-4 0.001731932 0 0.001731932 -9.99987e-4 0 0.001731932 9.99987e-4 0 0.001999974 0 -0.15 -0.002999961 0 -0.15 -0.002999961 0 -0.00999999 -0.002999961 0 -0.00999999 -0.002999961 0 -0.15 0 -0.002999961 -0.15 0 -0.002999961 -0.00999999 0 -0.002999961 -0.00999999 0 -0.002999961 -0.00999999 9.99987e-4 0.001731932 -0.00999999 0.001731932 9.99987e-4 -0.00999999 -9.99987e-4 -0.001731932 -0.00999999 0 -0.001999974 -0.00999999 0 -0.001999974 -0.00999999 9.99987e-4 -0.001731932 0 0 0.001999974 0 0 0.001999974 0 9.99987e-4 0.001731932 -0.00999999 0 0.001999974 -0.00999999 0 0.001999974 -0.00999999 -0.001731932 -9.99987e-4 -0.15 -0.001499891 0.002598047 -0.15 0 0.002999961 -0.15 0 0.002999961 -0.00999999 -0.001499891 0.002598047 -0.00999999 0 0.002999961 -0.00999999 0 0.002999961 -0.15 0.001499891 0.002598047 0 -9.99987e-4 -0.001731932 0 0 -0.001999974 0 0 -0.001999974 -0.00999999 -0.002598047 0.001499891 -0.15 0.002598047 -0.001499891 -0.15 0.002999961 0 -0.15 0.002999961 0 -0.15 0.002598047 0.001499891 -0.00999999 0.001999974 0 -0.00999999 0.001999974 0 0 0.001731932 9.99987e-4 -0.00999999 -0.001999974 0 -0.00999999 -0.001999974 0 -0.15 0.001499891 -0.002598047 -0.00999999 -0.001499891 -0.002598047 -0.15 -0.002598047 -0.001499891 -0.15 -0.001499891 -0.002598047 -0.00999999 -0.002598047 -0.001499891 -0.00999999 0.001499891 -0.002598047 -0.00999999 0.002598047 -0.001499891 0 -0.001999974 0 0 -0.001999974 0 0 -0.001731932 -9.99987e-4 0 0.001731932 -9.99987e-4 0 0.001999974 0 0 0.001999974 0 -0.00999999 0.001731932 -9.99987e-4 0 9.99987e-4 -0.001731932 -0.00999999 -9.99987e-4 0.001731932 -0.00999999 0.002999961 0 -0.00999999 0.002999961 0 0 -9.99987e-4 0.001731932 -0.00999999 0.002598047 0.001499891 -0.00999999 -0.001731932 9.99987e-4 -0.15 -0.002598047 0.001499891 -0.00999999 0.001499891 0.002598047 0 -0.001731932 9.99987e-4</float_array>
          <technique_common>
            <accessor source="#Mesh-1_004-mesh-positions-array" count="114" stride="3">
              <param name="X" type="float"/>
              <param name="Y" type="float"/>
              <param name="Z" type="float"/>
            </accessor>
          </technique_common>
        </source>
        <source id="Mesh-1_004-mesh-normals">
          <float_array id="Mesh-1_004-mesh-normals-array" count="102">0 0.2588022 0.9659304 0 0.4999893 0.8660317 0 0.8660317 0.4999893 0 0.9659304 0.2588022 0 0.9659304 -0.2588022 0 0.8660317 -0.4999893 0 0.4999893 -0.8660317 0 0.2588022 -0.9659304 0 -0.2588022 -0.9659304 0 -0.4999893 -0.8660317 0 -0.8660317 -0.4999893 0 -0.9659304 -0.2588022 0 -0.9659304 0.2588022 0 -0.8660317 0.4999893 0 -0.4999893 0.8660317 0 -0.2588022 0.9659304 -1 0 0 1 0 0 0 0.2588307 -0.9659227 0 0.5000025 -0.866024 0 0.866024 -0.5000025 0 0.9659227 -0.2588307 0 0.9659227 0.2588307 0 0.866024 0.5000025 0 0.5000025 0.866024 0 0.2588307 0.9659227 0 -0.2588307 0.9659227 0 -0.5000025 0.866024 0 -0.866024 0.5000025 0 -0.9659227 0.2588307 0 -0.9659227 -0.2588307 0 -0.866024 -0.5000025 0 -0.5000025 -0.866024 0 -0.2588307 -0.9659227</float_array>
          <technique_common>
            <accessor source="#Mesh-1_004-mesh-normals-array" count="34" stride="3">
              <param name="X" type="float"/>
              <param name="Y" type="float"/>
              <param name="Z" type="float"/>
            </accessor>
          </technique_common>
        </source>
        <source id="Mesh-1_004-mesh-map-0">
          <float_array id="Mesh-1_004-mesh-map-0-array" count="576">0.4972914 0.9999994 0.5498362 0 0.5498361 0.9999994 0.5498361 0.9999994 0.5498362 0 0.6105099 0 0.5498361 0.9999994 0.6105099 0 0.6105098 0.9999994 0.6105098 0.9999994 0.6105099 0 0.6630545 0 0.6105098 0.9999994 0.6630545 0 0.6630545 0.9999994 0.3315281 0.9999998 0.3315282 0 0.3840729 0 0.3315281 0.9999998 0.3840729 0 0.3840728 0.9999998 0.3840728 0.9999998 0.3840729 0 0.4447466 0 0.3840728 0.9999998 0.4447466 0 0.4447466 0.9999998 0.4447466 0.9999998 0.4447466 0 0.4972914 0 0.4447466 0.9999998 0.4972914 0 0.4972913 0.9999998 8.91493e-7 1 0 0 0.05254471 0 8.91493e-7 1 0.05254471 0 0.05254554 1 0.05254554 1 0.05254471 0 0.1132184 0 0.05254554 1 0.1132184 0 0.1132193 1 0.1132193 1 0.1132184 0 0.1657631 0 0.1132193 1 0.1657631 0 0.165764 1 0.1657649 0.9999997 0.165764 0 0.2183088 0 0.1657649 0.9999997 0.2183088 0 0.2183097 0.9999997 0.2183097 0.9999997 0.2183088 0 0.2789825 0 0.2183097 0.9999997 0.2789825 0 0.2789834 0.9999997 0.2789834 0.9999997 0.2789825 0 0.3315272 0 0.2789834 0.9999997 0.3315272 0 0.3315281 0.9999997 0.4972914 0.9999994 0.4972915 0 0.5498362 0 0.6630545 0.06764137 0.6630545 0.05654907 0.7762728 0.06209522 0.7762728 0.06209522 0.6630545 0.05654907 0.6933912 0.04694283 0.7762728 0.06209522 0.6933912 0.04694283 0.7459362 0.04139673 0.8066096 0.08279365 0.7459358 0.08279365 0.7762728 0.06209522 0.7762728 0.06209522 0.7459358 0.08279365 0.6933912 0.0772475 0.7762728 0.06209522 0.6933912 0.0772475 0.6630545 0.06764137 0.8894912 0.05654907 0.8894912 0.06764137 0.7762728 0.06209522 0.7762728 0.06209522 0.8894912 0.06764137 0.8591545 0.07724756 0.7762728 0.06209522 0.8591545 0.07724756 0.8066096 0.08279365 0.7459362 0.04139673 0.8066099 0.04139673 0.7762728 0.06209522 0.7762728 0.06209522 0.8066099 0.04139673 0.8591545 0.04694288 0.7762728 0.06209522 0.8591545 0.04694288 0.8894912 0.05654907 0.8517518 0.02439582 0.8894913 0.02624458 0.8315272 0.03079992 0.8315272 0.03079992 0.8894913 0.02624458 0.8591544 0.03585076 0.8315272 0.03079992 0.8591544 0.03585076 0.7964972 0.03449732 0.7964972 0.03449732 0.8591544 0.03585076 0.8066094 0.04139673 0.7964972 0.03449732 0.8066094 0.04139673 0.7560482 0.03449732 0.7560482 0.03449732 0.8066094 0.04139673 0.7459359 0.04139673 0.7560482 0.03449732 0.7459359 0.04139673 0.7210184 0.03079986 0.7210184 0.03079986 0.7459359 0.04139673 0.693391 0.03585064 0.7210184 0.03079986 0.693391 0.03585064 0.700794 0.02439576 0.700794 0.02439576 0.693391 0.03585064 0.6630545 0.02624446 0.700794 0.02439576 0.6630545 0.02624446 0.7007941 0.01700097 0.7007941 0.01700097 0.6630545 0.02624446 0.6630545 0.01515215 0.7007941 0.01700097 0.6630545 0.01515215 0.7210187 0.01059687 0.7210187 0.01059687 0.6630545 0.01515215 0.6933915 0.005546033 0.7210187 0.01059687 0.6933915 0.005546033 0.7560486 0.006899416 0.7560486 0.006899416 0.6933915 0.005546033 0.7459365 0 0.7560486 0.006899416 0.7459365 0 0.7964977 0.006899476 0.7964977 0.006899476 0.7459365 0 0.8066099 0 0.7964977 0.006899476 0.8066099 0 0.8315274 0.01059687 0.8315274 0.01059687 0.8066099 0 0.8591549 0.005546152 0.8315274 0.01059687 0.8591549 0.005546152 0.8517519 0.01700103 0.8517519 0.01700103 0.8591549 0.005546152 0.8894913 0.01515227 0.8517519 0.01700103 0.8894913 0.01515227 0.8517518 0.02439582 0.8517518 0.02439582 0.8894913 0.01515227 0.8894913 0.02624458 1 0.01136499 0.9649701 0.08279365 0.9649701 0.01136499 0.9649701 0.01136499 0.9649701 0.08279365 0.9245211 0.08279365 0.9649701 0.01136499 0.9245211 0.08279365 0.9245211 0.01136499 0.9245211 0.01136499 0.9245211 0.08279365 0.8894912 0.08279365 0.9245211 0.01136499 0.8894912 0.08279365 0.8894912 0.01136499 0.7735636 0.1542222 0.7735634 0.08279365 0.8085933 0.08279365 0.7735636 0.1542222 0.8085933 0.08279365 0.8085935 0.1542222 0.8085935 0.1542222 0.8085933 0.08279365 0.8490422 0.08279365 0.8085935 0.1542222 0.8490422 0.08279365 0.8490424 0.1542222 0.8490424 0.1542222 0.8490422 0.08279365 0.8840721 0.08279365 0.8490424 0.1542222 0.8840721 0.08279365 0.8840723 0.1542222 0.9945811 0.08279365 0.9945811 0.1542222 0.9595512 0.1542222 0.9945811 0.08279365 0.9595512 0.1542222 0.9595512 0.08279365 0.9595512 0.08279365 0.9595512 0.1542222 0.9191023 0.1542222 0.9595512 0.08279365 0.9191023 0.1542222 0.9191022 0.08279365 0.9191022 0.08279365 0.9191023 0.1542222 0.8840724 0.1542222 0.9191022 0.08279365 0.8840724 0.1542222 0.8840723 0.08279365 0.7735633 0.08279365 0.7735634 0.1542223 0.7385334 0.1542223 0.7735633 0.08279365 0.7385334 0.1542223 0.7385334 0.08279365 0.7385334 0.08279365 0.7385334 0.1542223 0.6980845 0.1542223 0.7385334 0.08279365 0.6980845 0.1542223 0.6980844 0.08279365 0.6980844 0.08279365 0.6980845 0.1542223 0.6630546 0.1542223 0.6980844 0.08279365 0.6630546 0.1542223 0.6630545 0.08279365 1 0.01136499 1 0.08279365 0.9649701 0.08279365 0.7735634 0.1717185 0.7735634 0.1643238 0.8490423 0.1680212 0.8490423 0.1680212 0.7735634 0.1643238 0.7937879 0.1579197 0.8490423 0.1680212 0.7937879 0.1579197 0.8288178 0.1542223 0.8692668 0.18182 0.8288178 0.18182 0.8490423 0.1680212 0.8490423 0.1680212 0.8288178 0.18182 0.7937879 0.1781226 0.8490423 0.1680212 0.7937879 0.1781226 0.7735634 0.1717185 0.9245212 0.1643238 0.9245212 0.1717185 0.8490423 0.1680212 0.8490423 0.1680212 0.9245212 0.1717185 0.9042966 0.1781226 0.8490423 0.1680212 0.9042966 0.1781226 0.8692668 0.18182 0.8288178 0.1542223 0.8692668 0.1542223 0.8490423 0.1680212 0.8490423 0.1680212 0.8692668 0.1542223 0.9042966 0.1579197 0.8490423 0.1680212 0.9042966 0.1579197 0.9245212 0.1643238</float_array>
          <technique_common>
            <accessor source="#Mesh-1_004-mesh-map-0-array" count="288" stride="2">
              <param name="S" type="float"/>
              <param name="T" type="float"/>
            </accessor>
          </technique_common>
        </source>
        <vertices id="Mesh-1_004-mesh-vertices">
          <input semantic="POSITION" source="#Mesh-1_004-mesh-positions"/>
        </vertices>
        <polylist material="PBRFULL_Abero-material" count="96">
          <input semantic="VERTEX" source="#Mesh-1_004-mesh-vertices" offset="0"/>
          <input semantic="NORMAL" source="#Mesh-1_004-mesh-normals" offset="1"/>
          <input semantic="TEXCOORD" source="#Mesh-1_004-mesh-map-0" offset="2" set="0"/>
          <vcount>3 3 3 3 3 3 3 3 3 3 3 3 3 3 3 3 3 3 3 3 3 3 3 3 3 3 3 3 3 3 3 3 3 3 3 3 3 3 3 3 3 3 3 3 3 3 3 3 3 3 3 3 3 3 3 3 3 3 3 3 3 3 3 3 3 3 3 3 3 3 3 3 3 3 3 3 3 3 3 3 3 3 3 3 3 3 3 3 3 3 3 3 3 3 3 3 </vcount>
          <p>71 0 0 112 1 1 9 1 2 9 1 3 112 1 4 35 2 5 9 1 6 35 2 7 11 2 8 11 2 9 35 2 10 106 3 11 11 2 12 106 3 13 83 3 14 82 4 15 107 4 16 96 5 17 82 4 18 96 5 19 81 5 20 81 5 21 96 5 22 29 6 23 81 5 24 29 6 25 90 6 26 90 6 27 29 6 28 56 7 29 90 6 30 56 7 31 54 7 32 6 8 33 57 8 34 19 9 35 6 8 36 19 9 37 3 9 38 3 9 39 19 9 40 94 10 41 3 9 42 94 10 43 1 10 44 1 10 45 94 10 46 52 11 47 1 10 48 52 11 49 50 11 50 0 12 51 13 12 52 80 13 53 0 12 54 80 13 55 111 13 56 111 13 57 80 13 58 73 14 59 111 13 60 73 14 61 70 14 62 70 14 63 73 14 64 75 15 65 70 14 66 75 15 67 5 15 68 71 0 69 25 0 70 112 1 71 10 16 72 8 16 73 7 16 74 7 16 75 8 16 76 55 16 77 7 16 78 55 16 79 93 16 80 76 16 81 84 16 82 7 16 83 7 16 84 84 16 85 12 16 86 7 16 87 12 16 88 10 16 89 2 16 90 4 16 91 7 16 92 7 16 93 4 16 94 72 16 95 7 16 96 72 16 97 76 16 98 93 16 99 92 16 100 7 16 101 7 16 102 92 16 103 51 16 104 7 16 105 51 16 106 2 16 107 59 17 108 109 17 109 58 17 110 58 17 111 109 17 112 30 17 113 58 17 114 30 17 115 68 17 116 68 17 117 30 17 118 74 17 119 68 17 120 74 17 121 105 17 122 105 17 123 74 17 124 20 17 125 105 17 126 20 17 127 110 17 128 110 17 129 20 17 130 15 17 131 110 17 132 15 17 133 88 17 134 88 17 135 15 17 136 53 17 137 88 17 138 53 17 139 17 17 140 17 17 141 53 17 142 14 17 143 17 17 144 14 17 145 60 17 146 60 17 147 14 17 148 91 17 149 60 17 150 91 17 151 62 17 152 62 17 153 91 17 154 26 17 155 62 17 156 26 17 157 63 17 158 63 17 159 26 17 160 95 17 161 63 17 162 95 17 163 31 17 164 31 17 165 95 17 166 34 17 167 31 17 168 34 17 169 85 17 170 85 17 171 34 17 172 36 17 173 85 17 174 36 17 175 59 17 176 59 17 177 36 17 178 109 17 179 42 18 180 27 19 181 104 19 182 104 19 183 27 19 184 103 20 185 104 19 186 103 20 187 100 20 188 100 20 189 103 20 190 86 21 191 100 20 192 86 21 193 102 21 194 49 22 195 33 22 196 32 23 197 49 22 198 32 23 199 48 23 200 48 23 201 32 23 202 28 24 203 48 23 204 28 24 205 66 24 206 66 24 207 28 24 208 67 25 209 66 24 210 67 25 211 64 25 212 43 26 213 24 26 214 22 27 215 43 26 216 22 27 217 41 27 218 41 27 219 22 27 220 18 28 221 41 27 222 18 28 223 39 28 224 39 28 225 18 28 226 89 29 227 39 28 228 89 29 229 37 29 230 97 30 231 16 30 232 69 31 233 97 30 234 69 31 235 99 31 236 99 31 237 69 31 238 21 32 239 99 31 240 21 32 241 77 32 242 77 32 243 21 32 244 61 33 245 77 32 246 61 33 247 79 33 248 42 18 249 23 18 250 27 19 251 38 17 252 40 17 253 44 17 254 44 17 255 40 17 256 78 17 257 44 17 258 78 17 259 45 17 260 108 17 261 113 17 262 44 17 263 44 17 264 113 17 265 98 17 266 44 17 267 98 17 268 38 17 269 87 17 270 46 17 271 44 17 272 44 17 273 46 17 274 65 17 275 44 17 276 65 17 277 108 17 278 45 17 279 47 17 280 44 17 281 44 17 282 47 17 283 101 17 284 44 17 285 101 17 286 87 17 287</p>
        </polylist>
      </mesh>
    </geometry>
  </library_geometries>
  <library_controllers/>
  <library_visual_scenes>
    <visual_scene id="Scene" name="Scene">
      <node id="albero" name="albero" type="NODE">
        <matrix sid="transform">1 0 0 0 0 -4.37114e-8 -1 0 0 1 -4.37114e-8 0 0 0 0 1</matrix>
        <instance_geometry url="#Mesh-1_004-mesh" name="albero">
          <bind_material>
            <technique_common>
              <instance_material symbol="PBRFULL_Abero-material" target="#PBRFULL_Abero-material"/>
            </technique_common>
          </bind_material>
        </instance_geometry>
      </node>
    </visual_scene>
  </library_visual_scenes>
  <scene>
    <instance_visual_scene url="#Scene"/>
  </scene>
</COLLADA>