<?xml version="1.0"?>
<COLLADA xmlns="http://www.collada.org/2005/11/COLLADASchema" version="1.4.1">
    <asset>
        <contributor>
            <authoring_tool>CINEMA4D 17.052 COLLADA Exporter</authoring_tool>
        </contributor>
        <created>2017-05-08T14:05:19Z</created>
        <modified>2017-05-08T14:05:19Z</modified>
        <unit name="meter"/>
        <up_axis>Y_UP</up_axis>
    </asset>
    <library_geometries>
        <geometry id="ID3">
            <mesh>
                <source id="ID4">
                    <float_array id="ID5" count="1080">0.261443 -0.0308716 0.0612795 0.0764428 -0.0308716 0.0612795 0.261443 -0.0333937 0.0587665 0.0764428 -0.0296895 0.0646378 0.261443 -0.0296895 0.0646378 0.0764428 -0.0300817 0.0681765 0.261443 -0.0300817 0.0681765 0.0764428 -0.0319704 0.0711946 0.261443 -0.0319704 0.0711946 0.0764428 -0.0349815 0.0730943 0.261443 -0.0349815 0.0730943 0.0764428 -0.0385187 0.0734994 0.261443 -0.0385187 0.0734994 0.0764428 -0.0418814 0.0723297 0.261443 -0.0418814 0.0723297 0.0764428 -0.0444036 0.0698168 0.261443 -0.0444036 0.0698168 0.0764428 -0.0455856 0.0664584 0.261443 -0.0455856 0.0664584 0.0764428 -0.0451935 0.0629197 0.261443 -0.0451935 0.0629197 0.0764428 -0.0433048 0.0599016 0.261443 -0.0433048 0.0599016 0.0764428 -0.0402936 0.0580019 0.261443 -0.0402936 0.0580019 0.0764428 -0.0367564 0.0575968 0.261443 -0.0367564 0.0575968 0.0764428 -0.0333937 0.0587665 0.0764428 -0.0346395 0.0656548 0.0764428 -0.0350945 0.0671396 0.0764428 -0.0349878 0.0641415 0.0764428 -0.0360461 0.063005 0.0764428 -0.0375309 0.06255 0.0764428 -0.0390442 0.0628983 0.0764428 -0.0401807 0.0639567 0.0764428 -0.0406357 0.0654414 0.0764428 -0.0402873 0.0669548 0.0764428 -0.039229 0.0680912 0.0764428 -0.0377443 0.0685462 0.0764428 -0.0362309 0.0681979 0.261443 -0.0376376 0.0655481 0.236443 -0.0377443 0.0685462 0.236443 -0.039229 0.0680912 0.236443 -0.0362309 0.0681979 0.236443 -0.0350945 0.0671396 0.236443 -0.0346395 0.0656548 0.236443 -0.0349878 0.0641415 0.236443 -0.0360461 0.063005 0.236443 -0.0375309 0.06255 0.236443 -0.0390442 0.0628983 0.236443 -0.0401807 0.0639567 0.236443 -0.0406357 0.0654414 0.236443 -0.0402873 0.0669548 0.236443 -0.0376376 0.0655481 0.178443 -0.0501376 0.0655481 0.169443 -0.0481376 0.0655481 0.169309 -0.0486376 0.0655481 0.178443 -0.0456376 0.0655481 0.0984428 -0.0501376 0.0655481 0.107943 -0.0490036 0.0655481 0.107577 -0.0486376 0.0655481 0.108443 -0.0491376 0.0655481 0.108943 -0.0490036 0.0655481 0.109309 -0.0486376 0.0655481 0.167443 -0.0481376 0.0655481 0.167577 -0.0486376 0.0655481 0.109443 -0.0481376 0.0655481 0.167577 -0.0476376 0.0655481 0.167943 -0.0472715 0.0655481 0.169309 -0.0476376 0.0655481 0.168943 -0.0472715 0.0655481 0.168443 -0.0471376 0.0655481 0.0984428 -0.0456376 0.0655481 0.108443 -0.0471376 0.0655481 0.109309 -0.0476376 0.0655481 0.108943 -0.0472715 0.0655481 0.107943 -0.0472715 0.0655481 0.107577 -0.0476376 0.0655481 0.107443 -0.0481376 0.0655481 0.167943 -0.0490036 0.0655481 0.168443 -0.0491376 0.0655481 0.168943 -0.0490036 0.0655481 0.178443 -0.0501376 0.0695481 0.0984428 -0.0501376 0.0695481 0.178443 -0.0251376 0.0655481 0.178443 -0.0296376 0.0655481 0.178443 -0.0300291 0.0680203 0.178443 -0.045246 0.0680203 0.178443 -0.0251376 0.0695481 0.178443 -0.0296376 0.0695481 0.178443 -0.0311654 0.0702504 0.178443 -0.0296376 0.0755481 0.178443 -0.0329353 0.0720202 0.178443 -0.0441097 0.0702504 0.178443 -0.0456376 0.0755481 0.178443 -0.0423399 0.0720202 0.178443 -0.0456376 0.0695481 0.178443 -0.0401097 0.0731566 0.178443 -0.0376376 0.0735481 0.178443 -0.0351654 0.0731566 0.0984428 -0.0251376 0.0695481 0.0984428 -0.0251376 0.0655481 0.0984428 -0.045246 0.0680203 0.0984428 -0.0300291 0.0680203 0.0984428 -0.0296376 0.0655481 0.0984428 -0.0311654 0.0702504 0.0984428 -0.0296376 0.0755481 0.0984428 -0.0329353 0.0720202 0.0984428 -0.0296376 0.0695481 0.0984428 -0.0456376 0.0695481 0.0984428 -0.0441097 0.0702504 0.0984428 -0.0456376 0.0755481 0.0984428 -0.0423399 0.0720202 0.0984428 -0.0351654 0.0731566 0.0984428 -0.0376376 0.0735481 0.0984428 -0.0401097 0.0731566 0.109309 -0.0276376 0.0655481 0.108943 -0.0280036 0.0655481 0.108443 -0.0281376 0.0655481 0.107943 -0.0280036 0.0655481 0.167443 -0.0271376 0.0655481 0.167577 -0.0276376 0.0655481 0.109443 -0.0271376 0.0655481 0.167577 -0.0266376 0.0655481 0.167943 -0.0262715 0.0655481 0.169309 -0.0276376 0.0655481 0.169443 -0.0271376 0.0655481 0.169309 -0.0266376 0.0655481 0.168943 -0.0262715 0.0655481 0.168443 -0.0261376 0.0655481 0.108443 -0.0261376 0.0655481 0.107943 -0.0262715 0.0655481 0.107577 -0.0266376 0.0655481 0.107443 -0.0271376 0.0655481 0.107577 -0.0276376 0.0655481 0.109309 -0.0266376 0.0655481 0.108943 -0.0262715 0.0655481 0.167943 -0.0280036 0.0655481 0.168443 -0.0281376 0.0655481 0.168943 -0.0280036 0.0655481 0.107443 -0.0481376 0.0695481 0.108443 -0.0491376 0.0695481 0.107943 -0.0490036 0.0695481 0.107577 -0.0486376 0.0695481 0.168443 -0.0471376 0.0695481 0.168943 -0.0490036 0.0695481 0.169309 -0.0486376 0.0695481 0.168443 -0.0491376 0.0695481 0.168943 -0.0472715 0.0695481 0.169309 -0.0476376 0.0695481 0.169443 -0.0481376 0.0695481 0.109443 -0.0481376 0.0695481 0.109309 -0.0476376 0.0695481 0.109309 -0.0486376 0.0695481 0.108943 -0.0490036 0.0695481 0.107577 -0.0476376 0.0695481 0.107943 -0.0472715 0.0695481 0.108443 -0.0471376 0.0695481 0.167943 -0.0490036 0.0695481 0.167577 -0.0486376 0.0695481 0.108943 -0.0472715 0.0695481 0.167443 -0.0481376 0.0695481 0.167577 -0.0476376 0.0695481 0.167943 -0.0472715 0.0695481 0.108443 -0.0281376 0.0695481 0.107577 -0.0276376 0.0695481 0.107443 -0.0271376 0.0695481 0.107943 -0.0280036 0.0695481 0.168443 -0.0261376 0.0695481 0.168943 -0.0262715 0.0695481 0.169309 -0.0266376 0.0695481 0.169443 -0.0271376 0.0695481 0.169309 -0.0276376 0.0695481 0.168943 -0.0280036 0.0695481 0.168443 -0.0281376 0.0695481 0.109443 -0.0271376 0.0695481 0.109309 -0.0266376 0.0695481 0.109309 -0.0276376 0.0695481 0.108943 -0.0280036 0.0695481 0.107577 -0.0266376 0.0695481 0.107943 -0.0262715 0.0695481 0.108443 -0.0261376 0.0695481 0.167943 -0.0280036 0.0695481 0.167577 -0.0276376 0.0695481 0.108943 -0.0262715 0.0695481 0.167443 -0.0271376 0.0695481 0.167577 -0.0266376 0.0695481 0.167943 -0.0262715 0.0695481 0.107643 -0.0481376 0.0655481 0.10775 -0.0477376 0.0655481 0.10775 -0.0485376 0.0655481 0.108043 -0.0474447 0.0655481 0.108443 -0.0473376 0.0655481 0.108843 -0.0474447 0.0655481 0.168443 -0.0473376 0.0655481 0.168843 -0.0474447 0.0655481 0.169136 -0.0477376 0.0655481 0.169243 -0.0481376 0.0655481 0.169136 -0.0485376 0.0655481 0.16775 -0.0477376 0.0655481 0.167643 -0.0481376 0.0655481 0.168043 -0.0474447 0.0655481 0.168443 -0.0489376 0.0655481 0.168043 -0.0488304 0.0655481 0.168843 -0.0488304 0.0655481 0.109136 -0.0485376 0.0655481 0.109243 -0.0481376 0.0655481 0.109136 -0.0477376 0.0655481 0.16775 -0.0485376 0.0655481 0.108843 -0.0488304 0.0655481 0.108443 -0.0489376 0.0655481 0.108043 -0.0488304 0.0655481 0.0984428 -0.0251376 0.0415481 0.0874428 -0.0359055 0.0415481 0.0684428 -0.0251376 0.0415481 0.0884428 -0.0356376 0.0415481 0.0894428 -0.0359055 0.0415481 0.0901748 -0.0366376 0.0415481 0.0904428 -0.0376376 0.0415481 0.0984428 -0.0501376 0.0415481 0.0901748 -0.0386376 0.0415481 0.0894428 -0.0393696 0.0415481 0.0884428 -0.0396376 0.0415481 0.0684428 -0.0501376 0.0415481 0.0874428 -0.0393696 0.0415481 0.0867107 -0.0386376 0.0415481 0.0864428 -0.0376376 0.0415481 0.0867107 -0.0366376 0.0415481 0.0684428 -0.0501376 0.0265481 0.178443 -0.0501376 0.0265481 0.178443 -0.0437659 0.0604058 0.178443 -0.0416376 0.0586199 0.178443 -0.03012 0.062812 0.178443 -0.0251376 0.0265481 0.178443 -0.0315092 0.0604058 0.178443 -0.0451551 0.062812 0.178443 -0.0336376 0.0586199 0.178443 -0.0362484 0.0576697 0.178443 -0.0390268 0.0576697 0.0684428 -0.0251376 0.0265481 0.0904428 -0.0376376 0.0265481 0.0901748 -0.0366376 0.0265481 0.0901748 -0.0386376 0.0265481 0.0894428 -0.0359055 0.0265481 0.0884428 -0.0356376 0.0265481 0.0874428 -0.0359055 0.0265481 0.0867107 -0.0366376 0.0265481 0.0864428 -0.0376376 0.0265481 0.0867107 -0.0386376 0.0265481 0.0874428 -0.0393696 0.0265481 0.0884428 -0.0396376 0.0265481 0.0894428 -0.0393696 0.0265481 0.0984428 -0.0315092 0.0604058 0.0984428 -0.0336376 0.0586199 0.0984428 -0.0451551 0.062812 0.0984428 -0.0437659 0.0604058 0.0984428 -0.03012 0.062812 0.0984428 -0.0416376 0.0586199 0.0984428 -0.0390268 0.0576697 0.0984428 -0.0362484 0.0576697 0.168043 -0.0264447 0.0655481 0.16775 -0.0267376 0.0655481 0.168443 -0.0263376 0.0655481 0.168843 -0.0264447 0.0655481 0.10775 -0.0275376 0.0655481 0.107643 -0.0271376 0.0655481 0.10775 -0.0267376 0.0655481 0.169136 -0.0267376 0.0655481 0.169243 -0.0271376 0.0655481 0.108443 -0.0263376 0.0655481 0.167643 -0.0271376 0.0655481 0.108043 -0.0264447 0.0655481 0.109136 -0.0275376 0.0655481 0.109243 -0.0271376 0.0655481 0.169136 -0.0275376 0.0655481 0.168843 -0.0278304 0.0655481 0.168443 -0.0279376 0.0655481 0.109136 -0.0267376 0.0655481 0.108843 -0.0264447 0.0655481 0.168043 -0.0278304 0.0655481 0.16775 -0.0275376 0.0655481 0.108843 -0.0278304 0.0655481 0.108443 -0.0279376 0.0655481 0.108043 -0.0278304 0.0655481 0.108043 -0.0488304 0.0555481 0.10775 -0.0485376 0.0555481 0.108443 -0.0481376 0.0550674 0.107643 -0.0481376 0.0555481 0.109136 -0.0485376 0.0555481 0.108843 -0.0488304 0.0555481 0.108443 -0.0489376 0.0555481 0.108843 -0.0474447 0.0555481 0.109136 -0.0477376 0.0555481 0.109243 -0.0481376 0.0555481 0.10775 -0.0477376 0.0555481 0.108043 -0.0474447 0.0555481 0.108443 -0.0473376 0.0555481 0.168043 -0.0488304 0.0555481 0.16775 -0.0485376 0.0555481 0.168443 -0.0481376 0.0550674 0.167643 -0.0481376 0.0555481 0.169136 -0.0485376 0.0555481 0.168843 -0.0488304 0.0555481 0.168443 -0.0489376 0.0555481 0.168843 -0.0474447 0.0555481 0.169136 -0.0477376 0.0555481 0.169243 -0.0481376 0.0555481 0.16775 -0.0477376 0.0555481 0.168043 -0.0474447 0.0555481 0.168443 -0.0473376 0.0555481 0.168043 -0.0278304 0.0555481 0.16775 -0.0275376 0.0555481 0.168443 -0.0271376 0.0550674 0.167643 -0.0271376 0.0555481 0.169136 -0.0275376 0.0555481 0.168843 -0.0278304 0.0555481 0.168443 -0.0279376 0.0555481 0.168843 -0.0264447 0.0555481 0.169136 -0.0267376 0.0555481 0.169243 -0.0271376 0.0555481 0.16775 -0.0267376 0.0555481 0.168043 -0.0264447 0.0555481 0.168443 -0.0263376 0.0555481 0.108043 -0.0278304 0.0555481 0.10775 -0.0275376 0.0555481 0.108443 -0.0271376 0.0550674 0.107643 -0.0271376 0.0555481 0.109136 -0.0275376 0.0555481 0.108843 -0.0278304 0.0555481 0.108443 -0.0279376 0.0555481 0.108843 -0.0264447 0.0555481 0.109136 -0.0267376 0.0555481 0.109243 -0.0271376 0.0555481 0.10775 -0.0267376 0.0555481 0.108043 -0.0264447 0.0555481 0.108443 -0.0263376 0.0555481 0.180743 -0.0501376 0.0265481 0.180743 -0.0251376 0.0165481 0.180743 -0.0501376 0.0165481 0.180743 -0.0251376 0.0265481 0.000742756 -0.0501376 0.0265481 0.000742756 -0.0501376 0.0165481 0.000742756 -0.0251376 0.0265481 0.000742756 -0.0251376 0.0165481 0.0107428 -0.0341376 0.0295481 0.0534428 -0.0251376 0.0295481 0.0407428 -0.0341376 0.0295481 0.000742762 -0.0251376 0.0295481 0.0107428 -0.0411376 0.0295481 0.000742762 -0.0501376 0.0295481 0.0407428 -0.0411376 0.0295481 0.0534428 -0.0501376 0.0295481 0.0534428 -0.0251376 0.0265481 0.0534428 -0.0501376 0.0265481 0.000742762 -0.0251376 0.0265481 0.000742762 -0.0501376 0.0265481 0.0407428 -0.0411376 0.0335481 0.0407428 -0.0341376 0.0335481 0.0107428 -0.0341376 0.0335481 0.0107428 -0.0411376 0.0335481</float_array>
                    <technique_common>
                        <accessor count="360" source="#ID5" stride="3">
                            <param name="X" type="float"/>
                            <param name="Y" type="float"/>
                            <param name="Z" type="float"/>
                        </accessor>
                    </technique_common>
                </source>
                <source id="ID6">
                    <float_array id="ID7" count="273">0 0.705828 -0.708384 0 0.943271 -0.332025 0 0.993914 0.110157 0 0.847697 0.530481 0 0.533582 0.845748 0 0.113782 0.993506 0 -0.328537 0.944491 0 -0.7058 0.708412 0 -0.943282 0.331991 0 -0.993917 -0.110129 0 -0.847697 -0.530481 0 -0.533569 -0.845756 0 -0.113782 -0.993506 0 0.328537 -0.944491 -1 0 0 1 0 -0 0 0.293009 -0.95611 0 -0.224281 -0.974524 0 -0.681512 -0.731806 0 -0.956115 -0.292991 0 -0.974521 0.224295 0 -0.731836 0.68148 0 -0.292991 0.956115 0 0.224295 0.974521 0 0.681515 0.731804 0 0.95611 0.293009 0 0.97451 -0.224342 0 0.731806 -0.681512 0.258865 0.965914 -0 -0.258865 0.965914 -0 -0.706865 0.707348 -0 -0.966034 0.258414 -0 -0.966034 -0.258414 -0 -0.706986 -0.707227 -0 -0.25864 -0.965974 -0 0.25864 -0.965974 -0 0.706986 -0.707227 -0 0.966034 -0.258414 -0 0.373354 0.373609 0.849131 0.510227 0.136486 0.849141 -0.373354 0.373609 0.849131 -0.136736 0.51021 0.849111 0.136736 0.51021 0.849111 -0.373405 -0.373532 0.849142 -0.510227 -0.136486 0.849141 -0.510227 0.136486 0.849141 0.373405 -0.373532 0.849142 0.136611 -0.510218 0.849126 0 -1 -0 0 1 -0 -0 0 1 -0.707107 0.707107 -0 -0.965914 0.258865 -0 -0.965914 -0.258865 -0 -0.707155 -0.707058 -0 -0.258775 -0.965938 -0 0.258775 -0.965938 -0 0.707107 -0.707107 -0 0.965938 -0.258775 -0 0 0 -1 0 0.987686 -0.156451 0 0.891005 -0.453993 0 0.707107 -0.707107 0 0.454008 -0.890997 0 0.156418 -0.987691 0 -0.156412 -0.987692 0 -0.454025 -0.890989 0 -0.707087 -0.707127 0 -0.891005 -0.453993 0 -0.987692 -0.156412 0.965914 0.258865 -0 0.707107 0.707107 -0 -0.707203 -0.70701 -0 -0.258685 -0.965962 -0 0.258685 -0.965962 -0 0.707203 -0.70701 -0 0.965914 -0.258865 -0 -0.136611 -0.510218 0.849126 0.510227 -0.136486 0.849141 0.966034 0.258414 -0 0.706865 0.707348 -0 0.965938 0.258775 -0 0.707058 0.707155 -0 0 -0.984811 0.173631 0 -0.866029 0.499995 0 -0.642779 0.766051 0 -0.342003 0.939699 0 0.342003 0.939699 0 0.642797 0.766037 0 0.866029 0.499995 0 0.984805 0.173666</float_array>
                    <technique_common>
                        <accessor count="91" source="#ID7" stride="3">
                            <param name="X" type="float"/>
                            <param name="Y" type="float"/>
                            <param name="Z" type="float"/>
                        </accessor>
                    </technique_common>
                </source>
                <source id="ID8">
                    <float_array id="ID9" count="644">0.963357 0.463565 0.96481 0 0.96481 0.460536 0.888286 0.408227 0.963357 0 0.961425 0.46505 0.884087 0.409074 0.959401 0.464706 0.880655 0.405463 0.957686 0.462616 0.878563 0.398325 0.956611 0.459207 0.878124 0.389098 0.956383 0.455152 0.879399 0.379439 0.957043 0.45124 0.882205 0.371029 0.958468 0.44823 0.886102 0.365391 0.960382 0.446713 0.960382 0 0.962412 0.446999 0.962412 0 0.964153 0.449047 0.964153 0 0.965254 0.452463 0.965254 0 0.965489 0.456568 0.965489 0 0.88706 0.394607 0.885298 0.39427 0.88706 0 0.888286 0 0 0 0.887316 0.377834 0.887316 0 0.885515 0.379855 0.884186 0.383517 0.88366 0.387867 0.884062 0.391793 0.960903 0.455837 0.955091 0.451574 0.955374 0.449674 0.955308 0.453469 0.955966 0.454856 0.956892 0.455362 0.95784 0.454846 0.95784 0 0.958553 0.453444 0.958553 0 0.958839 0.451533 0.958839 0 0.95862 0.449628 0.95862 0 0.957955 0.448245 0.957955 0 0.957026 0.447751 0.957026 0 0.956081 0.448276 0.956959 0.45155 0.949302 0.45027 0.940808 0.451272 0.94919 0.450354 0.940936 0.451186 0.949414 0.450562 0.941063 0.451469 0.949496 0.45115 0.941156 0.452043 0.949526 0.451875 0.94119 0.452755 0.949496 0.452547 0.941156 0.453416 0.949414 0.452987 0.941063 0.453851 0.949302 0.453076 0.940936 0.453942 0.94919 0.452788 0.940808 0.453663 0.949107 0.452199 0.940714 0.453087 0.949076 0.451468 0.940679 0.452369 0.924419 0.428318 0.924243 0.428899 0.925218 0.430121 0.924179 0.429846 0.925069 0.429592 0.924896 0.428721 0.924658 0.428254 0.924896 0.432161 0.925069 0.431574 0.925132 0.430635 0.924243 0.4309 0.924419 0.431776 0.924658 0.432236 0.940852 0.418498 0.906507 0.37237 0.90211 0.374523 0.943972 0.417918 0.943972 0.458152 0.943972 0.45077 0.942038 0.450353 0.942038 0.425948 0.943972 0.425003 0.940852 0.458458 0.940852 0.451129 0.940309 0.448719 0.93626 0.45169 0.938947 0.446042 0.940309 0.428037 0.93626 0.426375 0.938947 0.431061 0.940852 0.425537 0.938077 0.43473 0.937778 0.438697 0.938077 0.44259 0.90211 0.434553 0.906507 0.433336 0.906507 0.382774 0.903769 0.384927 0.903769 0.421733 0.906507 0.421843 0.901355 0.419719 0.895823 0.425373 0.899475 0.416053 0.90211 0.423253 0.90211 0.384786 0.901355 0.388676 0.895823 0.38782 0.899475 0.393651 0.898285 0.41112 0.897878 0.405394 0.898285 0.399394 0.976789 0.414739 0.985469 0.456193 0.985469 0.414209 0.976789 0.456473 0.985469 0 0.976789 0 0.908569 0.38549 0.909241 0.384012 0.908906 0.383955 0.90866 0.384495 0.93768 0.419431 0.937846 0.416586 0.937968 0.417327 0.93768 0.416166 0.937846 0.419408 0.937968 0.418954 0.938012 0.418193 0.909903 0.386854 0.909815 0.387844 0.909815 0.385685 0.909573 0.384646 0.90866 0.386672 0.908906 0.38772 0.909241 0.388349 0.937513 0.416181 0.93739 0.416631 0.909573 0.388392 0.937345 0.417396 0.93739 0.41827 0.937513 0.419015 0.909241 0.431553 0.90866 0.432362 0.908569 0.433493 0.908906 0.431652 0.93768 0.454655 0.937846 0.45454 0.937968 0.453999 0.938012 0.453179 0.937968 0.452297 0.937846 0.451587 0.93768 0.451237 0.909903 0.434332 0.909815 0.435454 0.909815 0.4331 0.909573 0.432084 0.90866 0.43474 0.908906 0.435762 0.909241 0.436284 0.937513 0.451345 0.93739 0.451883 0.909573 0.43617 0.937345 0.452709 0.93739 0.453599 0.937513 0.454312 0.940658 0.415969 0.940615 0.416739 0.940776 0.415519 0.940936 0.415507 0.941095 0.415934 0.941211 0.416683 0.941254 0.417555 0.941211 0.418321 0.941095 0.418776 0.940936 0.418796 0.940776 0.418374 0.940658 0.41762 0.940658 0.451489 0.940615 0.452321 0.940776 0.450948 0.940936 0.450842 0.941095 0.451196 0.941211 0.451914 0.941254 0.452803 0.941211 0.453629 0.941095 0.454172 0.940936 0.454287 0.940776 0.453939 0.940658 0.453219 0.912904 0.382715 0.912816 0.38372 0.913144 0.382178 0.91347 0.382247 0.913794 0.382901 0.914029 0.383961 0.914115 0.385147 0.914029 0.386147 0.913794 0.386694 0.91347 0.386638 0.913144 0.38599 0.912904 0.38492 0.912904 0.431255 0.912816 0.432401 0.913144 0.43054 0.91347 0.430446 0.913794 0.430993 0.914029 0.43203 0.914115 0.433282 0.914029 0.434419 0.913794 0.43514 0.91347 0.43525 0.913144 0.434713 0.912904 0.433669 0.912948 0.43249 0.913018 0.431574 0.913209 0.431001 0.91347 0.430925 0.913729 0.431362 0.913918 0.432192 0.913987 0.433195 0.913918 0.434105 0.913729 0.434682 0.91347 0.434768 0.913209 0.434338 0.913018 0.433503 0.936438 0.426453 0.936438 0 0.936438 0.360349 0.976494 0.413715 0.948051 0.427341 0.949484 0.430559 0.946133 0.449741 0.976494 0.455931 0.948051 0.447249 0.946133 0.425417 0.949484 0.443592 0.95025 0.439222 0.95025 0.434689 0.976494 0 0.912406 0.415225 0.914521 0.409102 0.909611 0.382551 0.912406 0.384704 0.909611 0.419649 0.914521 0.389046 0.915659 0.395088 0.915659 0.402079 0.924419 0.378348 0.924243 0.378774 0.925218 0.380038 0.924179 0.379594 0.925069 0.379882 0.924896 0.378991 0.924658 0.378429 0.924896 0.382115 0.925069 0.381683 0.925132 0.380866 0.924243 0.380588 0.924419 0.381487 0.924658 0.382045 0.912948 0.383864 0.913018 0.38306 0.913209 0.38263 0.91347 0.382684 0.913729 0.383207 0.913918 0.384056 0.913987 0.385006 0.913918 0.385806 0.913729 0.386243 0.91347 0.386197 0.913209 0.385678 0.913018 0.384823 0.94919 0.41431 0.949107 0.414672 0.949712 0.415574 0.949076 0.415296 0.949496 0.415273 0.949414 0.414659 0.949302 0.414306 0.949414 0.416971 0.949496 0.416606 0.949526 0.415985 0.949107 0.416013 0.94919 0.416631 0.949302 0.416981 0.940679 0.416821 0.940714 0.416206 0.940808 0.415845 0.940936 0.415835 0.941063 0.416176 0.941156 0.416776 0.94119 0.417475 0.941156 0.418087 0.941063 0.418451 0.940936 0.418466 0.940808 0.418128 0.940714 0.417526 0.949107 0.450791 0.949712 0.451632 0.940714 0.451704</float_array>
                    <technique_common>
                        <accessor count="322" source="#ID9" stride="2">
                            <param name="S" type="float"/>
                            <param name="T" type="float"/>
                        </accessor>
                    </technique_common>
                </source>
                <vertices id="ID10">
                    <input semantic="POSITION" source="#ID4"/>
                </vertices>
                <triangles count="712" material="">
                    <input offset="0" semantic="VERTEX" source="#ID10"/>
                    <input offset="1" semantic="NORMAL" source="#ID6"/>
                    <input offset="2" semantic="TEXCOORD" source="#ID8" set="0"/>
                    <p>2 0 2 1 0 1 0 0 0 0 1 0 1 1 4 3 1 3 0 1 0 3 1 3 4 1 5 4 2 5 3 2 3 5 2 6 4 2 5 5 2 6 6 2 7 6 3 7 5 3 6 7 3 8 6 3 7 7 3 8 8 3 9 8 4 9 7 4 8 9 4 10 8 4 9 9 4 10 10 4 11 10 5 11 9 5 10 11 5 12 10 5 11 11 5 12 12 5 13 12 6 13 11 6 12 13 6 14 12 6 13 13 6 14 14 6 15 14 7 15 13 7 14 15 7 16 14 7 15 15 7 16 16 7 17 16 8 17 15 8 16 17 8 18 16 8 17 17 8 18 18 8 19 18 9 19 17 9 18 19 9 20 18 9 19 19 9 20 20 9 21 20 10 21 19 10 22 21 10 22 20 10 21 21 10 22 22 10 23 22 11 23 21 11 24 23 11 24 22 11 23 23 11 24 24 11 25 24 12 25 23 12 26 25 12 26 24 12 25 25 12 26 26 12 27 26 13 27 25 13 28 27 13 28 26 13 27 27 13 28 2 13 2 2 0 2 27 0 1 1 0 1 29 14 30 5 14 6 28 14 29 28 14 29 5 14 6 3 14 3 28 14 29 3 14 3 30 14 31 30 14 32 3 14 3 1 14 32 30 14 33 1 14 33 31 14 33 31 14 33 1 14 33 27 14 33 31 14 33 27 14 33 32 14 33 32 14 33 27 14 33 25 14 33 32 14 33 25 14 33 33 14 33 33 14 33 25 14 33 23 14 33 33 14 33 23 14 33 34 14 33 23 14 33 21 14 33 34 14 33 34 14 33 21 14 33 19 14 33 34 14 35 19 14 35 35 14 34 35 14 34 19 14 35 17 14 18 35 14 34 17 14 18 36 14 36 36 14 36 17 14 18 15 14 16 36 14 36 15 14 16 37 14 37 37 14 37 15 14 16 13 14 14 37 14 37 13 14 14 38 14 38 38 14 38 13 14 14 11 14 12 38 14 38 11 14 12 39 14 39 39 14 39 11 14 12 9 14 10 39 14 39 9 14 10 29 14 30 29 14 30 9 14 10 7 14 8 29 14 30 7 14 8 5 14 6 14 15 15 16 15 17 40 15 40 14 15 15 40 15 40 12 15 13 6 15 7 8 15 9 40 15 40 40 15 40 8 15 9 10 15 11 40 15 40 10 15 11 12 15 13 2 15 2 0 15 0 40 15 40 40 15 40 0 15 0 4 15 5 40 15 40 4 15 5 6 15 7 22 15 23 24 15 25 40 15 40 40 15 40 24 15 25 26 15 27 40 15 40 26 15 27 2 15 2 16 15 17 18 15 19 40 15 40 40 15 40 18 15 19 20 15 21 40 15 40 20 15 21 22 15 23 42 16 42 37 16 37 41 16 41 41 16 41 37 16 37 38 16 38 41 17 41 38 17 38 43 17 43 43 17 43 38 17 38 39 17 39 43 18 43 39 18 39 44 18 44 44 18 44 39 18 39 29 18 30 44 19 44 29 19 30 45 19 45 45 19 45 29 19 30 28 19 29 45 20 45 28 20 29 46 20 46 46 20 46 28 20 29 30 20 47 46 21 46 30 21 47 47 21 48 47 21 48 30 21 49 31 21 49 47 22 48 31 22 49 48 22 50 48 22 50 31 22 51 32 22 51 48 23 50 32 23 51 49 23 52 49 23 52 32 23 53 33 23 53 49 24 52 33 24 53 50 24 54 50 24 54 33 24 55 34 24 55 50 25 54 34 25 55 51 25 56 51 25 56 34 25 57 35 25 34 51 26 56 35 26 34 52 26 58 52 26 58 35 26 34 36 26 36 52 27 58 36 27 36 42 27 42 42 27 42 36 27 36 37 27 37 51 14 56 52 14 58 53 14 59 53 14 59 52 14 58 42 14 42 53 14 59 42 14 42 41 14 41 48 14 50 49 14 52 53 14 59 53 14 59 49 14 52 50 14 54 53 14 59 50 14 54 51 14 56 45 14 45 46 14 46 53 14 59 53 14 59 46 14 46 47 14 48 53 14 59 47 14 48 48 14 50 41 14 41 43 14 43 53 14 59 53 14 59 43 14 43 44 14 44 53 14 59 44 14 44 45 14 45 310 28 62 279 28 61 316 28 60 316 28 60 279 28 61 276 28 63 316 29 60 276 29 63 315 29 64 315 29 64 276 29 63 275 29 65 315 30 64 275 30 65 314 30 66 314 30 66 275 30 65 274 30 67 314 31 66 274 31 67 319 31 68 319 31 68 274 31 67 268 31 69 319 32 68 268 32 69 318 32 70 318 32 70 268 32 69 267 32 71 318 33 70 267 33 71 317 33 72 317 33 72 267 33 71 263 33 73 317 34 72 263 34 73 322 34 74 322 34 74 263 34 73 262 34 75 322 35 74 262 35 75 321 35 76 321 35 76 262 35 75 260 35 77 321 36 76 260 36 77 320 36 78 320 36 78 260 36 77 261 36 79 320 37 78 261 37 79 313 37 80 313 37 80 261 37 79 270 37 81 325 38 84 324 38 83 323 38 82 326 39 85 324 39 83 325 39 84 325 40 84 328 40 87 327 40 86 329 41 88 328 41 87 325 41 84 323 42 82 329 42 88 325 42 84 325 43 84 331 43 90 330 43 89 332 44 91 331 44 90 325 44 84 327 45 86 332 45 91 325 45 84 325 46 84 334 46 93 333 46 92 335 47 94 334 47 93 325 47 84 83 48 97 58 48 96 82 48 95 82 48 95 58 48 96 54 48 98 86 15 101 85 15 100 84 15 99 54 15 98 57 15 103 87 15 102 84 15 99 88 15 104 86 15 101 86 15 101 88 15 104 89 15 105 86 15 101 89 15 105 90 15 106 90 15 106 89 15 105 91 15 107 90 15 106 91 15 107 92 15 108 95 15 111 94 15 110 93 15 109 93 15 109 94 15 110 96 15 112 93 15 109 96 15 112 87 15 102 87 15 102 96 15 112 82 15 95 87 15 102 82 15 95 54 15 98 95 15 111 97 15 113 94 15 110 94 15 110 97 15 113 98 15 114 94 15 110 98 15 114 91 15 107 91 15 107 98 15 114 99 15 115 91 15 107 99 15 115 92 15 108 88 49 104 84 49 99 100 49 116 100 49 116 84 49 99 101 49 117 102 14 119 72 14 118 58 14 96 101 14 117 104 14 121 103 14 120 107 14 124 106 14 123 105 14 122 105 14 122 106 14 123 108 14 125 105 14 122 108 14 125 103 14 120 103 14 120 108 14 125 100 14 116 103 14 120 100 14 116 101 14 117 58 14 96 83 14 97 102 14 119 102 14 119 83 14 97 109 14 126 102 14 119 109 14 126 110 14 127 110 14 127 109 14 126 111 14 128 110 14 127 111 14 128 112 14 129 107 14 124 113 14 130 106 14 123 106 14 123 113 14 130 114 14 131 106 14 123 114 14 131 111 14 128 111 14 128 114 14 131 115 14 132 111 14 128 115 14 132 112 14 129 106 50 123 111 50 128 91 50 107 91 50 107 111 50 128 94 50 110 249 28 33 224 28 33 250 28 33 250 28 33 224 28 33 222 28 33 250 29 33 222 29 33 251 29 33 251 29 33 222 29 33 221 29 33 251 51 33 221 51 33 242 51 33 242 51 33 221 51 33 220 51 33 242 52 33 220 52 33 240 52 33 240 52 33 220 52 33 218 52 33 240 53 33 218 53 33 241 53 33 241 53 33 218 53 33 217 53 33 241 54 33 217 54 33 243 54 33 243 54 33 217 54 33 216 54 33 243 55 33 216 55 33 244 55 33 244 55 33 216 55 33 215 55 33 244 56 33 215 56 33 245 56 33 245 56 33 215 56 33 213 56 33 245 57 33 213 57 33 246 57 33 246 57 33 213 57 33 227 57 33 246 58 33 227 58 33 247 58 33 247 58 33 227 58 33 226 58 33 338 15 135 337 15 134 336 15 133 336 15 133 337 15 134 339 15 136 341 48 137 338 48 135 340 48 137 340 48 137 338 48 135 336 48 133 343 14 33 341 14 33 342 14 33 342 14 33 341 14 33 340 14 33 337 49 134 343 49 137 339 49 136 339 49 136 343 49 138 342 49 138 341 59 137 343 59 137 338 59 135 338 59 135 343 59 137 337 59 134 57 60 103 72 60 118 87 60 102 87 60 102 72 60 118 102 60 119 87 61 102 102 61 119 93 61 109 93 61 109 102 61 119 110 61 127 93 62 109 110 62 127 95 62 111 95 62 111 110 62 127 112 62 129 95 63 111 112 63 129 97 63 113 97 63 113 112 63 129 115 63 132 97 64 113 115 64 132 98 64 114 98 64 114 115 64 132 114 64 131 98 65 114 114 65 131 99 65 115 99 65 115 114 65 131 113 65 130 99 66 115 113 66 130 92 66 108 92 66 108 113 66 130 107 66 124 92 67 108 107 67 124 90 67 106 90 67 106 107 67 124 105 67 122 90 68 106 105 68 122 86 68 101 86 68 101 105 68 122 103 68 120 86 69 101 103 69 120 85 69 100 85 69 100 103 69 120 104 69 121 109 50 126 83 50 97 140 50 139 141 50 140 83 50 97 82 50 95 141 50 140 142 50 141 83 50 97 83 50 97 142 50 141 143 50 142 83 50 97 143 50 142 140 50 139 144 50 143 96 50 112 109 50 126 146 50 145 145 50 144 82 50 95 82 50 95 145 50 144 147 50 146 144 50 143 148 50 147 96 50 112 96 50 112 148 50 147 149 50 148 96 50 112 149 50 148 82 50 95 82 50 95 149 50 148 150 50 149 82 50 95 150 50 149 146 50 145 152 50 151 151 50 150 147 50 146 147 50 146 151 50 150 153 50 152 147 50 146 153 50 152 82 50 95 82 50 95 153 50 152 154 50 153 82 50 95 154 50 153 141 50 140 140 50 139 155 50 154 109 50 126 109 50 126 155 50 154 156 50 155 109 50 126 156 50 155 157 50 156 147 50 146 158 50 157 152 50 151 152 50 151 158 50 157 159 50 158 152 50 151 159 50 158 160 50 159 160 50 159 159 50 158 161 50 160 160 50 159 161 50 160 157 50 156 157 50 156 161 50 160 162 50 161 157 50 156 162 50 161 109 50 126 109 50 126 162 50 161 163 50 162 109 50 126 163 50 162 144 50 143 96 48 112 94 48 110 109 48 126 109 48 126 94 48 110 111 48 128 91 49 107 89 49 105 106 49 123 106 49 123 89 49 105 108 49 125 164 50 163 108 50 125 89 50 105 166 50 165 100 50 116 165 50 164 165 50 164 100 50 116 108 50 125 165 50 164 108 50 125 167 50 166 167 50 166 108 50 125 164 50 163 169 50 168 88 50 104 168 50 167 168 50 167 88 50 104 100 50 116 169 50 168 170 50 169 88 50 104 88 50 104 170 50 169 171 50 170 88 50 104 171 50 170 89 50 105 171 50 170 172 50 171 89 50 105 89 50 105 172 50 171 173 50 172 89 50 105 173 50 172 174 50 173 176 50 175 175 50 174 174 50 173 174 50 173 175 50 174 177 50 176 174 50 173 177 50 176 89 50 105 89 50 105 177 50 176 178 50 177 89 50 105 178 50 177 164 50 163 166 50 165 179 50 178 100 50 116 100 50 116 179 50 178 180 50 179 100 50 116 180 50 179 181 50 180 174 50 173 182 50 181 176 50 175 176 50 175 182 50 181 183 50 182 176 50 175 183 50 182 184 50 183 184 50 183 183 50 182 185 50 184 184 50 183 185 50 184 181 50 180 181 50 180 185 50 184 186 50 185 181 50 180 186 50 185 100 50 116 100 50 116 186 50 185 187 50 186 100 50 116 187 50 186 168 50 167 64 70 188 161 70 160 65 70 187 65 70 187 161 70 160 159 70 158 65 71 187 159 71 158 79 71 189 79 71 189 159 71 158 158 71 157 79 28 189 158 28 157 80 28 190 80 28 190 158 28 157 147 28 146 80 29 190 147 29 146 81 29 191 81 29 191 147 29 146 145 29 144 81 51 191 145 51 144 56 51 192 56 51 192 145 51 144 146 51 145 56 52 192 146 52 145 55 52 193 55 52 193 146 52 145 150 52 149 55 53 193 150 53 149 69 53 194 69 53 194 150 53 149 149 53 148 69 72 194 149 72 148 70 72 195 70 72 195 149 72 148 148 72 147 70 73 195 148 73 147 71 73 196 71 73 196 148 73 147 144 73 143 71 74 196 144 74 143 68 74 197 68 74 197 144 74 143 163 74 162 68 75 197 163 75 162 67 75 198 67 75 198 163 75 162 162 75 161 67 76 198 162 76 161 64 76 188 64 76 188 162 76 161 161 76 160 120 70 200 185 70 184 121 70 199 121 70 199 185 70 184 183 70 182 121 71 199 183 71 182 137 71 201 137 71 201 183 71 182 182 71 181 137 28 201 182 28 181 138 28 202 138 28 202 182 28 181 174 28 173 138 29 202 174 29 173 139 29 203 139 29 203 174 29 173 173 29 172 139 51 203 173 51 172 125 51 204 125 51 204 173 51 172 172 51 171 125 52 204 172 52 171 126 52 205 126 52 205 172 52 171 171 52 170 126 53 205 171 53 170 127 53 206 127 53 206 171 53 170 170 53 169 127 72 206 170 72 169 128 72 207 128 72 207 170 72 169 169 72 168 128 73 207 169 73 168 129 73 208 129 73 208 169 73 168 168 73 167 129 74 208 168 74 167 124 74 209 124 74 209 168 74 167 187 74 186 124 75 209 187 75 186 123 75 210 123 75 210 187 75 186 186 75 185 123 76 210 186 76 185 120 76 200 120 76 200 186 76 185 185 76 184 78 70 212 140 70 139 60 70 211 60 70 211 140 70 139 143 70 142 60 71 211 143 71 142 59 71 213 59 71 213 143 71 142 142 71 141 59 28 213 142 28 141 61 28 214 61 28 214 142 28 141 141 28 140 61 29 214 141 29 140 62 29 215 62 29 215 141 29 140 154 29 153 62 51 215 154 51 153 63 51 216 63 51 216 154 51 153 153 51 152 63 52 216 153 52 152 66 52 217 66 52 217 153 52 152 151 52 150 66 53 217 151 53 150 74 53 218 74 53 218 151 53 150 152 53 151 74 72 218 152 72 151 75 72 219 75 72 219 152 72 151 160 72 159 75 73 219 160 73 159 73 73 220 73 73 220 160 73 159 157 73 156 73 74 220 157 74 156 76 74 221 76 74 221 157 74 156 156 74 155 76 75 221 156 75 155 77 75 222 77 75 222 156 75 155 155 75 154 77 76 222 155 76 154 78 76 212 78 76 212 155 76 154 140 76 139 133 70 224 166 70 165 134 70 223 134 70 223 166 70 165 165 70 164 134 71 223 165 71 164 119 71 225 119 71 225 165 71 164 167 71 166 119 28 225 167 28 166 118 28 226 118 28 226 167 28 166 164 28 163 118 29 226 164 29 163 117 29 227 117 29 227 164 29 163 178 29 177 117 51 227 178 51 177 116 51 228 116 51 228 178 51 177 177 51 176 116 52 228 177 52 176 122 52 229 122 52 229 177 52 176 175 52 174 122 53 229 175 53 174 135 53 230 135 53 230 175 53 174 176 53 175 135 72 230 176 72 175 136 72 231 136 72 231 176 72 175 184 72 183 136 73 231 184 73 183 130 73 232 130 73 232 184 73 183 181 73 180 130 74 232 181 74 180 131 74 233 131 74 233 181 74 180 180 74 179 131 75 233 180 75 179 132 75 234 132 75 234 180 75 179 179 75 178 132 76 234 179 76 178 133 76 224 133 76 224 179 76 178 166 76 165 330 77 89 335 77 94 325 77 84 333 78 92 326 78 85 325 78 84 326 79 85 265 79 235 324 79 83 324 79 83 265 79 235 264 79 236 324 80 83 264 80 236 323 80 82 323 80 82 264 80 236 283 80 237 323 28 82 283 28 237 329 28 88 329 28 88 283 28 237 282 28 238 329 29 88 282 29 238 328 29 87 328 29 87 282 29 238 281 29 239 328 30 87 281 30 239 327 30 86 327 30 86 281 30 239 272 30 240 327 31 86 272 31 240 332 31 91 332 31 91 272 31 240 273 31 241 332 32 91 273 32 241 331 32 90 331 32 90 273 32 241 277 32 242 331 33 90 277 33 242 330 33 89 330 33 89 277 33 242 278 33 243 330 34 89 278 34 243 335 34 94 335 34 94 278 34 243 269 34 244 335 35 94 269 35 244 334 35 93 334 35 93 269 35 244 271 35 245 334 36 93 271 36 245 333 36 92 333 36 92 271 36 245 266 36 246 333 37 92 266 37 246 326 37 85 326 37 85 266 37 246 265 37 235 247 81 33 226 81 33 248 81 33 248 81 33 226 81 33 225 81 33 248 82 33 225 82 33 249 82 33 249 82 33 225 82 33 224 82 33 214 50 248 213 50 248 212 50 247 212 50 247 213 50 248 215 50 248 212 50 247 215 50 248 216 50 248 216 50 248 217 50 248 212 50 247 212 50 247 217 50 248 218 50 248 212 50 247 218 50 248 219 50 249 219 50 249 218 50 248 220 50 248 220 50 248 221 50 248 219 50 249 219 50 249 221 50 248 222 50 248 219 50 249 222 50 248 223 50 248 223 50 33 222 50 33 224 50 33 224 50 33 225 50 33 223 50 33 223 50 33 225 50 33 226 50 33 223 50 33 226 50 33 214 50 33 214 50 33 226 50 33 227 50 33 214 50 33 227 50 33 213 50 33 223 48 248 228 48 248 219 48 249 219 48 249 228 48 248 229 48 250 219 48 249 229 48 250 58 48 96 58 48 96 229 48 250 54 48 98 229 15 250 231 15 252 230 15 251 234 15 255 233 15 254 232 15 253 232 15 253 233 15 254 84 15 99 232 15 253 84 15 99 85 15 100 229 15 250 230 15 251 54 15 98 54 15 98 230 15 251 235 15 256 54 15 98 235 15 256 57 15 103 234 15 255 236 15 257 233 15 254 233 15 254 236 15 257 237 15 258 233 15 254 237 15 258 229 15 250 229 15 250 237 15 258 238 15 259 229 15 250 238 15 259 231 15 252 239 49 248 214 49 248 212 49 247 101 49 117 84 49 99 212 49 247 212 49 247 84 49 99 233 49 254 212 49 247 233 49 254 239 49 248 223 14 33 214 14 33 228 14 33 228 14 33 214 14 33 239 14 33 241 59 260 233 59 254 240 59 260 240 59 260 233 59 254 229 59 250 240 59 260 229 59 250 242 59 260 241 59 260 243 59 260 233 59 254 233 59 254 243 59 260 244 59 260 233 59 254 244 59 260 239 59 260 244 59 33 245 59 33 239 59 33 239 59 33 245 59 33 246 59 33 239 59 33 246 59 33 228 59 33 228 59 33 246 59 33 247 59 33 228 59 33 247 59 33 248 59 33 248 59 33 249 59 33 228 59 33 228 59 33 249 59 33 250 59 33 228 59 260 250 59 260 229 59 250 229 59 250 250 59 260 251 59 260 229 59 250 251 59 260 242 59 260 253 14 262 252 14 261 212 14 247 255 14 264 219 14 249 254 14 263 254 14 263 219 14 249 58 14 96 254 14 263 58 14 96 72 14 118 212 14 247 252 14 261 101 14 117 101 14 117 252 14 261 256 14 265 101 14 117 256 14 265 104 14 121 255 14 264 257 14 266 219 14 249 219 14 249 257 14 266 258 14 267 219 14 249 258 14 267 212 14 247 212 14 247 258 14 267 259 14 268 212 14 247 259 14 268 253 14 262 342 50 138 340 50 138 339 50 136 339 50 136 340 50 138 336 50 133 346 50 33 345 50 33 344 50 33 344 50 33 345 50 33 347 50 33 344 50 33 347 50 33 348 50 33 348 50 33 347 50 33 349 50 33 348 50 33 349 50 33 350 50 33 350 50 33 349 50 33 351 50 33 350 50 33 351 50 33 346 50 33 346 50 33 351 50 33 345 50 33 345 15 33 351 15 33 352 15 33 352 15 33 351 15 33 353 15 33 347 49 33 345 49 33 354 49 33 354 49 33 345 49 33 352 49 33 349 14 33 347 14 33 355 14 33 355 14 33 347 14 33 354 14 33 351 48 33 349 48 33 353 48 33 353 48 33 349 48 33 355 48 33 355 59 33 354 59 33 353 59 33 353 59 33 354 59 33 352 59 33 357 15 33 356 15 33 346 15 33 346 15 33 356 15 33 350 15 33 358 49 33 357 49 33 344 49 33 344 49 33 357 49 33 346 49 33 359 14 33 358 14 33 348 14 33 348 14 33 358 14 33 344 14 33 356 48 33 359 48 33 350 48 33 350 48 33 359 48 33 348 48 33 358 50 33 359 50 33 357 50 33 357 50 33 359 50 33 356 50 33 85 83 100 104 83 121 232 83 253 232 83 253 104 83 121 256 83 265 232 84 253 256 84 265 234 84 255 234 84 255 256 84 265 252 84 261 234 85 255 252 85 261 236 85 257 236 85 257 252 85 261 253 85 262 236 86 257 253 86 262 237 86 258 237 86 258 253 86 262 259 86 268 237 50 258 259 50 268 238 50 259 238 50 259 259 50 268 258 50 267 238 87 259 258 87 267 231 87 252 231 87 252 258 87 267 257 87 266 231 88 252 257 88 266 230 88 251 230 88 251 257 88 266 255 88 264 230 89 251 255 89 264 235 89 256 235 89 256 255 89 264 254 89 263 235 90 256 254 90 263 57 90 103 57 90 103 254 90 263 72 90 118 286 38 271 285 38 270 284 38 269 287 39 272 285 39 270 286 39 271 286 40 271 289 40 274 288 40 273 290 41 275 289 41 274 286 41 271 284 42 269 290 42 275 286 42 271 286 43 271 292 43 277 291 43 276 293 44 278 292 44 277 286 44 271 288 45 273 293 45 278 286 45 271 286 46 271 295 46 280 294 46 279 296 47 281 295 47 280 286 47 271 291 77 276 296 77 281 286 77 271 294 78 279 287 78 272 286 78 271 287 79 272 188 79 282 285 79 270 285 79 270 188 79 282 190 79 283 285 80 270 190 80 283 284 80 269 284 80 269 190 80 283 211 80 284 284 28 269 211 28 284 290 28 275 290 28 275 211 28 284 210 28 285 290 29 275 210 29 285 289 29 274 289 29 274 210 29 285 209 29 286 289 30 274 209 30 286 288 30 273 288 30 273 209 30 286 205 30 287 288 31 273 205 31 287 293 31 278 293 31 278 205 31 287 206 31 288 293 32 278 206 32 288 292 32 277 292 32 277 206 32 288 207 32 289 292 33 277 207 33 289 291 33 276 291 33 276 207 33 289 193 33 290 291 34 276 193 34 290 296 34 281 296 34 281 193 34 290 192 34 291 296 35 281 192 35 291 295 35 280 295 35 280 192 35 291 191 35 292 295 36 280 191 36 292 294 36 279 294 36 279 191 36 292 189 36 293 294 37 279 189 37 293 287 37 272 287 37 272 189 37 293 188 37 282 299 38 296 298 38 295 297 38 294 300 39 297 298 39 295 299 39 296 299 40 296 302 40 299 301 40 298 303 41 300 302 41 299 299 41 296 297 42 294 303 42 300 299 42 296 299 43 296 305 43 302 304 43 301 306 44 303 305 44 302 299 44 296 301 45 298 306 45 303 299 45 296 299 46 296 308 46 305 307 46 304 309 47 306 308 47 305 299 47 296 304 77 301 309 77 306 299 77 296 307 78 304 300 78 297 299 78 296 300 79 297 200 79 307 298 79 295 298 79 295 200 79 307 208 79 308 298 80 295 208 80 308 297 80 294 297 80 294 208 80 308 203 80 309 297 28 294 203 28 309 303 28 300 303 28 300 203 28 309 202 28 310 303 29 300 202 29 310 302 29 299 302 29 299 202 29 310 204 29 311 302 30 299 204 30 311 301 30 298 301 30 298 204 30 311 198 30 312 301 31 298 198 31 312 306 31 303 306 31 303 198 31 312 197 31 313 306 32 303 197 32 313 305 32 302 305 32 302 197 32 313 196 32 314 305 33 302 196 33 314 304 33 301 304 33 301 196 33 314 195 33 315 304 34 301 195 34 315 309 34 306 309 34 306 195 34 315 194 34 316 309 35 306 194 35 316 308 35 305 308 35 305 194 35 316 201 35 317 308 36 305 201 36 317 307 36 304 307 36 304 201 36 317 199 36 318 307 37 304 199 37 318 300 37 297 300 37 297 199 37 318 200 37 307 312 38 320 311 38 319 310 38 62 313 39 80 311 39 319 312 39 320 312 40 320 315 40 64 314 40 66 316 41 60 315 41 64 312 41 320 310 42 62 316 42 60 312 42 320 312 43 320 318 43 70 317 43 72 319 44 68 318 44 70 312 44 320 314 45 66 319 45 68 312 45 320 312 46 320 321 46 76 320 46 78 322 47 74 321 47 76 312 47 320 317 77 72 322 77 74 312 77 320 320 78 78 313 78 80 312 78 320 313 79 80 270 79 81 311 79 319 311 79 319 270 79 81 280 79 321 311 80 319 280 80 321 310 80 62 310 80 62 280 80 321 279 80 61 197 50 313 55 50 193 69 50 194 69 50 194 70 50 195 195 50 315 71 50 196 194 50 316 195 50 315 201 50 317 194 50 316 71 50 196 67 50 198 199 50 318 201 50 317 64 50 188 200 50 307 199 50 318 208 50 308 200 50 307 64 50 188 203 50 309 208 50 308 65 50 187 202 50 310 203 50 309 79 50 189 81 50 191 204 50 311 202 50 310 56 50 192 198 50 312 204 50 311 55 50 193 197 50 313 198 50 312 196 50 314 197 50 313 69 50 194 196 50 314 69 50 194 195 50 315 70 50 195 71 50 196 195 50 315 68 50 197 201 50 317 71 50 196 68 50 197 67 50 198 201 50 317 67 50 198 64 50 188 199 50 318 65 50 187 208 50 308 64 50 188 79 50 189 203 50 309 65 50 187 80 50 190 202 50 310 79 50 189 80 50 190 81 50 191 202 50 310 81 50 191 56 50 192 204 50 311 56 50 192 55 50 193 198 50 312 206 50 288 66 50 217 74 50 218 74 50 218 75 50 219 193 50 290 73 50 220 192 50 291 193 50 290 191 50 292 192 50 291 73 50 220 77 50 222 189 50 293 191 50 292 78 50 212 188 50 282 189 50 293 190 50 283 188 50 282 78 50 212 211 50 284 190 50 283 60 50 211 210 50 285 211 50 284 59 50 213 62 50 215 209 50 286 210 50 285 63 50 216 205 50 287 209 50 286 66 50 217 206 50 288 205 50 287 207 50 289 206 50 288 74 50 218 207 50 289 74 50 218 193 50 290 75 50 219 73 50 220 193 50 290 76 50 221 191 50 292 73 50 220 76 50 221 77 50 222 191 50 292 77 50 222 78 50 212 189 50 293 60 50 211 190 50 283 78 50 212 59 50 213 211 50 284 60 50 211 61 50 214 210 50 285 59 50 213 61 50 214 62 50 215 210 50 285 62 50 215 63 50 216 209 50 286 63 50 216 66 50 217 205 50 287 133 50 224 265 50 235 266 50 246 132 50 234 266 50 246 271 50 245 130 50 232 131 50 233 271 50 245 278 50 243 136 50 231 130 50 232 135 50 230 136 50 231 278 50 243 122 50 229 135 50 230 277 50 242 272 50 240 116 50 228 122 50 229 281 50 239 117 50 227 116 50 228 282 50 238 118 50 226 117 50 227 119 50 225 118 50 226 282 50 238 134 50 223 119 50 225 283 50 237 133 50 224 134 50 223 264 50 236 132 50 234 133 50 224 266 50 246 131 50 233 132 50 234 271 50 245 269 50 244 130 50 232 271 50 245 269 50 244 278 50 243 130 50 232 277 50 242 135 50 230 278 50 243 273 50 241 122 50 229 277 50 242 273 50 241 272 50 240 122 50 229 272 50 240 281 50 239 116 50 228 281 50 239 282 50 238 117 50 227 283 50 237 119 50 225 282 50 238 264 50 236 134 50 223 283 50 237 265 50 235 133 50 224 264 50 236 261 50 79 123 50 210 120 50 200 129 50 208 124 50 209 260 50 77 260 50 77 124 50 209 123 50 210 263 50 73 128 50 207 129 50 208 127 50 206 128 50 207 263 50 73 126 50 205 127 50 206 267 50 71 274 50 67 125 50 204 126 50 205 275 50 65 139 50 203 125 50 204 276 50 63 138 50 202 139 50 203 137 50 201 138 50 202 276 50 63 121 50 199 137 50 201 279 50 61 120 50 200 121 50 199 280 50 321 270 50 81 261 50 79 120 50 200 262 50 75 129 50 208 260 50 77 261 50 79 260 50 77 123 50 210 262 50 75 263 50 73 129 50 208 267 50 71 127 50 206 263 50 73 268 50 69 126 50 205 267 50 71 268 50 69 274 50 67 126 50 205 274 50 67 275 50 65 125 50 204 275 50 65 276 50 63 139 50 203 279 50 61 137 50 201 276 50 63 280 50 321 121 50 199 279 50 61 270 50 81 120 50 200 280 50 321</p>
                </triangles>
            </mesh>
        </geometry>
    </library_geometries>
    <library_visual_scenes>
        <visual_scene id="ID1">
            <node id="ID2" name="Object-1">
                <translate sid="translate">0 0 -0</translate>
                <rotate sid="rotateY">0 1 0 -0</rotate>
                <rotate sid="rotateX">1 0 0 0</rotate>
                <rotate sid="rotateZ">0 0 1 -0</rotate>
                <scale sid="scale">1 1 1</scale>
                <instance_geometry url="#ID3"/>
            </node>
        </visual_scene>
    </library_visual_scenes>
    <scene>
        <instance_visual_scene url="#ID1"/>
    </scene>
</COLLADA>
